1, 1, 1, -1, 260.00, 225.00, 12.00, 21, ABaraapp
2, 2, 2, -1, 298.00, 201.00, 11.00, 21, ABaraapa
3, 3, 3, -1, 289.00, 191.00, 19.00, 21, ABaraaap
4, 4, 4, -1, 317.00, 184.00, 14.00, 21, ABaraaaa
5, 5, 5, -1, 233.00, 182.00, 13.00, 21, ABarapap
6, 6, 6, -1, 267.00, 179.00, 12.00, 21, ABarapaa
7, 7, 7, -1, 197.00, 231.00, 13.00, 21, ABarappp
8, 8, 8, -1, 212.00, 198.00, 11.00, 21, ABarappa
9, 9, 9, -1, 225.00, 226.00, 21.00, 23, ABarpapp
10, 10, 10, -1, 256.00, 193.00, 20.00, 21, ABarpapa
11, 11, 11, -1, 247.00, 177.00, 30.00, 25, ABarpaap
12, 12, 12, -1, 265.00, 158.00, 21.00, 21, ABarpaaa
13, 13, 13, -1, 215.00, 174.00, 28.00, 21, ABarppaa
14, 14, 14, -1, 204.00, 220.00, 30.00, 21, ABarppap
15, 15, 15, -1, 160.00, 241.00, 28.00, 23, ABarpppp
16, 16, 16, -1, 190.00, 201.00, 24.00, 23, ABarpppa
17, 17, 17, -1, 258.00, 231.00, 26.00, 23, ABalappp
18, 18, 18, -1, 295.00, 207.00, 24.00, 21, ABalappa
19, 19, 19, -1, 276.00, 187.00, 28.00, 21, ABalapap
20, 20, 20, -1, 307.00, 163.00, 25.00, 21, ABalapaa
21, 21, 21, -1, 325.00, 222.00, 17.00, 21, ABalaapa
22, 22, 22, -1, 294.00, 228.00, 22.00, 19, ABalaapp
23, 23, 23, -1, 343.00, 194.00, 16.00, 21, ABalaaaa
24, 24, 24, -1, 320.00, 188.00, 22.00, 21, ABalaaap
25, 25, 25, -1, 174.00, 354.00, 23.00, 21, ABplpppp
26, 26, 26, -1, 214.00, 350.00, 25.00, 21, ABplpppa
27, 27, 27, -1, 217.00, 332.00, 29.00, 21, ABplppap
28, 28, 28, -1, 255.00, 326.00, 30.00, 21, ABplppaa
29, 29, 29, -1, 212.00, 341.00, 19.00, 23, ABplpapp
30, 30, 30, -1, 252.00, 336.00, 20.00, 21, ABplpapa
31, 31, 31, -1, 306.00, 305.00, 24.00, 23, ABplpaaa
32, 32, 32, -1, 273.00, 322.00, 26.00, 21, ABplpaap
33, 33, 33, -1, 284.00, 263.00, 32.00, 23, ABplaapp
34, 34, 34, -1, 334.00, 227.00, 30.00, 23, ABplaapa
35, 35, 35, -1, 353.00, 203.00, 24.00, 21, ABplaaaa
36, 36, 36, -1, 311.00, 201.00, 32.00, 21, ABplaaap
37, 37, 37, -1, 208.00, 306.00, 31.00, 21, ABplappp
38, 38, 38, -1, 254.00, 278.00, 30.00, 21, ABplappa
39, 39, 39, -1, 288.00, 219.00, 32.00, 21, ABplapaa
40, 40, 40, -1, 241.00, 232.00, 32.00, 23, ABplapap
41, 41, 41, -1, 129.00, 237.00, 12.00, 21, ABprpapa
42, 42, 42, -1, 110.00, 282.00, 13.00, 21, ABprpapp
43, 43, 43, -1, 141.00, 204.00, 12.00, 23, ABprpaaa
44, 44, 44, -1, 112.00, 223.00, 18.00, 23, ABprpaap
45, 45, 45, -1, 73.00, 287.00, 13.00, 23, ABprpppa
46, 46, 46, -1, 102.00, 316.00, 14.00, 21, ABprpppp
47, 47, 47, -1, 93.00, 240.00, 14.00, 21, ABprppaa
48, 48, 48, -1, 81.00, 265.00, 18.00, 21, ABprppap
49, 49, 49, -1, 183.00, 193.00, 13.00, 21, ABpraapa
50, 50, 50, -1, 156.00, 224.00, 19.00, 23, ABpraapp
51, 51, 51, -1, 187.00, 179.00, 21.00, 23, ABpraaap
52, 52, 52, -1, 222.00, 167.00, 19.00, 21, ABpraaaa
53, 53, 53, -1, 95.00, 240.00, 22.00, 23, ABprappa
54, 54, 54, -1, 95.00, 287.00, 24.00, 23, ABprappp
55, 55, 55, -1, 151.00, 189.00, 21.00, 21, ABprapaa
56, 56, 56, -1, 126.00, 224.00, 28.00, 23, ABprapap
57, 57, 57, -1, 150.00, 279.00, 10.00, 25, MSppp
58, 58, 58, -1, 175.00, 243.00, 11.00, 25, MSppa
59, 59, 59, -1, 209.00, 287.00, 12.00, 29, MSpap
60, 60, 60, -1, 247.00, 250.00, 14.00, 23, MSpaa
61, 61, 61, -1, 235.00, 318.00, 13.00, 25, MSapp
62, 62, 62, -1, 284.00, 307.00, 15.00, 25, MSapa
63, 63, 63, -1, 306.00, 247.00, 12.00, 25, MSaaa
64, 64, 64, -1, 271.00, 276.00, 12.00, 25, MSaap
65, 65, 65, -1, 234.00, 289.00, 21.00, 33, Eal
66, 66, 66, -1, 163.00, 306.00, 21.00, 27, Epl
67, 67, 67, -1, 140.00, 343.00, 28.00, 23, Capp
68, 68, 68, -1, 188.00, 337.00, 31.00, 23, Capa
69, 69, 69, -1, 202.00, 255.00, 30.00, 25, Caaa
70, 70, 70, -1, 159.00, 304.00, 31.00, 21, Caap
71, 71, 71, -1, 109.00, 314.00, 30.00, 27, Cpap
72, 72, 72, -1, 126.00, 256.00, 31.00, 29, Cpaa
73, 73, 73, -1, 74.00, 313.00, 22.00, 25, Cppa
74, 74, 74, -1, 101.00, 345.00, 24.00, 25, Cppp
75, 75, 75, -1, 147.00, 349.00, 18.00, 25, Da
76, 76, 76, -1, 128.00, 327.00, 15.00, 25, Dp
77, 77, 77, -1, 164.00, 313.00, 14.00, 27, P4
79, 79, 79, -1, 275.00, 285.00, 22.00, 23, ABalpppp
80, 80, 80, -1, 316.00, 270.00, 25.00, 23, ABalpppa
81, 81, 81, -1, 366.00, 243.00, 28.00, 21, ABalppaa
82, 82, 82, -1, 340.00, 268.00, 30.00, 23, ABalppap
83, 83, 83, -1, 356.00, 260.00, 16.00, 21, ABalpapa
84, 84, 84, -1, 315.00, 284.00, 16.00, 23, ABalpapp
85, 85, 85, -1, 357.00, 224.00, 14.00, 21, ABalpaaa
86, 86, 86, -1, 348.00, 243.00, 22.00, 23, ABalpaap
87, 87, 87, -1, 134.00, 276.00, 22.00, 31, Epr
88, 88, 88, -1, 190.00, 258.00, 19.00, 31, Ear
