1, 1, 1, -1, 271.00, 223.00, 11.00, 21, ABaraapp
2, 2, 2, -1, 309.00, 202.00, 11.00, 21, ABaraapa
3, 3, 3, -1, 287.00, 191.00, 19.00, 21, ABaraaap
4, 4, 4, -1, 327.00, 185.00, 14.00, 21, ABaraaaa
5, 5, 5, -1, 237.00, 182.00, 13.00, 23, ABarapap
6, 6, 6, -1, 273.00, 180.00, 11.00, 21, ABarapaa
7, 7, 7, -1, 197.00, 224.00, 14.00, 21, ABarappp
8, 8, 8, -1, 213.00, 194.00, 11.00, 21, ABarappa
9, 9, 9, -1, 225.00, 222.00, 21.00, 23, ABarpapp
10, 10, 10, -1, 257.00, 193.00, 20.00, 21, ABarpapa
11, 11, 11, -1, 246.00, 178.00, 29.00, 23, ABarpaap
12, 12, 12, -1, 265.00, 159.00, 20.00, 21, ABarpaaa
13, 13, 13, -1, 218.00, 177.00, 27.00, 23, ABarppaa
14, 14, 14, -1, 207.00, 221.00, 30.00, 23, ABarppap
15, 15, 15, -1, 155.00, 243.00, 27.00, 23, ABarpppp
16, 16, 16, -1, 188.00, 204.00, 24.00, 23, ABarpppa
17, 17, 17, -1, 257.00, 229.00, 26.00, 23, ABalappp
18, 18, 18, -1, 300.00, 208.00, 26.00, 21, ABalappa
19, 19, 19, -1, 277.00, 183.00, 29.00, 21, ABalapap
20, 20, 20, -1, 305.00, 163.00, 25.00, 21, ABalapaa
21, 21, 21, -1, 330.00, 222.00, 17.00, 21, ABalaapa
22, 22, 22, -1, 288.00, 228.00, 22.00, 23, ABalaapp
23, 23, 23, -1, 357.00, 202.00, 18.00, 21, ABalaaaa
24, 24, 24, -1, 320.00, 188.00, 23.00, 21, ABalaaap
25, 25, 25, -1, 175.00, 355.00, 24.00, 23, ABplpppp
26, 26, 26, -1, 211.00, 350.00, 26.00, 21, ABplpppa
27, 27, 27, -1, 219.00, 331.00, 31.00, 21, ABplppap
28, 28, 28, -1, 260.00, 321.00, 31.00, 23, ABplppaa
29, 29, 29, -1, 213.00, 339.00, 20.00, 23, ABplpapp
30, 30, 30, -1, 254.00, 335.00, 23.00, 23, ABplpapa
31, 31, 31, -1, 312.00, 302.00, 25.00, 23, ABplpaaa
32, 32, 32, -1, 277.00, 319.00, 27.00, 21, ABplpaap
33, 33, 33, -1, 280.00, 265.00, 33.00, 23, ABplaapp
34, 34, 34, -1, 333.00, 229.00, 31.00, 23, ABplaapa
35, 35, 35, -1, 350.00, 207.00, 25.00, 21, ABplaaaa
36, 36, 36, -1, 308.00, 197.00, 33.00, 23, ABplaaap
37, 37, 37, -1, 210.00, 303.00, 31.00, 21, ABplappp
38, 38, 38, -1, 248.00, 275.00, 30.00, 23, ABplappa
39, 39, 39, -1, 288.00, 218.00, 33.00, 21, ABplapaa
40, 40, 40, -1, 236.00, 232.00, 32.00, 23, ABplapap
41, 41, 41, -1, 131.00, 234.00, 11.00, 21, ABprpapa
42, 42, 42, -1, 108.00, 279.00, 12.00, 23, ABprpapp
43, 43, 43, -1, 142.00, 203.00, 12.00, 23, ABprpaaa
44, 44, 44, -1, 109.00, 224.00, 17.00, 21, ABprpaap
45, 45, 45, -1, 68.00, 293.00, 14.00, 23, ABprpppa
46, 46, 46, -1, 103.00, 319.00, 12.00, 23, ABprpppp
47, 47, 47, -1, 90.00, 243.00, 13.00, 21, ABprppaa
48, 48, 48, -1, 77.00, 274.00, 19.00, 21, ABprppap
49, 49, 49, -1, 177.00, 192.00, 13.00, 21, ABpraapa
50, 50, 50, -1, 150.00, 220.00, 20.00, 25, ABpraapp
51, 51, 51, -1, 180.00, 179.00, 20.00, 23, ABpraaap
52, 52, 52, -1, 221.00, 164.00, 18.00, 21, ABpraaaa
53, 53, 53, -1, 93.00, 244.00, 21.00, 23, ABprappa
54, 54, 54, -1, 90.00, 288.00, 24.00, 23, ABprappp
55, 55, 55, -1, 154.00, 190.00, 24.00, 21, ABprapaa
56, 56, 56, -1, 119.00, 226.00, 27.00, 23, ABprapap
57, 57, 57, -1, 154.00, 272.00, 11.00, 25, MSppp
58, 58, 58, -1, 180.00, 240.00, 10.00, 25, MSppa
59, 59, 59, -1, 214.00, 282.00, 12.00, 27, MSpap
60, 60, 60, -1, 251.00, 246.00, 14.00, 23, MSpaa
61, 61, 61, -1, 234.00, 321.00, 14.00, 27, MSapp
62, 62, 62, -1, 286.00, 307.00, 17.00, 27, MSapa
63, 63, 63, -1, 304.00, 250.00, 14.00, 25, MSaaa
64, 64, 64, -1, 269.00, 285.00, 11.00, 27, MSaap
65, 65, 65, -1, 234.00, 286.00, 21.00, 31, Eal
66, 66, 66, -1, 165.00, 305.00, 22.00, 27, Epl
67, 67, 67, -1, 139.00, 348.00, 28.00, 23, Capp
68, 68, 68, -1, 189.00, 331.00, 31.00, 21, Capa
69, 69, 69, -1, 194.00, 254.00, 29.00, 23, Caaa
70, 70, 70, -1, 159.00, 304.00, 32.00, 21, Caap
71, 71, 71, -1, 107.00, 315.00, 30.00, 25, Cpap
72, 72, 72, -1, 123.00, 255.00, 32.00, 27, Cpaa
73, 73, 73, -1, 80.00, 318.00, 23.00, 25, Cppa
74, 74, 74, -1, 104.00, 345.00, 23.00, 25, Cppp
75, 75, 75, -1, 153.00, 349.00, 17.00, 23, Da
76, 76, 76, -1, 131.00, 322.00, 15.00, 25, Dp
77, 77, 77, -1, 168.00, 306.00, 14.00, 25, P4
79, 79, 79, -1, 272.00, 280.00, 22.00, 23, ABalpppp
80, 80, 80, -1, 310.00, 263.00, 25.00, 23, ABalpppa
81, 81, 81, -1, 367.00, 246.00, 28.00, 21, ABalppaa
82, 82, 82, -1, 336.00, 269.00, 29.00, 23, ABalppap
83, 83, 83, -1, 355.00, 264.00, 17.00, 23, ABalpapa
84, 84, 84, -1, 315.00, 285.00, 17.00, 23, ABalpapp
85, 85, 85, -1, 355.00, 233.00, 14.00, 21, ABalpaaa
86, 86, 86, -1, 347.00, 242.00, 22.00, 21, ABalpaap
87, 87, 87, -1, 133.00, 278.00, 23.00, 29, Epr
88, 88, 88, -1, 190.00, 251.00, 18.00, 27, Ear
