2, 2, 2, -1, 310.00, 221.00, 24.00, 29, ABal
3, 3, 3, -1, 205.00, 220.00, 23.00, 29, ABpl
4, 3, 5, -1, 202.00, 217.00, 16.00, 29, ABpr
5, 4, 6, -1, 229.00, 320.00, 20.00, 45, EMS
6, 5, 7, -1, 111.00, 280.00, 20.00, 43, P2
8, 2, 1, -1, 297.00, 203.00, 18.00, 33, ABar
