1, 1, 1, -1, 277.00, 224.00, 11.00, 19, ABaraapp
2, 2, 2, -1, 318.00, 202.00, 13.00, 21, ABaraapa
3, 3, 3, -1, 290.00, 177.00, 15.00, 21, ABaraaap
4, 4, 4, -1, 323.00, 176.00, 18.00, 21, ABaraaaa
5, 5, 5, -1, 250.00, 184.00, 12.00, 15, ABarapapa
6, 5, 6, -1, 228.00, 208.00, 11.00, 15, ABarapapp
7, 6, 7, -1, 276.00, 193.00, 11.00, 23, ABarapaa
8, 7, 8, -1, 192.00, 197.00, 18.00, 21, ABarappp
9, 8, 9, -1, 218.00, 180.00, 13.00, 21, ABarappa
10, 9, 10, -1, 212.00, 195.00, 31.00, 25, ABarpapp
11, 10, 11, -1, 241.00, 174.00, 29.00, 21, ABarpapa
12, 11, 12, 13, 256.00, 233.00, 31.00, 19, ABarpaap
13, 12, 14, -1, 273.00, 195.00, 35.00, 25, ABarpaaa
14, 13, 15, -1, 237.00, 272.00, 31.00, 23, ABarppaa
15, 14, 16, -1, 205.00, 303.00, 27.00, 23, ABarppap
16, 15, 17, -1, 161.00, 257.00, 26.00, 25, ABarpppp
17, 16, 18, -1, 197.00, 232.00, 30.00, 23, ABarpppa
18, 17, 19, 20, 257.00, 209.00, 27.00, 21, ABalappp
19, 18, 21, -1, 290.00, 184.00, 30.00, 23, ABalappa
20, 19, 22, 23, 296.00, 216.00, 31.00, 17, ABalapap
21, 20, 24, -1, 331.00, 210.00, 30.00, 23, ABalapaa
22, 21, 25, -1, 285.00, 170.00, 23.00, 23, ABalaapa
23, 22, 26, -1, 253.00, 185.00, 22.00, 21, ABalaapp
24, 23, 27, -1, 342.00, 184.00, 25.00, 23, ABalaaaa
25, 24, 28, -1, 313.00, 178.00, 25.00, 21, ABalaaap
26, 25, 29, -1, 195.00, 329.00, 13.00, 15, ABplppppa
27, 26, 30, -1, 170.00, 343.00, 16.00, 17, ABplppppp
28, 27, 31, 32, 215.00, 339.00, 17.00, 21, ABplpppa
29, 28, 33, -1, 246.00, 321.00, 19.00, 23, ABplppap
30, 29, 34, -1, 281.00, 321.00, 18.00, 21, ABplppaa
31, 30, 35, -1, 256.00, 306.00, 12.00, 17, ABplpappa
32, 30, 36, -1, 228.00, 319.00, 12.00, 15, ABplpappp
33, 31, 37, -1, 287.00, 295.00, 14.00, 21, ABplpapa
34, 32, 38, -1, 321.00, 290.00, 20.00, 19, ABplpaaa
35, 33, 39, -1, 302.00, 304.00, 24.00, 27, ABplpaap
36, 34, 40, -1, 289.00, 289.00, 29.00, 19, ABplaappa
37, 35, 41, -1, 264.00, 317.00, 28.00, 21, ABplaappp
38, 36, 42, -1, 330.00, 263.00, 30.00, 17, ABplaapaa
39, 37, 43, -1, 309.00, 285.00, 31.00, 17, ABplaapap
40, 38, 44, -1, 321.00, 239.00, 32.00, 19, ABplaaaa
41, 39, 45, -1, 288.00, 252.00, 31.00, 21, ABplaaap
42, 40, 46, -1, 193.00, 346.00, 24.00, 21, ABplappp
43, 41, 47, -1, 234.00, 334.00, 26.00, 19, ABplappa
44, 42, 48, -1, 265.00, 289.00, 33.00, 21, ABplapaa
45, 43, 49, -1, 207.00, 329.00, 31.00, 21, ABplapapp
46, 44, 50, -1, 237.00, 314.00, 33.00, 19, ABplapapa
47, 45, 51, -1, 169.00, 205.00, 12.00, 23, ABprpapa
48, 46, 52, -1, 123.00, 233.00, 12.00, 17, ABprpappp
49, 46, 53, -1, 149.00, 220.00, 11.00, 17, ABprpappa
50, 47, 54, -1, 181.00, 179.00, 15.00, 21, ABprpaaa
51, 48, 55, -1, 158.00, 197.00, 22.00, 23, ABprpaap
52, 49, 56, -1, 96.00, 241.00, 16.00, 19, ABprpppa
53, 50, 57, 58, 87.00, 267.00, 13.00, 21, ABprpppp
54, 51, 59, -1, 131.00, 206.00, 18.00, 21, ABprppaa
55, 52, 60, -1, 123.00, 235.00, 17.00, 21, ABprppap
56, 53, 61, 62, 188.00, 186.00, 25.00, 21, ABpraapa
57, 54, 63, -1, 144.00, 217.00, 28.00, 19, ABpraappp
58, 55, 64, -1, 174.00, 199.00, 30.00, 19, ABpraappa
59, 56, 65, -1, 216.00, 175.00, 24.00, 25, ABpraaap
60, 57, 66, -1, 240.00, 162.00, 20.00, 23, ABpraaaa
61, 58, 67, -1, 111.00, 235.00, 24.00, 23, ABprappa
62, 59, 68, -1, 79.00, 273.00, 22.00, 25, ABprappp
63, 60, 69, -1, 162.00, 226.00, 33.00, 23, ABprapaa
64, 61, 70, -1, 113.00, 261.00, 30.00, 17, ABprapapp
65, 61, 71, -1, 129.00, 238.00, 31.00, 17, ABprapapa
66, 62, 72, -1, 160.00, 259.00, 15.00, 21, MSpppp
67, 63, 73, -1, 167.00, 232.00, 16.00, 19, MSpppa
68, 64, 74, -1, 221.00, 221.00, 16.00, 21, MSppaa
69, 65, 75, -1, 194.00, 230.00, 16.00, 21, MSppap
70, 66, 76, -1, 227.00, 244.00, 11.00, 23, MSpapa
71, 67, 77, -1, 171.00, 267.00, 10.00, 23, MSpapp
72, 68, 78, -1, 276.00, 205.00, 19.00, 23, MSpaaa
73, 69, 79, -1, 247.00, 226.00, 17.00, 21, MSpaap
74, 70, 80, -1, 208.00, 306.00, 17.00, 19, MSappp
75, 71, 81, -1, 226.00, 282.00, 14.00, 19, MSappa
76, 72, 82, -1, 253.00, 278.00, 17.00, 21, MSapap
77, 73, 83, -1, 282.00, 257.00, 19.00, 21, MSapaa
78, 74, 84, -1, 318.00, 209.00, 20.00, 23, MSaaaa
79, 75, 85, -1, 291.00, 232.00, 18.00, 23, MSaaap
80, 76, 86, -1, 224.00, 281.00, 9.00, 23, MSaapp
81, 77, 87, -1, 265.00, 262.00, 12.00, 23, MSaapa
82, 78, 88, -1, 209.00, 283.00, 21.00, 23, Ealp
83, 79, 89, -1, 135.00, 323.00, 21.00, 23, Eplp
84, 80, 90, -1, 132.00, 359.00, 22.00, 23, Capp
85, 81, 91, -1, 162.00, 362.00, 22.00, 23, Capa
86, 82, 92, -1, 156.00, 321.00, 30.00, 21, Caaap
87, 83, 93, -1, 189.00, 286.00, 32.00, 21, Caaaa
88, 84, 94, 95, 131.00, 346.00, 29.00, 21, Caap
89, 85, 96, -1, 92.00, 344.00, 23.00, 19, Cpapp
90, 86, 97, -1, 94.00, 313.00, 29.00, 21, Cpapa
91, 87, 98, -1, 152.00, 269.00, 31.00, 21, Cpaaa
92, 88, 99, -1, 115.00, 298.00, 30.00, 21, Cpaap
93, 89, 100, -1, 68.00, 299.00, 15.00, 25, Cppa
94, 90, 101, -1, 86.00, 323.00, 20.00, 25, Cppp
95, 91, 102, -1, 168.00, 315.00, 11.00, 21, Daa
96, 92, 103, -1, 132.00, 337.00, 14.00, 21, Dap
97, 93, 104, -1, 127.00, 274.00, 11.00, 21, Dpa
98, 94, 105, -1, 103.00, 321.00, 12.00, 21, Dpp
99, 95, 106, -1, 186.00, 285.00, 13.00, 21, Z3
100, 96, 107, -1, 142.00, 297.00, 14.00, 21, Z2
102, 98, 109, -1, 271.00, 282.00, 23.00, 19, ABalppppp
103, 99, 110, -1, 300.00, 261.00, 24.00, 17, ABalppppa
104, 100, 111, -1, 327.00, 248.00, 24.00, 25, ABalpppa
105, 101, 112, -1, 360.00, 262.00, 18.00, 21, ABalppaa
106, 102, 113, 114, 326.00, 259.00, 16.00, 21, ABalppap
107, 103, 115, 116, 351.00, 225.00, 15.00, 21, ABalpapa
108, 104, 117, -1, 329.00, 234.00, 12.00, 19, ABalpappa
109, 105, 118, -1, 296.00, 254.00, 12.00, 19, ABalpappp
110, 106, 119, -1, 353.00, 194.00, 19.00, 21, ABalpaaa
111, 107, 120, -1, 347.00, 233.00, 21.00, 17, ABalpaapp
112, 107, 121, -1, 352.00, 221.00, 23.00, 17, ABalpaapa
113, 108, 122, -1, 139.00, 262.00, 20.00, 23, Epra
114, 109, 123, -1, 218.00, 223.00, 22.00, 23, Eara
115, 110, 124, -1, 180.00, 256.00, 21.00, 23, Earp
116, 111, 125, -1, 245.00, 257.00, 23.00, 25, Eala
117, 112, 126, -1, 179.00, 293.00, 21.00, 25, Epla
118, 113, 127, -1, 106.00, 296.00, 22.00, 25, Eprp
