1, 1, 1, -1, 288.00, 219.00, 12.00, 15, ABaraappa
2, 1, 2, -1, 263.00, 236.00, 12.00, 15, ABaraappp
3, 2, 3, -1, 313.00, 216.00, 12.00, 15, ABaraapap
4, 2, 4, -1, 324.00, 201.00, 14.00, 15, ABaraapaa
5, 3, 5, 6, 289.00, 177.00, 16.00, 19, ABaraaap
6, 4, 7, -1, 322.00, 179.00, 17.00, 21, ABaraaaa
7, 5, 8, -1, 253.00, 178.00, 12.00, 19, ABarapapa
8, 6, 9, -1, 236.00, 214.00, 11.00, 17, ABarapapp
9, 7, 10, -1, 277.00, 196.00, 11.00, 21, ABarapaa
10, 8, 11, 12, 202.00, 202.00, 18.00, 21, ABarappp
11, 9, 13, -1, 224.00, 189.00, 12.00, 21, ABarappa
12, 10, 14, 15, 217.00, 198.00, 30.00, 17, ABarpapp
13, 11, 16, 17, 247.00, 177.00, 31.00, 17, ABarpapa
14, 12, 18, -1, 231.00, 248.00, 31.00, 17, ABarpaapp
15, 13, 19, -1, 258.00, 228.00, 33.00, 15, ABarpaapa
16, 14, 20, -1, 273.00, 194.00, 35.00, 25, ABarpaaa
17, 15, 21, -1, 232.00, 279.00, 31.00, 21, ABarppaa
18, 16, 22, -1, 204.00, 306.00, 27.00, 23, ABarppap
19, 17, 23, -1, 159.00, 261.00, 26.00, 19, ABarpppp
20, 18, 24, -1, 194.00, 232.00, 31.00, 23, ABarpppa
21, 19, 25, -1, 241.00, 215.00, 28.00, 15, ABalapppp
22, 20, 26, -1, 274.00, 204.00, 27.00, 15, ABalapppa
23, 21, 27, -1, 289.00, 183.00, 31.00, 23, ABalappa
24, 22, 28, -1, 287.00, 235.00, 31.00, 15, ABalapapp
25, 23, 29, -1, 304.00, 206.00, 32.00, 15, ABalapapa
26, 24, 30, 31, 326.00, 208.00, 30.00, 17, ABalapaa
27, 25, 32, -1, 286.00, 168.00, 23.00, 23, ABalaapa
28, 26, 33, -1, 251.00, 188.00, 23.00, 25, ABalaapp
29, 27, 34, -1, 343.00, 181.00, 25.00, 23, ABalaaaa
30, 28, 35, -1, 314.00, 185.00, 24.00, 21, ABalaaap
31, 29, 36, -1, 190.00, 323.00, 12.00, 19, ABplppppa
32, 30, 37, -1, 160.00, 343.00, 15.00, 19, ABplppppp
33, 31, 38, -1, 186.00, 346.00, 17.00, 15, ABplpppap
34, 32, 39, -1, 215.00, 339.00, 16.00, 15, ABplpppaa
35, 33, 40, 41, 239.00, 325.00, 17.00, 21, ABplppap
36, 34, 42, -1, 278.00, 320.00, 18.00, 21, ABplppaa
37, 35, 43, -1, 248.00, 307.00, 11.00, 17, ABplpappa
38, 36, 44, -1, 216.00, 318.00, 12.00, 17, ABplpappp
39, 37, 45, -1, 272.00, 306.00, 13.00, 15, ABplpapap
40, 37, 46, -1, 294.00, 289.00, 15.00, 17, ABplpapaa
41, 38, 47, 48, 320.00, 289.00, 19.00, 17, ABplpaaa
42, 39, 49, 50, 300.00, 306.00, 24.00, 19, ABplpaap
43, 40, 51, -1, 288.00, 292.00, 30.00, 21, ABplaappa
44, 41, 52, -1, 262.00, 318.00, 29.00, 21, ABplaappp
45, 42, 53, -1, 333.00, 267.00, 31.00, 19, ABplaapaa
46, 43, 54, -1, 311.00, 287.00, 32.00, 19, ABplaapap
47, 44, 55, -1, 320.00, 240.00, 33.00, 21, ABplaaaa
48, 45, 56, -1, 269.00, 259.00, 32.00, 17, ABplaaapp
49, 45, 57, -1, 285.00, 255.00, 32.00, 15, ABplaaapa
50, 46, 58, -1, 185.00, 346.00, 23.00, 21, ABplappp
51, 47, 59, -1, 247.00, 335.00, 25.00, 17, ABplappaa
52, 47, 60, -1, 215.00, 344.00, 24.00, 15, ABplappap
53, 48, 61, -1, 258.00, 294.00, 32.00, 19, ABplapaa
54, 49, 62, -1, 196.00, 336.00, 30.00, 17, ABplapapp
55, 50, 63, -1, 233.00, 323.00, 33.00, 21, ABplapapa
56, 51, 64, 65, 174.00, 208.00, 12.00, 19, ABprpapa
57, 52, 66, -1, 118.00, 231.00, 12.00, 17, ABprpappp
58, 53, 67, -1, 150.00, 224.00, 11.00, 17, ABprpappa
59, 54, 68, 69, 189.00, 182.00, 15.00, 21, ABprpaaa
60, 55, 70, 71, 162.00, 197.00, 21.00, 21, ABprpaap
61, 56, 72, -1, 97.00, 234.00, 17.00, 17, ABprpppaa
62, 56, 73, -1, 90.00, 249.00, 17.00, 17, ABprpppap
63, 57, 74, -1, 96.00, 254.00, 12.00, 17, ABprppppa
64, 58, 75, -1, 84.00, 282.00, 13.00, 15, ABprppppp
65, 59, 76, -1, 134.00, 205.00, 17.00, 21, ABprppaa
66, 60, 77, -1, 128.00, 237.00, 16.00, 23, ABprppap
67, 61, 78, -1, 199.00, 175.00, 23.00, 15, ABpraapaa
68, 62, 79, -1, 180.00, 191.00, 26.00, 15, ABpraapap
69, 63, 80, -1, 139.00, 212.00, 27.00, 19, ABpraappp
70, 64, 81, -1, 173.00, 200.00, 31.00, 19, ABpraappa
71, 65, 82, -1, 223.00, 169.00, 24.00, 21, ABpraaap
72, 66, 83, -1, 242.00, 166.00, 18.00, 23, ABpraaaa
73, 67, 84, -1, 115.00, 235.00, 23.00, 19, ABprappa
74, 68, 85, -1, 77.00, 271.00, 21.00, 23, ABprappp
75, 69, 86, 87, 161.00, 223.00, 33.00, 21, ABprapaa
76, 70, 88, -1, 109.00, 263.00, 31.00, 21, ABprapapp
77, 71, 89, -1, 126.00, 235.00, 33.00, 21, ABprapapa
78, 72, 90, -1, 166.00, 257.00, 16.00, 21, MSpppp
79, 73, 91, -1, 170.00, 229.00, 17.00, 21, MSpppa
80, 74, 92, -1, 227.00, 219.00, 17.00, 19, MSppaa
81, 75, 93, -1, 202.00, 236.00, 17.00, 23, MSppap
82, 76, 94, -1, 224.00, 247.00, 12.00, 23, MSpapa
83, 77, 95, -1, 169.00, 265.00, 10.00, 23, MSpapp
84, 78, 96, -1, 277.00, 207.00, 18.00, 23, MSpaaa
85, 79, 97, -1, 250.00, 230.00, 17.00, 21, MSpaap
86, 80, 98, -1, 207.00, 309.00, 18.00, 21, MSappp
87, 81, 99, -1, 225.00, 281.00, 14.00, 21, MSappa
88, 82, 100, -1, 256.00, 282.00, 17.00, 25, MSapap
89, 83, 101, -1, 288.00, 263.00, 19.00, 21, MSapaa
90, 84, 102, -1, 319.00, 214.00, 20.00, 25, MSaaaa
91, 85, 103, -1, 289.00, 237.00, 20.00, 21, MSaaap
92, 86, 104, -1, 217.00, 282.00, 10.00, 23, MSaapp
93, 87, 105, -1, 263.00, 266.00, 11.00, 23, MSaapa
94, 88, 106, -1, 213.00, 284.00, 20.00, 21, Ealp
95, 89, 107, -1, 136.00, 321.00, 21.00, 23, Eplp
96, 90, 108, -1, 125.00, 355.00, 19.00, 21, Capp
97, 91, 109, -1, 155.00, 362.00, 20.00, 23, Capa
98, 92, 110, -1, 155.00, 330.00, 30.00, 21, Caaap
99, 93, 111, -1, 187.00, 289.00, 33.00, 21, Caaaa
100, 94, 112, -1, 124.00, 356.00, 27.00, 17, Caapp
101, 95, 113, -1, 130.00, 338.00, 32.00, 17, Caapa
102, 96, 114, -1, 89.00, 350.00, 23.00, 19, Cpapp
103, 97, 115, -1, 93.00, 313.00, 29.00, 21, Cpapa
104, 98, 116, -1, 148.00, 268.00, 32.00, 21, Cpaaa
105, 99, 117, -1, 114.00, 298.00, 31.00, 21, Cpaap
106, 100, 118, -1, 66.00, 300.00, 17.00, 27, Cppa
107, 101, 119, -1, 88.00, 323.00, 19.00, 25, Cppp
108, 102, 120, -1, 165.00, 314.00, 13.00, 21, Daa
109, 103, 121, -1, 131.00, 333.00, 14.00, 23, Dap
110, 104, 122, -1, 124.00, 272.00, 11.00, 21, Dpa
111, 105, 123, -1, 105.00, 317.00, 12.00, 21, Dpp
112, 106, 124, -1, 185.00, 283.00, 14.00, 21, Z3
113, 107, 125, -1, 140.00, 289.00, 14.00, 21, Z2
115, 109, 127, -1, 266.00, 286.00, 24.00, 19, ABalppppp
116, 110, 128, -1, 301.00, 263.00, 25.00, 19, ABalppppa
117, 111, 129, 130, 325.00, 249.00, 25.00, 19, ABalpppa
118, 112, 131, -1, 362.00, 262.00, 18.00, 21, ABalppaa
119, 113, 132, -1, 310.00, 267.00, 14.00, 17, ABalppapp
120, 114, 133, -1, 336.00, 261.00, 18.00, 17, ABalppapa
121, 115, 134, -1, 346.00, 237.00, 13.00, 17, ABalpapap
122, 116, 135, -1, 359.00, 214.00, 17.00, 17, ABalpapaa
123, 117, 136, -1, 331.00, 242.00, 11.00, 21, ABalpappa
124, 118, 137, -1, 289.00, 256.00, 11.00, 19, ABalpappp
125, 119, 138, -1, 348.00, 191.00, 19.00, 23, ABalpaaa
126, 120, 139, -1, 342.00, 242.00, 21.00, 17, ABalpaapp
127, 121, 140, -1, 358.00, 216.00, 24.00, 17, ABalpaapa
128, 122, 141, -1, 139.00, 261.00, 21.00, 23, Epra
129, 123, 142, -1, 216.00, 223.00, 24.00, 25, Eara
130, 124, 143, -1, 178.00, 255.00, 22.00, 25, Earp
131, 125, 144, -1, 249.00, 254.00, 23.00, 25, Eala
132, 126, 145, -1, 179.00, 294.00, 21.00, 25, Epla
133, 127, 146, -1, 108.00, 292.00, 23.00, 25, Eprp
