1, 1, 1, -1, 286.00, 223.00, 12.00, 17, ABaraappa
2, 2, 2, -1, 255.00, 239.00, 12.00, 17, ABaraappp
3, 3, 3, -1, 312.00, 226.00, 12.00, 17, ABaraapap
4, 4, 4, -1, 332.00, 204.00, 13.00, 15, ABaraapaa
5, 5, 5, -1, 269.00, 175.00, 14.00, 15, ABaraaapp
6, 6, 6, -1, 302.00, 177.00, 16.00, 15, ABaraaapa
7, 7, 7, -1, 323.00, 183.00, 16.00, 21, ABaraaaa
8, 8, 8, -1, 251.00, 176.00, 11.00, 19, ABarapapa
9, 9, 9, -1, 230.00, 217.00, 11.00, 19, ABarapapp
10, 10, 10, -1, 287.00, 194.00, 12.00, 17, ABarapaaa
11, 10, 11, -1, 267.00, 203.00, 11.00, 15, ABarapaap
12, 11, 12, -1, 216.00, 190.00, 19.00, 15, ABarapppa
13, 12, 13, -1, 194.00, 210.00, 18.00, 15, ABarapppp
14, 13, 14, -1, 224.00, 189.00, 13.00, 21, ABarappa
15, 14, 15, -1, 200.00, 203.00, 32.00, 17, ABarpappp
16, 15, 16, -1, 231.00, 191.00, 32.00, 17, ABarpappa
17, 16, 17, -1, 277.00, 177.00, 30.00, 15, ABarpapaa
18, 17, 18, -1, 245.00, 174.00, 31.00, 15, ABarpapap
19, 18, 19, -1, 227.00, 248.00, 31.00, 19, ABarpaapp
20, 19, 20, -1, 262.00, 231.00, 32.00, 17, ABarpaapa
21, 20, 21, -1, 267.00, 202.00, 34.00, 27, ABarpaaa
22, 21, 22, -1, 227.00, 281.00, 29.00, 19, ABarppaa
23, 22, 23, -1, 199.00, 305.00, 26.00, 21, ABarppap
24, 23, 24, -1, 154.00, 260.00, 27.00, 23, ABarpppp
25, 24, 25, -1, 190.00, 239.00, 31.00, 19, ABarpppa
26, 25, 26, -1, 239.00, 218.00, 29.00, 17, ABalapppp
27, 26, 27, -1, 277.00, 211.00, 27.00, 17, ABalapppa
28, 27, 28, -1, 303.00, 192.00, 31.00, 23, ABalappa
29, 28, 29, -1, 290.00, 239.00, 30.00, 19, ABalapapp
30, 29, 30, -1, 313.00, 216.00, 33.00, 17, ABalapapa
31, 30, 31, -1, 333.00, 200.00, 28.00, 17, ABalapaaa
32, 31, 32, -1, 325.00, 223.00, 31.00, 17, ABalapaap
33, 32, 33, -1, 284.00, 167.00, 22.00, 23, ABalaapa
34, 33, 34, -1, 259.00, 187.00, 25.00, 19, ABalaapp
35, 34, 35, -1, 342.00, 176.00, 23.00, 21, ABalaaaa
36, 35, 36, -1, 313.00, 185.00, 24.00, 19, ABalaaap
37, 36, 37, -1, 186.00, 322.00, 11.00, 21, ABplppppa
38, 37, 38, -1, 153.00, 341.00, 13.00, 19, ABplppppp
39, 38, 39, -1, 178.00, 347.00, 17.00, 17, ABplpppap
40, 39, 40, -1, 205.00, 340.00, 15.00, 17, ABplpppaa
41, 40, 41, -1, 221.00, 332.00, 18.00, 15, ABplppapp
42, 41, 42, -1, 248.00, 324.00, 16.00, 15, ABplppapa
43, 42, 43, -1, 273.00, 321.00, 18.00, 19, ABplppaa
44, 43, 44, -1, 245.00, 308.00, 11.00, 19, ABplpappa
45, 44, 45, -1, 210.00, 319.00, 12.00, 19, ABplpappp
46, 45, 46, -1, 270.00, 305.00, 12.00, 19, ABplpapap
47, 46, 47, -1, 296.00, 289.00, 14.00, 17, ABplpapaa
48, 47, 48, -1, 334.00, 280.00, 18.00, 17, ABplpaaaa
49, 48, 49, -1, 311.00, 296.00, 19.00, 17, ABplpaaap
50, 49, 50, -1, 288.00, 318.00, 25.00, 15, ABplpaapp
51, 50, 51, -1, 313.00, 299.00, 24.00, 17, ABplpaapa
52, 51, 52, -1, 287.00, 304.00, 30.00, 19, ABplaappa
53, 52, 53, -1, 255.00, 318.00, 27.00, 23, ABplaappp
54, 53, 54, -1, 332.00, 278.00, 30.00, 19, ABplaapaa
55, 54, 55, -1, 301.00, 290.00, 33.00, 19, ABplaapap
56, 55, 56, -1, 322.00, 252.00, 32.00, 23, ABplaaaa
57, 56, 57, -1, 263.00, 266.00, 31.00, 19, ABplaaapp
58, 57, 58, -1, 291.00, 254.00, 33.00, 17, ABplaaapa
59, 58, 59, -1, 176.00, 347.00, 22.00, 21, ABplappp
60, 59, 60, -1, 241.00, 337.00, 25.00, 21, ABplappaa
61, 60, 61, -1, 208.00, 348.00, 23.00, 17, ABplappap
62, 61, 62, -1, 247.00, 307.00, 32.00, 15, ABplapaap
63, 61, 63, -1, 259.00, 292.00, 32.00, 15, ABplapaaa
64, 62, 64, -1, 189.00, 340.00, 30.00, 19, ABplapapp
65, 63, 65, -1, 230.00, 326.00, 33.00, 19, ABplapapa
66, 64, 66, -1, 194.00, 200.00, 11.00, 17, ABprpapaa
67, 65, 67, -1, 163.00, 208.00, 11.00, 17, ABprpapap
68, 66, 68, -1, 118.00, 231.00, 11.00, 19, ABprpappp
69, 67, 69, -1, 148.00, 226.00, 10.00, 19, ABprpappa
70, 68, 70, -1, 203.00, 172.00, 16.00, 17, ABprpaaaa
71, 69, 71, -1, 177.00, 186.00, 15.00, 17, ABprpaaap
72, 70, 72, -1, 181.00, 185.00, 20.00, 17, ABprpaapa
73, 71, 73, -1, 154.00, 199.00, 19.00, 17, ABprpaapp
74, 72, 74, -1, 96.00, 230.00, 17.00, 17, ABprpppaa
75, 73, 75, -1, 80.00, 258.00, 16.00, 19, ABprpppap
76, 74, 76, -1, 93.00, 251.00, 11.00, 19, ABprppppa
77, 75, 77, -1, 83.00, 281.00, 13.00, 17, ABprppppp
78, 76, 78, -1, 134.00, 204.00, 16.00, 23, ABprppaa
79, 77, 79, -1, 134.00, 235.00, 17.00, 23, ABprppap
80, 78, 80, -1, 203.00, 169.00, 23.00, 19, ABpraapaa
81, 79, 81, -1, 184.00, 189.00, 26.00, 19, ABpraapap
82, 80, 82, -1, 140.00, 213.00, 27.00, 21, ABpraappp
83, 81, 83, -1, 173.00, 196.00, 30.00, 19, ABpraappa
84, 82, 84, -1, 239.00, 166.00, 25.00, 15, ABpraaapa
85, 82, 85, -1, 218.00, 177.00, 27.00, 15, ABpraaapp
86, 83, 86, -1, 243.00, 166.00, 19.00, 25, ABpraaaa
87, 84, 87, -1, 105.00, 245.00, 23.00, 17, ABprappap
88, 84, 88, -1, 123.00, 227.00, 23.00, 17, ABprappaa
89, 85, 89, -1, 82.00, 270.00, 23.00, 23, ABprappp
90, 86, 90, -1, 171.00, 213.00, 33.00, 15, ABprapaaa
91, 87, 91, -1, 148.00, 231.00, 34.00, 17, ABprapaap
92, 88, 92, -1, 107.00, 266.00, 31.00, 21, ABprapapp
93, 89, 93, -1, 125.00, 236.00, 32.00, 21, ABprapapa
94, 90, 94, -1, 169.00, 251.00, 16.00, 21, MSpppp
95, 91, 95, -1, 172.00, 225.00, 17.00, 21, MSpppa
96, 92, 96, -1, 231.00, 212.00, 18.00, 21, MSppaa
97, 93, 97, -1, 206.00, 235.00, 18.00, 23, MSppap
98, 94, 98, -1, 216.00, 247.00, 11.00, 25, MSpapa
99, 95, 99, -1, 166.00, 261.00, 10.00, 25, MSpapp
100, 96, 100, -1, 275.00, 203.00, 19.00, 25, MSpaaa
101, 97, 101, -1, 252.00, 228.00, 17.00, 21, MSpaap
102, 98, 102, -1, 212.00, 306.00, 18.00, 21, MSappp
103, 99, 103, -1, 222.00, 278.00, 15.00, 21, MSappa
104, 100, 104, -1, 255.00, 283.00, 17.00, 21, MSapap
105, 101, 105, -1, 292.00, 266.00, 19.00, 25, MSapaa
106, 102, 106, -1, 314.00, 214.00, 20.00, 23, MSaaaa
107, 103, 107, -1, 287.00, 238.00, 20.00, 21, MSaaap
108, 104, 108, -1, 215.00, 282.00, 10.00, 23, MSaapp
109, 105, 109, -1, 259.00, 271.00, 11.00, 25, MSaapa
110, 106, 110, -1, 216.00, 285.00, 21.00, 23, Ealp
111, 107, 111, -1, 136.00, 318.00, 22.00, 23, Eplp
112, 108, 112, -1, 123.00, 350.00, 21.00, 25, Capp
113, 109, 113, -1, 148.00, 361.00, 19.00, 25, Capa
114, 110, 114, -1, 152.00, 339.00, 29.00, 21, Caaap
115, 111, 115, -1, 184.00, 293.00, 33.00, 23, Caaaa
116, 112, 116, -1, 119.00, 356.00, 26.00, 21, Caapp
117, 113, 117, -1, 130.00, 344.00, 32.00, 21, Caapa
118, 114, 118, -1, 85.00, 350.00, 22.00, 19, Cpapp
119, 115, 119, -1, 91.00, 310.00, 29.00, 23, Cpapa
120, 116, 120, -1, 149.00, 270.00, 33.00, 23, Cpaaa
121, 117, 121, -1, 114.00, 302.00, 31.00, 21, Cpaap
122, 118, 122, -1, 67.00, 299.00, 16.00, 25, Cppa
123, 119, 123, -1, 86.00, 313.00, 22.00, 27, Cppp
124, 120, 124, -1, 164.00, 309.00, 11.00, 21, Daa
125, 121, 125, -1, 127.00, 328.00, 14.00, 23, Dap
126, 122, 126, -1, 120.00, 267.00, 11.00, 21, Dpa
127, 123, 127, -1, 105.00, 310.00, 11.00, 21, Dpp
128, 124, 128, -1, 184.00, 281.00, 13.00, 21, Z3
129, 125, 129, -1, 141.00, 284.00, 13.00, 21, Z2
131, 127, 131, -1, 262.00, 286.00, 23.00, 19, ABalppppp
132, 128, 132, -1, 293.00, 266.00, 26.00, 19, ABalppppa
133, 129, 133, -1, 336.00, 239.00, 25.00, 15, ABalpppaa
134, 130, 134, -1, 313.00, 260.00, 25.00, 17, ABalpppap
135, 131, 135, -1, 363.00, 256.00, 19.00, 23, ABalppaa
136, 132, 136, -1, 310.00, 269.00, 13.00, 19, ABalppapp
137, 133, 137, -1, 335.00, 257.00, 18.00, 17, ABalppapa
138, 134, 138, -1, 347.00, 237.00, 13.00, 19, ABalpapap
139, 135, 139, -1, 360.00, 216.00, 16.00, 17, ABalpapaa
140, 136, 140, -1, 329.00, 246.00, 11.00, 19, ABalpappa
141, 137, 141, -1, 283.00, 254.00, 10.00, 21, ABalpappp
142, 138, 142, -1, 348.00, 194.00, 19.00, 21, ABalpaaa
143, 139, 143, -1, 342.00, 238.00, 20.00, 17, ABalpaapp
144, 140, 144, -1, 361.00, 214.00, 24.00, 19, ABalpaapa
145, 141, 145, -1, 144.00, 258.00, 21.00, 27, Epra
146, 142, 146, -1, 222.00, 227.00, 23.00, 25, Eara
147, 143, 147, -1, 180.00, 250.00, 22.00, 23, Earp
148, 144, 148, -1, 252.00, 253.00, 22.00, 25, Eala
149, 145, 149, -1, 179.00, 292.00, 20.00, 25, Epla
150, 146, 150, -1, 113.00, 289.00, 22.00, 25, Eprp
