1, 8, 1, -1, 285.00, 197.00, 15.00, 29, ABar
2, 2, 2, -1, 317.00, 215.00, 22.00, 29, ABal
3, 3, 3, -1, 198.00, 227.00, 26.00, 29, ABpl
5, 4, 5, -1, 175.00, 231.00, 16.00, 29, ABpr
6, 5, 6, -1, 242.00, 312.00, 18.00, 41, EMS
7, 6, 7, -1, 130.00, 314.00, 20.00, 41, P2
