1, 1, 1, -1, 279.00, 219.00, 12.00, 19, ABaraappa
2, 2, 2, -1, 255.00, 235.00, 11.00, 21, ABaraappp
3, 3, 3, -1, 303.00, 229.00, 13.00, 17, ABaraapap
4, 4, 4, -1, 335.00, 217.00, 12.00, 19, ABaraapaa
5, 5, 5, -1, 265.00, 177.00, 13.00, 19, ABaraaapp
6, 6, 6, -1, 300.00, 175.00, 14.00, 21, ABaraaapa
7, 7, 7, -1, 327.00, 187.00, 16.00, 17, ABaraaaaa
8, 7, 8, -1, 310.00, 203.00, 13.00, 15, ABaraaaap
9, 8, 9, -1, 242.00, 178.00, 11.00, 19, ABarapapa
10, 9, 10, -1, 230.00, 208.00, 11.00, 19, ABarapapp
11, 10, 11, -1, 290.00, 198.00, 10.00, 19, ABarapaaa
12, 11, 12, -1, 256.00, 201.00, 11.00, 17, ABarapaap
13, 12, 13, -1, 219.00, 177.00, 18.00, 17, ABarapppa
14, 13, 14, -1, 189.00, 203.00, 17.00, 19, ABarapppp
15, 14, 15, -1, 248.00, 188.00, 16.00, 19, ABarappaa
16, 15, 16, -1, 207.00, 204.00, 13.00, 19, ABarappap
17, 16, 17, -1, 212.00, 200.00, 32.00, 21, ABarpappp
18, 17, 18, -1, 246.00, 191.00, 33.00, 19, ABarpappa
19, 18, 19, -1, 293.00, 174.00, 31.00, 19, ABarpapaa
20, 19, 20, -1, 263.00, 174.00, 33.00, 19, ABarpapap
21, 20, 21, -1, 226.00, 248.00, 32.00, 19, ABarpaapp
22, 21, 22, -1, 269.00, 240.00, 33.00, 19, ABarpaapa
23, 22, 23, -1, 283.00, 212.00, 34.00, 17, ABarpaaa
24, 23, 24, -1, 243.00, 269.00, 32.00, 15, ABarppaaa
25, 24, 25, -1, 213.00, 283.00, 31.00, 17, ABarppaap
26, 25, 26, -1, 175.00, 326.00, 28.00, 21, ABarppapp
27, 26, 27, -1, 204.00, 302.00, 30.00, 19, ABarppapa
28, 27, 28, -1, 132.00, 274.00, 29.00, 17, ABarppppp
29, 28, 29, -1, 161.00, 246.00, 29.00, 17, ABarppppa
30, 29, 30, -1, 205.00, 223.00, 34.00, 19, ABarpppaa
31, 30, 31, -1, 179.00, 246.00, 32.00, 19, ABarpppap
32, 31, 32, -1, 243.00, 216.00, 30.00, 21, ABalapppp
33, 32, 33, -1, 278.00, 198.00, 28.00, 17, ABalapppa
34, 33, 34, -1, 326.00, 196.00, 28.00, 15, ABalappaa
35, 34, 35, -1, 300.00, 200.00, 31.00, 15, ABalappap
36, 35, 36, -1, 296.00, 247.00, 29.00, 19, ABalapapp
37, 36, 37, -1, 318.00, 223.00, 32.00, 19, ABalapapa
38, 37, 38, -1, 336.00, 214.00, 27.00, 19, ABalapaaa
39, 38, 39, -1, 333.00, 237.00, 30.00, 19, ABalapaap
40, 39, 40, 41, 306.00, 173.00, 21.00, 21, ABalaapa
41, 40, 42, -1, 284.00, 174.00, 25.00, 17, ABalaappa
42, 41, 43, -1, 251.00, 193.00, 28.00, 19, ABalaappp
43, 42, 44, -1, 346.00, 197.00, 25.00, 17, ABalaaaal
44, 43, 45, -1, 336.00, 183.00, 19.00, 19, ABalaaaar
45, 44, 46, -1, 303.00, 197.00, 25.00, 17, ABalaaapp
46, 45, 47, -1, 336.00, 175.00, 25.00, 19, ABalaaapa
47, 46, 48, -1, 190.00, 320.00, 12.00, 19, ABplppppa
48, 47, 49, -1, 161.00, 331.00, 11.00, 19, ABplppppp
49, 48, 50, -1, 171.00, 352.00, 16.00, 21, ABplpppap
50, 49, 51, -1, 200.00, 344.00, 15.00, 19, ABplpppaa
51, 50, 52, -1, 206.00, 334.00, 20.00, 19, ABplppapp
52, 51, 53, -1, 236.00, 332.00, 16.00, 17, ABplppapa
53, 52, 54, -1, 256.00, 331.00, 16.00, 19, ABplppaap
54, 53, 55, -1, 283.00, 318.00, 17.00, 19, ABplppaaa
55, 54, 56, -1, 241.00, 307.00, 11.00, 21, ABplpappa
56, 55, 57, -1, 214.00, 316.00, 11.00, 19, ABplpappp
57, 56, 58, -1, 264.00, 303.00, 12.00, 19, ABplpapap
58, 57, 59, -1, 292.00, 296.00, 11.00, 19, ABplpapaa
59, 58, 60, -1, 330.00, 289.00, 19.00, 19, ABplpaaaa
60, 59, 61, -1, 305.00, 306.00, 19.00, 17, ABplpaaap
61, 60, 62, -1, 285.00, 320.00, 23.00, 19, ABplpaapp
62, 61, 63, -1, 316.00, 302.00, 25.00, 19, ABplpaapa
63, 62, 64, -1, 281.00, 315.00, 30.00, 21, ABplaappa
64, 63, 65, -1, 251.00, 320.00, 25.00, 23, ABplaappp
65, 64, 66, -1, 333.00, 283.00, 29.00, 21, ABplaapaa
66, 65, 67, -1, 298.00, 291.00, 33.00, 21, ABplaapap
67, 66, 68, -1, 352.00, 257.00, 29.00, 19, ABplaaaaa
68, 67, 69, -1, 320.00, 260.00, 34.00, 19, ABplaaaap
69, 68, 70, -1, 267.00, 267.00, 34.00, 19, ABplaaapp
70, 69, 71, -1, 295.00, 249.00, 34.00, 17, ABplaaapa
71, 70, 72, -1, 149.00, 351.00, 21.00, 17, ABplapppp
72, 71, 73, -1, 183.00, 341.00, 21.00, 19, ABplapppa
73, 72, 74, -1, 239.00, 342.00, 24.00, 21, ABplappaa
74, 73, 75, -1, 200.00, 349.00, 24.00, 21, ABplappap
75, 74, 76, -1, 235.00, 324.00, 33.00, 19, ABplapaap
76, 75, 77, -1, 255.00, 299.00, 33.00, 19, ABplapaaa
77, 76, 78, -1, 169.00, 352.00, 26.00, 21, ABplapapp
78, 77, 79, -1, 213.00, 338.00, 30.00, 21, ABplapapa
79, 78, 80, -1, 188.00, 199.00, 10.00, 19, ABprpapaa
80, 79, 81, -1, 164.00, 198.00, 11.00, 17, ABprpapap
81, 80, 82, -1, 136.00, 228.00, 11.00, 19, ABprpappp
82, 81, 83, -1, 161.00, 221.00, 11.00, 19, ABprpappa
83, 82, 84, -1, 206.00, 172.00, 14.00, 19, ABprpaaaa
84, 83, 85, -1, 173.00, 183.00, 15.00, 17, ABprpaaap
85, 84, 86, -1, 194.00, 176.00, 22.00, 21, ABprpaapa
86, 85, 87, -1, 164.00, 191.00, 22.00, 21, ABprpaapp
87, 86, 88, -1, 107.00, 219.00, 18.00, 19, ABprpppaa
88, 87, 89, -1, 78.00, 252.00, 15.00, 19, ABprpppap
89, 88, 90, -1, 111.00, 232.00, 12.00, 19, ABprppppa
90, 89, 91, -1, 92.00, 262.00, 11.00, 19, ABprppppp
91, 90, 92, -1, 124.00, 208.00, 15.00, 15, ABprppaap
92, 91, 93, -1, 147.00, 197.00, 18.00, 17, ABprppaaa
93, 92, 94, -1, 147.00, 226.00, 17.00, 19, ABprppapa
94, 93, 95, -1, 116.00, 245.00, 17.00, 17, ABprppapp
95, 94, 96, -1, 221.00, 163.00, 24.00, 19, ABpraapaa
96, 95, 97, -1, 197.00, 180.00, 28.00, 19, ABpraapap
97, 96, 98, -1, 155.00, 204.00, 26.00, 21, ABpraappp
98, 97, 99, -1, 179.00, 193.00, 28.00, 21, ABpraappa
99, 98, 100, -1, 260.00, 161.00, 25.00, 17, ABpraaapa
100, 99, 101, -1, 227.00, 173.00, 29.00, 21, ABpraaapp
101, 100, 102, -1, 274.00, 170.00, 19.00, 17, ABpraaaaa
102, 101, 103, -1, 243.00, 170.00, 21.00, 17, ABpraaaap
103, 102, 104, -1, 100.00, 235.00, 24.00, 19, ABprappap
104, 103, 105, -1, 126.00, 212.00, 22.00, 19, ABprappaa
105, 104, 106, -1, 88.00, 250.00, 22.00, 19, ABprapppa
106, 105, 107, -1, 80.00, 281.00, 20.00, 17, ABprapppp
107, 106, 108, -1, 179.00, 207.00, 34.00, 19, ABprapaaa
108, 107, 109, -1, 146.00, 220.00, 34.00, 19, ABprapaap
109, 108, 110, -1, 101.00, 256.00, 30.00, 19, ABprapapp
110, 109, 111, -1, 124.00, 227.00, 31.00, 19, ABprapapa
111, 110, 112, -1, 169.00, 236.00, 19.00, 23, MSpppp
112, 111, 113, -1, 190.00, 226.00, 19.00, 19, MSpppa
113, 112, 114, -1, 237.00, 199.00, 22.00, 23, MSppaa
114, 113, 115, -1, 206.00, 209.00, 22.00, 21, MSppap
115, 114, 116, -1, 198.00, 255.00, 13.00, 15, MSpapap
116, 115, 117, -1, 228.00, 237.00, 13.00, 17, MSpapaa
117, 116, 118, -1, 170.00, 256.00, 11.00, 23, MSpapp
118, 117, 119, -1, 264.00, 209.00, 21.00, 15, MSpaaap
119, 118, 120, -1, 294.00, 199.00, 18.00, 15, MSpaaaa
120, 119, 121, -1, 242.00, 229.00, 19.00, 21, MSpaap
121, 120, 122, -1, 214.00, 307.00, 18.00, 21, MSappp
122, 121, 123, -1, 219.00, 276.00, 16.00, 19, MSappa
123, 122, 124, -1, 259.00, 293.00, 18.00, 21, MSapap
124, 123, 125, -1, 294.00, 265.00, 21.00, 25, MSapaa
125, 124, 126, -1, 323.00, 207.00, 19.00, 17, MSaaaaa
126, 124, 127, -1, 306.00, 227.00, 24.00, 15, MSaaaap
127, 125, 128, -1, 282.00, 241.00, 19.00, 20, MSaaap
128, 126, 129, -1, 208.00, 282.00, 11.00, 23, MSaapp
129, 127, 130, -1, 267.00, 263.00, 14.00, 15, MSaapaa
130, 127, 131, -1, 237.00, 275.00, 13.00, 15, MSaapap
131, 128, 132, -1, 221.00, 289.00, 22.00, 25, Ealp
132, 129, 133, -1, 149.00, 310.00, 23.00, 27, Eplp
133, 130, 134, -1, 119.00, 336.00, 20.00, 21, Capp
134, 131, 135, -1, 130.00, 342.00, 13.00, 23, Capa
135, 132, 136, -1, 138.00, 332.00, 29.00, 19, Caaap
136, 133, 137, -1, 176.00, 301.00, 32.00, 23, Caaaa
137, 134, 138, -1, 105.00, 364.00, 23.00, 19, Caapp
138, 135, 139, -1, 124.00, 353.00, 30.00, 19, Caapa
139, 136, 140, -1, 82.00, 346.00, 21.00, 19, Cpapp
140, 137, 141, -1, 97.00, 322.00, 29.00, 21, Cpapa
141, 138, 142, -1, 147.00, 273.00, 34.00, 25, Cpaaa
142, 139, 143, -1, 110.00, 298.00, 32.00, 23, Cpaap
143, 140, 144, -1, 80.00, 294.00, 13.00, 23, Cppa
144, 141, 145, -1, 82.00, 324.00, 16.00, 23, Cpppp
145, 142, 146, -1, 88.00, 305.00, 23.00, 21, Cpppa
146, 143, 147, -1, 172.00, 303.00, 13.00, 21, Daa
147, 144, 148, -1, 138.00, 312.00, 14.00, 21, Dap
148, 145, 149, -1, 134.00, 260.00, 12.00, 21, Dpa
149, 146, 150, -1, 113.00, 293.00, 15.00, 23, Dpp
150, 147, 151, -1, 186.00, 275.00, 16.00, 21, Z3
151, 148, 152, -1, 151.00, 277.00, 17.00, 21, Z2
153, 150, 154, -1, 266.00, 291.00, 25.00, 19, ABalppppp
154, 151, 155, -1, 294.00, 270.00, 27.00, 19, ABalppppa
155, 152, 156, -1, 337.00, 244.00, 24.00, 19, ABalpppaa
156, 153, 157, -1, 320.00, 270.00, 25.00, 19, ABalpppap
157, 154, 158, -1, 360.00, 247.00, 23.00, 15, ABalppaaa
158, 155, 159, -1, 347.00, 273.00, 20.00, 17, ABalppaap
159, 156, 160, -1, 294.00, 277.00, 15.00, 21, ABalppapp
160, 157, 161, -1, 330.00, 265.00, 17.00, 19, ABalppapa
161, 158, 162, -1, 330.00, 250.00, 12.00, 19, ABalpapap
162, 159, 163, -1, 358.00, 246.00, 14.00, 19, ABalpapaa
163, 160, 164, -1, 313.00, 261.00, 11.00, 21, ABalpappa
164, 161, 165, -1, 283.00, 249.00, 10.00, 21, ABalpappp
165, 162, 166, -1, 359.00, 226.00, 15.00, 17, ABalpaaap
166, 163, 167, -1, 347.00, 195.00, 16.00, 17, ABalpaaaa
167, 164, 168, -1, 325.00, 243.00, 18.00, 19, ABalpaapp
168, 165, 169, -1, 362.00, 215.00, 21.00, 21, ABalpaapa
169, 166, 170, -1, 145.00, 247.00, 23.00, 27, Epra
170, 167, 171, -1, 227.00, 235.00, 25.00, 25, Eara
171, 168, 172, -1, 189.00, 250.00, 24.00, 25, Earp
172, 169, 173, -1, 250.00, 263.00, 23.00, 25, Eala
173, 170, 174, -1, 185.00, 290.00, 24.00, 27, Epla
174, 171, 175, -1, 118.00, 277.00, 21.00, 27, Eprp
