1, 1, 1, -1, 278.00, 213.00, 13.00, 19, ABaraappa
2, 2, 2, -1, 254.00, 223.00, 14.00, 17, ABaraappp
3, 3, 3, -1, 301.00, 223.00, 14.00, 19, ABaraapap
4, 4, 4, -1, 323.00, 211.00, 13.00, 19, ABaraapaa
5, 5, 5, -1, 271.00, 175.00, 14.00, 19, ABaraaapp
6, 6, 6, -1, 301.00, 175.00, 15.00, 19, ABaraaapa
7, 7, 7, -1, 331.00, 186.00, 17.00, 17, ABaraaaaa
8, 8, 8, -1, 310.00, 193.00, 12.00, 17, ABaraaaap
9, 9, 9, -1, 238.00, 186.00, 11.00, 19, ABarapapa
10, 10, 10, -1, 231.00, 220.00, 11.00, 21, ABarapapp
11, 11, 11, -1, 290.00, 190.00, 11.00, 17, ABarapaaa
12, 12, 12, -1, 261.00, 192.00, 11.00, 19, ABarapaap
13, 13, 13, -1, 214.00, 182.00, 16.00, 19, ABarapppa
14, 14, 14, -1, 189.00, 194.00, 15.00, 19, ABarapppp
15, 15, 15, -1, 247.00, 187.00, 15.00, 19, ABarappaa
16, 16, 16, -1, 213.00, 206.00, 13.00, 19, ABarappap
17, 17, 17, -1, 216.00, 210.00, 30.00, 21, ABarpappp
18, 18, 18, -1, 235.00, 197.00, 33.00, 19, ABarpappa
19, 19, 19, -1, 284.00, 188.00, 35.00, 21, ABarpapaa
20, 20, 20, -1, 256.00, 188.00, 34.00, 21, ABarpapap
21, 21, 21, -1, 218.00, 256.00, 32.00, 19, ABarpaapp
22, 22, 22, -1, 255.00, 237.00, 31.00, 19, ABarpaapa
23, 23, 23, -1, 305.00, 219.00, 34.00, 19, ABarpaaaa
24, 24, 24, -1, 272.00, 226.00, 33.00, 17, ABarpaaap
25, 25, 25, -1, 237.00, 283.00, 33.00, 19, ABarppaaa
26, 26, 26, -1, 211.00, 294.00, 32.00, 19, ABarppaap
27, 27, 27, -1, 162.00, 341.00, 28.00, 21, ABarppapp
28, 28, 28, -1, 196.00, 317.00, 30.00, 19, ABarppapa
29, 29, 29, -1, 125.00, 278.00, 30.00, 19, ABarppppp
30, 30, 30, -1, 159.00, 247.00, 29.00, 19, ABarppppa
31, 31, 31, -1, 203.00, 222.00, 34.00, 19, ABarpppaa
32, 32, 32, -1, 179.00, 237.00, 33.00, 19, ABarpppap
33, 33, 33, -1, 253.00, 207.00, 28.00, 19, ABalapppp
34, 34, 34, -1, 290.00, 201.00, 31.00, 19, ABalapppa
35, 35, 35, -1, 334.00, 212.00, 29.00, 19, ABalappaa
36, 36, 36, -1, 313.00, 196.00, 29.00, 19, ABalappap
37, 37, 37, -1, 291.00, 264.00, 28.00, 19, ABalapapp
38, 38, 38, -1, 316.00, 242.00, 31.00, 19, ABalapapa
39, 39, 39, -1, 350.00, 230.00, 27.00, 19, ABalapaaa
40, 40, 40, -1, 331.00, 242.00, 28.00, 19, ABalapaap
41, 41, 41, -1, 331.00, 173.00, 21.00, 19, ABalaapaa
42, 42, 42, -1, 298.00, 162.00, 23.00, 19, ABalaapap
43, 43, 43, -1, 293.00, 179.00, 26.00, 19, ABalaappa
44, 44, 44, -1, 268.00, 174.00, 29.00, 21, ABalaappp
45, 45, 45, -1, 360.00, 218.00, 23.00, 19, ABalaaaal
46, 46, 46, -1, 351.00, 190.00, 19.00, 19, ABalaaaar
47, 47, 47, -1, 329.00, 180.00, 26.00, 19, ABalaaapp
48, 48, 48, -1, 350.00, 196.00, 25.00, 19, ABalaaapa
49, 49, 49, -1, 195.00, 317.00, 12.00, 19, ABplppppa
50, 50, 50, -1, 165.00, 329.00, 11.00, 19, ABplppppp
51, 51, 51, -1, 180.00, 343.00, 14.00, 19, ABplpppap
52, 52, 52, -1, 210.00, 338.00, 14.00, 19, ABplpppaa
53, 53, 53, -1, 209.00, 329.00, 18.00, 19, ABplppapp
54, 54, 54, -1, 237.00, 330.00, 17.00, 19, ABplppapa
55, 55, 55, -1, 244.00, 326.00, 14.00, 19, ABplppaap
56, 56, 56, -1, 270.00, 324.00, 16.00, 19, ABplppaaa
57, 57, 57, -1, 241.00, 294.00, 11.00, 21, ABplpappa
58, 58, 58, -1, 215.00, 299.00, 10.00, 19, ABplpappp
59, 59, 59, -1, 264.00, 302.00, 13.00, 19, ABplpapap
60, 60, 60, -1, 291.00, 295.00, 11.00, 19, ABplpapaa
61, 61, 61, -1, 319.00, 290.00, 18.00, 19, ABplpaaaa
62, 62, 62, -1, 295.00, 311.00, 17.00, 19, ABplpaaap
63, 63, 63, -1, 268.00, 322.00, 22.00, 19, ABplpaapp
64, 64, 64, -1, 305.00, 309.00, 22.00, 19, ABplpaapa
65, 65, 65, -1, 267.00, 322.00, 29.00, 19, ABplaappa
66, 66, 66, -1, 246.00, 329.00, 26.00, 25, ABplaappp
67, 67, 67, -1, 315.00, 288.00, 32.00, 21, ABplaapaa
68, 68, 68, -1, 277.00, 295.00, 32.00, 17, ABplaapap
69, 69, 69, -1, 330.00, 262.00, 33.00, 19, ABplaaaaa
70, 70, 70, -1, 301.00, 260.00, 34.00, 19, ABplaaaap
71, 71, 71, -1, 254.00, 265.00, 33.00, 19, ABplaaapp
72, 72, 72, -1, 280.00, 250.00, 34.00, 17, ABplaaapa
73, 73, 73, -1, 157.00, 353.00, 18.00, 19, ABplapppp
74, 74, 74, -1, 182.00, 346.00, 19.00, 19, ABplapppa
75, 75, 75, -1, 224.00, 343.00, 23.00, 19, ABplappaa
76, 76, 76, -1, 198.00, 348.00, 23.00, 21, ABplappap
77, 77, 77, -1, 223.00, 327.00, 32.00, 19, ABplapaap
78, 78, 78, -1, 243.00, 309.00, 33.00, 19, ABplapaaa
79, 79, 79, -1, 172.00, 361.00, 24.00, 21, ABplapapp
80, 80, 80, -1, 200.00, 347.00, 30.00, 21, ABplapapa
81, 81, 81, -1, 191.00, 197.00, 10.00, 21, ABprpapaa
82, 82, 82, -1, 167.00, 195.00, 13.00, 19, ABprpapap
83, 83, 83, -1, 153.00, 224.00, 11.00, 19, ABprpappp
84, 84, 84, -1, 177.00, 219.00, 10.00, 17, ABprpappa
85, 85, 85, -1, 213.00, 166.00, 18.00, 19, ABprpaaaa
86, 86, 86, -1, 180.00, 176.00, 18.00, 19, ABprpaaap
87, 87, 87, -1, 198.00, 181.00, 23.00, 21, ABprpaapa
88, 88, 88, -1, 171.00, 196.00, 21.00, 17, ABprpaapp
89, 89, 89, -1, 113.00, 217.00, 16.00, 19, ABprpppaa
90, 90, 90, -1, 92.00, 240.00, 15.00, 19, ABprpppap
91, 91, 91, -1, 130.00, 232.00, 13.00, 19, ABprppppa
92, 92, 92, -1, 103.00, 250.00, 11.00, 21, ABprppppp
93, 93, 93, -1, 129.00, 206.00, 14.00, 17, ABprppaap
94, 94, 94, -1, 153.00, 196.00, 16.00, 19, ABprppaaa
95, 95, 95, -1, 138.00, 220.00, 18.00, 19, ABprppapa
96, 96, 96, -1, 115.00, 243.00, 19.00, 19, ABprppapp
97, 97, 97, -1, 209.00, 172.00, 28.00, 21, ABpraapaa
98, 98, 98, -1, 203.00, 187.00, 32.00, 21, ABpraapap
99, 99, 99, -1, 155.00, 205.00, 26.00, 21, ABpraappp
100, 100, 100, -1, 178.00, 191.00, 28.00, 17, ABpraappa
101, 101, 101, -1, 257.00, 159.00, 26.00, 19, ABpraaapa
102, 102, 102, -1, 233.00, 177.00, 26.00, 21, ABpraaapp
103, 103, 103, -1, 270.00, 165.00, 21.00, 19, ABpraaaaa
104, 104, 104, -1, 237.00, 162.00, 21.00, 19, ABpraaaap
105, 105, 105, -1, 100.00, 234.00, 23.00, 19, ABprappap
106, 106, 106, -1, 122.00, 216.00, 24.00, 21, ABprappaa
107, 107, 107, -1, 80.00, 248.00, 21.00, 19, ABprapppa
108, 108, 108, -1, 75.00, 272.00, 18.00, 19, ABprapppp
109, 109, 109, -1, 170.00, 208.00, 34.00, 19, ABprapaaa
110, 110, 110, -1, 142.00, 221.00, 32.00, 17, ABprapaap
111, 111, 111, -1, 87.00, 264.00, 27.00, 19, ABprapapp
112, 112, 112, -1, 114.00, 239.00, 31.00, 21, ABprapapa
113, 113, 113, -1, 163.00, 228.00, 21.00, 21, MSpppp
114, 114, 114, -1, 195.00, 225.00, 18.00, 19, MSpppa
115, 115, 115, -1, 237.00, 209.00, 20.00, 15, MSppaap
116, 116, 116, -1, 254.00, 184.00, 20.00, 15, MSppaaa
117, 117, 117, -1, 192.00, 215.00, 25.00, 19, MSppapp
118, 118, 118, -1, 220.00, 199.00, 22.00, 19, MSppapa
119, 119, 119, -1, 204.00, 247.00, 14.00, 19, MSpapap
120, 120, 120, -1, 234.00, 234.00, 16.00, 19, MSpapaa
121, 121, 121, -1, 193.00, 245.00, 10.00, 19, MSpappa
122, 122, 122, -1, 164.00, 266.00, 11.00, 19, MSpappp
123, 123, 123, -1, 273.00, 200.00, 24.00, 21, MSpaaap
124, 124, 124, -1, 309.00, 189.00, 20.00, 19, MSpaaaa
125, 125, 125, -1, 269.00, 212.00, 20.00, 21, MSpaapa
126, 126, 126, -1, 241.00, 233.00, 20.00, 15, MSpaapp
127, 127, 127, -1, 224.00, 303.00, 19.00, 23, MSappp
128, 128, 128, -1, 224.00, 275.00, 16.00, 21, MSappa
129, 129, 129, -1, 247.00, 292.00, 21.00, 15, MSapapp
130, 130, 130, -1, 280.00, 290.00, 20.00, 15, MSapapa
131, 131, 131, 132, 299.00, 257.00, 21.00, 17, MSapaa
132, 132, 133, -1, 331.00, 208.00, 21.00, 19, MSaaaaa
133, 133, 134, -1, 305.00, 228.00, 26.00, 19, MSaaaap
134, 134, 135, -1, 302.00, 228.00, 21.00, 21, MSaaapa
135, 135, 136, -1, 263.00, 243.00, 20.00, 17, MSaaapp
136, 136, 137, -1, 194.00, 277.00, 11.00, 17, MSaappp
137, 137, 138, -1, 225.00, 264.00, 11.00, 15, MSaappa
138, 138, 139, -1, 272.00, 254.00, 16.00, 19, MSaapaa
139, 139, 140, -1, 243.00, 267.00, 13.00, 17, MSaapap
140, 140, 141, -1, 219.00, 281.00, 23.00, 23, Ealp
141, 141, 142, -1, 146.00, 308.00, 24.00, 25, Eplp
142, 142, 143, -1, 131.00, 356.00, 20.00, 19, Cappa
143, 143, 144, -1, 103.00, 338.00, 17.00, 19, Cappp
144, 144, 145, -1, 130.00, 326.00, 13.00, 25, Capa
145, 145, 146, -1, 128.00, 342.00, 29.00, 21, Caaap
146, 146, 147, -1, 165.00, 312.00, 32.00, 23, Caaaa
147, 147, 148, -1, 98.00, 356.00, 21.00, 19, Caapp
148, 148, 149, -1, 115.00, 361.00, 27.00, 19, Caapa
149, 149, 150, -1, 78.00, 341.00, 21.00, 21, Cpapp
150, 150, 151, -1, 91.00, 324.00, 27.00, 21, Cpapa
151, 151, 152, -1, 160.00, 274.00, 33.00, 21, Cpaaa
152, 152, 153, -1, 112.00, 302.00, 33.00, 23, Cpaap
153, 153, 154, -1, 98.00, 275.00, 12.00, 21, Cppaa
154, 154, 155, -1, 85.00, 308.00, 13.00, 21, Cppap
155, 155, 156, -1, 91.00, 315.00, 18.00, 21, Cpppp
156, 156, 157, -1, 73.00, 297.00, 22.00, 21, Cpppa
157, 157, 158, -1, 175.00, 302.00, 15.00, 21, Daa
158, 158, 159, -1, 150.00, 315.00, 18.00, 25, Dap
159, 159, 160, -1, 139.00, 259.00, 13.00, 21, Dpa
160, 160, 161, -1, 119.00, 284.00, 16.00, 23, Dpp
161, 161, 162, -1, 189.00, 268.00, 17.00, 21, Z3
162, 162, 163, -1, 154.00, 275.00, 19.00, 21, Z2
164, 164, 165, -1, 274.00, 291.00, 27.00, 21, ABalppppp
165, 165, 166, -1, 308.00, 296.00, 27.00, 21, ABalppppa
166, 166, 167, -1, 340.00, 266.00, 26.00, 19, ABalpppaa
167, 167, 168, -1, 325.00, 284.00, 24.00, 19, ABalpppap
168, 168, 169, -1, 356.00, 261.00, 21.00, 17, ABalppaaa
169, 169, 170, -1, 342.00, 278.00, 18.00, 19, ABalppaap
170, 170, 171, -1, 287.00, 278.00, 13.00, 21, ABalppapp
171, 171, 172, -1, 316.00, 273.00, 14.00, 19, ABalppapa
172, 172, 173, -1, 319.00, 243.00, 11.00, 19, ABalpapap
173, 173, 174, -1, 345.00, 251.00, 13.00, 19, ABalpapaa
174, 174, 175, -1, 298.00, 250.00, 10.00, 21, ABalpappa
175, 175, 176, -1, 270.00, 243.00, 11.00, 21, ABalpappp
176, 176, 177, -1, 348.00, 226.00, 12.00, 19, ABalpaaap
177, 177, 178, -1, 347.00, 204.00, 15.00, 19, ABalpaaaa
178, 178, 179, -1, 318.00, 246.00, 16.00, 19, ABalpaapp
179, 179, 180, -1, 348.00, 231.00, 18.00, 21, ABalpaapa
180, 180, 181, -1, 145.00, 250.00, 23.00, 23, Epra
181, 181, 182, -1, 232.00, 229.00, 24.00, 25, Eara
182, 182, 183, -1, 193.00, 252.00, 24.00, 25, Earp
183, 183, 184, -1, 260.00, 258.00, 26.00, 25, Eala
184, 184, 185, -1, 185.00, 289.00, 25.00, 27, Epla
185, 185, 186, -1, 106.00, 281.00, 24.00, 27, Eprp
