1, 1, 1, -1, 275.00, 210.00, 15.00, 19, ABaraappa
2, 2, 2, -1, 254.00, 230.00, 14.00, 21, ABaraappp
3, 3, 3, -1, 293.00, 233.00, 17.00, 19, ABaraapap
4, 4, 4, -1, 318.00, 216.00, 16.00, 19, ABaraapaa
5, 5, 5, -1, 270.00, 179.00, 13.00, 19, ABaraaapp
6, 6, 6, -1, 299.00, 183.00, 13.00, 21, ABaraaapa
7, 7, 7, -1, 323.00, 184.00, 16.00, 17, ABaraaaaa
8, 8, 8, -1, 300.00, 199.00, 16.00, 17, ABaraaaap
9, 9, 9, -1, 244.00, 213.00, 11.00, 19, ABarapapa
10, 10, 10, -1, 225.00, 237.00, 11.00, 23, ABarapapp
11, 11, 11, -1, 293.00, 207.00, 11.00, 19, ABarapaaa
12, 12, 12, -1, 270.00, 210.00, 11.00, 19, ABarapaap
13, 13, 13, -1, 227.00, 190.00, 14.00, 19, ABarapppa
14, 14, 14, -1, 202.00, 188.00, 14.00, 17, ABarapppp
15, 15, 15, -1, 248.00, 187.00, 11.00, 19, ABarappaa
16, 16, 16, -1, 214.00, 210.00, 11.00, 19, ABarappap
17, 17, 17, -1, 201.00, 211.00, 29.00, 21, ABarpappp
18, 18, 18, -1, 227.00, 201.00, 32.00, 17, ABarpappa
19, 19, 19, -1, 277.00, 193.00, 35.00, 21, ABarpapaa
20, 20, 20, -1, 251.00, 196.00, 34.00, 19, ABarpapap
21, 21, 21, -1, 205.00, 254.00, 33.00, 21, ABarpaapp
22, 22, 22, -1, 252.00, 238.00, 33.00, 19, ABarpaapa
23, 23, 23, -1, 307.00, 218.00, 34.00, 19, ABarpaaaa
24, 24, 24, -1, 283.00, 225.00, 33.00, 17, ABarpaaap
25, 25, 25, -1, 223.00, 277.00, 32.00, 17, ABarppaaa
26, 26, 26, -1, 206.00, 298.00, 32.00, 19, ABarppaap
27, 27, 27, -1, 151.00, 340.00, 27.00, 19, ABarppapp
28, 28, 28, -1, 189.00, 326.00, 31.00, 19, ABarppapa
29, 29, 29, -1, 113.00, 260.00, 32.00, 21, ABarppppp
30, 30, 30, -1, 143.00, 239.00, 32.00, 19, ABarppppa
31, 31, 31, -1, 195.00, 221.00, 34.00, 19, ABarpppaa
32, 32, 32, -1, 171.00, 228.00, 31.00, 19, ABarpppap
33, 33, 33, -1, 251.00, 204.00, 30.00, 21, ABalapppp
34, 34, 34, -1, 292.00, 191.00, 31.00, 21, ABalapppa
35, 35, 35, -1, 330.00, 200.00, 29.00, 19, ABalappaa
36, 36, 36, -1, 312.00, 200.00, 29.00, 19, ABalappap
37, 37, 37, -1, 294.00, 264.00, 28.00, 21, ABalapapp
38, 38, 38, -1, 324.00, 234.00, 31.00, 19, ABalapapa
39, 39, 39, -1, 353.00, 225.00, 26.00, 19, ABalapaaa
40, 40, 40, -1, 341.00, 245.00, 27.00, 19, ABalapaap
41, 41, 41, -1, 323.00, 170.00, 21.00, 17, ABalaapaa
42, 42, 42, -1, 299.00, 166.00, 20.00, 17, ABalaapap
43, 43, 43, -1, 294.00, 175.00, 25.00, 17, ABalaappa
44, 44, 44, -1, 274.00, 170.00, 29.00, 21, ABalaappp
45, 45, 45, -1, 356.00, 215.00, 21.00, 21, ABalaaaal
46, 46, 46, -1, 346.00, 190.00, 18.00, 19, ABalaaaar
47, 47, 47, -1, 330.00, 178.00, 25.00, 19, ABalaaapp
48, 48, 48, -1, 349.00, 197.00, 24.00, 19, ABalaaapa
49, 49, 49, -1, 203.00, 325.00, 13.00, 21, ABplppppa
50, 50, 50, -1, 175.00, 323.00, 11.00, 19, ABplppppp
51, 51, 51, -1, 175.00, 341.00, 14.00, 19, ABplpppap
52, 52, 52, -1, 207.00, 344.00, 15.00, 19, ABplpppaa
53, 53, 53, -1, 205.00, 338.00, 20.00, 19, ABplppapp
54, 54, 54, -1, 236.00, 330.00, 18.00, 19, ABplppapa
55, 55, 55, -1, 241.00, 326.00, 15.00, 21, ABplppaap
56, 56, 56, -1, 267.00, 325.00, 16.00, 19, ABplppaaa
57, 57, 57, -1, 239.00, 294.00, 11.00, 21, ABplpappa
58, 58, 58, -1, 217.00, 310.00, 10.00, 21, ABplpappp
59, 59, 59, -1, 263.00, 305.00, 13.00, 19, ABplpapap
60, 60, 60, -1, 279.00, 294.00, 11.00, 19, ABplpapaa
61, 61, 61, -1, 313.00, 294.00, 18.00, 19, ABplpaaaa
62, 62, 62, -1, 291.00, 317.00, 18.00, 17, ABplpaaap
63, 63, 63, -1, 267.00, 328.00, 21.00, 21, ABplpaapp
64, 64, 64, -1, 300.00, 301.00, 22.00, 19, ABplpaapa
65, 65, 65, -1, 260.00, 326.00, 29.00, 19, ABplaappa
66, 66, 66, -1, 241.00, 333.00, 25.00, 23, ABplaappp
67, 67, 67, -1, 312.00, 286.00, 32.00, 21, ABplaapaa
68, 68, 68, -1, 278.00, 299.00, 33.00, 21, ABplaapap
69, 69, 69, -1, 323.00, 257.00, 33.00, 19, ABplaaaaa
70, 70, 70, -1, 296.00, 255.00, 33.00, 17, ABplaaaap
71, 71, 71, -1, 250.00, 274.00, 33.00, 21, ABplaaapp
72, 72, 72, -1, 274.00, 253.00, 34.00, 17, ABplaaapa
73, 73, 73, -1, 153.00, 352.00, 17.00, 19, ABplapppp
74, 74, 74, -1, 181.00, 354.00, 19.00, 19, ABplapppa
75, 75, 75, -1, 215.00, 350.00, 25.00, 21, ABplappaa
76, 76, 76, -1, 181.00, 355.00, 23.00, 19, ABplappap
77, 77, 77, -1, 216.00, 329.00, 31.00, 21, ABplapaap
78, 78, 78, -1, 236.00, 309.00, 32.00, 19, ABplapaaa
79, 79, 79, -1, 152.00, 358.00, 23.00, 21, ABplapapp
80, 80, 80, -1, 179.00, 352.00, 30.00, 21, ABplapapa
81, 81, 81, -1, 189.00, 201.00, 11.00, 19, ABprpapaa
82, 82, 82, -1, 169.00, 198.00, 12.00, 19, ABprpapap
83, 83, 83, -1, 153.00, 226.00, 10.00, 21, ABprpappp
84, 84, 84, -1, 180.00, 223.00, 10.00, 21, ABprpappa
85, 85, 85, -1, 221.00, 170.00, 16.00, 19, ABprpaaaa
86, 86, 86, -1, 189.00, 174.00, 17.00, 19, ABprpaaap
87, 87, 87, -1, 211.00, 173.00, 20.00, 19, ABprpaapa
88, 88, 88, -1, 172.00, 184.00, 21.00, 21, ABprpaapp
89, 89, 89, -1, 113.00, 217.00, 14.00, 19, ABprpppaa
90, 90, 90, -1, 92.00, 247.00, 13.00, 19, ABprpppap
91, 91, 91, -1, 132.00, 232.00, 13.00, 19, ABprppppa
92, 92, 92, -1, 108.00, 259.00, 11.00, 21, ABprppppp
93, 93, 93, -1, 139.00, 204.00, 15.00, 19, ABprppaap
94, 94, 94, -1, 161.00, 201.00, 17.00, 17, ABprppaaa
95, 95, 95, -1, 135.00, 218.00, 18.00, 19, ABprppapa
96, 96, 96, -1, 111.00, 240.00, 18.00, 19, ABprppapp
97, 97, 97, -1, 235.00, 171.00, 30.00, 21, ABpraapaa
98, 98, 98, -1, 199.00, 185.00, 30.00, 21, ABpraapap
99, 99, 99, -1, 152.00, 202.00, 23.00, 21, ABpraappp
100, 100, 100, -1, 180.00, 183.00, 26.00, 21, ABpraappa
101, 101, 101, -1, 259.00, 171.00, 24.00, 19, ABpraaapa
102, 102, 102, -1, 223.00, 170.00, 25.00, 23, ABpraaapp
103, 103, 103, -1, 271.00, 162.00, 21.00, 19, ABpraaaaa
104, 104, 104, -1, 244.00, 160.00, 21.00, 19, ABpraaaap
105, 105, 105, -1, 90.00, 239.00, 20.00, 21, ABprappap
106, 106, 106, -1, 115.00, 219.00, 23.00, 21, ABprappaa
107, 107, 107, -1, 80.00, 254.00, 18.00, 21, ABprapppa
108, 108, 108, -1, 81.00, 274.00, 15.00, 21, ABprapppp
109, 109, 109, -1, 164.00, 200.00, 31.00, 19, ABprapaaa
110, 110, 110, -1, 138.00, 216.00, 29.00, 19, ABprapaap
111, 111, 111, -1, 82.00, 268.00, 24.00, 19, ABprapapp
112, 112, 112, -1, 103.00, 238.00, 28.00, 21, ABprapapa
113, 113, 113, -1, 183.00, 209.00, 20.00, 19, MSppppa
114, 114, 114, -1, 160.00, 233.00, 20.00, 21, MSppppp
115, 115, 115, -1, 213.00, 213.00, 18.00, 17, MSpppaa
116, 116, 116, -1, 183.00, 233.00, 15.00, 17, MSpppap
117, 117, 117, -1, 237.00, 199.00, 19.00, 17, MSppaap
118, 118, 118, -1, 261.00, 184.00, 19.00, 19, MSppaaa
119, 119, 119, -1, 199.00, 202.00, 24.00, 19, MSppapp
120, 120, 120, -1, 225.00, 196.00, 23.00, 19, MSppapa
121, 121, 121, -1, 205.00, 252.00, 14.00, 17, MSpapap
122, 122, 122, -1, 236.00, 237.00, 17.00, 21, MSpapaa
123, 123, 123, -1, 199.00, 257.00, 10.00, 19, MSpappa
124, 124, 124, -1, 176.00, 275.00, 12.00, 21, MSpappp
125, 125, 125, -1, 272.00, 198.00, 26.00, 21, MSpaaap
126, 126, 126, -1, 303.00, 193.00, 22.00, 21, MSpaaaa
127, 127, 127, -1, 267.00, 211.00, 21.00, 19, MSpaapa
128, 128, 128, -1, 241.00, 225.00, 21.00, 15, MSpaapp
129, 129, 129, -1, 248.00, 305.00, 20.00, 15, MSapppa
130, 130, 130, -1, 215.00, 307.00, 22.00, 15, MSapppp
131, 131, 131, -1, 256.00, 278.00, 18.00, 15, MSappaa
132, 132, 132, -1, 227.00, 289.00, 17.00, 17, MSappap
133, 133, 133, -1, 246.00, 299.00, 27.00, 17, MSapapp
134, 134, 134, -1, 276.00, 288.00, 21.00, 17, MSapapa
135, 135, 135, -1, 288.00, 266.00, 21.00, 17, MSapaap
136, 136, 136, -1, 322.00, 253.00, 21.00, 19, MSapaaa
137, 137, 137, -1, 328.00, 212.00, 22.00, 19, MSaaaaa
138, 138, 138, -1, 306.00, 228.00, 26.00, 19, MSaaaap
139, 139, 139, -1, 300.00, 231.00, 22.00, 23, MSaaapa
140, 140, 140, -1, 265.00, 243.00, 22.00, 19, MSaaapp
141, 141, 141, -1, 202.00, 286.00, 12.00, 19, MSaappp
142, 142, 142, -1, 229.00, 269.00, 10.00, 17, MSaappa
143, 143, 143, -1, 271.00, 253.00, 18.00, 21, MSaapaa
144, 144, 144, -1, 234.00, 264.00, 15.00, 17, MSaapap
145, 145, 145, -1, 221.00, 280.00, 24.00, 23, Ealp
146, 146, 146, -1, 140.00, 312.00, 24.00, 29, Eplp
147, 147, 147, -1, 135.00, 338.00, 17.00, 19, Cappa
148, 148, 148, -1, 113.00, 334.00, 17.00, 19, Cappp
149, 149, 149, -1, 157.00, 304.00, 13.00, 21, Capaa
150, 150, 150, -1, 126.00, 331.00, 12.00, 21, Capap
151, 151, 151, -1, 114.00, 334.00, 29.00, 21, Caaap
152, 152, 152, -1, 156.00, 315.00, 33.00, 23, Caaaa
153, 153, 153, -1, 92.00, 350.00, 20.00, 19, Caapp
154, 154, 154, -1, 107.00, 359.00, 24.00, 19, Caapa
155, 155, 155, -1, 73.00, 332.00, 18.00, 21, Cpapp
156, 156, 156, -1, 80.00, 324.00, 25.00, 21, Cpapa
157, 157, 157, -1, 158.00, 264.00, 32.00, 23, Cpaaa
158, 158, 158, -1, 104.00, 299.00, 31.00, 25, Cpaap
159, 159, 159, -1, 127.00, 282.00, 13.00, 21, Cppaa
160, 160, 160, -1, 108.00, 307.00, 13.00, 21, Cppap
161, 161, 161, -1, 97.00, 317.00, 17.00, 21, Cpppp
162, 162, 162, -1, 88.00, 293.00, 20.00, 21, Cpppa
163, 163, 163, -1, 200.00, 302.00, 16.00, 21, Daa
164, 164, 164, -1, 184.00, 307.00, 21.00, 21, Dap
165, 165, 165, -1, 159.00, 249.00, 14.00, 21, Dpa
166, 166, 166, -1, 140.00, 260.00, 19.00, 21, Dpp
167, 167, 167, -1, 192.00, 267.00, 18.00, 21, Z3
168, 168, 168, -1, 157.00, 283.00, 20.00, 21, Z2
170, 170, 170, -1, 285.00, 311.00, 27.00, 23, ABalppppp
171, 171, 171, -1, 312.00, 282.00, 27.00, 21, ABalppppa
172, 172, 172, -1, 344.00, 266.00, 24.00, 17, ABalpppaa
173, 173, 173, -1, 327.00, 286.00, 24.00, 21, ABalpppap
174, 174, 174, -1, 348.00, 265.00, 19.00, 19, ABalppaaa
175, 175, 175, -1, 336.00, 282.00, 19.00, 17, ABalppaap
176, 176, 176, -1, 295.00, 288.00, 14.00, 23, ABalppapp
177, 177, 177, -1, 319.00, 274.00, 14.00, 19, ABalppapa
178, 178, 178, -1, 307.00, 261.00, 10.00, 21, ABalpapap
179, 179, 179, -1, 329.00, 243.00, 12.00, 19, ABalpapaa
180, 180, 180, -1, 291.00, 238.00, 11.00, 21, ABalpappa
181, 181, 181, -1, 269.00, 261.00, 13.00, 23, ABalpappp
182, 182, 182, -1, 321.00, 220.00, 12.00, 19, ABalpaaap
183, 183, 183, -1, 332.00, 200.00, 12.00, 19, ABalpaaaa
184, 184, 184, -1, 328.00, 252.00, 16.00, 19, ABalpaapp
185, 185, 185, -1, 346.00, 226.00, 15.00, 21, ABalpaapa
186, 186, 186, -1, 155.00, 247.00, 24.00, 23, Epra
187, 187, 187, -1, 236.00, 227.00, 24.00, 21, Eara
188, 188, 188, -1, 199.00, 242.00, 22.00, 27, Earp
189, 189, 189, -1, 259.00, 261.00, 27.00, 27, Eala
190, 190, 190, -1, 184.00, 278.00, 28.00, 27, Epla
191, 191, 191, -1, 111.00, 286.00, 25.00, 27, Eprp
