1, 1, 1, -1, 280.00, 204.00, 15.00, 21, ABaraappa
2, 2, 2, -1, 254.00, 221.00, 17.00, 19, ABaraappp
3, 3, 3, -1, 294.00, 238.00, 18.00, 21, ABaraapap
4, 4, 4, -1, 316.00, 212.00, 17.00, 19, ABaraapaa
5, 5, 5, -1, 272.00, 185.00, 10.00, 19, ABaraaapp
6, 6, 6, -1, 301.00, 196.00, 11.00, 21, ABaraaapa
7, 7, 7, -1, 326.00, 189.00, 14.00, 17, ABaraaaaa
8, 8, 8, -1, 301.00, 205.00, 15.00, 17, ABaraaaap
9, 9, 9, -1, 243.00, 237.00, 10.00, 19, ABarapapa
10, 10, 10, -1, 210.00, 249.00, 13.00, 15, ABarapappp
11, 10, 11, -1, 235.00, 233.00, 14.00, 15, ABarapappa
12, 11, 12, -1, 284.00, 220.00, 10.00, 19, ABarapaaa
13, 12, 13, -1, 260.00, 214.00, 12.00, 19, ABarapaap
14, 13, 14, -1, 236.00, 187.00, 11.00, 21, ABarapppa
15, 14, 15, -1, 211.00, 185.00, 11.00, 19, ABarapppp
16, 15, 16, -1, 236.00, 209.00, 10.00, 19, ABarappaa
17, 16, 17, -1, 210.00, 212.00, 11.00, 19, ABarappap
18, 17, 18, -1, 196.00, 200.00, 31.00, 19, ABarpappp
19, 18, 19, -1, 226.00, 205.00, 33.00, 17, ABarpappa
20, 19, 20, -1, 271.00, 182.00, 34.00, 19, ABarpapaa
21, 20, 21, -1, 257.00, 207.00, 35.00, 19, ABarpapap
22, 21, 22, -1, 199.00, 249.00, 32.00, 17, ABarpaapp
23, 22, 23, -1, 253.00, 235.00, 33.00, 21, ABarpaapa
24, 23, 24, -1, 306.00, 216.00, 34.00, 19, ABarpaaaa
25, 24, 25, -1, 285.00, 220.00, 33.00, 19, ABarpaaap
26, 25, 26, -1, 216.00, 276.00, 33.00, 19, ABarppaaa
27, 26, 27, -1, 197.00, 300.00, 33.00, 19, ABarppaap
28, 27, 28, -1, 146.00, 337.00, 27.00, 19, ABarppapp
29, 28, 29, -1, 183.00, 329.00, 31.00, 19, ABarppapa
30, 29, 30, -1, 107.00, 254.00, 29.00, 21, ABarppppp
31, 30, 31, -1, 134.00, 227.00, 31.00, 19, ABarppppa
32, 31, 32, -1, 189.00, 220.00, 34.00, 17, ABarpppaa
33, 32, 33, -1, 165.00, 229.00, 32.00, 21, ABarpppap
34, 33, 34, -1, 247.00, 201.00, 28.00, 19, ABalapppp
35, 34, 35, -1, 292.00, 186.00, 31.00, 21, ABalapppa
36, 35, 36, -1, 329.00, 192.00, 28.00, 17, ABalappaa
37, 36, 37, -1, 317.00, 182.00, 30.00, 21, ABalappap
38, 37, 38, -1, 293.00, 262.00, 28.00, 21, ABalapapp
39, 38, 39, -1, 325.00, 231.00, 30.00, 19, ABalapapa
40, 39, 40, -1, 350.00, 223.00, 25.00, 19, ABalapaaa
41, 40, 41, -1, 338.00, 241.00, 26.00, 21, ABalapaap
42, 41, 42, -1, 317.00, 169.00, 18.00, 19, ABalaapaa
43, 42, 43, -1, 291.00, 164.00, 18.00, 17, ABalaapap
44, 43, 44, -1, 295.00, 166.00, 23.00, 19, ABalaappa
45, 44, 45, -1, 283.00, 172.00, 27.00, 23, ABalaappp
46, 45, 46, -1, 355.00, 218.00, 20.00, 21, ABalaaaal
47, 46, 47, -1, 346.00, 193.00, 18.00, 19, ABalaaaar
48, 47, 48, -1, 328.00, 172.00, 23.00, 19, ABalaaapp
49, 48, 49, -1, 348.00, 196.00, 23.00, 19, ABalaaapa
50, 49, 50, -1, 213.00, 321.00, 13.00, 20, ABplppppa
51, 50, 51, -1, 178.00, 322.00, 10.00, 21, ABplppppp
52, 51, 52, -1, 181.00, 344.00, 14.00, 19, ABplpppap
53, 52, 53, -1, 206.00, 342.00, 17.00, 21, ABplpppaa
54, 53, 54, -1, 212.00, 342.00, 21.00, 19, ABplppapp
55, 54, 55, -1, 240.00, 330.00, 18.00, 21, ABplppapa
56, 55, 56, -1, 249.00, 326.00, 14.00, 21, ABplppaap
57, 56, 57, -1, 266.00, 322.00, 17.00, 17, ABplppaaa
58, 57, 58, 59, 236.00, 285.00, 11.00, 17, ABplpappa
59, 58, 60, -1, 215.00, 301.00, 9.00, 23, ABplpappp
60, 59, 61, -1, 258.00, 303.00, 13.00, 21, ABplpapap
61, 60, 62, -1, 275.00, 291.00, 12.00, 19, ABplpapaa
62, 61, 63, -1, 309.00, 293.00, 18.00, 19, ABplpaaaa
63, 62, 64, -1, 292.00, 317.00, 19.00, 19, ABplpaaap
64, 63, 65, -1, 267.00, 330.00, 22.00, 21, ABplpaapp
65, 64, 66, -1, 302.00, 306.00, 23.00, 19, ABplpaapa
66, 65, 67, -1, 261.00, 324.00, 31.00, 21, ABplaappa
67, 66, 68, -1, 237.00, 332.00, 26.00, 21, ABplaappp
68, 67, 69, -1, 312.00, 278.00, 34.00, 21, ABplaapaa
69, 68, 70, -1, 287.00, 294.00, 32.00, 21, ABplaapap
70, 69, 71, -1, 314.00, 249.00, 33.00, 19, ABplaaaaa
71, 70, 72, -1, 290.00, 250.00, 34.00, 19, ABplaaaap
72, 71, 73, -1, 248.00, 282.00, 33.00, 21, ABplaaapp
73, 72, 74, -1, 269.00, 260.00, 34.00, 17, ABplaaapa
74, 73, 75, -1, 153.00, 356.00, 18.00, 19, ABplapppp
75, 74, 76, -1, 180.00, 350.00, 19.00, 19, ABplapppa
76, 75, 77, -1, 211.00, 351.00, 25.00, 21, ABplappaa
77, 76, 78, -1, 182.00, 352.00, 24.00, 21, ABplappap
78, 77, 79, -1, 209.00, 328.00, 31.00, 21, ABplapaap
79, 78, 80, -1, 232.00, 309.00, 31.00, 21, ABplapaaa
80, 79, 81, -1, 150.00, 357.00, 23.00, 19, ABplapapp
81, 80, 82, -1, 166.00, 351.00, 31.00, 21, ABplapapa
82, 81, 83, -1, 189.00, 200.00, 13.00, 19, ABprpapaa
83, 82, 84, -1, 172.00, 208.00, 10.00, 19, ABprpapap
84, 83, 85, -1, 168.00, 244.00, 10.00, 21, ABprpappp
85, 84, 86, -1, 191.00, 230.00, 11.00, 17, ABprpappa
86, 85, 87, -1, 229.00, 178.00, 15.00, 21, ABprpaaaa
87, 86, 88, -1, 196.00, 175.00, 16.00, 19, ABprpaaap
88, 87, 89, -1, 215.00, 172.00, 19.00, 19, ABprpaapa
89, 88, 90, -1, 184.00, 179.00, 20.00, 23, ABprpaapp
90, 89, 91, -1, 113.00, 226.00, 13.00, 21, ABprpppaa
91, 90, 92, -1, 99.00, 255.00, 11.00, 19, ABprpppap
92, 91, 93, -1, 144.00, 224.00, 12.00, 19, ABprppppa
93, 92, 94, -1, 122.00, 259.00, 10.00, 19, ABprppppp
94, 93, 95, -1, 155.00, 199.00, 12.00, 19, ABprppaap
95, 94, 96, -1, 171.00, 192.00, 16.00, 19, ABprppaaa
96, 95, 97, -1, 146.00, 204.00, 16.00, 21, ABprppapa
97, 96, 98, -1, 127.00, 225.00, 17.00, 21, ABprppapp
98, 97, 99, -1, 252.00, 171.00, 31.00, 19, ABpraapaa
99, 98, 100, -1, 215.00, 183.00, 30.00, 21, ABpraapap
100, 99, 101, -1, 162.00, 194.00, 23.00, 21, ABpraappp
101, 100, 102, -1, 191.00, 176.00, 26.00, 21, ABpraappa
102, 101, 103, -1, 258.00, 172.00, 24.00, 19, ABpraaapa
103, 102, 104, -1, 229.00, 174.00, 25.00, 21, ABpraaapp
104, 103, 105, -1, 265.00, 159.00, 20.00, 17, ABpraaaaa
105, 104, 106, -1, 243.00, 163.00, 20.00, 19, ABpraaaap
106, 105, 107, -1, 97.00, 227.00, 18.00, 19, ABprappap
107, 106, 108, -1, 123.00, 208.00, 20.00, 21, ABprappaa
108, 107, 109, -1, 93.00, 244.00, 15.00, 19, ABprapppa
109, 108, 110, -1, 81.00, 267.00, 14.00, 21, ABprapppp
110, 109, 111, -1, 164.00, 198.00, 30.00, 21, ABprapaaa
111, 110, 112, -1, 137.00, 213.00, 26.00, 19, ABprapaap
112, 111, 113, -1, 78.00, 259.00, 20.00, 21, ABprapapp
113, 112, 114, -1, 93.00, 237.00, 25.00, 21, ABprapapa
114, 113, 115, -1, 190.00, 207.00, 21.00, 19, MSppppa
115, 114, 116, -1, 167.00, 222.00, 24.00, 17, MSppppp
116, 115, 117, -1, 219.00, 212.00, 18.00, 17, MSpppaa
117, 116, 118, -1, 195.00, 230.00, 16.00, 17, MSpppap
118, 117, 119, -1, 245.00, 195.00, 17.00, 15, MSppaap
119, 118, 120, -1, 261.00, 179.00, 18.00, 17, MSppaaa
120, 119, 121, -1, 204.00, 198.00, 24.00, 19, MSppapp
121, 120, 122, -1, 232.00, 197.00, 22.00, 17, MSppapa
122, 121, 123, -1, 204.00, 258.00, 17.00, 21, MSpapap
123, 122, 124, -1, 234.00, 237.00, 19.00, 21, MSpapaa
124, 123, 125, -1, 193.00, 261.00, 11.00, 17, MSpappa
125, 124, 126, -1, 176.00, 277.00, 12.00, 19, MSpappp
126, 125, 127, -1, 276.00, 201.00, 25.00, 21, MSpaaap
127, 126, 128, -1, 305.00, 186.00, 21.00, 19, MSpaaaa
128, 127, 129, -1, 271.00, 211.00, 20.00, 23, MSpaapa
129, 128, 130, -1, 241.00, 219.00, 24.00, 17, MSpaapp
130, 129, 131, -1, 249.00, 307.00, 21.00, 17, MSapppa
131, 130, 132, -1, 212.00, 312.00, 24.00, 17, MSapppp
132, 131, 133, -1, 265.00, 285.00, 20.00, 19, MSappaa
133, 132, 134, -1, 228.00, 295.00, 17.00, 17, MSappap
134, 133, 135, -1, 253.00, 296.00, 25.00, 19, MSapapp
135, 134, 136, -1, 285.00, 283.00, 24.00, 17, MSapapa
136, 135, 137, -1, 295.00, 266.00, 21.00, 19, MSapaap
137, 136, 138, -1, 323.00, 252.00, 21.00, 19, MSapaaa
138, 137, 139, -1, 324.00, 204.00, 23.00, 19, MSaaaaa
139, 138, 140, -1, 300.00, 223.00, 27.00, 19, MSaaaap
140, 139, 141, -1, 305.00, 227.00, 22.00, 21, MSaaapa
141, 140, 142, -1, 272.00, 239.00, 23.00, 15, MSaaapp
142, 141, 143, -1, 204.00, 289.00, 13.00, 19, MSaappp
143, 142, 144, -1, 218.00, 271.00, 12.00, 15, MSaappa
144, 143, 145, -1, 266.00, 254.00, 19.00, 21, MSaapaa
145, 144, 146, -1, 234.00, 268.00, 18.00, 19, MSaapap
146, 145, 147, -1, 216.00, 286.00, 25.00, 25, Ealp
147, 146, 148, -1, 139.00, 309.00, 23.00, 27, Eplp
148, 147, 149, -1, 140.00, 339.00, 18.00, 19, Cappa
149, 148, 150, -1, 119.00, 333.00, 15.00, 19, Cappp
150, 149, 151, -1, 155.00, 308.00, 13.00, 21, Capaa
151, 150, 152, -1, 135.00, 320.00, 11.00, 21, Capap
152, 151, 153, -1, 112.00, 330.00, 27.00, 23, Caaap
153, 152, 154, -1, 150.00, 311.00, 32.00, 23, Caaaa
154, 153, 155, -1, 91.00, 342.00, 18.00, 19, Caapp
155, 154, 156, -1, 92.00, 349.00, 22.00, 19, Caapa
156, 155, 157, -1, 73.00, 318.00, 14.00, 21, Cpapp
157, 156, 158, -1, 72.00, 316.00, 21.00, 21, Cpapa
158, 157, 159, -1, 139.00, 263.00, 34.00, 21, Cpaaa
159, 158, 160, 161, 105.00, 293.00, 29.00, 19, Cpaap
160, 159, 162, -1, 141.00, 275.00, 13.00, 21, Cppaa
161, 160, 163, -1, 124.00, 298.00, 14.00, 19, Cppap
162, 161, 164, -1, 99.00, 313.00, 15.00, 21, Cpppp
163, 162, 165, -1, 91.00, 289.00, 17.00, 23, Cpppa
164, 163, 166, -1, 177.00, 312.00, 14.00, 17, Daap
165, 164, 167, -1, 207.00, 306.00, 19.00, 19, Daaa
166, 165, 168, -1, 180.00, 315.00, 19.00, 19, Dapp
167, 166, 169, -1, 156.00, 249.00, 15.00, 15, Dpap
168, 167, 170, -1, 169.00, 229.00, 18.00, 17, Dpaa
169, 168, 171, -1, 121.00, 270.00, 18.00, 19, Dppp
170, 169, 172, -1, 147.00, 248.00, 19.00, 19, Dppa
171, 170, 173, -1, 186.00, 271.00, 19.00, 21, Z3
172, 171, 174, -1, 154.00, 282.00, 19.00, 21, Z2
174, 173, 176, -1, 307.00, 295.00, 27.00, 15, ABalpppppa
175, 174, 177, -1, 275.00, 311.00, 27.00, 19, ABalpppppp
176, 175, 178, 179, 321.00, 270.00, 27.00, 20, ABalppppa
177, 176, 180, -1, 347.00, 267.00, 25.00, 17, ABalpppaa
178, 177, 181, -1, 329.00, 292.00, 24.00, 19, ABalpppap
179, 178, 182, -1, 346.00, 266.00, 19.00, 19, ABalppaaa
180, 179, 183, -1, 335.00, 286.00, 19.00, 19, ABalppaap
181, 180, 184, -1, 291.00, 297.00, 14.00, 19, ABalppapp
182, 181, 185, -1, 318.00, 279.00, 14.00, 19, ABalppapa
183, 182, 186, -1, 291.00, 273.00, 10.00, 19, ABalpapap
184, 183, 187, -1, 323.00, 253.00, 10.00, 21, ABalpapaa
185, 184, 188, -1, 269.00, 254.00, 11.00, 19, ABalpappap
186, 185, 189, -1, 300.00, 242.00, 10.00, 17, ABalpappaa
187, 186, 190, -1, 249.00, 263.00, 14.00, 17, ABalpapppp
188, 187, 191, -1, 279.00, 258.00, 16.00, 15, ABalpapppa
189, 188, 192, -1, 308.00, 226.00, 11.00, 17, ABalpaaap
190, 189, 193, -1, 329.00, 208.00, 11.00, 19, ABalpaaaa
191, 190, 194, -1, 313.00, 255.00, 15.00, 19, ABalpaapp
192, 191, 195, -1, 325.00, 235.00, 15.00, 15, ABalpaapap
193, 191, 196, -1, 343.00, 216.00, 16.00, 15, ABalpaapaa
194, 192, 197, -1, 150.00, 245.00, 25.00, 25, Epra
195, 193, 198, -1, 231.00, 230.00, 28.00, 29, Eara
196, 194, 199, -1, 196.00, 243.00, 23.00, 29, Earp
197, 195, 200, -1, 257.00, 256.00, 26.00, 23, Eala
198, 196, 201, -1, 174.00, 276.00, 28.00, 27, Epla
199, 197, 202, -1, 105.00, 279.00, 23.00, 27, Eprp
200, 198, 203, -1, 181.00, 306.00, 26.00, 21, Dapa
