1, 1, 1, -1, 315.00, 195.00, 16.00, 15, ABaraappaa
2, 2, 2, -1, 293.00, 207.00, 16.00, 15, ABaraappap
3, 3, 3, -1, 277.00, 218.00, 16.00, 17, ABaraapppa
4, 4, 4, -1, 253.00, 221.00, 18.00, 15, ABaraapppp
5, 5, 5, -1, 273.00, 245.00, 19.00, 15, ABaraapapp
6, 6, 6, -1, 295.00, 237.00, 19.00, 19, ABaraapapa
7, 7, 7, -1, 338.00, 224.00, 15.00, 15, ABaraapaaa
8, 8, 8, -1, 311.00, 229.00, 19.00, 15, ABaraapaap
9, 9, 9, -1, 290.00, 187.00, 11.00, 17, ABaraaappa
10, 10, 10, -1, 271.00, 193.00, 13.00, 15, ABaraaappp
11, 11, 11, -1, 326.00, 205.00, 11.00, 15, ABaraaapaa
12, 12, 12, -1, 303.00, 206.00, 12.00, 17, ABaraaapap
13, 13, 13, -1, 335.00, 195.00, 14.00, 19, ABaraaaaa
14, 14, 14, -1, 327.00, 210.00, 18.00, 17, ABaraaaap
15, 15, 15, -1, 237.00, 248.00, 10.00, 17, ABarapapap
16, 16, 16, -1, 261.00, 245.00, 10.00, 15, ABarapapaa
17, 17, 17, -1, 224.00, 265.00, 12.00, 17, ABarapappp
18, 18, 18, -1, 243.00, 238.00, 13.00, 17, ABarapappa
19, 19, 19, -1, 277.00, 240.00, 10.00, 15, ABarapaaap
20, 20, 20, -1, 294.00, 221.00, 11.00, 15, ABarapaaaa
21, 21, 21, -1, 278.00, 210.00, 10.00, 15, ABarapaapa
22, 22, 22, -1, 264.00, 230.00, 14.00, 15, ABarapaapp
23, 23, 23, -1, 239.00, 190.00, 10.00, 17, ABarapppap
24, 24, 24, -1, 263.00, 187.00, 10.00, 19, ABarapppaa
25, 25, 25, -1, 219.00, 180.00, 11.00, 17, ABarappppa
26, 26, 26, -1, 216.00, 194.00, 14.00, 17, ABarappppp
27, 27, 27, -1, 256.00, 212.00, 11.00, 13, ABarappaaa
28, 28, 28, -1, 231.00, 228.00, 11.00, 15, ABarappaap
29, 29, 29, -1, 226.00, 204.00, 10.00, 17, ABarappapa
30, 30, 30, -1, 212.00, 228.00, 10.00, 15, ABarappapp
31, 31, 31, -1, 211.00, 198.00, 33.00, 15, ABarpapppa
32, 32, 32, -1, 192.00, 190.00, 32.00, 17, ABarpapppp
33, 33, 33, 317, 232.00, 189.00, 33.00, 21, ABarpappa
34, 34, 34, -1, 287.00, 185.00, 35.00, 15, ABarpapaaa
35, 35, 35, -1, 258.00, 184.00, 34.00, 15, ABarpapaap
36, 36, 36, -1, 244.00, 218.00, 33.00, 15, ABarpapapp
37, 37, 37, -1, 271.00, 202.00, 33.00, 15, ABarpapapa
38, 38, 38, -1, 187.00, 265.00, 33.00, 17, ABarpaappp
39, 39, 39, -1, 213.00, 244.00, 34.00, 19, ABarpaappa
40, 40, 40, -1, 258.00, 230.00, 32.00, 15, ABarpaapaa
41, 41, 41, -1, 236.00, 243.00, 34.00, 19, ABarpaapap
42, 42, 42, -1, 304.00, 216.00, 34.00, 19, ABarpaaaa
43, 43, 43, -1, 280.00, 218.00, 33.00, 17, ABarpaaap
44, 44, 44, -1, 210.00, 282.00, 33.00, 19, ABarppaaa
45, 45, 45, -1, 184.00, 300.00, 32.00, 19, ABarppaap
46, 46, 46, -1, 137.00, 334.00, 30.00, 21, ABarppapp
47, 47, 47, -1, 183.00, 330.00, 33.00, 19, ABarppapa
48, 48, 48, -1, 103.00, 258.00, 30.00, 19, ABarppppp
49, 49, 49, -1, 124.00, 226.00, 29.00, 21, ABarppppa
50, 50, 50, -1, 191.00, 213.00, 34.00, 19, ABarpppaa
51, 51, 309, -1, 142.00, 241.00, 30.00, 15, ABarpppapp
52, 52, 52, -1, 171.00, 229.00, 32.00, 17, ABarpppapa
53, 53, 53, -1, 271.00, 187.00, 30.00, 17, ABalappppa
54, 54, 54, -1, 248.00, 200.00, 29.00, 17, ABalappppp
55, 55, 55, -1, 322.00, 200.00, 31.00, 17, ABalapppaa
56, 56, 56, -1, 294.00, 195.00, 31.00, 17, ABalapppap
57, 57, 57, -1, 336.00, 180.00, 29.00, 15, ABalappapa
58, 58, 58, -1, 344.00, 198.00, 26.00, 17, ABalappaa
59, 59, 59, -1, 313.00, 179.00, 32.00, 15, ABalappapp
60, 60, 60, -1, 283.00, 261.00, 28.00, 15, ABalapappp
61, 61, 61, -1, 309.00, 254.00, 28.00, 17, ABalapappa
62, 62, 62, -1, 343.00, 217.00, 28.00, 13, ABalapapaa
63, 63, 63, -1, 322.00, 233.00, 32.00, 17, ABalapapap
64, 64, 64, -1, 360.00, 225.00, 27.00, 15, ABalapaaaa
65, 65, 65, -1, 341.00, 238.00, 29.00, 15, ABalapaaap
66, 66, 66, -1, 361.00, 245.00, 25.00, 13, ABalapaapa
67, 67, 67, -1, 340.00, 259.00, 28.00, 15, ABalapaapp
68, 68, 68, -1, 324.00, 175.00, 17.00, 17, ABalaapaa
69, 69, 69, -1, 300.00, 168.00, 17.00, 17, ABalaapap
70, 70, 70, -1, 294.00, 178.00, 24.00, 19, ABalaappap
71, 71, 71, -1, 316.00, 164.00, 21.00, 15, ABalaappaa
72, 72, 72, -1, 293.00, 177.00, 29.00, 19, ABalaapppp
73, 73, 73, -1, 324.00, 183.00, 27.00, 19, ABalaapppa
74, 74, 74, -1, 352.00, 244.00, 18.00, 15, ABalaaaalp
75, 75, 75, -1, 347.00, 199.00, 19.00, 15, ABalaaaar
76, 76, 76, -1, 351.00, 183.00, 24.00, 13, ABalaaappl
77, 77, 77, -1, 328.00, 172.00, 23.00, 15, ABalaaappr
78, 78, 78, -1, 362.00, 196.00, 24.00, 15, ABalaaapar
79, 79, 79, -1, 359.00, 226.00, 23.00, 17, ABalaaapal
80, 80, 80, -1, 176.00, 330.00, 12.00, 17, ABplppppap
81, 81, 81, -1, 201.00, 324.00, 11.00, 15, ABplppppaa
82, 82, 82, -1, 129.00, 316.00, 11.00, 17, ABplpppppp
83, 83, 83, -1, 156.00, 325.00, 10.00, 15, ABplpppppa
84, 84, 84, -1, 127.00, 344.00, 14.00, 15, ABplpppapp
85, 85, 85, -1, 157.00, 345.00, 14.00, 17, ABplpppapa
86, 86, 86, -1, 177.00, 341.00, 15.00, 15, ABplpppaap
87, 87, 87, -1, 201.00, 342.00, 15.00, 15, ABplpppaaa
88, 88, 88, -1, 183.00, 349.00, 18.00, 15, ABplppappp
89, 89, 89, -1, 215.00, 352.00, 19.00, 15, ABplppappa
90, 90, 90, -1, 248.00, 332.00, 19.00, 17, ABplppapaa
91, 91, 91, -1, 230.00, 345.00, 18.00, 17, ABplppapap
92, 92, 92, -1, 216.00, 337.00, 13.00, 15, ABplppaapp
93, 93, 93, -1, 277.00, 308.00, 17.00, 15, ABplppaaaa
94, 94, 94, -1, 261.00, 324.00, 18.00, 15, ABplppaaap
95, 95, 95, -1, 238.00, 288.00, 10.00, 19, ABplpappaa
96, 96, 96, -1, 207.00, 286.00, 9.00, 15, ABplpappap
97, 97, 97, -1, 167.00, 306.00, 10.00, 17, ABplpapppp
98, 98, 98, -1, 197.00, 301.00, 10.00, 15, ABplpapppa
99, 99, 99, -1, 221.00, 317.00, 11.00, 15, ABplpapapp
100, 100, 100, -1, 247.00, 317.00, 11.00, 17, ABplpapapa
101, 101, 101, -1, 256.00, 315.00, 15.00, 17, ABplpapaap
102, 102, 102, -1, 270.00, 305.00, 10.00, 15, ABplpapaaa
103, 103, 103, -1, 297.00, 294.00, 19.00, 15, ABplpaaaap
104, 104, 104, -1, 313.00, 282.00, 20.00, 17, ABplpaaaaa
105, 105, 105, -1, 307.00, 310.00, 18.00, 15, ABplpaaapa
106, 106, 106, -1, 288.00, 321.00, 20.00, 15, ABplpaaapp
107, 107, 107, -1, 282.00, 327.00, 25.00, 15, ABplpaappa
108, 108, 108, -1, 264.00, 336.00, 22.00, 15, ABplpaappp
109, 109, 109, -1, 317.00, 301.00, 22.00, 15, ABplpaapaa
110, 110, 110, -1, 298.00, 315.00, 25.00, 15, ABplpaapap
111, 111, 111, -1, 253.00, 327.00, 31.00, 17, ABplaappap
112, 112, 112, -1, 280.00, 317.00, 32.00, 17, ABplaappaa
113, 113, 113, -1, 255.00, 333.00, 26.00, 17, ABplaapppa
114, 114, 114, -1, 230.00, 339.00, 27.00, 17, ABplaapppp
115, 115, 115, -1, 323.00, 271.00, 34.00, 17, ABplaapaaa
116, 116, 116, -1, 300.00, 279.00, 34.00, 17, ABplaapaap
117, 117, 117, -1, 265.00, 298.00, 34.00, 17, ABplaapapp
118, 118, 118, -1, 290.00, 293.00, 33.00, 15, ABplaapapa
119, 119, 119, -1, 302.00, 256.00, 34.00, 15, ABplaaaaap
120, 119, 120, -1, 323.00, 249.00, 34.00, 15, ABplaaaaaa
121, 120, 121, -1, 268.00, 248.00, 32.00, 15, ABplaaaapp
122, 121, 122, -1, 293.00, 234.00, 34.00, 13, ABplaaaapa
123, 122, 123, -1, 236.00, 293.00, 33.00, 19, ABplaaappp
124, 123, 124, -1, 256.00, 275.00, 33.00, 17, ABplaaappa
125, 124, 125, -1, 276.00, 265.00, 33.00, 17, ABplaaapa
126, 125, 126, -1, 133.00, 357.00, 18.00, 21, ABplapppp
127, 126, 127, -1, 163.00, 356.00, 19.00, 19, ABplapppa
128, 127, 128, -1, 213.00, 353.00, 25.00, 17, ABplappaaa
129, 128, 129, -1, 182.00, 360.00, 23.00, 17, ABplappaap
130, 129, 130, -1, 154.00, 362.00, 24.00, 17, ABplappapp
131, 130, 131, -1, 172.00, 353.00, 28.00, 19, ABplappapa
132, 131, 132, -1, 197.00, 344.00, 30.00, 15, ABplapaapp
133, 132, 133, -1, 214.00, 326.00, 29.00, 15, ABplapaapa
134, 133, 134, -1, 243.00, 303.00, 30.00, 15, ABplapaaaa
135, 134, 135, -1, 215.00, 312.00, 32.00, 17, ABplapaaap
136, 135, 136, -1, 108.00, 351.00, 20.00, 15, ABplapappp
137, 136, 137, -1, 133.00, 363.00, 28.00, 17, ABplapapap
138, 137, 138, -1, 126.00, 355.00, 23.00, 17, ABplapappa
139, 138, 139, -1, 154.00, 352.00, 32.00, 17, ABplapapaa
140, 139, 140, -1, 204.00, 202.00, 11.00, 15, ABprpapaaa
141, 140, 141, -1, 178.00, 208.00, 11.00, 17, ABprpapaap
142, 141, 142, -1, 169.00, 237.00, 9.00, 17, ABprpapapp
143, 142, 143, -1, 193.00, 224.00, 10.00, 15, ABprpapapa
144, 143, 144, -1, 146.00, 281.00, 10.00, 15, ABprpapppp
145, 144, 145, -1, 165.00, 265.00, 9.00, 17, ABprpapppa
146, 145, 146, -1, 189.00, 261.00, 9.00, 17, ABprpappap
147, 146, 147, -1, 206.00, 245.00, 11.00, 15, ABprpappaa
148, 147, 148, -1, 261.00, 178.00, 15.00, 15, ABprpaaaaa
149, 148, 149, -1, 233.00, 179.00, 15.00, 17, ABprpaaaap
150, 149, 150, -1, 200.00, 173.00, 15.00, 15, ABprpaaapp
151, 150, 151, -1, 222.00, 166.00, 16.00, 15, ABprpaaapa
152, 151, 152, -1, 247.00, 165.00, 18.00, 15, ABprpaapaa
153, 152, 153, -1, 220.00, 166.00, 20.00, 15, ABprpaapap
154, 153, 154, -1, 176.00, 178.00, 17.00, 15, ABprpaappp
155, 154, 155, -1, 201.00, 171.00, 20.00, 17, ABprpaappa
156, 155, 156, -1, 114.00, 247.00, 12.00, 15, ABprpppaap
157, 156, 157, -1, 136.00, 226.00, 10.00, 15, ABprpppaaa
158, 157, 158, -1, 100.00, 252.00, 10.00, 19, ABprpppapa
159, 158, 159, -1, 101.00, 283.00, 10.00, 15, ABprpppapp
160, 159, 160, -1, 133.00, 254.00, 10.00, 17, ABprppppap
161, 160, 161, -1, 152.00, 241.00, 11.00, 15, ABprppppaa
162, 161, 162, -1, 123.00, 298.00, 10.00, 17, ABprpppppp
163, 162, 163, -1, 121.00, 271.00, 9.00, 17, ABprpppppa
164, 163, 164, 165, 156.00, 218.00, 11.00, 17, ABprppaap
165, 164, 166, -1, 188.00, 193.00, 13.00, 17, ABprppaaa
166, 165, 167, -1, 167.00, 192.00, 13.00, 15, ABprppapaa
167, 166, 168, -1, 142.00, 203.00, 14.00, 15, ABprppapap
168, 167, 169, -1, 120.00, 225.00, 15.00, 15, ABprppappp
169, 167, 170, -1, 131.00, 216.00, 14.00, 15, ABprppappa
170, 168, 171, -1, 280.00, 167.00, 31.00, 15, ABpraapaaa
171, 169, 172, -1, 256.00, 169.00, 29.00, 15, ABpraapaap
172, 170, 173, -1, 235.00, 169.00, 30.00, 15, ABpraapapa
173, 171, 174, -1, 210.00, 175.00, 30.00, 17, ABpraapapp
174, 172, 175, -1, 153.00, 194.00, 19.00, 17, ABpraapppp
175, 173, 176, -1, 178.00, 183.00, 21.00, 17, ABpraapppa
176, 174, 177, -1, 188.00, 177.00, 25.00, 17, ABpraappap
177, 175, 178, -1, 219.00, 164.00, 24.00, 15, ABpraappaa
178, 176, 179, -1, 261.00, 169.00, 25.00, 15, ABpraaapap
179, 177, 180, -1, 281.00, 178.00, 25.00, 15, ABpraaapaa
180, 178, 181, -1, 251.00, 177.00, 23.00, 15, ABpraaappa
181, 179, 182, -1, 232.00, 180.00, 26.00, 19, ABpraaappp
182, 180, 183, -1, 283.00, 162.00, 22.00, 17, ABpraaaaa
183, 181, 184, -1, 265.00, 165.00, 19.00, 17, ABpraaaapa
184, 182, 185, -1, 240.00, 162.00, 23.00, 17, ABpraaaapp
185, 183, 186, -1, 90.00, 245.00, 20.00, 15, ABprappapp
186, 184, 187, -1, 106.00, 223.00, 24.00, 15, ABprappapa
187, 185, 188, -1, 110.00, 227.00, 19.00, 17, ABprappaap
188, 186, 189, -1, 131.00, 203.00, 19.00, 15, ABprappaaa
189, 187, 190, -1, 97.00, 250.00, 15.00, 21, ABprapppa
190, 188, 191, -1, 82.00, 270.00, 13.00, 19, ABprapppp
191, 189, 192, -1, 152.00, 207.00, 28.00, 15, ABprapaaap
192, 190, 193, -1, 180.00, 198.00, 28.00, 15, ABprapaaaa
193, 191, 194, -1, 123.00, 214.00, 23.00, 15, ABprapaapp
194, 192, 195, -1, 148.00, 212.00, 25.00, 15, ABprapaapa
195, 193, 196, -1, 72.00, 264.00, 20.00, 17, ABprapappa
196, 194, 197, -1, 68.00, 273.00, 17.00, 15, ABprapappp
197, 195, 198, -1, 79.00, 256.00, 24.00, 17, ABprapapap
198, 196, 199, -1, 94.00, 238.00, 27.00, 15, ABprapapaa
199, 197, 200, -1, 212.00, 195.00, 19.00, 19, MSppppa
200, 198, 201, -1, 181.00, 209.00, 23.00, 21, MSppppp
201, 199, 202, -1, 228.00, 214.00, 16.00, 19, MSpppaa
202, 200, 203, -1, 197.00, 217.00, 16.00, 17, MSpppap
203, 201, 204, -1, 250.00, 198.00, 16.00, 17, MSppaap
204, 202, 205, -1, 280.00, 185.00, 18.00, 19, MSppaaa
205, 203, 206, -1, 220.00, 195.00, 23.00, 19, MSppapp
206, 204, 207, -1, 251.00, 189.00, 20.00, 21, MSppapa
207, 205, 208, -1, 195.00, 261.00, 16.00, 17, MSpapapp
208, 206, 209, -1, 224.00, 247.00, 15.00, 15, MSpapapa
209, 207, 210, -1, 253.00, 247.00, 18.00, 15, MSpapaaa
210, 208, 211, -1, 224.00, 244.00, 18.00, 17, MSpapaap
211, 209, 212, -1, 201.00, 279.00, 13.00, 19, MSpappa
212, 210, 213, -1, 178.00, 276.00, 14.00, 23, MSpappp
213, 211, 214, -1, 265.00, 215.00, 28.00, 19, MSpaaapp
214, 212, 215, -1, 299.00, 201.00, 26.00, 15, MSpaaapa
215, 213, 216, -1, 305.00, 206.00, 22.00, 17, MSpaaaap
216, 214, 217, -1, 331.00, 194.00, 22.00, 15, MSpaaaaa
217, 215, 218, -1, 259.00, 215.00, 22.00, 15, MSpaapap
218, 215, 219, -1, 286.00, 208.00, 21.00, 15, MSpaapaa
219, 216, 220, -1, 234.00, 216.00, 21.00, 17, MSpaapp
220, 217, 221, -1, 262.00, 303.00, 22.00, 19, MSapppa
221, 218, 222, -1, 231.00, 316.00, 25.00, 19, MSapppp
222, 219, 223, -1, 261.00, 285.00, 20.00, 17, MSappaa
223, 220, 224, -1, 232.00, 302.00, 18.00, 17, MSappap
224, 221, 225, -1, 259.00, 285.00, 27.00, 19, MSapapp
225, 222, 226, -1, 285.00, 276.00, 24.00, 21, MSapapa
226, 223, 227, -1, 296.00, 265.00, 21.00, 17, MSapaap
227, 224, 228, -1, 327.00, 252.00, 21.00, 19, MSapaaa
228, 225, 229, -1, 323.00, 219.00, 28.00, 19, MSaaaaap
229, 226, 230, -1, 343.00, 213.00, 22.00, 19, MSaaaaaa
230, 227, 231, -1, 307.00, 223.00, 29.00, 15, MSaaaapa
231, 227, 232, -1, 282.00, 233.00, 28.00, 15, MSaaaapp
232, 228, 233, -1, 278.00, 248.00, 24.00, 17, MSaaapap
233, 229, 234, -1, 313.00, 239.00, 24.00, 17, MSaaapaa
234, 230, 235, -1, 257.00, 242.00, 24.00, 15, MSaaapp
235, 231, 236, -1, 208.00, 305.00, 14.00, 21, MSaappp
236, 232, 237, -1, 219.00, 287.00, 14.00, 15, MSaappa
237, 233, 238, -1, 268.00, 268.00, 18.00, 15, MSaapaaa
238, 234, 239, -1, 240.00, 276.00, 17.00, 19, MSaapap
239, 235, 240, -1, 215.00, 291.00, 24.00, 25, Ealp
240, 236, 241, -1, 145.00, 304.00, 25.00, 27, Eplp
241, 237, 242, -1, 148.00, 336.00, 23.00, 19, Cappa
242, 238, 243, -1, 128.00, 320.00, 17.00, 19, Cappp
243, 240, 244, -1, 148.00, 321.00, 15.00, 17, Capap
244, 239, 245, -1, 169.00, 308.00, 15.00, 19, Capaa
246, 241, 246, -1, 108.00, 325.00, 31.00, 19, Caaapa
247, 242, 247, -1, 94.00, 332.00, 23.00, 19, Caaapp
248, 243, 248, -1, 93.00, 323.00, 12.00, 19, Caapp
249, 244, 249, -1, 107.00, 321.00, 16.00, 19, Caapa
250, 245, 250, -1, 69.00, 297.00, 17.00, 17, Cpappd
251, 246, 251, -1, 85.00, 301.00, 10.00, 15, Cpappv
252, 247, 252, -1, 82.00, 319.00, 16.00, 19, Cpapaa
253, 248, 253, -1, 157.00, 257.00, 32.00, 19, Cpaaaa
254, 249, 254, -1, 85.00, 310.00, 28.00, 19, Cpaapp
255, 250, 255, -1, 152.00, 264.00, 15.00, 19, Cppaa
256, 251, 256, -1, 132.00, 278.00, 14.00, 23, Cppap
257, 252, 257, -1, 107.00, 296.00, 15.00, 21, Cpppp
258, 253, 258, -1, 108.00, 269.00, 19.00, 19, Cpppa
259, 254, 259, -1, 194.00, 315.00, 18.00, 19, Daap
260, 255, 260, -1, 213.00, 327.00, 21.00, 19, Daaa
261, 256, 261, -1, 186.00, 329.00, 23.00, 19, Dapp
262, 257, 262, -1, 173.00, 239.00, 16.00, 19, Dpap
263, 258, 263, -1, 171.00, 211.00, 17.00, 17, Dpaa
264, 259, 264, -1, 137.00, 242.00, 21.00, 19, Dppp
265, 260, 265, -1, 158.00, 228.00, 19.00, 19, Dppa
266, 261, 266, -1, 193.00, 280.00, 18.00, 21, Z3
267, 262, 267, -1, 157.00, 279.00, 20.00, 21, Z2
269, 264, 269, -1, 314.00, 303.00, 28.00, 15, ABalpppapp
270, 265, 270, -1, 293.00, 292.00, 28.00, 15, ABalpppppa
271, 266, 271, -1, 271.00, 306.00, 28.00, 19, ABalpppppp
272, 267, 272, -1, 301.00, 277.00, 29.00, 15, ABalppppap
273, 268, 273, -1, 323.00, 271.00, 27.00, 15, ABalppppaa
274, 269, 274, -1, 345.00, 277.00, 25.00, 15, ABalpppaaa
275, 270, 275, -1, 327.00, 281.00, 30.00, 15, ABalpppaap
276, 271, 276, -1, 329.00, 295.00, 25.00, 15, ABalpppapa
277, 272, 277, 278, 353.00, 262.00, 22.00, 17, ABalppaaa
278, 273, 279, 280, 336.00, 281.00, 20.00, 19, ABalppaap
279, 274, 281, -1, 282.00, 305.00, 14.00, 17, ABalppappp
280, 275, 282, -1, 304.00, 299.00, 14.00, 15, ABalppappa
281, 276, 283, -1, 312.00, 281.00, 15.00, 17, ABalppapap
282, 277, 284, -1, 332.00, 271.00, 16.00, 15, ABalppapaa
283, 278, 285, -1, 298.00, 284.00, 11.00, 17, ABalpapapa
284, 279, 286, -1, 274.00, 284.00, 11.00, 15, ABalpapapp
285, 280, 287, -1, 307.00, 266.00, 10.00, 15, ABalpapaap
286, 281, 288, -1, 320.00, 253.00, 10.00, 15, ABalpapaaa
287, 282, 289, -1, 279.00, 261.00, 13.00, 17, ABalpappap
288, 283, 290, -1, 292.00, 254.00, 10.00, 17, ABalpappaa
289, 284, 291, -1, 257.00, 275.00, 13.00, 19, ABalpapppp
290, 285, 292, -1, 285.00, 268.00, 17.00, 17, ABalpapppa
291, 286, 293, 294, 296.00, 243.00, 14.00, 17, ABalpaaap
292, 287, 295, -1, 330.00, 229.00, 11.00, 19, ABalpaaaa
293, 288, 296, -1, 311.00, 263.00, 16.00, 15, ABalpaappp
294, 289, 297, -1, 345.00, 255.00, 14.00, 17, ABalpaappa
295, 290, 298, -1, 321.00, 242.00, 15.00, 17, ABalpaapap
296, 291, 299, -1, 353.00, 219.00, 14.00, 15, ABalpaapaa
297, 292, 300, -1, 165.00, 252.00, 25.00, 25, Epra
299, 294, 302, -1, 198.00, 245.00, 21.00, 27, Earp
300, 295, 303, 304, 232.00, 262.00, 28.00, 17, Eala
302, 297, 305, -1, 168.00, 286.00, 27.00, 27, Epla
303, 298, 306, -1, 128.00, 278.00, 23.00, 25, Eprp
304, 299, 307, -1, 190.00, 315.00, 26.00, 19, Dapa
305, 300, 308, -1, 239.00, 268.00, 22.00, 19, MSaapaap
307, 302, 310, -1, 103.00, 285.00, 32.00, 19, Cpaapa
308, 303, 311, -1, 155.00, 295.00, 33.00, 17, Caaaaa
309, 304, 312, -1, 241.00, 326.00, 15.00, 15, ABplppaapa
310, 306, 313, -1, 68.00, 301.00, 24.00, 19, Cpapap
311, 307, 314, -1, 234.00, 228.00, 25.00, 25, Eara
312, 74, 315, -1, 352.00, 236.00, 19.00, 15, ABalaaaala
313, 309, 316, -1, 128.00, 311.00, 33.00, 17, Caaaap
315, 308, 51, -1, 122.00, 264.00, 33.00, 18, Cpaaap
