1, 1, 1, -1, 311.00, 202.00, 18.00, 15, ABaraappaa
2, 2, 2, -1, 292.00, 213.00, 18.00, 15, ABaraappap
3, 3, 3, -1, 273.00, 222.00, 18.00, 17, ABaraapppa
4, 4, 4, -1, 249.00, 220.00, 18.00, 15, ABaraapppp
5, 5, 5, -1, 274.00, 258.00, 23.00, 15, ABaraapapp
6, 6, 6, -1, 293.00, 246.00, 19.00, 19, ABaraapapa
7, 7, 7, -1, 331.00, 225.00, 18.00, 17, ABaraapaaa
8, 8, 8, -1, 307.00, 231.00, 18.00, 17, ABaraapaap
9, 9, 9, -1, 301.00, 189.00, 12.00, 15, ABaraaappa
10, 10, 10, -1, 281.00, 200.00, 11.00, 15, ABaraaappp
11, 11, 11, -1, 327.00, 212.00, 12.00, 15, ABaraaapaa
12, 12, 12, -1, 306.00, 208.00, 13.00, 15, ABaraaapap
13, 13, 13, -1, 344.00, 210.00, 14.00, 15, ABaraaaaaa
14, 14, 14, -1, 321.00, 192.00, 14.00, 15, ABaraaaaap
15, 15, 15, -1, 319.00, 220.00, 22.00, 17, ABaraaaapp
16, 16, 16, -1, 331.00, 202.00, 18.00, 15, ABaraaaapa
17, 17, 17, -1, 242.00, 252.00, 10.00, 17, ABarapapap
18, 18, 18, -1, 261.00, 240.00, 11.00, 15, ABarapapaa
19, 19, 19, -1, 223.00, 260.00, 13.00, 17, ABarapappp
20, 20, 20, -1, 244.00, 235.00, 13.00, 17, ABarapappa
21, 21, 21, -1, 278.00, 239.00, 10.00, 15, ABarapaaap
22, 22, 22, -1, 294.00, 227.00, 10.00, 17, ABarapaaaa
23, 23, 23, -1, 288.00, 216.00, 12.00, 15, ABarapaapa
24, 24, 24, -1, 270.00, 228.00, 14.00, 17, ABarapaapp
25, 25, 25, -1, 246.00, 208.00, 11.00, 15, ABarapppap
26, 26, 26, -1, 267.00, 194.00, 11.00, 17, ABarapppaa
27, 27, 27, -1, 236.00, 195.00, 12.00, 15, ABarappppa
28, 28, 28, -1, 216.00, 194.00, 12.00, 15, ABarappppp
29, 29, 29, -1, 264.00, 218.00, 10.00, 15, ABarappaaa
30, 30, 30, -1, 240.00, 230.00, 10.00, 15, ABarappaap
31, 31, 31, -1, 224.00, 215.00, 10.00, 17, ABarappapa
32, 32, 32, -1, 199.00, 225.00, 10.00, 15, ABarappapp
33, 33, 33, -1, 212.00, 194.00, 34.00, 17, ABarpapppa
34, 34, 34, -1, 195.00, 194.00, 32.00, 19, ABarpapppp
35, 35, 35, -1, 231.00, 194.00, 33.00, 17, ABarpappap
36, 36, 36, -1, 294.00, 188.00, 35.00, 17, ABarpapaaa
37, 37, 37, -1, 271.00, 185.00, 34.00, 17, ABarpapaap
38, 38, 38, -1, 246.00, 214.00, 32.00, 15, ABarpapapp
39, 39, 39, -1, 268.00, 207.00, 33.00, 17, ABarpapapa
40, 40, 40, -1, 198.00, 272.00, 34.00, 17, ABarpaappp
41, 41, 41, -1, 256.00, 230.00, 34.00, 15, ABarpaapaa
42, 42, 42, -1, 235.00, 234.00, 34.00, 17, ABarpaapap
43, 43, 43, -1, 322.00, 196.00, 33.00, 17, ABarpaaaaa
44, 44, 44, -1, 307.00, 224.00, 35.00, 15, ABarpaaaap
45, 45, 45, -1, 273.00, 225.00, 35.00, 15, ABarpaaapp
46, 46, 46, -1, 295.00, 210.00, 33.00, 15, ABarpaaapa
47, 47, 47, -1, 208.00, 307.00, 33.00, 15, ABarppaaap
48, 48, 48, -1, 219.00, 285.00, 35.00, 15, ABarppaaaa
49, 49, 49, -1, 162.00, 323.00, 34.00, 15, ABarppaapp
50, 50, 50, -1, 144.00, 332.00, 32.00, 17, ABarppappa
51, 51, 51, -1, 117.00, 344.00, 26.00, 17, ABarppappp
52, 52, 52, -1, 174.00, 343.00, 31.00, 17, ABarppapap
53, 53, 53, -1, 200.00, 333.00, 34.00, 17, ABarppapaa
54, 54, 54, -1, 86.00, 268.00, 25.00, 17, ABarpppppp
55, 55, 55, -1, 107.00, 244.00, 30.00, 17, ABarpppppa
56, 56, 56, -1, 152.00, 207.00, 29.00, 17, ABarppppaa
57, 57, 57, -1, 124.00, 220.00, 27.00, 17, ABarppppap
58, 58, 58, -1, 173.00, 207.00, 33.00, 19, ABarpppaap
59, 59, 59, -1, 194.00, 212.00, 36.00, 15, ABarpppaaa
60, 60, 60, -1, 278.00, 185.00, 29.00, 15, ABalappppa
61, 61, 61, -1, 251.00, 189.00, 31.00, 15, ABalappppp
62, 62, 62, -1, 322.00, 192.00, 28.00, 15, ABalapppaa
63, 63, 63, -1, 301.00, 189.00, 30.00, 15, ABalapppap
64, 64, 64, -1, 337.00, 175.00, 26.00, 15, ABalappapa
65, 65, 65, -1, 338.00, 200.00, 26.00, 15, ABalappaap
66, 66, 66, -1, 320.00, 175.00, 27.00, 17, ABalappapp
67, 67, 67, -1, 296.00, 261.00, 32.00, 17, ABalapappp
68, 68, 68, -1, 321.00, 257.00, 29.00, 19, ABalapappa
69, 69, 69, -1, 336.00, 214.00, 30.00, 15, ABalapapaa
70, 70, 70, -1, 327.00, 231.00, 31.00, 17, ABalapapap
71, 71, 71, -1, 357.00, 229.00, 25.00, 15, ABalapaaaa
72, 72, 72, -1, 342.00, 236.00, 27.00, 17, ABalapaaap
73, 73, 73, -1, 346.00, 249.00, 24.00, 17, ABalapaapa
74, 74, 74, -1, 334.00, 258.00, 25.00, 17, ABalapaapp
75, 75, 75, -1, 317.00, 174.00, 17.00, 15, ABalaapaaa
76, 76, 76, -1, 276.00, 176.00, 13.00, 15, ABalaapapa
77, 77, 77, -1, 297.00, 171.00, 14.00, 15, ABalaapaap
78, 78, 78, -1, 294.00, 177.00, 20.00, 17, ABalaappap
79, 79, 79, -1, 306.00, 163.00, 19.00, 15, ABalaappaa
80, 80, 80, -1, 292.00, 173.00, 26.00, 19, ABalaapppp
81, 81, 81, -1, 313.00, 177.00, 23.00, 17, ABalaapppa
82, 82, 82, -1, 343.00, 261.00, 16.00, 17, ABalaaaalp
83, 83, 83, -1, 334.00, 185.00, 17.00, 15, ABalaaaarr
84, 84, 84, -1, 353.00, 212.00, 18.00, 17, ABalaaaarl
85, 85, 85, -1, 340.00, 183.00, 22.00, 15, ABalaaappl
86, 86, 86, -1, 323.00, 173.00, 21.00, 17, ABalaaappr
87, 87, 87, -1, 353.00, 202.00, 22.00, 17, ABalaaapar
88, 88, 88, -1, 356.00, 221.00, 22.00, 15, ABalaaapal
89, 89, 89, -1, 172.00, 326.00, 11.00, 15, ABplppppap
90, 90, 90, -1, 192.00, 320.00, 12.00, 15, ABplppppaa
91, 91, 91, -1, 136.00, 313.00, 11.00, 15, ABplpppppp
92, 92, 92, -1, 155.00, 311.00, 12.00, 15, ABplpppppa
93, 93, 93, -1, 134.00, 335.00, 11.00, 13, ABplpppapp
94, 94, 94, -1, 149.00, 341.00, 12.00, 19, ABplpppapa
95, 95, 95, -1, 172.00, 344.00, 14.00, 15, ABplpppaap
96, 96, 96, -1, 190.00, 335.00, 14.00, 15, ABplpppaaa
97, 97, 97, -1, 191.00, 345.00, 17.00, 15, ABplppappp
98, 98, 98, -1, 211.00, 345.00, 18.00, 15, ABplppappa
99, 99, 99, -1, 246.00, 330.00, 17.00, 15, ABplppapaa
100, 100, 100, -1, 230.00, 343.00, 17.00, 15, ABplppapap
101, 101, 101, -1, 210.00, 336.00, 13.00, 15, ABplppaapp
102, 102, 102, -1, 266.00, 321.00, 18.00, 17, ABplppaaaa
103, 103, 103, -1, 263.00, 336.00, 19.00, 13, ABplppaaap
104, 104, 104, -1, 232.00, 283.00, 10.00, 23, ABplpappaa
105, 105, 105, -1, 209.00, 285.00, 9.00, 13, ABplpappap
106, 106, 106, -1, 171.00, 302.00, 10.00, 15, ABplpapppp
107, 107, 107, -1, 195.00, 299.00, 10.00, 17, ABplpapppa
108, 108, 108, -1, 215.00, 317.00, 11.00, 17, ABplpapapp
109, 109, 109, -1, 236.00, 314.00, 12.00, 17, ABplpapapa
110, 110, 110, -1, 244.00, 310.00, 15.00, 17, ABplpapaap
111, 111, 111, -1, 260.00, 305.00, 14.00, 15, ABplpapaaa
112, 112, 112, -1, 285.00, 305.00, 18.00, 15, ABplpaaaap
113, 113, 113, -1, 305.00, 293.00, 18.00, 15, ABplpaaaaa
114, 114, 114, -1, 303.00, 313.00, 19.00, 15, ABplpaaapa
115, 115, 115, -1, 285.00, 322.00, 20.00, 15, ABplpaaapp
116, 116, 116, -1, 275.00, 326.00, 26.00, 15, ABplpaappa
117, 117, 117, -1, 263.00, 337.00, 22.00, 15, ABplpaappp
118, 118, 118, -1, 310.00, 299.00, 22.00, 15, ABplpaapaa
119, 119, 119, -1, 293.00, 317.00, 24.00, 17, ABplpaapap
120, 120, 120, -1, 262.00, 315.00, 32.00, 19, ABplaappap
121, 121, 121, -1, 289.00, 308.00, 33.00, 15, ABplaappaa
122, 122, 122, -1, 253.00, 331.00, 27.00, 17, ABplaapppa
123, 123, 123, -1, 233.00, 344.00, 26.00, 17, ABplaapppp
124, 124, 124, -1, 334.00, 265.00, 32.00, 15, ABplaapaaa
125, 125, 125, -1, 313.00, 273.00, 35.00, 17, ABplaapaap
126, 126, 126, -1, 277.00, 287.00, 33.00, 19, ABplaapapp
127, 127, 127, -1, 304.00, 292.00, 33.00, 15, ABplaapapa
128, 128, 128, -1, 310.00, 245.00, 34.00, 15, ABplaaaaap
129, 129, 129, -1, 329.00, 239.00, 35.00, 15, ABplaaaaaa
130, 130, 130, -1, 271.00, 249.00, 33.00, 15, ABplaaaapp
131, 131, 131, -1, 291.00, 235.00, 34.00, 15, ABplaaaapa
132, 132, 132, -1, 235.00, 293.00, 34.00, 17, ABplaaappp
133, 133, 133, -1, 252.00, 276.00, 33.00, 15, ABplaaappa
134, 134, 134, -1, 270.00, 268.00, 34.00, 15, ABplaaapap
135, 135, 135, -1, 289.00, 261.00, 35.00, 15, ABplaaapaa
136, 136, 136, -1, 132.00, 362.00, 17.00, 15, ABplappppa
137, 137, 137, -1, 114.00, 345.00, 14.00, 17, ABplappppp
138, 138, 138, -1, 174.00, 351.00, 19.00, 15, ABplapppaa
139, 139, 139, -1, 153.00, 354.00, 17.00, 15, ABplapppap
140, 140, 140, -1, 212.00, 352.00, 24.00, 19, ABplappaaa
141, 141, 141, -1, 188.00, 357.00, 23.00, 17, ABplappaap
142, 142, 142, -1, 161.00, 357.00, 24.00, 17, ABplappapp
143, 143, 143, -1, 170.00, 353.00, 28.00, 19, ABplappapa
144, 144, 144, -1, 198.00, 351.00, 29.00, 17, ABplapaapp
145, 145, 145, -1, 218.00, 336.00, 31.00, 15, ABplapaapa
146, 146, 146, -1, 242.00, 306.00, 31.00, 15, ABplapaaaa
147, 147, 147, -1, 224.00, 316.00, 31.00, 15, ABplapaaap
148, 148, 148, -1, 108.00, 355.00, 19.00, 17, ABplapappp
149, 149, 149, -1, 136.00, 362.00, 25.00, 17, ABplapapap
150, 150, 150, -1, 123.00, 361.00, 22.00, 19, ABplapappa
151, 151, 151, -1, 141.00, 352.00, 30.00, 17, ABplapapaa
152, 152, 152, -1, 207.00, 213.00, 13.00, 15, ABprpapaaa
153, 153, 153, -1, 190.00, 211.00, 12.00, 15, ABprpapaap
154, 154, 154, -1, 164.00, 244.00, 10.00, 17, ABprpapapp
155, 155, 155, -1, 183.00, 235.00, 10.00, 17, ABprpapapa
156, 156, 156, -1, 147.00, 285.00, 10.00, 17, ABprpapppp
157, 157, 157, -1, 172.00, 270.00, 9.00, 17, ABprpapppa
158, 158, 158, -1, 198.00, 262.00, 10.00, 19, ABprpappap
159, 159, 159, -1, 211.00, 243.00, 10.00, 17, ABprpappaa
160, 160, 160, -1, 257.00, 183.00, 14.00, 17, ABprpaaaaa
161, 161, 161, -1, 240.00, 176.00, 12.00, 15, ABprpaaaap
162, 162, 162, -1, 209.00, 178.00, 16.00, 17, ABprpaaapp
163, 163, 163, -1, 227.00, 177.00, 15.00, 15, ABprpaaapa
164, 164, 164, -1, 246.00, 168.00, 17.00, 15, ABprpaapaa
165, 165, 165, -1, 220.00, 165.00, 18.00, 17, ABprpaapap
166, 166, 166, -1, 187.00, 176.00, 16.00, 15, ABprpaappp
167, 167, 167, -1, 205.00, 177.00, 20.00, 15, ABprpaappa
168, 168, 168, -1, 113.00, 249.00, 11.00, 15, ABprpppaap
169, 169, 169, -1, 133.00, 235.00, 11.00, 15, ABprpppaaa
170, 170, 170, -1, 104.00, 268.00, 11.00, 17, ABprpppapa
171, 171, 171, -1, 101.00, 293.00, 10.00, 13, ABprpppapp
172, 172, 172, -1, 135.00, 261.00, 11.00, 17, ABprppppap
173, 173, 173, -1, 148.00, 248.00, 11.00, 15, ABprppppaa
174, 174, 174, -1, 130.00, 299.00, 13.00, 15, ABprpppppp
175, 175, 175, -1, 122.00, 283.00, 11.00, 17, ABprpppppa
176, 176, 176, -1, 166.00, 224.00, 12.00, 15, ABprppaapa
177, 177, 177, -1, 151.00, 226.00, 11.00, 15, ABprppaapp
178, 178, 178, -1, 199.00, 186.00, 12.00, 17, ABprppaaaa
179, 179, 179, -1, 181.00, 184.00, 12.00, 13, ABprppaaap
180, 180, 180, -1, 176.00, 199.00, 13.00, 15, ABprppapaa
181, 181, 181, -1, 157.00, 203.00, 13.00, 15, ABprppapap
182, 182, 182, -1, 122.00, 226.00, 13.00, 15, ABprppappp
183, 183, 183, -1, 138.00, 213.00, 13.00, 15, ABprppappa
184, 184, 184, -1, 289.00, 170.00, 30.00, 17, ABpraapaaa
185, 185, 185, -1, 264.00, 169.00, 30.00, 15, ABpraapaap
186, 186, 186, -1, 240.00, 169.00, 30.00, 17, ABpraapapa
187, 187, 187, -1, 221.00, 177.00, 30.00, 17, ABpraapapp
188, 188, 188, -1, 150.00, 193.00, 18.00, 15, ABpraapppp
189, 189, 189, -1, 177.00, 182.00, 21.00, 17, ABpraapppa
190, 190, 190, -1, 194.00, 175.00, 25.00, 17, ABpraappap
191, 191, 191, -1, 217.00, 162.00, 24.00, 15, ABpraappaa
192, 192, 192, -1, 259.00, 169.00, 26.00, 19, ABpraaapap
193, 193, 193, -1, 274.00, 175.00, 25.00, 15, ABpraaapaa
194, 194, 194, -1, 243.00, 174.00, 26.00, 15, ABpraaappa
195, 195, 195, -1, 221.00, 178.00, 24.00, 19, ABpraaappp
196, 196, 196, -1, 268.00, 158.00, 24.00, 15, ABpraaaaap
197, 197, 197, -1, 285.00, 160.00, 22.00, 15, ABpraaaaaa
198, 198, 198, -1, 261.00, 161.00, 20.00, 15, ABpraaaapa
199, 199, 199, -1, 239.00, 159.00, 22.00, 15, ABpraaaapp
200, 200, 200, -1, 96.00, 232.00, 20.00, 15, ABprappapp
201, 201, 201, -1, 114.00, 220.00, 23.00, 15, ABprappapa
202, 202, 202, -1, 117.00, 220.00, 18.00, 17, ABprappaap
203, 203, 203, -1, 133.00, 204.00, 17.00, 17, ABprappaaa
204, 204, 204, -1, 106.00, 232.00, 14.00, 15, ABprapppaa
205, 205, 205, -1, 96.00, 250.00, 14.00, 15, ABprapppap
206, 206, 206, -1, 82.00, 283.00, 12.00, 17, ABprappppp
207, 207, 207, -1, 83.00, 260.00, 13.00, 15, ABprappppa
208, 208, 208, -1, 169.00, 203.00, 27.00, 15, ABprapaaap
209, 209, 209, -1, 186.00, 194.00, 28.00, 15, ABprapaaaa
210, 210, 210, -1, 140.00, 203.00, 23.00, 15, ABprapaapp
211, 211, 211, -1, 159.00, 195.00, 24.00, 15, ABprapaapa
212, 212, 212, -1, 72.00, 255.00, 18.00, 17, ABprapappa
213, 213, 213, -1, 68.00, 274.00, 16.00, 15, ABprapappp
214, 214, 214, -1, 79.00, 252.00, 22.00, 17, ABprapapap
215, 215, 215, -1, 95.00, 241.00, 26.00, 17, ABprapapaa
216, 216, 216, -1, 220.00, 196.00, 20.00, 15, MSppppa
217, 217, 217, -1, 198.00, 213.00, 26.00, 19, MSppppp
218, 218, 218, -1, 228.00, 216.00, 16.00, 15, MSpppaa
219, 219, 219, -1, 205.00, 213.00, 17.00, 19, MSpppap
220, 220, 220, -1, 251.00, 198.00, 17.00, 19, MSppaap
221, 221, 221, -1, 288.00, 185.00, 16.00, 15, MSppaaaa
222, 222, 222, -1, 271.00, 191.00, 19.00, 15, MSppaaap
223, 223, 223, -1, 243.00, 191.00, 24.00, 15, MSppappa
224, 224, 224, -1, 258.00, 180.00, 20.00, 15, MSppapaa
225, 225, 225, -1, 241.00, 192.00, 20.00, 15, MSppapap
226, 226, 226, -1, 202.00, 261.00, 15.00, 15, MSpapapp
227, 227, 227, -1, 216.00, 241.00, 15.00, 15, MSpapapa
228, 228, 228, -1, 259.00, 244.00, 17.00, 17, MSpapaaa
229, 229, 229, -1, 235.00, 244.00, 18.00, 17, MSpapaap
230, 230, 230, -1, 189.00, 286.00, 13.00, 19, MSpappa
231, 231, 231, -1, 176.00, 258.00, 14.00, 23, MSpappp
232, 232, 232, -1, 268.00, 219.00, 28.00, 19, MSpaaapp
233, 233, 233, -1, 290.00, 205.00, 27.00, 15, MSpaaapa
234, 234, 234, -1, 303.00, 206.00, 23.00, 15, MSpaaaap
235, 235, 235, -1, 322.00, 194.00, 21.00, 15, MSpaaaaa
236, 236, 236, -1, 260.00, 210.00, 22.00, 19, MSpaapap
237, 237, 237, -1, 285.00, 199.00, 22.00, 15, MSpaapaa
238, 238, 238, -1, 207.00, 240.00, 26.00, 19, Earap
239, 239, 239, -1, 259.00, 302.00, 24.00, 19, MSapppa
240, 240, 240, -1, 226.00, 300.00, 27.00, 19, MSapppp
241, 241, 241, -1, 254.00, 287.00, 21.00, 17, MSappaa
242, 242, 242, -1, 245.00, 307.00, 20.00, 19, MSappap
243, 243, 243, -1, 283.00, 276.00, 28.00, 15, MSapappa
244, 244, 244, -1, 251.00, 282.00, 28.00, 15, MSapappp
245, 245, 245, -1, 279.00, 284.00, 24.00, 17, MSapapap
246, 246, 246, -1, 306.00, 272.00, 24.00, 15, MSapapaa
247, 247, 247, -1, 290.00, 278.00, 20.00, 19, MSapaap
248, 248, 248, -1, 336.00, 250.00, 20.00, 15, MSapaaaa
249, 249, 249, -1, 313.00, 259.00, 21.00, 15, MSapaaap
250, 250, 250, -1, 320.00, 219.00, 26.00, 17, MSaaaaap
251, 251, 251, -1, 338.00, 214.00, 22.00, 15, MSaaaaaa
252, 252, 252, -1, 305.00, 221.00, 29.00, 15, MSaaaapa
253, 253, 253, -1, 283.00, 237.00, 29.00, 15, MSaaaapp
254, 254, 254, -1, 286.00, 243.00, 25.00, 15, MSaaapap
255, 255, 255, -1, 307.00, 240.00, 25.00, 19, MSaaapaa
256, 256, 256, -1, 265.00, 244.00, 26.00, 17, MSaaapp
257, 257, 257, -1, 209.00, 308.00, 15.00, 23, MSaappp
258, 258, 258, -1, 213.00, 289.00, 13.00, 17, MSaappa
259, 259, 259, -1, 270.00, 267.00, 19.00, 17, MSaapaaa
260, 260, 260, -1, 227.00, 282.00, 17.00, 17, MSaapapp
261, 261, 261, -1, 249.00, 270.00, 17.00, 15, MSaapapa
262, 262, 262, -1, 228.00, 276.00, 23.00, 19, Ealpa
263, 263, 263, -1, 195.00, 282.00, 23.00, 19, Ealpp
264, 264, 264, -1, 141.00, 304.00, 26.00, 19, Eplpa
265, 265, 265, -1, 139.00, 341.00, 21.00, 19, Cappap
266, 266, 266, -1, 161.00, 324.00, 22.00, 17, Cappaa
267, 267, 267, -1, 130.00, 338.00, 19.00, 15, Capppa
268, 268, 268, -1, 123.00, 323.00, 13.00, 13, Capppp
269, 269, 269, -1, 156.00, 328.00, 17.00, 21, Capap
270, 270, 270, 271, 177.00, 312.00, 19.00, 21, Capaa
271, 272, 272, -1, 88.00, 330.00, 26.00, 21, Caaapp
272, 273, 273, -1, 91.00, 336.00, 15.00, 17, Caappd
273, 274, 274, -1, 92.00, 321.00, 11.00, 17, Caappv
274, 275, 275, -1, 98.00, 318.00, 12.00, 21, Caapa
275, 276, 276, -1, 71.00, 299.00, 17.00, 17, Cpappd
276, 277, 277, -1, 78.00, 308.00, 12.00, 17, Cpappv
277, 278, 278, -1, 77.00, 322.00, 19.00, 17, Cpapaa
278, 279, 279, -1, 83.00, 297.00, 27.00, 21, Cpaapp
279, 280, 280, -1, 149.00, 276.00, 14.00, 17, Cppaap
280, 281, 281, -1, 159.00, 236.00, 17.00, 19, Cppaaa
281, 282, 282, -1, 137.00, 251.00, 18.00, 19, Cppapa
282, 283, 283, -1, 126.00, 278.00, 15.00, 19, Cppapp
283, 284, 284, -1, 126.00, 241.00, 22.00, 17, Cpppaa
284, 285, 285, -1, 110.00, 257.00, 19.00, 17, Cpppap
285, 286, 286, -1, 214.00, 315.00, 20.00, 19, Daap
286, 287, 287, -1, 232.00, 316.00, 24.00, 19, Daaa
287, 288, 288, -1, 194.00, 326.00, 23.00, 19, Dapp
288, 289, 289, -1, 186.00, 228.00, 17.00, 19, Dpap
289, 290, 290, -1, 194.00, 203.00, 20.00, 19, Dpaa
290, 291, 291, -1, 151.00, 233.00, 23.00, 21, Dppp
291, 292, 292, -1, 168.00, 215.00, 20.00, 17, Dppa
292, 293, 293, -1, 190.00, 282.00, 16.00, 17, Z3
293, 294, 294, -1, 152.00, 285.00, 18.00, 23, Z2
295, 296, 296, -1, 319.00, 301.00, 28.00, 17, ABalpppapp
296, 297, 297, -1, 300.00, 299.00, 27.00, 17, ABalpppppa
297, 298, 298, -1, 278.00, 305.00, 29.00, 19, ABalpppppp
298, 299, 299, -1, 312.00, 281.00, 30.00, 17, ABalppppap
299, 300, 300, -1, 327.00, 276.00, 25.00, 15, ABalppppaa
300, 301, 301, -1, 345.00, 281.00, 23.00, 15, ABalpppaaa
301, 302, 302, -1, 341.00, 280.00, 29.00, 17, ABalpppaap
302, 303, 303, -1, 327.00, 296.00, 24.00, 15, ABalpppapa
303, 304, 304, -1, 359.00, 253.00, 21.00, 13, ABalppaaaa
304, 305, 305, -1, 352.00, 267.00, 21.00, 15, ABalppaaap
305, 306, 306, -1, 329.00, 292.00, 20.00, 15, ABalppaapp
306, 307, 307, -1, 337.00, 281.00, 18.00, 13, ABalppaapa
307, 308, 308, -1, 278.00, 311.00, 13.00, 17, ABalppappp
308, 309, 309, -1, 299.00, 298.00, 14.00, 19, ABalppappa
309, 310, 310, -1, 303.00, 283.00, 13.00, 15, ABalppapap
310, 311, 311, -1, 319.00, 277.00, 12.00, 15, ABalppapaa
311, 312, 312, -1, 289.00, 289.00, 10.00, 19, ABalpapapa
312, 313, 313, -1, 267.00, 297.00, 10.00, 17, ABalpapapp
313, 314, 314, -1, 292.00, 271.00, 11.00, 15, ABalpapaap
314, 315, 315, -1, 305.00, 257.00, 10.00, 17, ABalpapaaa
315, 316, 316, -1, 267.00, 265.00, 12.00, 19, ABalpappap
316, 317, 317, -1, 283.00, 254.00, 11.00, 15, ABalpappaa
317, 318, 318, -1, 249.00, 279.00, 14.00, 19, ABalpapppp
318, 319, 319, -1, 277.00, 273.00, 16.00, 19, ABalpapppa
319, 320, 320, -1, 293.00, 258.00, 17.00, 15, ABalpaaapp
320, 321, 321, -1, 300.00, 246.00, 14.00, 15, ABalpaaapa
321, 322, 322, -1, 310.00, 240.00, 10.00, 15, ABalpaaaap
322, 323, 323, -1, 339.00, 241.00, 11.00, 17, ABalpaaaaa
323, 324, 324, -1, 310.00, 266.00, 15.00, 15, ABalpaappp
324, 325, 325, -1, 332.00, 260.00, 13.00, 15, ABalpaappa
325, 326, 326, -1, 322.00, 239.00, 14.00, 21, ABalpaapap
326, 327, 327, -1, 340.00, 228.00, 15.00, 15, ABalpaapaa
327, 328, 328, -1, 177.00, 241.00, 25.00, 19, Epraa
328, 329, 329, -1, 146.00, 258.00, 24.00, 19, Eprap
329, 330, 330, -1, 228.00, 223.00, 21.00, 13, MSpaapp
330, 331, 331, -1, 171.00, 257.00, 21.00, 19, Earpp
331, 332, 332, -1, 209.00, 265.00, 29.00, 21, Ealap
332, 333, 333, -1, 246.00, 256.00, 28.00, 21, Ealaa
333, 334, 334, -1, 185.00, 279.00, 30.00, 19, Eplaa
334, 335, 335, -1, 164.00, 301.00, 26.00, 19, Eplap
335, 336, 336, -1, 114.00, 286.00, 20.00, 17, Eprpp
336, 337, 337, -1, 198.00, 323.00, 28.00, 21, Dapa
337, 338, 338, -1, 248.00, 260.00, 22.00, 19, MSaapaap
338, 339, 339, -1, 136.00, 232.00, 31.00, 15, ABarpppapp
339, 340, 361, -1, 154.00, 293.00, 34.00, 17, Caaaaa
340, 341, 340, -1, 231.00, 333.00, 13.00, 15, ABplppaapa
341, 342, 341, -1, 69.00, 299.00, 23.00, 17, Cpapap
342, 343, 342, -1, 245.00, 227.00, 24.00, 19, Earaa
343, 344, 343, -1, 353.00, 241.00, 18.00, 15, ABalaaaala
344, 345, 344, -1, 247.00, 190.00, 35.00, 13, ABarpappaa
345, 346, 345, -1, 351.00, 193.00, 25.00, 15, ABalappaaa
346, 347, 346, -1, 91.00, 266.00, 18.00, 17, Cppppa
347, 348, 347, -1, 102.00, 302.00, 15.00, 19, Cppppp
348, 349, 348, -1, 275.00, 166.00, 18.00, 15, ABalaapapp
349, 350, 349, -1, 170.00, 230.00, 34.00, 19, ABarpppapa
350, 351, 350, -1, 213.00, 241.00, 21.00, 19, Earpa
351, 352, 351, -1, 122.00, 315.00, 20.00, 19, Eplpp
352, 353, 352, -1, 225.00, 205.00, 27.00, 15, MSppappp
353, 354, 353, -1, 120.00, 255.00, 32.00, 19, Cpaaap
354, 355, 354, -1, 187.00, 297.00, 34.00, 17, ABarppaapa
355, 336, 355, -1, 127.00, 275.00, 25.00, 15, Eprpa
356, 357, 358, -1, 101.00, 277.00, 31.00, 17, Cpaapa
357, 358, 356, -1, 212.00, 241.00, 33.00, 15, ABarpaappa
358, 359, 357, -1, 151.00, 253.00, 33.00, 19, Cpaaaa
359, 271, 359, -1, 109.00, 322.00, 33.00, 17, Caaapa
360, 360, 360, -1, 126.00, 299.00, 33.00, 15, Caaaap
