1, 1, 1, -1, 308.00, 206.00, 21.00, 17, ABaraappaa
2, 2, 2, -1, 286.00, 211.00, 19.00, 17, ABaraappap
3, 3, 3, -1, 268.00, 225.00, 19.00, 19, ABaraapppa
4, 4, 4, -1, 245.00, 223.00, 20.00, 15, ABaraapppp
5, 5, 5, -1, 274.00, 262.00, 23.00, 15, ABaraapapp
6, 6, 6, -1, 286.00, 253.00, 20.00, 19, ABaraapapa
7, 7, 7, -1, 320.00, 221.00, 20.00, 15, ABaraapaaa
8, 8, 8, -1, 303.00, 235.00, 22.00, 19, ABaraapaap
9, 9, 9, -1, 300.00, 201.00, 11.00, 15, ABaraaappa
10, 10, 10, -1, 280.00, 205.00, 10.00, 15, ABaraaappp
11, 11, 11, -1, 321.00, 211.00, 16.00, 15, ABaraaapaa
12, 12, 12, -1, 304.00, 221.00, 16.00, 16, ABaraaapap
13, 13, 13, -1, 338.00, 215.00, 14.00, 15, ABaraaaaaa
14, 14, 14, -1, 315.00, 197.00, 14.00, 15, ABaraaaaap
15, 15, 15, -1, 324.00, 223.00, 24.00, 15, ABaraaaapp
16, 16, 16, -1, 331.00, 203.00, 20.00, 15, ABaraaaapa
17, 17, 17, -1, 245.00, 245.00, 10.00, 17, ABarapapap
18, 18, 18, -1, 264.00, 235.00, 11.00, 15, ABarapapaa
19, 19, 19, -1, 207.00, 254.00, 14.00, 15, ABarapapppp
20, 20, 20, -1, 234.00, 241.00, 13.00, 13, ABarapapppa
21, 21, 21, -1, 251.00, 232.00, 14.00, 15, ABarapappa
22, 22, 22, -1, 277.00, 234.00, 9.00, 15, ABarapaaap
23, 23, 23, -1, 294.00, 227.00, 11.00, 17, ABarapaaaa
24, 24, 24, -1, 288.00, 218.00, 14.00, 15, ABarapaapa
25, 25, 25, -1, 268.00, 227.00, 15.00, 19, ABarapaapp
26, 26, 26, -1, 241.00, 207.00, 10.00, 17, ABarapppap
27, 27, 27, -1, 265.00, 189.00, 11.00, 15, ABarapppaa
28, 28, 28, -1, 239.00, 196.00, 12.00, 17, ABarappppa
29, 29, 29, -1, 214.00, 197.00, 11.00, 17, ABarappppp
30, 30, 30, -1, 261.00, 214.00, 11.00, 15, ABarappaaa
31, 31, 31, -1, 235.00, 227.00, 10.00, 15, ABarappaap
32, 32, 32, -1, 217.00, 219.00, 10.00, 17, ABarappapa
33, 33, 33, -1, 195.00, 224.00, 10.00, 15, ABarappapp
34, 34, 34, -1, 209.00, 178.00, 31.00, 15, ABarpapppa
35, 35, 35, -1, 196.00, 193.00, 33.00, 19, ABarpapppp
36, 36, 36, -1, 230.00, 183.00, 33.00, 17, ABarpappap
37, 37, 37, -1, 292.00, 185.00, 35.00, 15, ABarpapaaa
38, 38, 38, -1, 274.00, 192.00, 34.00, 15, ABarpapaap
39, 39, 39, -1, 235.00, 210.00, 34.00, 17, ABarpapapp
40, 40, 40, -1, 266.00, 207.00, 33.00, 15, ABarpapapa
41, 41, 41, -1, 194.00, 266.00, 34.00, 21, ABarpaappp
42, 42, 42, -1, 257.00, 224.00, 34.00, 15, ABarpaapaa
43, 43, 43, -1, 237.00, 237.00, 34.00, 21, ABarpaapap
44, 44, 44, -1, 324.00, 201.00, 33.00, 17, ABarpaaaaa
45, 45, 45, -1, 311.00, 222.00, 35.00, 15, ABarpaaaap
46, 46, 46, -1, 283.00, 218.00, 34.00, 13, ABarpaaapp
47, 47, 47, -1, 299.00, 209.00, 34.00, 17, ABarpaaapa
48, 48, 48, -1, 220.00, 302.00, 34.00, 15, ABarppaaap
49, 49, 49, -1, 226.00, 282.00, 35.00, 15, ABarppaaaa
50, 50, 50, -1, 171.00, 330.00, 33.00, 15, ABarppaapp
51, 51, 51, -1, 145.00, 346.00, 30.00, 17, ABarppappa
52, 52, 52, -1, 114.00, 351.00, 24.00, 17, ABarppappp
53, 53, 53, -1, 187.00, 346.00, 31.00, 17, ABarppapap
54, 54, 54, -1, 206.00, 331.00, 34.00, 17, ABarppapaa
55, 55, 55, -1, 75.00, 277.00, 24.00, 15, ABarpppppp
56, 56, 56, -1, 102.00, 247.00, 30.00, 17, ABarpppppa
57, 57, 57, -1, 150.00, 203.00, 29.00, 17, ABarppppaa
58, 58, 58, -1, 124.00, 216.00, 27.00, 17, ABarppppap
59, 59, 59, -1, 175.00, 202.00, 33.00, 17, ABarpppaap
60, 60, 60, -1, 195.00, 207.00, 36.00, 15, ABarpppaaa
61, 61, 61, -1, 292.00, 176.00, 28.00, 19, ABalappppa
62, 62, 62, -1, 261.00, 179.00, 33.00, 15, ABalappppp
63, 63, 63, -1, 323.00, 189.00, 28.00, 17, ABalapppaa
64, 64, 64, -1, 302.00, 192.00, 31.00, 17, ABalapppap
65, 65, 65, -1, 323.00, 176.00, 25.00, 15, ABalappapa
66, 66, 66, -1, 344.00, 208.00, 27.00, 17, ABalappaap
67, 67, 67, -1, 303.00, 173.00, 26.00, 17, ABalappapp
68, 68, 68, -1, 311.00, 260.00, 33.00, 13, ABalapappp
69, 69, 69, -1, 332.00, 257.00, 30.00, 19, ABalapappa
70, 70, 70, -1, 331.00, 221.00, 31.00, 13, ABalapapaa
71, 71, 71, -1, 322.00, 235.00, 31.00, 15, ABalapapap
72, 72, 72, -1, 355.00, 228.00, 24.00, 17, ABalapaaaa
73, 73, 73, -1, 343.00, 245.00, 26.00, 15, ABalapaaap
74, 74, 74, -1, 339.00, 258.00, 22.00, 15, ABalapaapa
75, 75, 75, -1, 339.00, 262.00, 26.00, 17, ABalapaapp
76, 76, 76, -1, 308.00, 182.00, 14.00, 15, ABalaapaaa
77, 77, 77, -1, 274.00, 176.00, 13.00, 13, ABalaapapa
78, 78, 78, -1, 289.00, 183.00, 12.00, 15, ABalaapaap
79, 79, 79, -1, 288.00, 179.00, 18.00, 15, ABalaappap
80, 80, 80, -1, 295.00, 168.00, 16.00, 13, ABalaappaa
81, 81, 81, -1, 299.00, 169.00, 22.00, 19, ABalaapppp
82, 82, 82, -1, 307.00, 179.00, 20.00, 17, ABalaapppa
83, 83, 83, -1, 337.00, 267.00, 16.00, 17, ABalaaaalp
84, 84, 84, -1, 332.00, 190.00, 17.00, 15, ABalaaaarr
85, 85, 85, -1, 351.00, 220.00, 17.00, 17, ABalaaaarl
86, 86, 86, -1, 332.00, 180.00, 22.00, 15, ABalaaappl
87, 87, 87, -1, 320.00, 175.00, 18.00, 17, ABalaaappr
88, 88, 88, -1, 350.00, 202.00, 22.00, 17, ABalaaapar
89, 89, 89, -1, 350.00, 235.00, 21.00, 15, ABalaaapal
90, 90, 90, -1, 167.00, 320.00, 11.00, 17, ABplppppap
91, 91, 91, -1, 188.00, 313.00, 10.00, 15, ABplppppaa
92, 92, 92, -1, 128.00, 311.00, 11.00, 15, ABplpppppp
93, 93, 93, -1, 152.00, 302.00, 12.00, 15, ABplpppppa
94, 94, 94, -1, 141.00, 324.00, 10.00, 15, ABplpppapp
95, 95, 95, -1, 151.00, 333.00, 11.00, 17, ABplpppapa
96, 96, 96, -1, 170.00, 342.00, 13.00, 15, ABplpppaap
97, 97, 97, -1, 187.00, 330.00, 13.00, 15, ABplpppaaa
98, 98, 98, -1, 195.00, 343.00, 15.00, 15, ABplppappp
99, 99, 99, -1, 213.00, 335.00, 15.00, 15, ABplppappa
100, 100, 100, -1, 244.00, 334.00, 17.00, 17, ABplppapaa
101, 101, 101, -1, 225.00, 340.00, 17.00, 17, ABplppapap
102, 102, 102, -1, 207.00, 325.00, 11.00, 17, ABplppaapp
103, 103, 103, -1, 259.00, 326.00, 19.00, 17, ABplppaaaa
104, 104, 104, -1, 258.00, 338.00, 21.00, 15, ABplppaaap
105, 105, 105, 106, 231.00, 277.00, 11.00, 17, ABplpappaa
106, 106, 107, -1, 218.00, 273.00, 12.00, 13, ABplpappap
107, 107, 108, -1, 173.00, 299.00, 10.00, 15, ABplpapppp
108, 108, 109, -1, 193.00, 284.00, 10.00, 15, ABplpapppa
109, 109, 110, -1, 212.00, 303.00, 11.00, 17, ABplpapapp
110, 110, 111, -1, 231.00, 305.00, 12.00, 15, ABplpapapa
111, 111, 112, -1, 251.00, 310.00, 15.00, 15, ABplpapaap
112, 112, 113, -1, 261.00, 295.00, 15.00, 17, ABplpapaaa
113, 113, 114, -1, 272.00, 320.00, 16.00, 19, ABplpaaaap
114, 114, 115, -1, 299.00, 296.00, 17.00, 19, ABplpaaaaa
115, 115, 116, -1, 296.00, 312.00, 18.00, 15, ABplpaaapa
116, 116, 117, -1, 283.00, 319.00, 20.00, 17, ABplpaaapp
117, 117, 118, -1, 283.00, 309.00, 25.00, 17, ABplpaappa
118, 118, 119, -1, 273.00, 330.00, 24.00, 17, ABplpaappp
119, 119, 120, -1, 306.00, 298.00, 20.00, 17, ABplpaapaa
120, 120, 121, -1, 297.00, 320.00, 23.00, 15, ABplpaapap
121, 121, 122, -1, 268.00, 324.00, 31.00, 17, ABplaappap
122, 122, 123, -1, 296.00, 318.00, 29.00, 15, ABplaappaa
123, 123, 124, -1, 252.00, 335.00, 28.00, 17, ABplaapppa
124, 124, 125, -1, 231.00, 346.00, 25.00, 19, ABplaapppp
125, 125, 126, -1, 334.00, 270.00, 33.00, 17, ABplaapaaa
126, 126, 127, -1, 314.00, 279.00, 34.00, 17, ABplaapaap
127, 127, 128, -1, 288.00, 285.00, 32.00, 21, ABplaapapp
128, 128, 129, -1, 305.00, 295.00, 30.00, 17, ABplaapapa
129, 129, 130, -1, 304.00, 244.00, 35.00, 15, ABplaaaaap
130, 130, 131, -1, 325.00, 240.00, 35.00, 15, ABplaaaaaa
131, 131, 132, -1, 267.00, 252.00, 34.00, 17, ABplaaaapp
132, 132, 133, -1, 286.00, 235.00, 35.00, 17, ABplaaaapa
133, 133, 134, -1, 244.00, 290.00, 34.00, 17, ABplaaappp
134, 134, 135, -1, 264.00, 286.00, 33.00, 15, ABplaaappa
135, 135, 136, -1, 281.00, 275.00, 33.00, 17, ABplaaapap
136, 136, 137, -1, 292.00, 265.00, 36.00, 15, ABplaaapaa
137, 137, 138, -1, 128.00, 351.00, 14.00, 15, ABplappppa
138, 138, 139, -1, 121.00, 332.00, 11.00, 17, ABplappppp
139, 139, 140, -1, 169.00, 350.00, 18.00, 15, ABplapppaa
140, 140, 141, -1, 147.00, 345.00, 15.00, 17, ABplapppap
141, 141, 142, -1, 206.00, 352.00, 23.00, 15, ABplappaaa
142, 142, 143, -1, 186.00, 356.00, 23.00, 15, ABplappaap
143, 143, 144, -1, 161.00, 358.00, 22.00, 17, ABplappapp
144, 144, 145, -1, 171.00, 351.00, 27.00, 19, ABplappapa
145, 145, 146, -1, 208.00, 352.00, 28.00, 17, ABplapaapp
146, 146, 147, -1, 224.00, 341.00, 32.00, 15, ABplapaapa
147, 147, 148, -1, 244.00, 310.00, 31.00, 15, ABplapaaaa
148, 148, 149, -1, 230.00, 322.00, 32.00, 15, ABplapaaap
149, 149, 150, -1, 111.00, 347.00, 17.00, 15, ABplapappp
150, 150, 151, -1, 134.00, 363.00, 23.00, 17, ABplapapap
151, 151, 152, -1, 127.00, 361.00, 19.00, 17, ABplapappa
152, 152, 153, -1, 139.00, 355.00, 27.00, 17, ABplapapaa
153, 153, 154, -1, 213.00, 217.00, 13.00, 17, ABprpapaaa
154, 154, 155, -1, 188.00, 207.00, 11.00, 15, ABprpapaap
155, 155, 156, -1, 169.00, 247.00, 10.00, 15, ABprpapapp
156, 156, 157, -1, 184.00, 237.00, 11.00, 15, ABprpapapa
157, 157, 158, -1, 154.00, 280.00, 12.00, 17, ABprpapppp
158, 158, 159, -1, 178.00, 265.00, 11.00, 17, ABprpapppa
159, 159, 160, -1, 198.00, 262.00, 10.00, 17, ABprpappap
160, 160, 161, -1, 214.00, 244.00, 10.00, 17, ABprpappaa
161, 161, 162, -1, 246.00, 179.00, 13.00, 15, ABprpaaaaa
162, 162, 163, -1, 217.00, 179.00, 11.00, 19, ABprpaaaap
163, 163, 164, -1, 215.00, 178.00, 15.00, 17, ABprpaaapp
164, 164, 165, -1, 233.00, 181.00, 15.00, 15, ABprpaaapa
165, 165, 166, -1, 245.00, 174.00, 17.00, 17, ABprpaapaa
166, 166, 167, -1, 217.00, 164.00, 18.00, 15, ABprpaapap
167, 167, 168, -1, 196.00, 172.00, 16.00, 15, ABprpaappp
168, 168, 169, -1, 213.00, 177.00, 21.00, 17, ABprpaappa
169, 169, 170, -1, 106.00, 243.00, 11.00, 17, ABprpppaap
170, 170, 171, -1, 129.00, 235.00, 11.00, 15, ABprpppaaa
171, 171, 172, -1, 107.00, 261.00, 10.00, 17, ABprpppapa
172, 172, 173, -1, 112.00, 278.00, 9.00, 13, ABprpppapp
173, 173, 174, -1, 133.00, 256.00, 11.00, 15, ABprppppap
174, 174, 175, -1, 154.00, 258.00, 11.00, 15, ABprppppaa
175, 175, 176, -1, 127.00, 293.00, 10.00, 17, ABprpppppp
176, 176, 177, -1, 131.00, 277.00, 12.00, 17, ABprpppppa
177, 177, 178, -1, 167.00, 224.00, 11.00, 15, ABprppaapa
178, 178, 179, -1, 151.00, 236.00, 11.00, 15, ABprppaapp
179, 179, 180, -1, 190.00, 187.00, 12.00, 17, ABprppaaaa
180, 180, 181, -1, 179.00, 185.00, 17.00, 13, ABprppaaap
181, 181, 182, -1, 170.00, 199.00, 13.00, 17, ABprppapaa
182, 182, 183, -1, 152.00, 205.00, 12.00, 15, ABprppapap
183, 183, 184, -1, 117.00, 226.00, 14.00, 17, ABprppappp
184, 184, 185, -1, 138.00, 217.00, 12.00, 15, ABprppappa
185, 185, 186, -1, 301.00, 172.00, 32.00, 17, ABpraapaaa
186, 186, 187, -1, 269.00, 166.00, 30.00, 17, ABpraapaap
187, 187, 188, -1, 252.00, 172.00, 27.00, 15, ABpraapapa
188, 188, 189, -1, 234.00, 179.00, 29.00, 17, ABpraapapp
189, 189, 190, -1, 149.00, 192.00, 19.00, 17, ABpraapppp
190, 190, 191, -1, 175.00, 181.00, 21.00, 17, ABpraapppa
191, 191, 192, -1, 194.00, 172.00, 24.00, 17, ABpraappap
192, 192, 193, -1, 216.00, 162.00, 26.00, 15, ABpraappaa
193, 193, 194, -1, 264.00, 162.00, 25.00, 15, ABpraaapap
194, 194, 195, -1, 280.00, 169.00, 22.00, 15, ABpraaapaa
195, 195, 196, -1, 251.00, 172.00, 23.00, 15, ABpraaappa
196, 196, 197, -1, 225.00, 180.00, 25.00, 19, ABpraaappp
197, 197, 198, -1, 265.00, 158.00, 21.00, 15, ABpraaaaap
198, 198, 199, -1, 279.00, 161.00, 18.00, 15, ABpraaaaaa
199, 199, 200, -1, 257.00, 165.00, 18.00, 15, ABpraaaapa
200, 200, 201, -1, 238.00, 161.00, 21.00, 17, ABpraaaapp
201, 201, 202, -1, 93.00, 234.00, 21.00, 17, ABprappapp
202, 202, 203, -1, 107.00, 225.00, 25.00, 15, ABprappapa
203, 203, 204, -1, 112.00, 217.00, 20.00, 17, ABprappaap
204, 204, 205, -1, 134.00, 209.00, 17.00, 17, ABprappaaa
205, 205, 206, -1, 102.00, 238.00, 16.00, 15, ABprapppaa
206, 206, 207, -1, 94.00, 257.00, 15.00, 15, ABprapppap
207, 207, 208, -1, 87.00, 285.00, 11.00, 17, ABprappppp
208, 208, 209, -1, 81.00, 268.00, 13.00, 15, ABprappppa
209, 209, 210, -1, 171.00, 196.00, 28.00, 15, ABprapaaap
210, 210, 211, -1, 190.00, 194.00, 27.00, 15, ABprapaaaa
211, 211, 212, -1, 135.00, 203.00, 23.00, 17, ABprapaapp
212, 212, 213, -1, 155.00, 190.00, 25.00, 15, ABprapaapa
213, 213, 214, -1, 74.00, 256.00, 18.00, 17, ABprapappa
214, 214, 215, -1, 70.00, 277.00, 17.00, 15, ABprapappp
215, 215, 216, -1, 79.00, 256.00, 22.00, 17, ABprapapap
216, 216, 217, -1, 89.00, 255.00, 27.00, 17, ABprapapaa
217, 217, 218, -1, 211.00, 201.00, 24.00, 13, MSppppap
218, 218, 219, -1, 224.00, 196.00, 17.00, 15, MSppppaa
219, 219, 220, -1, 215.00, 203.00, 28.00, 15, MSpppppa
220, 220, 221, -1, 187.00, 216.00, 27.00, 13, MSpppppp
221, 221, 222, -1, 231.00, 225.00, 16.00, 13, MSpppaaa
222, 222, 223, -1, 202.00, 227.00, 19.00, 15, MSpppaap
223, 223, 224, -1, 196.00, 206.00, 16.00, 17, MSpppap
224, 224, 225, -1, 238.00, 209.00, 17.00, 15, MSppaapp
225, 225, 226, -1, 253.00, 202.00, 15.00, 13, MSppaapa
226, 226, 227, -1, 282.00, 193.00, 15.00, 15, MSppaaaa
227, 227, 228, -1, 266.00, 193.00, 18.00, 15, MSppaaap
228, 228, 229, -1, 262.00, 191.00, 27.00, 15, MSppappa
229, 229, 230, -1, 262.00, 184.00, 20.00, 15, MSppapaa
230, 230, 231, -1, 241.00, 191.00, 20.00, 15, MSppapap
231, 231, 232, -1, 196.00, 265.00, 16.00, 16, MSpapapp
232, 232, 233, -1, 216.00, 245.00, 17.00, 17, MSpapapa
233, 233, 234, -1, 248.00, 245.00, 18.00, 17, MSpapaaa
234, 234, 235, -1, 224.00, 239.00, 21.00, 17, MSpapaap
235, 235, 236, -1, 182.00, 286.00, 14.00, 21, MSpappa
236, 236, 237, -1, 166.00, 263.00, 16.00, 15, MSpapppp
237, 237, 238, -1, 167.00, 238.00, 16.00, 17, MSpapppa
238, 238, 239, -1, 260.00, 223.00, 28.00, 17, MSpaaapp
239, 239, 240, -1, 282.00, 216.00, 30.00, 15, MSpaaapa
240, 240, 241, -1, 294.00, 203.00, 26.00, 21, MSpaaaap
241, 241, 242, -1, 317.00, 195.00, 23.00, 15, MSpaaaaa
242, 242, 243, -1, 257.00, 209.00, 22.00, 19, MSpaapap
243, 243, 244, -1, 279.00, 201.00, 22.00, 17, MSpaapaa
244, 244, 245, -1, 200.00, 239.00, 27.00, 21, Earap
245, 245, 246, -1, 269.00, 290.00, 24.00, 15, MSapppaa
246, 246, 247, -1, 255.00, 295.00, 27.00, 15, MSapppap
247, 247, 248, 249, 228.00, 292.00, 28.00, 17, MSapppp
248, 248, 250, -1, 247.00, 287.00, 22.00, 19, MSappaa
249, 249, 251, -1, 249.00, 310.00, 19.00, 15, MSappap
250, 250, 252, -1, 295.00, 262.00, 28.00, 17, MSapappa
251, 251, 253, -1, 262.00, 280.00, 28.00, 17, MSapappp
252, 252, 254, -1, 285.00, 278.00, 24.00, 17, MSapapap
253, 253, 255, -1, 308.00, 267.00, 22.00, 15, MSapapaa
255, 254, 256, 257, 276.00, 285.00, 18.00, 17, MSapaap
256, 255, 258, -1, 331.00, 249.00, 19.00, 13, MSapaaaa
257, 256, 259, -1, 315.00, 260.00, 19.00, 15, MSapaaap
258, 257, 260, -1, 319.00, 219.00, 28.00, 19, MSaaaaap
259, 258, 261, -1, 338.00, 214.00, 23.00, 15, MSaaaaaa
260, 259, 262, -1, 298.00, 228.00, 30.00, 15, MSaaaapa
261, 260, 263, -1, 273.00, 245.00, 29.00, 15, MSaaaapp
262, 261, 264, -1, 279.00, 243.00, 25.00, 16, MSaaapap
263, 262, 265, -1, 301.00, 237.00, 25.00, 17, MSaaapaa
264, 263, 266, -1, 268.00, 255.00, 28.00, 15, MSaaappa
265, 264, 267, -1, 249.00, 241.00, 27.00, 15, MSaaappp
266, 265, 268, -1, 191.00, 312.00, 15.00, 15, MSaapppp
267, 266, 269, -1, 222.00, 305.00, 17.00, 17, MSaapppa
268, 267, 270, -1, 209.00, 286.00, 15.00, 17, MSaappa
269, 268, 271, -1, 265.00, 264.00, 19.00, 17, MSaapaaa
270, 269, 272, -1, 222.00, 279.00, 18.00, 15, MSaapapp
271, 270, 273, -1, 242.00, 265.00, 20.00, 15, MSaapapa
272, 271, 274, -1, 216.00, 278.00, 23.00, 19, Ealpa
273, 272, 275, -1, 187.00, 285.00, 24.00, 16, Ealpp
274, 273, 276, -1, 140.00, 303.00, 25.00, 21, Eplpa
275, 274, 277, -1, 148.00, 337.00, 21.00, 17, Cappap
276, 275, 278, -1, 163.00, 319.00, 22.00, 17, Cappaa
277, 276, 279, -1, 128.00, 338.00, 20.00, 17, Capppa
278, 277, 280, -1, 122.00, 319.00, 15.00, 19, Capppp
279, 278, 281, -1, 170.00, 328.00, 19.00, 17, Capapa
280, 279, 282, -1, 144.00, 318.00, 16.00, 17, Capapp
281, 280, 283, -1, 168.00, 310.00, 16.00, 17, Capaap
282, 281, 284, -1, 198.00, 319.00, 21.00, 17, Capaaa
283, 282, 285, -1, 85.00, 335.00, 25.00, 19, Caaapp
284, 283, 286, -1, 91.00, 331.00, 14.00, 19, Caappd
285, 284, 287, -1, 88.00, 317.00, 11.00, 15, Caappv
286, 285, 288, -1, 105.00, 309.00, 12.00, 17, Caapa
287, 286, 289, -1, 70.00, 301.00, 18.00, 17, Cpappd
288, 287, 290, -1, 81.00, 304.00, 13.00, 15, Cpappv
289, 288, 291, -1, 76.00, 330.00, 19.00, 19, Cpapaa
290, 289, 292, -1, 80.00, 306.00, 29.00, 21, Cpaapp
291, 290, 293, -1, 144.00, 260.00, 16.00, 19, Cppaap
292, 291, 294, -1, 147.00, 230.00, 19.00, 19, Cppaaa
293, 292, 295, -1, 125.00, 244.00, 19.00, 17, Cppapa
294, 293, 296, -1, 116.00, 265.00, 15.00, 17, Cppapp
295, 294, 297, -1, 125.00, 238.00, 23.00, 19, Cpppaa
296, 295, 298, -1, 109.00, 259.00, 19.00, 17, Cpppap
297, 296, 299, -1, 228.00, 317.00, 22.00, 23, Daap
298, 297, 300, -1, 246.00, 310.00, 25.00, 19, Daaa
299, 298, 301, -1, 193.00, 321.00, 27.00, 15, Dappa
300, 298, 302, -1, 174.00, 323.00, 25.00, 15, Dappp
301, 299, 303, -1, 180.00, 219.00, 16.00, 17, Dpap
302, 300, 304, -1, 200.00, 202.00, 20.00, 19, Dpaa
303, 301, 305, -1, 142.00, 242.00, 25.00, 15, Dpppp
304, 302, 306, -1, 165.00, 220.00, 24.00, 17, Dpppa
305, 303, 307, -1, 169.00, 206.00, 20.00, 17, Dppa
306, 304, 308, -1, 187.00, 290.00, 17.00, 19, Z3
307, 305, 309, -1, 151.00, 284.00, 18.00, 21, Z2
309, 307, 311, -1, 326.00, 299.00, 25.00, 15, ABalpppapp
310, 308, 312, -1, 308.00, 291.00, 23.00, 17, ABalpppppa
311, 309, 313, -1, 295.00, 292.00, 26.00, 15, ABalppppppa
312, 310, 314, -1, 280.00, 308.00, 31.00, 15, ABalppppppp
313, 311, 315, -1, 318.00, 279.00, 29.00, 17, ABalppppap
314, 312, 316, -1, 326.00, 275.00, 24.00, 15, ABalppppaa
315, 313, 317, -1, 345.00, 281.00, 21.00, 15, ABalpppaaa
316, 314, 318, -1, 344.00, 282.00, 26.00, 15, ABalpppaap
317, 315, 319, -1, 327.00, 295.00, 21.00, 15, ABalpppapa
318, 316, 320, -1, 352.00, 253.00, 20.00, 13, ABalppaaaa
319, 317, 321, -1, 353.00, 266.00, 19.00, 16, ABalppaaap
320, 318, 322, -1, 319.00, 291.00, 17.00, 15, ABalppaapp
321, 319, 323, -1, 329.00, 283.00, 17.00, 13, ABalppaapa
322, 320, 324, -1, 279.00, 307.00, 13.00, 17, ABalppappp
323, 321, 325, -1, 292.00, 291.00, 13.00, 15, ABalppappa
324, 322, 326, -1, 294.00, 290.00, 10.00, 15, ABalppapap
325, 323, 327, -1, 310.00, 280.00, 11.00, 15, ABalppapaa
326, 324, 328, -1, 271.00, 286.00, 10.00, 17, ABalpapapa
327, 325, 329, -1, 259.00, 313.00, 11.00, 17, ABalpapapp
328, 326, 330, -1, 283.00, 270.00, 10.00, 15, ABalpapaap
329, 327, 331, -1, 302.00, 258.00, 10.00, 17, ABalpapaaa
330, 328, 332, -1, 260.00, 264.00, 12.00, 15, ABalpappap
331, 329, 333, -1, 282.00, 252.00, 11.00, 15, ABalpappaa
332, 330, 334, -1, 232.00, 267.00, 16.00, 19, ABalpappppp
333, 331, 335, -1, 260.00, 272.00, 15.00, 17, ABalpappppa
334, 332, 336, -1, 273.00, 254.00, 15.00, 15, ABalpapppa
335, 333, 337, -1, 289.00, 261.00, 16.00, 15, ABalpaaapp
336, 334, 338, -1, 304.00, 243.00, 13.00, 15, ABalpaaapa
337, 335, 339, -1, 308.00, 240.00, 10.00, 15, ABalpaaaap
338, 336, 340, -1, 328.00, 235.00, 11.00, 17, ABalpaaaaa
339, 337, 341, -1, 321.00, 267.00, 13.00, 17, ABalpaappp
340, 338, 342, -1, 331.00, 251.00, 11.00, 17, ABalpaappa
341, 339, 343, -1, 300.00, 246.00, 18.00, 15, ABalpaapapp
342, 340, 344, -1, 323.00, 233.00, 14.00, 15, ABalpaapapa
343, 341, 345, -1, 334.00, 227.00, 18.00, 15, ABalpaapaa
344, 342, 346, -1, 175.00, 248.00, 28.00, 21, Epraa
345, 343, 347, -1, 148.00, 263.00, 27.00, 19, Eprap
346, 344, 348, -1, 220.00, 215.00, 24.00, 13, MSpaapp
347, 345, 349, -1, 166.00, 254.00, 22.00, 21, Earpp
348, 346, 350, -1, 203.00, 266.00, 28.00, 21, Ealap
349, 347, 351, -1, 243.00, 259.00, 28.00, 19, Ealaa
350, 348, 352, -1, 180.00, 274.00, 29.00, 21, Eplaa
351, 349, 353, -1, 155.00, 290.00, 26.00, 19, Eplap
352, 350, 354, -1, 119.00, 285.00, 21.00, 19, Eprpp
353, 351, 355, -1, 212.00, 329.00, 26.00, 15, Dapa
354, 352, 356, -1, 246.00, 264.00, 23.00, 19, MSaapaap
355, 353, 357, -1, 133.00, 223.00, 31.00, 17, ABarpppapp
356, 354, 358, -1, 234.00, 326.00, 13.00, 15, ABplppaapa
357, 355, 359, -1, 68.00, 305.00, 23.00, 17, Cpapap
358, 356, 360, -1, 239.00, 223.00, 25.00, 19, Earaa
359, 357, 361, -1, 347.00, 246.00, 15.00, 15, ABalaaaala
360, 358, 362, -1, 247.00, 186.00, 35.00, 15, ABarpappaa
361, 359, 363, -1, 347.00, 193.00, 25.00, 13, ABalappaaa
362, 360, 364, -1, 93.00, 277.00, 20.00, 17, Cppppa
363, 361, 365, -1, 106.00, 294.00, 15.00, 19, Cppppp
364, 362, 366, -1, 269.00, 172.00, 15.00, 17, ABalaapapp
365, 363, 367, -1, 169.00, 225.00, 34.00, 19, ABarpppapa
366, 364, 368, -1, 196.00, 246.00, 21.00, 21, Earpa
367, 365, 369, -1, 125.00, 309.00, 20.00, 21, Eplpp
368, 366, 370, -1, 237.00, 199.00, 28.00, 15, MSppappp
369, 367, 371, -1, 130.00, 273.00, 25.00, 21, Eprpa
370, 368, 372, -1, 213.00, 245.00, 34.00, 19, ABarpaappa
371, 369, 373, -1, 195.00, 303.00, 34.00, 15, ABarppaapa
372, 370, 374, -1, 117.00, 260.00, 33.00, 17, Cpaaap
373, 371, 375, -1, 115.00, 330.00, 31.00, 17, Caaapa
374, 372, 376, -1, 102.00, 287.00, 33.00, 19, Cpaapa
375, 373, 378, -1, 148.00, 251.00, 34.00, 21, Cpaaaa
376, 374, 377, -1, 172.00, 309.00, 33.00, 17, Caaaaa
377, 375, 379, -1, 132.00, 312.00, 33.00, 15, Caaaap
