1, 1, 1, -1, 250.00, 174.00, 20.00, 43, ABar
2, 2, 2, -1, 350.00, 221.00, 23.00, 41, ABal
3, 3, 3, -1, 251.00, 292.00, 27.00, 43, ABpl
5, 5, 5, -1, 157.00, 219.00, 12.00, 43, ABpr
6, 6, 6, -1, 264.00, 282.00, 11.00, 39, MS
7, 7, 7, -1, 163.00, 324.00, 16.00, 37, E
8, 8, 8, -1, 129.00, 286.00, 25.00, 31, C
9, 9, 9, -1, 117.00, 340.00, 17.00, 31, P3
