1, 1, 1, -1, 304.00, 203.00, 22.00, 17, ABaraappaa
2, 2, 2, -1, 289.00, 205.00, 20.00, 17, ABaraappap
3, 3, 3, -1, 255.00, 231.00, 20.00, 15, ABaraapppap
4, 4, 4, -1, 273.00, 220.00, 19.00, 15, ABaraapppaa
5, 5, 5, -1, 239.00, 219.00, 19.00, 17, ABaraapppp
6, 6, 6, -1, 269.00, 268.00, 21.00, 17, ABaraapapp
7, 7, 7, -1, 267.00, 251.00, 20.00, 15, ABaraapapap
8, 8, 8, -1, 291.00, 241.00, 20.00, 13, ABaraapapaa
9, 9, 9, -1, 316.00, 216.00, 21.00, 19, ABaraapaaa
10, 10, 10, -1, 308.00, 235.00, 22.00, 17, ABaraapaap
11, 11, 11, -1, 303.00, 202.00, 10.00, 15, ABaraaappa
12, 12, 12, -1, 284.00, 202.00, 10.00, 15, ABaraaappp
13, 13, 13, -1, 321.00, 204.00, 17.00, 15, ABaraaapaa
14, 14, 14, -1, 307.00, 212.00, 16.00, 13, ABaraaapapa
15, 14, 15, -1, 288.00, 220.00, 17.00, 13, ABaraaapapp
16, 15, 16, -1, 333.00, 224.00, 14.00, 15, ABaraaaaaa
17, 16, 17, -1, 314.00, 199.00, 14.00, 17, ABaraaaaap
18, 17, 18, -1, 321.00, 224.00, 24.00, 13, ABaraaaapp
19, 18, 19, -1, 334.00, 202.00, 20.00, 13, ABaraaaapa
20, 19, 20, -1, 245.00, 244.00, 10.00, 19, ABarapapap
21, 20, 21, -1, 266.00, 232.00, 10.00, 17, ABarapapaa
22, 21, 22, -1, 211.00, 249.00, 13.00, 15, ABarapapppp
23, 22, 23, -1, 230.00, 242.00, 13.00, 15, ABarapapppa
24, 23, 24, -1, 247.00, 235.00, 13.00, 17, ABarapappa
25, 24, 25, -1, 283.00, 232.00, 9.00, 17, ABarapaaap
26, 25, 26, -1, 298.00, 222.00, 10.00, 15, ABarapaaaa
27, 26, 27, -1, 288.00, 221.00, 13.00, 17, ABarapaapa
28, 27, 28, -1, 260.00, 232.00, 17.00, 13, ABarapaappp
29, 27, 29, -1, 271.00, 229.00, 14.00, 13, ABarapaappa
30, 28, 30, -1, 239.00, 203.00, 10.00, 17, ABarapppap
31, 29, 31, -1, 268.00, 187.00, 10.00, 17, ABarapppaa
32, 30, 32, -1, 252.00, 194.00, 12.00, 17, ABarappppa
33, 31, 33, -1, 219.00, 199.00, 12.00, 15, ABarappppp
34, 32, 34, -1, 262.00, 211.00, 10.00, 17, ABarappaaa
35, 33, 35, -1, 237.00, 223.00, 10.00, 15, ABarappaap
36, 34, 36, -1, 216.00, 220.00, 10.00, 17, ABarappapa
37, 35, 37, -1, 193.00, 212.00, 10.00, 17, ABarappapp
38, 36, 38, -1, 216.00, 181.00, 31.00, 15, ABarpapppa
39, 37, 39, -1, 207.00, 197.00, 34.00, 19, ABarpapppp
40, 38, 40, -1, 234.00, 177.00, 33.00, 17, ABarpappap
41, 39, 41, -1, 293.00, 189.00, 36.00, 17, ABarpapaaa
42, 40, 42, -1, 271.00, 196.00, 32.00, 15, ABarpapaap
43, 41, 43, -1, 234.00, 215.00, 34.00, 17, ABarpapapp
44, 42, 44, -1, 266.00, 210.00, 33.00, 13, ABarpapapa
45, 43, 45, -1, 201.00, 272.00, 34.00, 17, ABarpaappp
46, 44, 46, -1, 254.00, 221.00, 35.00, 15, ABarpaapaa
47, 45, 47, -1, 242.00, 248.00, 35.00, 19, ABarpaapap
48, 46, 48, -1, 329.00, 206.00, 33.00, 17, ABarpaaaaa
49, 47, 49, -1, 305.00, 227.00, 35.00, 15, ABarpaaaap
50, 48, 50, -1, 280.00, 220.00, 35.00, 13, ABarpaaapp
51, 49, 51, -1, 297.00, 210.00, 35.00, 17, ABarpaaapa
52, 50, 52, -1, 220.00, 311.00, 34.00, 17, ABarppaaap
53, 51, 53, -1, 229.00, 287.00, 35.00, 15, ABarppaaaa
54, 52, 54, -1, 166.00, 334.00, 34.00, 15, ABarppaapp
55, 53, 55, -1, 142.00, 349.00, 31.00, 17, ABarppappa
56, 54, 56, -1, 111.00, 352.00, 24.00, 17, ABarppappp
57, 55, 57, -1, 186.00, 345.00, 32.00, 17, ABarppapap
58, 56, 58, -1, 210.00, 334.00, 33.00, 17, ABarppapaa
59, 57, 59, -1, 73.00, 274.00, 23.00, 17, ABarpppppp
60, 58, 60, -1, 101.00, 246.00, 30.00, 17, ABarpppppa
61, 59, 61, -1, 153.00, 199.00, 30.00, 15, ABarppppaa
62, 60, 62, -1, 123.00, 215.00, 29.00, 15, ABarppppap
63, 61, 63, -1, 181.00, 201.00, 34.00, 17, ABarpppaap
64, 62, 64, -1, 202.00, 218.00, 34.00, 13, ABarpppaaa
65, 63, 65, -1, 313.00, 183.00, 28.00, 13, ABalappppaa
66, 64, 66, -1, 288.00, 177.00, 30.00, 13, ABalappppap
67, 65, 67, -1, 272.00, 178.00, 34.00, 19, ABalappppp
68, 66, 68, -1, 326.00, 191.00, 28.00, 15, ABalapppaa
69, 67, 69, -1, 308.00, 197.00, 32.00, 17, ABalapppap
70, 68, 70, -1, 316.00, 169.00, 24.00, 15, ABalappapa
71, 69, 71, -1, 349.00, 212.00, 26.00, 19, ABalappaap
72, 70, 72, -1, 297.00, 170.00, 25.00, 17, ABalappapp
73, 71, 73, -1, 313.00, 265.00, 34.00, 17, ABalapappp
74, 72, 74, -1, 338.00, 242.00, 28.00, 15, ABalapappaa
75, 72, 75, -1, 321.00, 257.00, 30.00, 13, ABalapappap
76, 73, 76, -1, 328.00, 224.00, 31.00, 13, ABalapapaa
77, 74, 77, -1, 319.00, 237.00, 32.00, 15, ABalapapap
78, 75, 78, -1, 351.00, 237.00, 25.00, 17, ABalapaaaa
79, 76, 79, -1, 345.00, 262.00, 28.00, 17, ABalapaaap
80, 77, 80, -1, 343.00, 255.00, 22.00, 15, ABalapaapa
81, 78, 81, -1, 329.00, 261.00, 25.00, 15, ABalapaapp
82, 79, 82, -1, 304.00, 182.00, 13.00, 15, ABalaapaaa
83, 80, 83, -1, 261.00, 176.00, 12.00, 13, ABalaapapa
84, 81, 84, -1, 286.00, 179.00, 12.00, 15, ABalaapaap
85, 82, 85, -1, 287.00, 182.00, 17.00, 17, ABalaappap
86, 83, 86, -1, 295.00, 169.00, 16.00, 15, ABalaappaa
87, 84, 87, -1, 296.00, 165.00, 22.00, 17, ABalaapppp
88, 85, 88, -1, 300.00, 180.00, 20.00, 19, ABalaapppa
89, 86, 89, -1, 335.00, 265.00, 14.00, 17, ABalaaaalp
90, 87, 90, -1, 331.00, 187.00, 17.00, 15, ABalaaaarr
91, 88, 91, -1, 351.00, 216.00, 19.00, 17, ABalaaaarl
92, 89, 92, -1, 329.00, 183.00, 22.00, 15, ABalaaappl
93, 90, 93, -1, 316.00, 176.00, 18.00, 15, ABalaaappr
94, 91, 94, -1, 348.00, 198.00, 22.00, 17, ABalaaapar
95, 92, 95, -1, 351.00, 239.00, 21.00, 15, ABalaaapal
96, 93, 96, -1, 166.00, 319.00, 11.00, 17, ABplppppap
97, 94, 97, -1, 184.00, 312.00, 10.00, 15, ABplppppaa
98, 95, 98, -1, 120.00, 315.00, 11.00, 15, ABplpppppp
99, 96, 99, -1, 156.00, 301.00, 14.00, 15, ABplpppppa
100, 97, 100, -1, 140.00, 312.00, 12.00, 15, ABplpppapp
101, 98, 101, -1, 155.00, 335.00, 11.00, 13, ABplpppapaa
102, 99, 102, -1, 162.00, 344.00, 13.00, 16, ABplpppaap
103, 100, 103, -1, 183.00, 335.00, 12.00, 17, ABplpppaaa
104, 101, 104, -1, 189.00, 345.00, 14.00, 15, ABplppappp
105, 102, 105, -1, 213.00, 340.00, 14.00, 17, ABplppappa
106, 103, 106, -1, 244.00, 338.00, 18.00, 17, ABplppapaa
107, 104, 107, -1, 219.00, 344.00, 18.00, 17, ABplppapap
108, 105, 108, -1, 203.00, 326.00, 11.00, 17, ABplppaapp
109, 106, 109, -1, 261.00, 323.00, 20.00, 17, ABplppaaaa
110, 107, 110, -1, 262.00, 329.00, 22.00, 15, ABplppaaap
111, 108, 111, -1, 247.00, 280.00, 9.00, 17, ABplpappaaa
112, 109, 112, -1, 224.00, 291.00, 10.00, 19, ABplpappaap
113, 110, 113, -1, 219.00, 270.00, 10.00, 13, ABplpappap
114, 111, 114, -1, 167.00, 297.00, 10.00, 15, ABplpapppp
115, 112, 115, -1, 185.00, 283.00, 10.00, 17, ABplpapppa
116, 113, 116, -1, 205.00, 305.00, 10.00, 17, ABplpapapp
117, 114, 117, -1, 230.00, 311.00, 12.00, 17, ABplpapapa
118, 115, 118, -1, 249.00, 317.00, 15.00, 15, ABplpapaap
119, 116, 119, -1, 258.00, 299.00, 14.00, 15, ABplpapaaa
120, 117, 120, -1, 270.00, 323.00, 16.00, 19, ABplpaaaap
121, 118, 121, -1, 293.00, 292.00, 17.00, 17, ABplpaaaaa
122, 119, 122, -1, 290.00, 307.00, 18.00, 17, ABplpaaapa
123, 120, 123, -1, 284.00, 319.00, 19.00, 15, ABplpaaapp
124, 121, 124, -1, 286.00, 302.00, 24.00, 17, ABplpaappa
125, 122, 125, -1, 279.00, 326.00, 24.00, 17, ABplpaappp
126, 123, 126, -1, 298.00, 291.00, 19.00, 15, ABplpaapaa
127, 124, 127, -1, 296.00, 319.00, 23.00, 15, ABplpaapap
128, 125, 128, -1, 272.00, 323.00, 30.00, 15, ABplaappap
129, 126, 129, -1, 288.00, 318.00, 28.00, 15, ABplaappaa
130, 127, 130, -1, 253.00, 328.00, 28.00, 17, ABplaapppa
131, 128, 131, -1, 233.00, 345.00, 25.00, 17, ABplaapppp
132, 129, 132, -1, 335.00, 265.00, 33.00, 17, ABplaapaaa
133, 130, 133, -1, 321.00, 278.00, 32.00, 17, ABplaapaap
134, 131, 134, -1, 301.00, 286.00, 31.00, 19, ABplaapapp
135, 132, 135, -1, 308.00, 290.00, 28.00, 19, ABplaapapa
136, 133, 136, -1, 293.00, 255.00, 35.00, 17, ABplaaaaap
137, 134, 137, -1, 314.00, 245.00, 35.00, 15, ABplaaaaaa
138, 135, 138, -1, 267.00, 256.00, 34.00, 15, ABplaaaapp
139, 136, 139, -1, 283.00, 238.00, 35.00, 15, ABplaaaapa
140, 137, 140, -1, 251.00, 286.00, 34.00, 15, ABplaaappp
141, 138, 141, -1, 270.00, 295.00, 35.00, 15, ABplaaappa
142, 139, 142, -1, 286.00, 289.00, 34.00, 17, ABplaaapap
143, 140, 143, -1, 294.00, 276.00, 36.00, 13, ABplaaapaa
144, 141, 144, -1, 124.00, 353.00, 15.00, 15, ABplappppa
145, 142, 145, -1, 112.00, 332.00, 11.00, 15, ABplappppp
146, 143, 146, -1, 149.00, 348.00, 17.00, 15, ABplapppaa
147, 144, 147, -1, 131.00, 337.00, 13.00, 15, ABplapppap
148, 145, 148, -1, 201.00, 355.00, 24.00, 15, ABplappaaa
149, 146, 149, -1, 183.00, 360.00, 23.00, 15, ABplappaap
150, 147, 150, -1, 165.00, 360.00, 21.00, 15, ABplappapp
151, 148, 151, -1, 167.00, 352.00, 28.00, 17, ABplappapa
152, 149, 152, -1, 208.00, 351.00, 29.00, 17, ABplapaapp
153, 150, 153, -1, 234.00, 336.00, 32.00, 15, ABplapaapa
154, 151, 154, -1, 244.00, 300.00, 31.00, 17, ABplapaaaa
155, 152, 155, -1, 235.00, 317.00, 31.00, 17, ABplapaaap
156, 153, 156, -1, 105.00, 346.00, 17.00, 17, ABplapappp
157, 154, 157, -1, 142.00, 365.00, 22.00, 15, ABplapapap
158, 155, 158, -1, 121.00, 361.00, 19.00, 17, ABplapappa
159, 156, 159, -1, 135.00, 359.00, 27.00, 17, ABplapapaa
160, 157, 160, -1, 212.00, 219.00, 13.00, 17, ABprpapaaa
161, 158, 161, -1, 191.00, 209.00, 13.00, 17, ABprpapaap
162, 159, 162, -1, 173.00, 248.00, 10.00, 17, ABprpapapp
163, 160, 163, -1, 191.00, 235.00, 11.00, 17, ABprpapapa
164, 161, 164, -1, 157.00, 278.00, 12.00, 15, ABprpapppp
165, 162, 165, -1, 186.00, 265.00, 11.00, 17, ABprpapppa
166, 163, 166, -1, 198.00, 259.00, 10.00, 19, ABprpappap
167, 164, 167, -1, 217.00, 243.00, 9.00, 19, ABprpappaa
168, 165, 168, -1, 243.00, 192.00, 15.00, 17, ABprpaaaaa
169, 166, 169, -1, 211.00, 181.00, 11.00, 19, ABprpaaaap
170, 167, 170, -1, 214.00, 177.00, 14.00, 17, ABprpaaapp
171, 168, 171, -1, 228.00, 183.00, 15.00, 15, ABprpaaapa
172, 169, 172, -1, 244.00, 176.00, 17.00, 17, ABprpaapaa
173, 170, 173, -1, 221.00, 162.00, 19.00, 15, ABprpaapap
174, 171, 174, -1, 204.00, 171.00, 18.00, 17, ABprpaappp
175, 172, 175, -1, 218.00, 181.00, 22.00, 17, ABprpaappa
176, 173, 176, -1, 104.00, 245.00, 11.00, 17, ABprpppaap
177, 174, 177, -1, 128.00, 236.00, 11.00, 17, ABprpppaaa
178, 175, 178, -1, 116.00, 255.00, 10.00, 11, ABprpppapaa
179, 176, 179, -1, 113.00, 282.00, 11.00, 13, ABprpppapap
180, 177, 180, -1, 126.00, 282.00, 9.00, 15, ABprpppapp
181, 178, 181, -1, 135.00, 259.00, 10.00, 19, ABprppppap
182, 179, 182, -1, 156.00, 258.00, 11.00, 13, ABprppppaa
183, 180, 183, -1, 118.00, 299.00, 10.00, 17, ABprpppppp
184, 181, 184, -1, 136.00, 279.00, 13.00, 19, ABprpppppa
185, 182, 185, -1, 172.00, 222.00, 11.00, 15, ABprppaapa
186, 183, 186, -1, 155.00, 236.00, 11.00, 15, ABprppaapp
187, 184, 187, -1, 188.00, 187.00, 14.00, 19, ABprppaaaa
188, 185, 188, -1, 178.00, 177.00, 19.00, 13, ABprppaaap
189, 186, 189, -1, 167.00, 199.00, 13.00, 17, ABprppapaa
190, 187, 190, -1, 145.00, 203.00, 14.00, 15, ABprppapap
191, 188, 191, -1, 116.00, 229.00, 13.00, 19, ABprppappp
192, 189, 192, -1, 141.00, 219.00, 12.00, 15, ABprppappa
193, 190, 193, -1, 304.00, 173.00, 32.00, 17, ABpraapaaa
194, 191, 194, -1, 272.00, 166.00, 29.00, 17, ABpraapaap
195, 192, 195, -1, 257.00, 176.00, 25.00, 15, ABpraapapa
196, 193, 196, -1, 247.00, 177.00, 29.00, 17, ABpraapapp
197, 194, 197, -1, 152.00, 190.00, 20.00, 17, ABpraapppp
198, 195, 198, -1, 178.00, 179.00, 22.00, 13, ABpraapppa
199, 196, 199, -1, 196.00, 172.00, 23.00, 15, ABpraappap
200, 197, 200, -1, 214.00, 163.00, 24.00, 13, ABpraappaa
201, 198, 201, -1, 267.00, 162.00, 25.00, 15, ABpraaapap
202, 199, 202, -1, 278.00, 171.00, 21.00, 15, ABpraaapaa
203, 200, 203, -1, 249.00, 174.00, 21.00, 15, ABpraaappa
204, 201, 204, -1, 237.00, 189.00, 24.00, 15, ABpraaapppa
205, 202, 205, -1, 218.00, 176.00, 27.00, 19, ABpraaapppp
206, 203, 206, -1, 267.00, 158.00, 21.00, 15, ABpraaaaap
207, 204, 207, -1, 275.00, 165.00, 17.00, 15, ABpraaaaaa
208, 205, 208, -1, 257.00, 166.00, 18.00, 15, ABpraaaapa
209, 206, 209, -1, 240.00, 159.00, 22.00, 17, ABpraaaapp
210, 207, 210, -1, 97.00, 231.00, 21.00, 15, ABprappapp
211, 208, 211, -1, 107.00, 224.00, 25.00, 17, ABprappapa
212, 209, 212, -1, 113.00, 217.00, 19.00, 15, ABprappaap
213, 210, 213, -1, 132.00, 208.00, 18.00, 17, ABprappaaa
214, 211, 214, -1, 95.00, 253.00, 15.00, 15, ABprapppaa
215, 212, 215, -1, 99.00, 268.00, 12.00, 15, ABprapppap
216, 213, 216, -1, 83.00, 281.00, 11.00, 17, ABprappppp
217, 214, 217, -1, 79.00, 267.00, 14.00, 15, ABprappppa
218, 215, 218, -1, 174.00, 198.00, 28.00, 15, ABprapaaap
219, 216, 219, -1, 194.00, 196.00, 28.00, 15, ABprapaaaa
220, 217, 220, -1, 135.00, 201.00, 24.00, 15, ABprapaapp
221, 218, 221, -1, 164.00, 187.00, 25.00, 15, ABprapaapa
222, 219, 222, -1, 77.00, 252.00, 18.00, 17, ABprapappa
223, 220, 223, -1, 73.00, 279.00, 17.00, 17, ABprapappp
224, 221, 224, -1, 83.00, 249.00, 22.00, 15, ABprapapap
225, 222, 225, -1, 87.00, 255.00, 26.00, 17, ABprapapaa
226, 223, 226, -1, 220.00, 198.00, 25.00, 13, MSppppap
227, 224, 227, -1, 225.00, 201.00, 20.00, 15, MSppppaa
228, 225, 228, -1, 221.00, 205.00, 29.00, 15, MSpppppa
229, 226, 229, -1, 186.00, 218.00, 28.00, 15, MSpppppp
230, 227, 230, -1, 220.00, 224.00, 16.00, 15, MSpppaaa
231, 228, 231, -1, 207.00, 224.00, 20.00, 17, MSpppaap
232, 229, 232, -1, 191.00, 221.00, 19.00, 15, MSpppapp
233, 230, 233, -1, 198.00, 201.00, 16.00, 13, MSpppapa
234, 231, 234, -1, 230.00, 210.00, 16.00, 15, MSppaapp
235, 232, 235, -1, 254.00, 214.00, 15.00, 13, MSppaapa
236, 233, 236, -1, 283.00, 200.00, 15.00, 15, MSppaaaa
237, 234, 237, -1, 267.00, 202.00, 17.00, 15, MSppaaap
238, 235, 238, -1, 271.00, 188.00, 27.00, 17, MSppappa
239, 236, 239, -1, 265.00, 188.00, 20.00, 13, MSppapaa
240, 237, 240, -1, 246.00, 197.00, 18.00, 13, MSppapap
241, 238, 241, -1, 201.00, 261.00, 16.00, 17, MSpapapp
242, 239, 242, -1, 213.00, 248.00, 18.00, 15, MSpapapa
243, 240, 243, -1, 248.00, 246.00, 16.00, 13, MSpapaaaa
244, 240, 244, -1, 232.00, 247.00, 19.00, 15, MSpapaaap
245, 241, 245, -1, 226.00, 228.00, 20.00, 15, MSpapaapa
246, 242, 246, -1, 214.00, 251.00, 22.00, 15, MSpapaapp
247, 243, 247, -1, 188.00, 301.00, 14.00, 15, MSpappaa
248, 244, 248, -1, 173.00, 276.00, 15.00, 15, MSpappap
249, 245, 249, -1, 167.00, 257.00, 15.00, 15, MSpapppp
250, 246, 250, -1, 167.00, 231.00, 15.00, 19, MSpapppa
251, 247, 251, -1, 269.00, 218.00, 27.00, 15, MSpaaappa
252, 248, 252, -1, 245.00, 234.00, 29.00, 15, MSpaaappp
253, 249, 253, -1, 269.00, 231.00, 31.00, 15, MSpaaapa
254, 250, 254, -1, 289.00, 208.00, 27.00, 17, MSpaaaap
255, 251, 255, -1, 310.00, 199.00, 25.00, 17, MSpaaaaa
256, 252, 256, -1, 249.00, 214.00, 23.00, 19, MSpaapap
257, 253, 257, -1, 270.00, 204.00, 23.00, 15, MSpaapaa
258, 254, 258, -1, 195.00, 241.00, 26.00, 21, Earap
259, 255, 259, -1, 267.00, 287.00, 23.00, 13, MSapppaa
260, 256, 260, -1, 256.00, 292.00, 27.00, 15, MSapppap
261, 257, 261, -1, 245.00, 286.00, 28.00, 15, MSappppa
262, 258, 262, -1, 212.00, 306.00, 28.00, 13, MSappppp
263, 259, 263, -1, 223.00, 303.00, 22.00, 15, MSappaap
264, 260, 264, -1, 248.00, 288.00, 20.00, 13, MSappaaa
265, 261, 265, -1, 229.00, 311.00, 18.00, 13, MSappapp
266, 262, 266, -1, 252.00, 305.00, 20.00, 13, MSappapa
267, 263, 267, -1, 300.00, 261.00, 27.00, 15, MSapappa
268, 264, 268, -1, 268.00, 274.00, 29.00, 15, MSapappp
269, 265, 269, -1, 283.00, 278.00, 20.00, 13, MSapapap
270, 266, 270, -1, 297.00, 264.00, 22.00, 17, MSapapaa
271, 267, 271, -1, 264.00, 295.00, 18.00, 17, MSapaapp
272, 268, 272, -1, 285.00, 272.00, 16.00, 13, MSapaapa
273, 269, 273, -1, 332.00, 246.00, 20.00, 15, MSapaaaa
274, 270, 274, -1, 309.00, 262.00, 18.00, 15, MSapaaap
275, 271, 275, -1, 327.00, 214.00, 27.00, 15, MSaaaaapa
276, 272, 276, -1, 305.00, 226.00, 30.00, 13, MSaaaaapp
277, 273, 277, -1, 339.00, 215.00, 24.00, 19, MSaaaaaa
278, 274, 278, -1, 288.00, 230.00, 30.00, 17, MSaaaapa
279, 275, 279, -1, 271.00, 251.00, 29.00, 15, MSaaaapp
280, 276, 280, -1, 275.00, 243.00, 25.00, 19, MSaaapap
281, 277, 281, -1, 301.00, 237.00, 26.00, 17, MSaaapaa
282, 278, 282, -1, 264.00, 257.00, 26.00, 15, MSaaappa
283, 279, 283, -1, 248.00, 251.00, 28.00, 15, MSaaappp
284, 280, 284, -1, 195.00, 321.00, 16.00, 15, MSaapppp
285, 281, 285, -1, 213.00, 312.00, 16.00, 19, MSaapppa
286, 282, 286, -1, 257.00, 270.00, 17.00, 17, MSaapaaa
287, 283, 287, -1, 228.00, 287.00, 18.00, 15, MSaapapp
288, 284, 288, -1, 231.00, 268.00, 19.00, 15, MSaapapa
289, 285, 289, -1, 215.00, 279.00, 23.00, 21, Ealpa
290, 286, 290, -1, 185.00, 287.00, 23.00, 19, Ealpp
291, 287, 291, -1, 138.00, 304.00, 24.00, 21, Eplpa
292, 288, 292, -1, 147.00, 339.00, 20.00, 19, Cappap
293, 289, 293, -1, 161.00, 334.00, 24.00, 21, Cappaa
294, 290, 294, -1, 126.00, 338.00, 21.00, 15, Capppa
295, 291, 295, -1, 117.00, 322.00, 16.00, 19, Capppp
296, 292, 296, -1, 171.00, 331.00, 19.00, 19, Capapa
297, 293, 297, -1, 148.00, 320.00, 16.00, 17, Capapp
298, 294, 298, -1, 174.00, 313.00, 17.00, 19, Capaap
299, 295, 299, -1, 195.00, 324.00, 21.00, 17, Capaaa
300, 296, 300, -1, 84.00, 332.00, 26.00, 19, Caaapp
301, 297, 301, -1, 87.00, 329.00, 15.00, 19, Caappd
302, 298, 302, -1, 89.00, 318.00, 11.00, 15, Caappv
303, 299, 303, -1, 102.00, 302.00, 13.00, 17, Caapa
304, 300, 304, -1, 65.00, 303.00, 18.00, 17, Cpappd
305, 301, 305, -1, 78.00, 303.00, 13.00, 17, Cpappv
306, 302, 306, -1, 74.00, 332.00, 20.00, 19, Cpapaa
307, 303, 307, -1, 81.00, 300.00, 29.00, 23, Cpaapp
308, 304, 308, -1, 145.00, 256.00, 16.00, 17, Cppaap
309, 305, 309, -1, 147.00, 227.00, 18.00, 19, Cppaaa
310, 306, 310, -1, 126.00, 239.00, 20.00, 17, Cppapa
311, 307, 311, -1, 119.00, 258.00, 15.00, 19, Cppapp
312, 308, 312, -1, 130.00, 231.00, 24.00, 19, Cpppaa
313, 309, 313, -1, 114.00, 258.00, 19.00, 17, Cpppap
314, 310, 314, -1, 243.00, 312.00, 23.00, 15, Daapa
315, 311, 315, -1, 212.00, 323.00, 23.00, 17, Daapp
316, 312, 316, -1, 255.00, 300.00, 24.00, 15, Daaaa
317, 313, 317, -1, 234.00, 305.00, 26.00, 15, Daaap
318, 314, 318, -1, 196.00, 317.00, 29.00, 15, Dappa
319, 315, 319, -1, 158.00, 329.00, 28.00, 17, Dappp
320, 316, 320, -1, 178.00, 209.00, 18.00, 17, Dpap
321, 317, 321, -1, 198.00, 210.00, 24.00, 15, Dpaap
322, 318, 322, -1, 208.00, 194.00, 19.00, 15, Dpaaa
323, 319, 323, -1, 133.00, 241.00, 27.00, 15, Dpppp
324, 320, 324, -1, 163.00, 221.00, 25.00, 19, Dpppa
325, 321, 325, -1, 185.00, 203.00, 22.00, 17, Dppaa
326, 322, 326, -1, 154.00, 212.00, 21.00, 13, Dppap
327, 323, 327, -1, 189.00, 291.00, 16.00, 21, Z3
328, 324, 328, -1, 155.00, 278.00, 17.00, 23, Z2
330, 326, 330, -1, 330.00, 292.00, 24.00, 19, ABalpppapp
331, 327, 331, -1, 307.00, 283.00, 22.00, 13, ABalpppppaa
332, 327, 332, -1, 302.00, 289.00, 25.00, 15, ABalpppppap
333, 328, 333, -1, 285.00, 281.00, 25.00, 13, ABalppppppa
334, 329, 334, -1, 283.00, 299.00, 30.00, 15, ABalppppppp
335, 330, 335, -1, 328.00, 278.00, 27.00, 17, ABalppppap
336, 331, 336, -1, 324.00, 273.00, 20.00, 17, ABalppppaa
337, 332, 337, -1, 340.00, 283.00, 17.00, 15, ABalpppaaa
338, 333, 338, -1, 346.00, 283.00, 22.00, 15, ABalpppaap
339, 334, 339, -1, 323.00, 297.00, 19.00, 17, ABalpppapa
340, 335, 340, -1, 340.00, 255.00, 18.00, 17, ABalppaaaa
341, 336, 341, -1, 348.00, 267.00, 18.00, 15, ABalppaaap
342, 337, 342, -1, 313.00, 298.00, 15.00, 15, ABalppaapp
343, 338, 343, -1, 322.00, 286.00, 15.00, 15, ABalppaapa
344, 339, 344, -1, 282.00, 301.00, 13.00, 17, ABalppappp
345, 340, 345, -1, 304.00, 278.00, 14.00, 17, ABalppappa
346, 341, 346, -1, 292.00, 286.00, 9.00, 15, ABalppapap
347, 342, 347, -1, 308.00, 277.00, 11.00, 15, ABalppapaa
348, 343, 348, -1, 272.00, 285.00, 10.00, 19, ABalpapapa
349, 344, 349, -1, 258.00, 318.00, 12.00, 19, ABalpapapp
350, 345, 350, -1, 281.00, 260.00, 9.00, 17, ABalpapaap
351, 346, 351, -1, 301.00, 261.00, 11.00, 15, ABalpapaaa
352, 347, 352, -1, 268.00, 257.00, 11.00, 17, ABalpappapa
353, 348, 353, -1, 243.00, 267.00, 11.00, 17, ABalpappapp
354, 349, 354, -1, 287.00, 247.00, 12.00, 15, ABalpappaa
355, 350, 355, -1, 235.00, 274.00, 14.00, 17, ABalpappppp
356, 351, 356, -1, 259.00, 274.00, 14.00, 15, ABalpappppa
357, 352, 357, -1, 269.00, 256.00, 14.00, 15, ABalpapppa
358, 353, 358, -1, 284.00, 255.00, 17.00, 15, ABalpaaapp
359, 354, 359, -1, 303.00, 240.00, 14.00, 15, ABalpaaapa
360, 355, 360, -1, 306.00, 241.00, 10.00, 15, ABalpaaaap
361, 356, 361, -1, 319.00, 225.00, 11.00, 17, ABalpaaaaa
362, 357, 362, -1, 323.00, 261.00, 12.00, 15, ABalpaappp
363, 358, 363, -1, 329.00, 243.00, 10.00, 17, ABalpaappa
364, 359, 364, -1, 306.00, 243.00, 18.00, 15, ABalpaapapp
365, 360, 365, -1, 319.00, 235.00, 16.00, 15, ABalpaapapa
366, 361, 366, -1, 333.00, 223.00, 18.00, 15, ABalpaapaa
367, 362, 367, -1, 175.00, 253.00, 27.00, 19, Epraa
368, 363, 368, -1, 152.00, 266.00, 26.00, 19, Eprap
369, 364, 369, -1, 224.00, 217.00, 25.00, 13, MSpaapp
370, 365, 370, -1, 168.00, 257.00, 23.00, 21, Earpp
371, 366, 371, -1, 200.00, 271.00, 28.00, 21, Ealap
372, 367, 372, -1, 229.00, 262.00, 27.00, 21, Ealaa
373, 368, 373, -1, 175.00, 278.00, 28.00, 23, Eplaa
374, 369, 374, -1, 154.00, 290.00, 26.00, 19, Eplap
375, 370, 375, -1, 122.00, 282.00, 20.00, 19, Eprpp
376, 371, 376, -1, 191.00, 332.00, 26.00, 17, Dapap
377, 372, 377, -1, 220.00, 321.00, 26.00, 15, Dapaa
378, 373, 378, -1, 245.00, 266.00, 23.00, 17, MSaapaap
379, 374, 379, -1, 143.00, 217.00, 32.00, 15, ABarpppapp
380, 375, 380, -1, 231.00, 328.00, 13.00, 15, ABplppaapa
381, 376, 381, -1, 66.00, 301.00, 24.00, 21, Cpapap
382, 377, 382, -1, 229.00, 235.00, 26.00, 19, Earaa
383, 378, 383, -1, 346.00, 244.00, 15.00, 15, ABalaaaala
384, 379, 384, -1, 243.00, 191.00, 35.00, 15, ABarpappaa
385, 380, 385, -1, 343.00, 197.00, 27.00, 13, ABalappaaa
386, 381, 386, -1, 95.00, 272.00, 20.00, 17, Cppppa
387, 382, 387, -1, 99.00, 287.00, 16.00, 19, Cppppp
388, 383, 388, -1, 191.00, 250.00, 20.00, 19, Earpa
389, 384, 389, -1, 245.00, 200.00, 29.00, 15, MSppappp
390, 385, 390, -1, 132.00, 273.00, 24.00, 21, Eprpa
391, 386, 391, -1, 216.00, 249.00, 34.00, 17, ABarpaappa
392, 387, 392, -1, 197.00, 309.00, 34.00, 16, ABarppaapa
393, 388, 393, -1, 118.00, 254.00, 33.00, 19, Cpaaap
394, 389, 394, -1, 111.00, 330.00, 32.00, 21, Caaapa
395, 390, 395, -1, 105.00, 285.00, 33.00, 19, Cpaapa
396, 391, 396, -1, 134.00, 302.00, 19.00, 21, Eplpp
397, 392, 397, 400, 209.00, 282.00, 14.00, 15, MSaappa
398, 393, 401, -1, 181.00, 228.00, 34.00, 19, ABarpppapa
400, 395, 399, -1, 265.00, 175.00, 15.00, 16, ABalaapapp
401, 396, 402, -1, 154.00, 248.00, 34.00, 20, Cpaaaa
402, 397, 403, -1, 131.00, 313.00, 33.00, 15, Caaaap
403, 398, 404, -1, 167.00, 306.00, 33.00, 17, Caaaaa
404, 399, 405, -1, 138.00, 317.00, 9.00, 10, ABplpppapap
