1, 1, 1, -1, 311.00, 204.00, 24.00, 17, ABaraappaa
2, 2, 2, -1, 277.00, 216.00, 22.00, 17, ABaraappapp
3, 3, 3, -1, 294.00, 205.00, 23.00, 15, ABaraappapa
4, 4, 4, -1, 255.00, 229.00, 21.00, 15, ABaraapppap
5, 5, 5, -1, 267.00, 218.00, 19.00, 15, ABaraapppaa
6, 6, 6, -1, 236.00, 226.00, 20.00, 19, ABaraapppp
7, 7, 7, -1, 261.00, 268.00, 21.00, 17, ABaraapapp
8, 8, 8, -1, 268.00, 253.00, 22.00, 15, ABaraapapap
9, 9, 9, -1, 284.00, 248.00, 22.00, 17, ABaraapapaa
10, 10, 10, -1, 326.00, 225.00, 23.00, 15, ABaraapaaa
11, 11, 11, -1, 292.00, 233.00, 25.00, 15, ABaraapaapp
12, 12, 12, -1, 312.00, 226.00, 23.00, 13, ABaraapaapa
13, 13, 13, -1, 314.00, 212.00, 11.00, 15, ABaraaappa
14, 14, 14, -1, 291.00, 207.00, 9.00, 15, ABaraaappp
15, 15, 15, -1, 324.00, 211.00, 17.00, 13, ABaraaapaaa
16, 16, 16, -1, 303.00, 209.00, 20.00, 17, ABaraaapaap
17, 18, 17, -1, 284.00, 225.00, 19.00, 15, ABaraaapapp
18, 19, 18, -1, 323.00, 230.00, 15.00, 15, ABaraaaaaa
19, 20, 19, -1, 305.00, 211.00, 15.00, 15, ABaraaaaap
20, 21, 20, -1, 317.00, 227.00, 27.00, 11, ABaraaaapp
21, 22, 21, -1, 330.00, 208.00, 19.00, 15, ABaraaaapa
22, 23, 22, -1, 242.00, 249.00, 11.00, 15, ABarapapapp
23, 24, 23, -1, 261.00, 238.00, 10.00, 15, ABarapapapa
24, 25, 24, -1, 263.00, 232.00, 13.00, 13, ABarapapaap
25, 25, 25, -1, 277.00, 226.00, 15.00, 13, ABarapapaaa
26, 26, 26, -1, 218.00, 237.00, 13.00, 17, ABarapapppp
27, 27, 27, -1, 240.00, 233.00, 13.00, 17, ABarapapppa
28, 28, 28, -1, 249.00, 230.00, 15.00, 15, ABarapappa
29, 29, 29, -1, 284.00, 232.00, 10.00, 15, ABarapaaap
30, 30, 30, -1, 296.00, 224.00, 12.00, 15, ABarapaaaa
31, 31, 31, -1, 288.00, 224.00, 16.00, 19, ABarapaapa
32, 32, 32, -1, 248.00, 224.00, 17.00, 15, ABarapaappp
33, 33, 33, -1, 267.00, 236.00, 18.00, 15, ABarapaappa
34, 34, 34, -1, 254.00, 205.00, 11.00, 17, ABarapppap
35, 35, 35, -1, 279.00, 192.00, 10.00, 19, ABarapppaa
36, 36, 36, 37, 266.00, 194.00, 13.00, 15, ABarappppa
37, 37, 38, -1, 240.00, 191.00, 11.00, 13, ABarapppppa
38, 38, 39, -1, 220.00, 194.00, 12.00, 17, ABarapppppp
39, 39, 40, -1, 269.00, 218.00, 10.00, 17, ABarappaaa
40, 40, 41, -1, 240.00, 225.00, 10.00, 15, ABarappaap
41, 41, 42, -1, 215.00, 218.00, 10.00, 15, ABarappapap
42, 41, 43, -1, 235.00, 209.00, 11.00, 11, ABarappapaa
43, 42, 44, -1, 191.00, 208.00, 10.00, 19, ABarappapp
44, 43, 45, -1, 222.00, 178.00, 31.00, 17, ABarpapppa
45, 44, 46, -1, 216.00, 191.00, 34.00, 17, ABarpapppp
46, 45, 47, -1, 246.00, 177.00, 33.00, 19, ABarpappap
47, 46, 48, -1, 294.00, 187.00, 35.00, 17, ABarpapaaa
48, 47, 49, -1, 294.00, 193.00, 32.00, 13, ABarpapaapa
49, 48, 50, -1, 275.00, 197.00, 34.00, 17, ABarpapaapp
50, 49, 51, -1, 236.00, 213.00, 35.00, 17, ABarpapapp
51, 50, 52, -1, 272.00, 218.00, 34.00, 17, ABarpapapa
52, 51, 53, -1, 214.00, 271.00, 34.00, 17, ABarpaappp
53, 52, 54, -1, 255.00, 218.00, 34.00, 15, ABarpaapaa
54, 53, 55, -1, 242.00, 253.00, 35.00, 19, ABarpaapap
55, 54, 56, -1, 327.00, 212.00, 32.00, 15, ABarpaaaaa
56, 55, 57, -1, 296.00, 233.00, 35.00, 17, ABarpaaaap
57, 56, 58, -1, 272.00, 236.00, 35.00, 11, ABarpaaapp
58, 57, 59, -1, 295.00, 211.00, 35.00, 17, ABarpaaapa
59, 58, 60, -1, 232.00, 319.00, 34.00, 17, ABarppaaap
60, 59, 61, -1, 238.00, 294.00, 35.00, 13, ABarppaaaa
61, 60, 62, -1, 180.00, 331.00, 34.00, 15, ABarppaapp
62, 61, 63, -1, 138.00, 350.00, 30.00, 15, ABarppappa
63, 62, 64, -1, 110.00, 358.00, 22.00, 17, ABarppappp
64, 63, 65, -1, 190.00, 348.00, 32.00, 17, ABarppapap
65, 64, 66, -1, 212.00, 335.00, 33.00, 17, ABarppapaa
66, 65, 67, -1, 71.00, 260.00, 20.00, 17, ABarpppppp
67, 66, 68, -1, 95.00, 246.00, 29.00, 17, ABarpppppa
68, 67, 69, -1, 161.00, 197.00, 30.00, 15, ABarppppaa
69, 68, 70, -1, 133.00, 213.00, 31.00, 17, ABarppppap
70, 69, 71, -1, 186.00, 197.00, 34.00, 19, ABarpppaap
71, 70, 72, -1, 204.00, 213.00, 34.00, 15, ABarpppaaa
72, 71, 73, -1, 316.00, 184.00, 27.00, 15, ABalappppaa
73, 72, 74, -1, 299.00, 183.00, 28.00, 11, ABalappppap
74, 73, 75, -1, 295.00, 173.00, 31.00, 13, ABalapppppa
75, 74, 76, -1, 271.00, 177.00, 33.00, 13, ABalapppppp
76, 75, 77, -1, 333.00, 189.00, 26.00, 15, ABalapppaa
77, 76, 78, -1, 321.00, 196.00, 31.00, 13, ABalapppapa
78, 77, 79, -1, 302.00, 204.00, 34.00, 13, ABalapppapp
79, 78, 80, -1, 318.00, 179.00, 23.00, 19, ABalappapa
80, 79, 81, -1, 342.00, 221.00, 27.00, 13, ABalappaap
81, 80, 82, -1, 308.00, 169.00, 26.00, 15, ABalappapp
82, 81, 83, 84, 312.00, 265.00, 34.00, 17, ABalapappp
83, 82, 85, -1, 335.00, 241.00, 27.00, 13, ABalapappaa
84, 83, 86, -1, 322.00, 255.00, 30.00, 15, ABalapappap
85, 84, 87, -1, 327.00, 228.00, 34.00, 17, ABalapapaa
86, 85, 88, -1, 312.00, 242.00, 32.00, 11, ABalapapapp
87, 86, 89, -1, 352.00, 240.00, 25.00, 15, ABalapaaaa
88, 87, 90, -1, 348.00, 253.00, 28.00, 13, ABalapaaapa
89, 88, 91, -1, 332.00, 270.00, 30.00, 15, ABalapaaapp
90, 89, 92, -1, 349.00, 258.00, 24.00, 15, ABalapaappa
91, 90, 93, -1, 334.00, 262.00, 21.00, 15, ABalapaapa
92, 91, 94, -1, 343.00, 277.00, 24.00, 15, ABalapaappp
93, 92, 95, -1, 309.00, 190.00, 13.00, 15, ABalaapaaa
94, 93, 96, -1, 253.00, 182.00, 10.00, 13, ABalaapapa
95, 94, 97, -1, 295.00, 184.00, 11.00, 17, ABalaapaap
96, 95, 98, -1, 284.00, 185.00, 15.00, 15, ABalaappap
97, 96, 99, -1, 286.00, 168.00, 14.00, 15, ABalaappaa
98, 97, 100, -1, 292.00, 167.00, 24.00, 15, ABalaappppp
99, 98, 101, -1, 307.00, 174.00, 20.00, 13, ABalaappppa
100, 99, 102, -1, 292.00, 184.00, 20.00, 17, ABalaapppa
101, 100, 103, -1, 344.00, 264.00, 13.00, 17, ABalaaaalp
102, 101, 104, -1, 326.00, 192.00, 16.00, 15, ABalaaaarr
103, 102, 105, -1, 347.00, 219.00, 18.00, 17, ABalaaaarl
104, 103, 106, -1, 330.00, 187.00, 21.00, 15, ABalaaappl
105, 104, 107, -1, 306.00, 181.00, 17.00, 19, ABalaaappr
106, 105, 108, -1, 348.00, 217.00, 22.00, 17, ABalaaapar
107, 106, 109, -1, 348.00, 248.00, 20.00, 16, ABalaaapal
108, 107, 110, -1, 156.00, 329.00, 11.00, 13, ABplppppapa
109, 108, 111, -1, 150.00, 312.00, 10.00, 13, ABplppppapp
110, 109, 112, -1, 182.00, 306.00, 9.00, 15, ABplppppaaa
111, 110, 113, -1, 170.00, 316.00, 10.00, 13, ABplppppaap
112, 111, 114, -1, 104.00, 316.00, 11.00, 17, ABplpppppp
113, 112, 115, -1, 152.00, 309.00, 13.00, 15, ABplpppppa
114, 113, 116, -1, 129.00, 315.00, 12.00, 13, ABplpppapp
115, 114, 117, -1, 139.00, 331.00, 10.00, 13, ABplpppapaa
116, 115, 118, -1, 134.00, 347.00, 13.00, 15, ABplpppaapp
117, 116, 119, -1, 158.00, 344.00, 12.00, 13, ABplpppaapa
118, 117, 120, -1, 188.00, 326.00, 11.00, 13, ABplpppaaaa
119, 118, 121, -1, 169.00, 341.00, 12.00, 13, ABplpppaaap
120, 119, 122, -1, 187.00, 341.00, 14.00, 15, ABplppappp
121, 120, 123, -1, 212.00, 335.00, 13.00, 19, ABplppappa
122, 121, 124, -1, 215.00, 343.00, 17.00, 13, ABplppapaap
123, 122, 125, -1, 200.00, 347.00, 18.00, 17, ABplppapap
124, 123, 126, -1, 202.00, 320.00, 11.00, 15, ABplppaapp
125, 124, 127, -1, 263.00, 318.00, 18.00, 13, ABplppaaaaa
126, 125, 128, -1, 248.00, 320.00, 19.00, 13, ABplppaaap
127, 126, 129, -1, 244.00, 271.00, 9.00, 15, ABplpappaaa
128, 127, 130, -1, 223.00, 287.00, 11.00, 15, ABplpappaap
129, 128, 131, -1, 217.00, 265.00, 11.00, 15, ABplpappap
130, 129, 132, -1, 161.00, 297.00, 11.00, 17, ABplpapppp
131, 130, 133, 134, 178.00, 281.00, 10.00, 15, ABplpapppa
132, 131, 135, -1, 202.00, 297.00, 10.00, 15, ABplpapapp
133, 132, 136, -1, 219.00, 308.00, 11.00, 13, ABplpapapap
134, 132, 137, -1, 238.00, 304.00, 11.00, 13, ABplpapapaa
135, 133, 138, -1, 252.00, 310.00, 14.00, 19, ABplpapaap
136, 134, 139, -1, 264.00, 294.00, 13.00, 17, ABplpapaaa
137, 135, 140, -1, 255.00, 333.00, 15.00, 13, ABplpaaaapp
138, 136, 141, -1, 266.00, 319.00, 12.00, 15, ABplpaaaapa
139, 137, 142, 143, 301.00, 286.00, 16.00, 15, ABplpaaaaa
140, 138, 144, -1, 301.00, 305.00, 18.00, 19, ABplpaaapa
141, 139, 145, -1, 292.00, 311.00, 15.00, 13, ABplpaaappa
142, 140, 146, -1, 273.00, 320.00, 16.00, 15, ABplpaaappp
143, 141, 147, 148, 278.00, 300.00, 25.00, 17, ABplpaappa
144, 142, 149, -1, 288.00, 319.00, 20.00, 13, ABplpaapppa
145, 142, 150, -1, 273.00, 326.00, 20.00, 15, ABplpaapppp
146, 143, 151, -1, 300.00, 285.00, 20.00, 19, ABplpaapaa
147, 144, 152, -1, 294.00, 312.00, 23.00, 17, ABplpaapap
148, 145, 153, -1, 269.00, 332.00, 25.00, 17, ABplaappap
149, 146, 154, -1, 283.00, 324.00, 25.00, 13, ABplaappaa
150, 147, 155, -1, 258.00, 332.00, 27.00, 17, ABplaapppa
151, 148, 156, -1, 230.00, 348.00, 24.00, 17, ABplaapppp
152, 149, 157, -1, 333.00, 257.00, 34.00, 19, ABplaapaaa
153, 150, 158, -1, 339.00, 270.00, 32.00, 15, ABplaapaapa
154, 151, 159, -1, 315.00, 286.00, 32.00, 15, ABplaapaapp
155, 152, 160, -1, 298.00, 301.00, 30.00, 19, ABplaapappp
156, 153, 161, -1, 302.00, 278.00, 30.00, 15, ABplaapappa
157, 154, 162, -1, 306.00, 276.00, 27.00, 19, ABplaapapa
158, 155, 163, -1, 296.00, 253.00, 32.00, 17, ABplaaaaap
159, 156, 164, -1, 309.00, 247.00, 36.00, 17, ABplaaaaaa
160, 157, 165, -1, 261.00, 266.00, 34.00, 15, ABplaaaapp
161, 158, 166, -1, 277.00, 254.00, 34.00, 15, ABplaaaapa
162, 159, 167, -1, 258.00, 291.00, 34.00, 17, ABplaaappp
163, 160, 168, -1, 275.00, 299.00, 33.00, 15, ABplaaappa
164, 161, 169, -1, 292.00, 295.00, 33.00, 17, ABplaaapap
165, 162, 170, -1, 300.00, 279.00, 35.00, 15, ABplaaapaa
166, 163, 171, -1, 126.00, 357.00, 15.00, 17, ABplappppa
167, 164, 172, -1, 106.00, 337.00, 13.00, 15, ABplappppp
168, 165, 173, -1, 124.00, 342.00, 17.00, 15, ABplapppaa
169, 166, 174, -1, 124.00, 334.00, 13.00, 13, ABplapppap
170, 167, 175, -1, 194.00, 356.00, 25.00, 15, ABplappaaa
171, 168, 176, -1, 176.00, 362.00, 25.00, 15, ABplappaap
172, 169, 177, -1, 163.00, 363.00, 22.00, 15, ABplappapp
173, 170, 178, -1, 162.00, 348.00, 31.00, 15, ABplappapa
174, 171, 179, -1, 208.00, 353.00, 28.00, 15, ABplapaapp
175, 172, 180, -1, 241.00, 337.00, 29.00, 15, ABplapaapa
176, 173, 181, -1, 246.00, 305.00, 32.00, 19, ABplapaaaa
177, 174, 182, -1, 246.00, 318.00, 30.00, 17, ABplapaaap
178, 175, 183, -1, 103.00, 343.00, 18.00, 19, ABplapappp
179, 176, 184, -1, 140.00, 369.00, 23.00, 15, ABplapapap
180, 177, 185, -1, 130.00, 363.00, 18.00, 17, ABplapappa
181, 178, 186, -1, 129.00, 357.00, 27.00, 19, ABplapapaa
182, 179, 187, -1, 215.00, 219.00, 13.00, 15, ABprpapaaa
183, 180, 188, -1, 204.00, 204.00, 13.00, 15, ABprpapaap
184, 181, 189, -1, 179.00, 235.00, 11.00, 13, ABprpapappa
185, 182, 190, -1, 175.00, 259.00, 9.00, 13, ABprpapappp
186, 183, 191, 192, 195.00, 230.00, 12.00, 17, ABprpapapa
187, 184, 193, -1, 139.00, 294.00, 11.00, 13, ABprpappppp
188, 185, 194, -1, 155.00, 284.00, 15.00, 13, ABprpappppa
189, 186, 195, -1, 205.00, 253.00, 12.00, 13, ABprpapppaa
190, 187, 196, -1, 188.00, 266.00, 12.00, 13, ABprpapppap
191, 188, 197, -1, 202.00, 250.00, 8.00, 15, ABprpappapa
192, 189, 198, -1, 199.00, 275.00, 10.00, 15, ABprpappapp
193, 190, 199, -1, 215.00, 236.00, 10.00, 13, ABprpappaap
194, 191, 200, -1, 234.00, 247.00, 9.00, 15, ABprpappaaa
195, 192, 201, -1, 232.00, 184.00, 15.00, 13, ABprpaaaaap
196, 193, 472, -1, 257.00, 185.00, 15.00, 13, ABprpaaaaaa
197, 194, 203, -1, 189.00, 189.00, 11.00, 15, ABprpaaaapp
198, 195, 204, -1, 218.00, 181.00, 10.00, 15, ABprpaaaapa
199, 196, 205, -1, 225.00, 169.00, 14.00, 13, ABprpaaappa
200, 197, 206, -1, 213.00, 186.00, 14.00, 15, ABprpaaappp
201, 198, 207, -1, 241.00, 171.00, 13.00, 15, ABprpaaapa
202, 199, 202, 208, 247.00, 174.00, 18.00, 15, ABprpaapaa
203, 200, 209, -1, 236.00, 164.00, 22.00, 15, ABprpaapapa
204, 200, 210, -1, 224.00, 167.00, 19.00, 15, ABprpaapapp
205, 201, 211, -1, 217.00, 170.00, 17.00, 15, ABprpaapppa
206, 202, 212, -1, 198.00, 174.00, 18.00, 13, ABprpaapppp
207, 203, 213, -1, 209.00, 181.00, 25.00, 13, ABprpaappap
208, 204, 214, -1, 231.00, 183.00, 22.00, 15, ABprpaappaa
209, 205, 215, -1, 111.00, 251.00, 10.00, 19, ABprpppaap
210, 206, 216, 217, 134.00, 242.00, 11.00, 17, ABprpppaaa
211, 207, 218, -1, 120.00, 266.00, 9.00, 13, ABprpppapaa
212, 208, 219, -1, 117.00, 285.00, 11.00, 13, ABprpppapap
213, 209, 220, -1, 120.00, 299.00, 10.00, 13, ABprpppapp
214, 210, 221, -1, 142.00, 259.00, 10.00, 15, ABprppppapa
215, 211, 222, -1, 136.00, 281.00, 9.00, 15, ABprppppapp
216, 212, 223, -1, 160.00, 269.00, 9.00, 15, ABprppppaaa
217, 213, 224, -1, 148.00, 274.00, 12.00, 13, ABprppppaap
218, 214, 225, -1, 89.00, 303.00, 11.00, 15, ABprppppppp
219, 215, 226, -1, 106.00, 289.00, 10.00, 13, ABprppppppa
220, 216, 227, -1, 130.00, 277.00, 15.00, 15, ABprpppppa
221, 217, 228, -1, 178.00, 215.00, 13.00, 17, ABprppaapa
222, 218, 229, -1, 160.00, 244.00, 10.00, 17, ABprppaapp
223, 219, 230, -1, 195.00, 192.00, 16.00, 17, ABprppaaaa
224, 220, 231, -1, 179.00, 180.00, 19.00, 13, ABprppaaap
225, 221, 232, 233, 158.00, 202.00, 14.00, 17, ABprppapaa
226, 222, 234, -1, 134.00, 216.00, 14.00, 19, ABprppapap
227, 223, 235, -1, 118.00, 231.00, 13.00, 17, ABprppappp
228, 224, 236, -1, 152.00, 222.00, 12.00, 17, ABprppappa
229, 225, 237, -1, 318.00, 178.00, 33.00, 17, ABpraapaaa
230, 226, 238, -1, 292.00, 171.00, 28.00, 15, ABpraapaapa
231, 227, 239, -1, 260.00, 184.00, 26.00, 17, ABpraapapa
232, 228, 240, -1, 240.00, 172.00, 29.00, 15, ABpraapappp
233, 229, 241, -1, 256.00, 181.00, 29.00, 13, ABpraapappa
234, 230, 242, -1, 157.00, 191.00, 21.00, 15, ABpraapppp
235, 231, 243, -1, 185.00, 178.00, 23.00, 17, ABpraapppa
236, 232, 244, -1, 202.00, 168.00, 23.00, 17, ABpraappap
237, 233, 245, -1, 217.00, 168.00, 22.00, 15, ABpraappaa
238, 234, 246, -1, 276.00, 171.00, 26.00, 15, ABpraaapap
239, 235, 247, -1, 275.00, 178.00, 20.00, 13, ABpraaapaa
240, 236, 248, -1, 255.00, 182.00, 22.00, 19, ABpraaappa
241, 237, 249, -1, 239.00, 193.00, 25.00, 15, ABpraaapppa
242, 238, 250, -1, 224.00, 181.00, 27.00, 13, ABpraaapppp
243, 239, 251, -1, 279.00, 160.00, 21.00, 17, ABpraaaaap
244, 240, 252, -1, 270.00, 167.00, 15.00, 15, ABpraaaaaa
245, 241, 253, -1, 264.00, 164.00, 19.00, 15, ABpraaaapa
246, 242, 254, -1, 259.00, 159.00, 23.00, 17, ABpraaaapp
247, 243, 255, -1, 107.00, 223.00, 19.00, 15, ABprappapp
248, 244, 256, -1, 110.00, 224.00, 28.00, 15, ABprappapa
249, 245, 257, -1, 116.00, 212.00, 22.00, 15, ABprappaap
250, 246, 258, -1, 138.00, 206.00, 19.00, 17, ABprappaaa
251, 247, 259, -1, 89.00, 263.00, 15.00, 17, ABprapppaa
252, 248, 260, -1, 99.00, 269.00, 12.00, 15, ABprapppap
253, 249, 261, -1, 79.00, 277.00, 12.00, 17, ABprappppp
254, 250, 262, -1, 86.00, 252.00, 13.00, 17, ABprappppa
255, 251, 263, -1, 189.00, 191.00, 28.00, 17, ABprapaaap
256, 252, 264, -1, 206.00, 201.00, 31.00, 15, ABprapaaaa
257, 253, 265, -1, 140.00, 199.00, 24.00, 15, ABprapaapp
258, 254, 266, -1, 171.00, 183.00, 25.00, 15, ABprapaapa
259, 255, 267, -1, 89.00, 243.00, 16.00, 17, ABprapappa
260, 256, 268, -1, 74.00, 277.00, 17.00, 15, ABprapappp
261, 257, 269, -1, 90.00, 239.00, 20.00, 17, ABprapapap
262, 258, 270, -1, 83.00, 253.00, 25.00, 17, ABprapapaa
263, 259, 271, -1, 222.00, 201.00, 26.00, 15, MSppppap
264, 260, 272, -1, 223.00, 199.00, 20.00, 17, MSppppaa
265, 261, 273, -1, 234.00, 212.00, 30.00, 15, MSpppppa
266, 262, 274, -1, 193.00, 222.00, 30.00, 15, MSpppppp
267, 263, 275, -1, 211.00, 224.00, 17.00, 15, MSpppaaa
268, 264, 276, -1, 191.00, 232.00, 18.00, 15, MSpppaap
269, 265, 277, -1, 188.00, 215.00, 17.00, 13, MSpppapp
270, 266, 278, -1, 209.00, 209.00, 18.00, 13, MSpppapa
271, 267, 279, -1, 224.00, 208.00, 16.00, 15, MSppaapp
272, 268, 280, -1, 246.00, 207.00, 15.00, 11, MSppaapa
273, 269, 281, -1, 281.00, 204.00, 15.00, 13, MSppaaaa
274, 270, 282, -1, 274.00, 195.00, 20.00, 17, MSppaaap
275, 271, 283, -1, 280.00, 188.00, 28.00, 15, MSppappa
276, 272, 284, -1, 253.00, 197.00, 19.00, 13, MSppapaa
277, 273, 285, -1, 237.00, 196.00, 18.00, 13, MSppapap
278, 274, 286, -1, 195.00, 266.00, 15.00, 15, MSpapappp
279, 275, 287, -1, 214.00, 257.00, 15.00, 13, MSpapappa
280, 276, 288, -1, 205.00, 250.00, 19.00, 17, MSpapapa
281, 277, 289, -1, 247.00, 248.00, 17.00, 13, MSpapaaaa
282, 278, 290, -1, 233.00, 252.00, 18.00, 15, MSpapaaap
283, 279, 291, -1, 220.00, 233.00, 19.00, 15, MSpapaapa
284, 280, 292, -1, 216.00, 249.00, 22.00, 17, MSpapaapp
285, 281, 293, -1, 179.00, 302.00, 13.00, 15, MSpappaa
286, 282, 294, -1, 171.00, 276.00, 13.00, 17, MSpappap
287, 283, 295, -1, 161.00, 247.00, 13.00, 15, MSpapppp
288, 284, 296, -1, 167.00, 228.00, 16.00, 19, MSpapppa
289, 285, 297, -1, 259.00, 222.00, 28.00, 15, MSpaaappa
290, 286, 298, -1, 238.00, 237.00, 27.00, 15, MSpaaappp
291, 287, 299, -1, 250.00, 238.00, 30.00, 15, MSpaaapa
292, 288, 300, -1, 284.00, 214.00, 27.00, 15, MSpaaaapa
293, 289, 301, -1, 269.00, 209.00, 30.00, 15, MSpaaaapp
294, 290, 302, -1, 299.00, 203.00, 29.00, 15, MSpaaaaa
295, 291, 303, -1, 237.00, 236.00, 23.00, 15, MSpaapapp
296, 292, 304, -1, 255.00, 218.00, 23.00, 15, MSpaapapa
297, 293, 305, -1, 262.00, 206.00, 25.00, 15, MSpaapaa
298, 294, 306, -1, 188.00, 251.00, 24.00, 23, Earap
299, 295, 307, -1, 264.00, 304.00, 22.00, 15, MSapppaa
300, 296, 308, -1, 255.00, 291.00, 27.00, 15, MSapppap
301, 297, 309, -1, 250.00, 280.00, 30.00, 13, MSappppa
302, 298, 310, -1, 214.00, 306.00, 30.00, 17, MSappppp
303, 299, 311, -1, 215.00, 314.00, 21.00, 15, MSappaap
304, 300, 312, -1, 232.00, 295.00, 20.00, 13, MSappaaa
305, 301, 313, -1, 238.00, 305.00, 18.00, 13, MSappapp
306, 302, 314, -1, 245.00, 301.00, 20.00, 13, MSappapa
307, 303, 315, -1, 302.00, 259.00, 27.00, 13, MSapappa
308, 304, 316, -1, 273.00, 272.00, 30.00, 17, MSapappp
309, 305, 317, -1, 280.00, 291.00, 18.00, 15, MSapapap
310, 306, 318, -1, 280.00, 275.00, 23.00, 15, MSapapaa
311, 307, 319, -1, 261.00, 294.00, 18.00, 15, MSapaapp
312, 308, 320, -1, 293.00, 268.00, 17.00, 13, MSapaapa
313, 309, 321, -1, 325.00, 254.00, 17.00, 15, MSapaaaa
314, 310, 322, -1, 322.00, 256.00, 24.00, 15, MSapaaap
315, 311, 323, -1, 317.00, 212.00, 28.00, 16, MSaaaaapa
316, 312, 324, -1, 304.00, 226.00, 31.00, 15, MSaaaaapp
317, 313, 325, -1, 331.00, 207.00, 24.00, 15, MSaaaaaa
318, 314, 326, -1, 290.00, 219.00, 31.00, 13, MSaaaapaa
319, 315, 327, -1, 269.00, 234.00, 30.00, 13, MSaaaapap
320, 316, 328, -1, 264.00, 254.00, 28.00, 15, MSaaaapp
321, 317, 329, -1, 252.00, 247.00, 25.00, 13, MSaaapapp
322, 318, 330, -1, 289.00, 248.00, 29.00, 15, MSaaapaap
323, 319, 331, -1, 305.00, 240.00, 28.00, 13, MSaaapaaa
324, 320, 332, -1, 254.00, 267.00, 26.00, 13, MSaaappa
325, 321, 333, -1, 232.00, 255.00, 27.00, 15, MSaaappp
326, 322, 334, -1, 193.00, 319.00, 16.00, 15, MSaapppp
327, 323, 335, -1, 215.00, 310.00, 16.00, 17, MSaapppa
328, 324, 336, -1, 248.00, 272.00, 17.00, 13, MSaapaaap
329, 325, 337, -1, 264.00, 271.00, 17.00, 11, MSaapaaaa
330, 326, 338, -1, 214.00, 289.00, 17.00, 13, MSaapappp
331, 327, 339, -1, 235.00, 275.00, 17.00, 13, MSaapappa
332, 328, 340, -1, 228.00, 280.00, 21.00, 17, MSaapapa
333, 329, 341, -1, 208.00, 284.00, 22.00, 21, Ealpa
334, 330, 342, -1, 170.00, 299.00, 23.00, 19, Ealpp
335, 331, 343, -1, 128.00, 308.00, 23.00, 17, Eplpa
336, 332, 344, -1, 138.00, 339.00, 20.00, 19, Cappap
337, 333, 345, -1, 158.00, 339.00, 25.00, 19, Cappaa
338, 334, 346, -1, 121.00, 337.00, 24.00, 17, Capppa
339, 335, 347, -1, 109.00, 321.00, 16.00, 15, Capppp
340, 336, 348, -1, 161.00, 339.00, 21.00, 15, Capapa
341, 337, 349, -1, 148.00, 329.00, 15.00, 19, Capapp
342, 338, 350, -1, 173.00, 319.00, 16.00, 17, Capaap
343, 339, 351, -1, 193.00, 326.00, 21.00, 17, Capaaa
344, 340, 352, -1, 85.00, 328.00, 29.00, 17, Caaapp
345, 341, 353, -1, 81.00, 326.00, 17.00, 19, Caappd
346, 342, 354, -1, 84.00, 325.00, 12.00, 15, Caappv
347, 343, 355, -1, 96.00, 302.00, 14.00, 21, Caapa
348, 344, 356, -1, 63.00, 302.00, 18.00, 17, Cpappd
349, 345, 357, -1, 73.00, 305.00, 13.00, 17, Cpappv
350, 346, 358, -1, 75.00, 334.00, 22.00, 19, Cpapaa
351, 347, 359, -1, 85.00, 292.00, 30.00, 21, Cpaapp
352, 348, 360, -1, 141.00, 246.00, 17.00, 19, Cppaap
353, 349, 361, -1, 146.00, 226.00, 19.00, 17, Cppaaa
354, 350, 362, -1, 119.00, 240.00, 22.00, 19, Cppapa
355, 351, 363, -1, 122.00, 254.00, 15.00, 19, Cppapp
356, 352, 364, -1, 129.00, 231.00, 25.00, 15, Cpppaa
357, 353, 365, -1, 105.00, 261.00, 18.00, 19, Cpppap
358, 354, 366, -1, 234.00, 319.00, 23.00, 15, Daapa
359, 355, 367, -1, 220.00, 331.00, 20.00, 15, Daapp
360, 356, 368, -1, 248.00, 299.00, 24.00, 15, Daaaa
361, 357, 369, -1, 232.00, 304.00, 27.00, 15, Daaap
362, 358, 370, -1, 193.00, 319.00, 29.00, 17, Dappa
363, 359, 371, -1, 159.00, 327.00, 29.00, 15, Dappp
364, 360, 372, -1, 170.00, 212.00, 18.00, 15, Dpapp
365, 361, 373, -1, 193.00, 204.00, 21.00, 15, Dpapa
366, 362, 374, -1, 200.00, 209.00, 26.00, 15, Dpaap
367, 363, 375, -1, 213.00, 202.00, 22.00, 15, Dpaaa
368, 364, 376, -1, 141.00, 240.00, 30.00, 19, Dpppp
369, 365, 377, -1, 165.00, 223.00, 27.00, 19, Dpppa
370, 366, 378, -1, 183.00, 205.00, 24.00, 17, Dppaa
371, 367, 379, -1, 159.00, 211.00, 22.00, 13, Dppap
372, 368, 380, -1, 159.00, 261.00, 16.00, 17, Z2
374, 370, 382, -1, 332.00, 297.00, 23.00, 13, ABalpppappa
375, 371, 383, -1, 317.00, 305.00, 25.00, 15, ABalpppappp
376, 372, 384, -1, 306.00, 278.00, 23.00, 15, ABalpppppaa
377, 373, 385, -1, 294.00, 287.00, 24.00, 13, ABalpppppap
378, 374, 386, -1, 278.00, 279.00, 27.00, 15, ABalppppppa
379, 375, 387, -1, 281.00, 307.00, 29.00, 17, ABalppppppp
380, 376, 388, -1, 322.00, 299.00, 29.00, 13, ABalppppapp
381, 377, 389, -1, 339.00, 281.00, 27.00, 15, ABalppppapa
382, 378, 390, -1, 317.00, 273.00, 18.00, 13, ABalppppaad
383, 379, 391, -1, 324.00, 284.00, 25.00, 13, ABalppppaav
384, 380, 392, -1, 331.00, 285.00, 17.00, 15, ABalpppaaa
385, 381, 393, -1, 343.00, 284.00, 21.00, 17, ABalpppaap
386, 382, 394, -1, 320.00, 297.00, 20.00, 19, ABalpppapa
387, 383, 395, -1, 337.00, 265.00, 17.00, 13, ABalppaaaa
388, 384, 396, -1, 351.00, 273.00, 18.00, 15, ABalppaaap
389, 385, 397, -1, 308.00, 299.00, 13.00, 17, ABalppaapp
390, 386, 398, -1, 321.00, 290.00, 14.00, 13, ABalppaapa
391, 387, 399, -1, 287.00, 292.00, 13.00, 13, ABalppapppa
392, 388, 400, -1, 278.00, 304.00, 12.00, 13, ABalppapppp
393, 389, 401, -1, 301.00, 283.00, 12.00, 13, ABalppappap
394, 390, 402, -1, 321.00, 270.00, 15.00, 15, ABalppappaa
395, 391, 403, -1, 306.00, 269.00, 9.00, 15, ABalppapapa
396, 392, 404, -1, 283.00, 281.00, 9.00, 15, ABalppapapp
397, 393, 405, -1, 321.00, 272.00, 12.00, 15, ABalppapaa
398, 394, 406, -1, 254.00, 287.00, 10.00, 15, ABalpapapap
399, 395, 407, -1, 272.00, 274.00, 10.00, 13, ABalpapapaa
400, 396, 408, -1, 246.00, 322.00, 12.00, 15, ABalpapapp
401, 397, 409, -1, 279.00, 253.00, 9.00, 19, ABalpapaap
402, 398, 410, -1, 314.00, 253.00, 10.00, 13, ABalpapaaaa
403, 399, 411, -1, 289.00, 263.00, 11.00, 15, ABalpapaaap
404, 400, 412, -1, 267.00, 254.00, 12.00, 15, ABalpappapa
405, 401, 413, -1, 245.00, 266.00, 11.00, 13, ABalpappapp
406, 402, 414, -1, 285.00, 259.00, 14.00, 15, ABalpappaap
407, 403, 415, -1, 286.00, 240.00, 14.00, 11, ABalpappaaa
408, 404, 416, -1, 239.00, 270.00, 13.00, 17, ABalpappppp
409, 405, 417, -1, 262.00, 274.00, 14.00, 15, ABalpappppa
410, 406, 418, -1, 270.00, 255.00, 15.00, 15, ABalpapppa
411, 407, 419, -1, 281.00, 259.00, 19.00, 15, ABalpaaapp
412, 408, 420, -1, 301.00, 250.00, 16.00, 15, ABalpaaapa
413, 409, 421, -1, 300.00, 245.00, 11.00, 15, ABalpaaaap
414, 410, 422, -1, 312.00, 240.00, 14.00, 17, ABalpaaaaa
415, 411, 423, -1, 334.00, 250.00, 11.00, 15, ABalpaappp
416, 412, 424, -1, 325.00, 230.00, 11.00, 17, ABalpaappa
417, 413, 425, -1, 298.00, 253.00, 21.00, 15, ABalpaapapp
418, 414, 426, -1, 308.00, 244.00, 19.00, 15, ABalpaapapa
419, 415, 427, -1, 321.00, 234.00, 19.00, 13, ABalpaapaap
420, 416, 428, -1, 335.00, 225.00, 18.00, 13, ABalpaapaaa
421, 417, 429, -1, 168.00, 265.00, 27.00, 16, Epraa
422, 418, 430, -1, 144.00, 273.00, 27.00, 21, Eprap
423, 419, 431, -1, 203.00, 234.00, 24.00, 13, MSpaapp
424, 420, 432, -1, 163.00, 263.00, 24.00, 23, Earpp
425, 421, 433, -1, 192.00, 283.00, 26.00, 21, Ealap
426, 422, 434, -1, 217.00, 273.00, 27.00, 21, Ealaa
427, 423, 435, -1, 164.00, 289.00, 28.00, 21, Eplaa
428, 424, 436, -1, 147.00, 293.00, 23.00, 17, Eplap
429, 425, 437, -1, 125.00, 278.00, 19.00, 19, Eprpp
430, 426, 438, -1, 190.00, 338.00, 27.00, 15, Dapap
431, 427, 439, -1, 213.00, 324.00, 26.00, 17, Dapaa
432, 428, 440, -1, 226.00, 271.00, 24.00, 15, MSaapaapp
433, 429, 441, -1, 245.00, 265.00, 23.00, 13, MSaapaapa
434, 430, 442, -1, 150.00, 214.00, 31.00, 15, ABarpppapp
435, 431, 443, -1, 229.00, 322.00, 14.00, 15, ABplppaapa
436, 432, 444, -1, 64.00, 297.00, 24.00, 19, Cpapap
438, 434, 446, -1, 347.00, 245.00, 15.00, 15, ABalaaaala
439, 435, 447, -1, 258.00, 185.00, 35.00, 15, ABarpappaa
440, 436, 448, -1, 345.00, 206.00, 27.00, 15, ABalappaaa
441, 437, 449, -1, 97.00, 266.00, 25.00, 15, Cppppa
442, 438, 450, -1, 93.00, 285.00, 16.00, 15, Cppppp
443, 439, 451, -1, 189.00, 261.00, 20.00, 19, Earpa
444, 440, 452, -1, 249.00, 198.00, 30.00, 17, MSppappp
445, 441, 453, -1, 128.00, 273.00, 23.00, 19, Eprpa
446, 442, 454, -1, 222.00, 246.00, 34.00, 17, ABarpaappa
447, 443, 455, -1, 205.00, 296.00, 34.00, 21, ABarppaapa
448, 444, 456, -1, 130.00, 253.00, 34.00, 15, Cpaaap
449, 445, 457, -1, 116.00, 328.00, 32.00, 19, Caaapa
450, 447, 458, -1, 131.00, 301.00, 18.00, 23, Eplpp
451, 448, 459, -1, 206.00, 290.00, 14.00, 15, MSaappap
452, 449, 460, -1, 186.00, 291.00, 15.00, 17, Z3
453, 450, 473, -1, 190.00, 230.00, 35.00, 17, ABarpppapa
454, 451, 461, -1, 264.00, 173.00, 11.00, 17, ABalaapapp
455, 452, 462, -1, 213.00, 271.00, 14.00, 13, MSaappaa
457, 454, 464, -1, 276.00, 244.00, 26.00, 13, MSaaapapa
458, 455, 465, -1, 252.00, 332.00, 19.00, 15, ABplppaaaap
459, 456, 466, -1, 129.00, 311.00, 9.00, 15, ABplpppapap
460, 457, 467, -1, 269.00, 171.00, 31.00, 15, ABpraapaapp
461, 458, 468, -1, 241.00, 339.00, 17.00, 13, ABplppapaaa
462, 462, 469, -1, 214.00, 241.00, 28.00, 19, Earaa
464, 85, 470, -1, 334.00, 231.00, 32.00, 15, ABalapapapa
465, 446, 474, -1, 109.00, 285.00, 33.00, 18, Cpaapa
466, 459, 475, -1, 174.00, 250.00, 33.50, 18, Cpaaaa
467, 460, 476, -1, 139.00, 305.00, 33.00, 15, Caaaap
468, 461, 477, -1, 177.00, 304.00, 33.00, 17, Caaaaa
469, 17, 478, -1, 297.00, 222.00, 18.14, 15, ABaraaapapa
