1, 1, 1, -1, 312.00, 207.00, 24.00, 17, ABaraappaa
2, 2, 2, -1, 277.00, 212.00, 23.00, 15, ABaraappapp
3, 3, 3, -1, 294.00, 204.00, 24.00, 15, ABaraappapa
4, 4, 4, -1, 254.00, 226.00, 21.00, 15, ABaraapppap
5, 5, 5, -1, 266.00, 215.00, 20.00, 17, ABaraapppaa
6, 6, 6, -1, 236.00, 228.00, 20.00, 15, ABaraapppp
7, 7, 7, -1, 259.00, 268.00, 21.00, 17, ABaraapapp
8, 8, 8, -1, 268.00, 254.00, 22.00, 15, ABaraapapap
9, 9, 9, -1, 283.00, 246.00, 22.00, 15, ABaraapapaa
10, 10, 10, -1, 326.00, 226.00, 23.00, 15, ABaraapaaa
11, 11, 11, -1, 290.00, 231.00, 25.00, 15, ABaraapaapp
12, 12, 12, -1, 310.00, 229.00, 24.00, 13, ABaraapaapa
13, 13, 13, -1, 311.00, 213.00, 11.00, 15, ABaraaappa
14, 14, 14, -1, 287.00, 207.00, 11.00, 15, ABaraaappp
15, 15, 15, -1, 320.00, 212.00, 18.00, 13, ABaraaapaaa
16, 16, 16, -1, 303.00, 208.00, 20.00, 15, ABaraaapaap
17, 17, 17, -1, 283.00, 224.00, 20.00, 15, ABaraaapapp
18, 18, 18, -1, 319.00, 231.00, 16.00, 17, ABaraaaaaa
19, 19, 19, -1, 303.00, 211.00, 15.00, 15, ABaraaaaap
20, 20, 20, -1, 316.00, 228.00, 27.00, 11, ABaraaaapp
21, 21, 21, -1, 331.00, 210.00, 19.00, 15, ABaraaaapa
22, 22, 22, -1, 241.00, 250.00, 11.00, 13, ABarapapapp
23, 23, 23, -1, 255.00, 242.00, 11.00, 13, ABarapapapa
24, 24, 24, -1, 261.00, 234.00, 13.00, 15, ABarapapaap
25, 25, 25, -1, 275.00, 224.00, 16.00, 13, ABarapapaaa
26, 26, 26, -1, 219.00, 241.00, 13.00, 17, ABarapapppp
27, 27, 27, -1, 238.00, 234.00, 13.00, 15, ABarapapppa
28, 28, 28, -1, 250.00, 228.00, 16.00, 17, ABarapappa
29, 29, 29, -1, 282.00, 231.00, 11.00, 15, ABarapaaap
30, 30, 30, -1, 296.00, 225.00, 12.00, 15, ABarapaaaa
31, 31, 31, -1, 288.00, 223.00, 16.00, 17, ABarapaapa
32, 32, 32, -1, 249.00, 224.00, 18.00, 15, ABarapaappp
33, 33, 33, -1, 267.00, 234.00, 18.00, 15, ABarapaappa
34, 34, 34, 35, 248.00, 207.00, 11.00, 13, ABarapppap
35, 35, 36, -1, 272.00, 195.00, 11.00, 15, ABarapppaa
36, 36, 37, -1, 256.00, 200.00, 13.00, 13, ABarappppap
37, 37, 38, -1, 274.00, 187.00, 15.00, 13, ABarappppaa
38, 38, 39, -1, 236.00, 191.00, 12.00, 11, ABarapppppa
39, 39, 40, -1, 219.00, 196.00, 12.00, 15, ABarapppppp
40, 40, 41, -1, 265.00, 219.00, 11.00, 17, ABarappaaa
41, 41, 42, -1, 238.00, 226.00, 10.00, 17, ABarappaap
42, 42, 43, -1, 212.00, 224.00, 10.00, 13, ABarappapap
43, 43, 44, -1, 232.00, 210.00, 12.00, 11, ABarappapaa
44, 44, 45, -1, 191.00, 211.00, 10.00, 19, ABarappapp
45, 45, 46, -1, 222.00, 177.00, 31.00, 17, ABarpapppa
46, 46, 47, -1, 217.00, 190.00, 34.00, 17, ABarpapppp
47, 47, 48, -1, 247.00, 177.00, 33.00, 19, ABarpappap
48, 48, 49, -1, 295.00, 187.00, 35.00, 19, ABarpapaaa
49, 49, 50, -1, 294.00, 193.00, 32.00, 13, ABarpapaapa
50, 50, 51, -1, 277.00, 198.00, 34.00, 15, ABarpapaapp
51, 51, 52, -1, 239.00, 214.00, 34.00, 15, ABarpapapp
52, 52, 53, -1, 275.00, 219.00, 34.00, 15, ABarpapapa
53, 53, 54, -1, 215.00, 270.00, 34.00, 17, ABarpaappp
54, 54, 55, -1, 257.00, 221.00, 35.00, 13, ABarpaapaa
55, 55, 56, -1, 245.00, 254.00, 33.00, 19, ABarpaapap
56, 56, 57, -1, 327.00, 210.00, 32.00, 17, ABarpaaaaa
57, 57, 58, -1, 301.00, 235.00, 35.00, 17, ABarpaaaap
58, 58, 59, -1, 274.00, 237.00, 35.00, 11, ABarpaaapp
59, 59, 60, -1, 295.00, 213.00, 35.00, 17, ABarpaaapa
60, 60, 61, -1, 233.00, 318.00, 34.00, 15, ABarppaaap
61, 61, 62, -1, 238.00, 292.00, 35.00, 13, ABarppaaaa
62, 62, 63, -1, 184.00, 329.00, 34.00, 15, ABarppaapp
63, 63, 64, -1, 139.00, 350.00, 31.00, 17, ABarppappa
64, 64, 65, -1, 112.00, 359.00, 22.00, 15, ABarppappp
65, 65, 66, -1, 193.00, 348.00, 32.00, 17, ABarppapap
66, 66, 67, -1, 215.00, 332.00, 34.00, 15, ABarppapaa
67, 67, 68, -1, 72.00, 259.00, 21.00, 17, ABarpppppp
68, 68, 69, -1, 98.00, 244.00, 29.00, 15, ABarpppppa
69, 69, 70, -1, 162.00, 197.00, 30.00, 17, ABarppppaa
70, 70, 71, -1, 134.00, 212.00, 31.00, 17, ABarppppap
71, 71, 72, -1, 184.00, 197.00, 34.00, 19, ABarpppaap
72, 72, 73, -1, 206.00, 214.00, 34.00, 15, ABarpppaaa
73, 73, 74, -1, 315.00, 186.00, 27.00, 13, ABalappppaa
74, 74, 75, -1, 301.00, 182.00, 29.00, 13, ABalappppap
75, 75, 489, -1, 295.00, 173.00, 32.00, 15, ABalapppppa
76, 76, 76, -1, 270.00, 173.00, 33.00, 17, ABalapppppp
77, 77, 77, -1, 343.00, 195.00, 25.00, 13, ABalapppaaa
78, 77, 78, -1, 331.00, 190.00, 29.00, 13, ABalapppaap
79, 78, 79, -1, 318.00, 198.00, 32.00, 11, ABalapppapa
80, 79, 80, -1, 304.00, 203.00, 34.00, 13, ABalapppapp
81, 80, 81, -1, 316.00, 186.00, 24.00, 17, ABalappapa
82, 81, 82, -1, 343.00, 221.00, 27.00, 13, ABalappaap
83, 82, 83, -1, 316.00, 170.00, 24.00, 11, ABalappappa
84, 82, 84, -1, 299.00, 168.00, 26.00, 15, ABalappappp
85, 83, 85, -1, 303.00, 273.00, 34.00, 11, ABalapapppp
86, 84, 86, -1, 322.00, 261.00, 33.00, 11, ABalapapppa
87, 85, 87, -1, 336.00, 242.00, 28.00, 17, ABalapappaa
88, 86, 88, -1, 321.00, 258.00, 30.00, 15, ABalapappap
89, 87, 89, -1, 326.00, 227.00, 34.00, 15, ABalapapaa
90, 88, 90, -1, 312.00, 244.00, 32.00, 11, ABalapapapp
91, 89, 91, -1, 348.00, 241.00, 25.00, 17, ABalapaaaa
92, 90, 92, -1, 348.00, 254.00, 28.00, 13, ABalapaaapa
93, 91, 93, -1, 333.00, 271.00, 30.00, 13, ABalapaaapp
94, 92, 94, -1, 340.00, 258.00, 25.00, 15, ABalapaappa
95, 93, 95, -1, 332.00, 264.00, 21.00, 15, ABalapaapa
96, 94, 96, -1, 341.00, 277.00, 24.00, 15, ABalapaappp
97, 95, 97, -1, 308.00, 192.00, 13.00, 15, ABalaapaaa
98, 96, 98, -1, 251.00, 182.00, 11.00, 13, ABalaapapa
99, 97, 99, -1, 294.00, 188.00, 11.00, 15, ABalaapaap
100, 98, 100, -1, 290.00, 184.00, 15.00, 17, ABalaappap
101, 99, 101, -1, 287.00, 170.00, 14.00, 15, ABalaappaa
102, 100, 102, -1, 294.00, 164.00, 24.00, 15, ABalaappppp
103, 101, 103, -1, 310.00, 172.00, 20.00, 15, ABalaappppa
104, 102, 104, -1, 293.00, 184.00, 21.00, 15, ABalaapppa
105, 103, 105, -1, 350.00, 257.00, 14.00, 15, ABalaaaalp
106, 104, 106, -1, 327.00, 194.00, 17.00, 15, ABalaaaarr
107, 105, 107, -1, 345.00, 222.00, 18.00, 15, ABalaaaarl
108, 106, 108, -1, 331.00, 188.00, 21.00, 15, ABalaaappl
109, 107, 109, -1, 307.00, 188.00, 17.00, 13, ABalaaappr
110, 108, 110, -1, 347.00, 217.00, 22.00, 19, ABalaaapar
111, 109, 111, 478, 349.00, 249.00, 20.00, 15, ABalaaapal
112, 110, 112, -1, 155.00, 331.00, 11.00, 13, ABplppppapa
113, 111, 113, -1, 149.00, 315.00, 10.00, 13, ABplppppapp
114, 112, 114, -1, 180.00, 309.00, 10.00, 13, ABplppppaaa
115, 113, 115, -1, 168.00, 316.00, 10.00, 11, ABplppppaap
116, 114, 116, -1, 102.00, 315.00, 11.00, 17, ABplpppppp
117, 115, 117, -1, 150.00, 307.00, 14.00, 19, ABplpppppa
118, 116, 118, -1, 126.00, 315.00, 12.00, 13, ABplpppapp
119, 117, 119, -1, 137.00, 331.00, 10.00, 13, ABplpppapaa
120, 118, 120, -1, 130.00, 346.00, 13.00, 13, ABplpppaapp
121, 119, 121, -1, 153.00, 346.00, 12.00, 15, ABplpppaapa
122, 120, 122, -1, 180.00, 327.00, 11.00, 13, ABplpppaaaa
123, 121, 123, -1, 167.00, 344.00, 13.00, 15, ABplpppaaap
124, 122, 124, -1, 187.00, 341.00, 14.00, 17, ABplppappp
125, 123, 125, -1, 214.00, 335.00, 13.00, 17, ABplppappa
126, 124, 126, -1, 213.00, 345.00, 17.00, 15, ABplppapaap
127, 125, 127, -1, 198.00, 347.00, 18.00, 15, ABplppapap
128, 126, 128, -1, 199.00, 322.00, 11.00, 15, ABplppaapp
129, 127, 129, -1, 264.00, 317.00, 18.00, 15, ABplppaaaaa
130, 128, 130, -1, 247.00, 317.00, 18.00, 13, ABplppaaap
131, 129, 131, -1, 244.00, 271.00, 9.00, 17, ABplpappaaa
132, 130, 132, -1, 223.00, 286.00, 11.00, 19, ABplpappaap
133, 131, 133, -1, 215.00, 267.00, 11.00, 15, ABplpappap
134, 132, 134, -1, 159.00, 298.00, 10.00, 17, ABplpapppp
135, 133, 135, -1, 189.00, 290.00, 10.00, 13, ABplpapppaa
136, 134, 136, -1, 165.00, 280.00, 10.00, 13, ABplpapppap
137, 135, 137, 138, 203.00, 300.00, 11.00, 15, ABplpapapp
138, 136, 139, -1, 218.00, 314.00, 11.00, 13, ABplpapapap
139, 137, 140, -1, 241.00, 302.00, 12.00, 13, ABplpapapaa
140, 138, 141, -1, 256.00, 309.00, 14.00, 19, ABplpapaap
141, 139, 142, -1, 265.00, 295.00, 13.00, 17, ABplpapaaa
142, 140, 143, -1, 254.00, 336.00, 15.00, 15, ABplpaaaapp
143, 141, 144, -1, 265.00, 321.00, 12.00, 15, ABplpaaaapa
144, 142, 145, -1, 293.00, 295.00, 16.00, 13, ABplpaaaaap
145, 143, 146, -1, 308.00, 276.00, 16.00, 13, ABplpaaaaaa
146, 144, 147, -1, 303.00, 307.00, 18.00, 17, ABplpaaapa
147, 145, 148, -1, 290.00, 314.00, 15.00, 13, ABplpaaappa
148, 146, 149, -1, 272.00, 322.00, 16.00, 13, ABplpaaappp
149, 147, 150, -1, 267.00, 306.00, 25.00, 13, ABplpaappap
150, 148, 151, -1, 287.00, 297.00, 23.00, 13, ABplpaappaa
151, 149, 152, -1, 291.00, 322.00, 19.00, 13, ABplpaapppa
152, 150, 153, -1, 271.00, 328.00, 20.00, 15, ABplpaapppp
153, 151, 154, -1, 300.00, 283.00, 20.00, 17, ABplpaapaa
154, 152, 155, 490, 298.00, 313.00, 23.00, 17, ABplpaapap
155, 153, 156, -1, 274.00, 329.00, 27.00, 15, ABplaappap
156, 154, 157, -1, 283.00, 324.00, 24.00, 13, ABplaappaa
157, 155, 158, -1, 258.00, 332.00, 28.00, 15, ABplaapppa
158, 156, 159, -1, 232.00, 348.00, 24.00, 15, ABplaapppp
159, 157, 160, -1, 334.00, 252.00, 34.00, 15, ABplaapaaa
160, 158, 161, -1, 342.00, 268.00, 32.00, 15, ABplaapaapa
161, 159, 162, -1, 318.00, 285.00, 31.00, 15, ABplaapaapp
162, 160, 163, -1, 297.00, 300.00, 29.00, 15, ABplaapappp
163, 161, 164, -1, 302.00, 279.00, 30.00, 15, ABplaapappa
164, 162, 165, -1, 305.00, 279.00, 26.00, 17, ABplaapapa
165, 163, 166, 167, 298.00, 256.00, 32.00, 15, ABplaaaaap
166, 164, 168, -1, 314.00, 249.00, 36.00, 19, ABplaaaaaa
167, 165, 169, -1, 263.00, 264.00, 34.00, 17, ABplaaaapp
168, 166, 170, -1, 277.00, 254.00, 34.00, 13, ABplaaaapa
169, 167, 171, -1, 259.00, 294.00, 35.00, 19, ABplaaappp
170, 168, 172, -1, 276.00, 300.00, 33.00, 15, ABplaaappa
171, 169, 173, -1, 292.00, 296.00, 33.00, 17, ABplaaapap
172, 170, 174, -1, 299.00, 285.00, 35.00, 15, ABplaaapaa
173, 171, 175, -1, 127.00, 357.00, 15.00, 17, ABplappppa
174, 172, 176, -1, 105.00, 337.00, 13.00, 15, ABplappppp
175, 173, 177, -1, 124.00, 344.00, 18.00, 15, ABplapppaa
176, 174, 178, -1, 123.00, 332.00, 14.00, 13, ABplapppap
177, 175, 179, -1, 195.00, 359.00, 25.00, 15, ABplappaaa
178, 176, 180, -1, 176.00, 362.00, 25.00, 15, ABplappaap
179, 177, 181, -1, 163.00, 363.00, 23.00, 15, ABplappapp
180, 178, 182, -1, 164.00, 348.00, 32.00, 17, ABplappapa
181, 179, 183, -1, 210.00, 352.00, 28.00, 17, ABplapaapp
182, 180, 184, -1, 241.00, 337.00, 28.00, 15, ABplapaapa
183, 181, 185, -1, 247.00, 302.00, 32.00, 17, ABplapaaaa
184, 182, 186, -1, 246.00, 318.00, 30.00, 19, ABplapaaap
185, 183, 187, -1, 104.00, 344.00, 19.00, 19, ABplapappp
186, 184, 188, -1, 143.00, 371.00, 23.00, 15, ABplapapap
187, 185, 189, -1, 130.00, 364.00, 19.00, 15, ABplapappa
188, 186, 190, -1, 130.00, 356.00, 27.00, 17, ABplapapaa
189, 187, 191, -1, 219.00, 219.00, 14.00, 17, ABprpapaaa
190, 188, 192, -1, 203.00, 204.00, 13.00, 15, ABprpapaap
191, 189, 193, -1, 177.00, 237.00, 11.00, 13, ABprpapappa
192, 190, 194, -1, 173.00, 261.00, 10.00, 15, ABprpapappp
193, 191, 195, -1, 183.00, 230.00, 12.00, 13, ABprpapapap
194, 192, 196, -1, 205.00, 234.00, 13.00, 11, ABprpapapaa
195, 193, 197, -1, 135.00, 297.00, 12.00, 11, ABprpappppp
196, 194, 198, -1, 151.00, 283.00, 15.00, 15, ABprpappppa
197, 195, 199, -1, 201.00, 252.00, 12.00, 13, ABprpapppaa
198, 196, 200, -1, 187.00, 271.00, 12.00, 13, ABprpapppap
199, 197, 201, -1, 198.00, 250.00, 9.00, 19, ABprpappapa
200, 198, 202, -1, 198.00, 276.00, 9.00, 15, ABprpappapp
201, 199, 203, -1, 213.00, 242.00, 9.00, 13, ABprpappaap
202, 200, 204, -1, 233.00, 249.00, 9.00, 15, ABprpappaaa
203, 201, 205, -1, 233.00, 180.00, 16.00, 15, ABprpaaaaap
204, 202, 206, -1, 256.00, 181.00, 17.00, 15, ABprpaapaaa
205, 203, 207, -1, 185.00, 190.00, 12.00, 15, ABprpaaaapp
206, 204, 208, -1, 213.00, 184.00, 11.00, 15, ABprpaaaapa
207, 205, 209, -1, 224.00, 169.00, 14.00, 15, ABprpaaappa
208, 206, 210, -1, 214.00, 186.00, 14.00, 15, ABprpaaappp
209, 207, 211, -1, 240.00, 171.00, 13.00, 15, ABprpaaapa
210, 208, 212, -1, 239.00, 167.00, 19.00, 13, ABprpaapaap
211, 209, 213, -1, 237.00, 163.00, 23.00, 15, ABprpaapapa
212, 210, 214, -1, 223.00, 165.00, 19.00, 15, ABprpaapapp
213, 211, 215, -1, 216.00, 171.00, 18.00, 15, ABprpaapppa
214, 212, 216, -1, 200.00, 171.00, 18.00, 15, ABprpaapppp
215, 213, 217, -1, 210.00, 184.00, 26.00, 13, ABprpaappap
216, 214, 218, -1, 233.00, 183.00, 22.00, 15, ABprpaappaa
217, 215, 219, -1, 102.00, 254.00, 11.00, 17, ABprpppaap
218, 216, 220, -1, 120.00, 247.00, 11.00, 13, ABprpppaaap
219, 217, 221, -1, 144.00, 245.00, 11.00, 13, ABprpppaaaa
220, 218, 222, -1, 118.00, 267.00, 9.00, 13, ABprpppapaa
221, 219, 223, -1, 115.00, 285.00, 11.00, 13, ABprpppapap
222, 220, 224, -1, 116.00, 300.00, 10.00, 13, ABprpppapp
223, 221, 225, -1, 137.00, 260.00, 10.00, 13, ABprppppapa
224, 222, 226, -1, 133.00, 282.00, 10.00, 15, ABprppppapp
225, 223, 227, -1, 155.00, 268.00, 10.00, 13, ABprppppaaa
226, 224, 228, -1, 145.00, 276.00, 12.00, 15, ABprppppaap
227, 225, 229, -1, 83.00, 301.00, 11.00, 15, ABprppppppp
228, 226, 230, -1, 104.00, 292.00, 9.00, 15, ABprppppppa
229, 227, 231, -1, 129.00, 281.00, 15.00, 15, ABprpppppa
230, 228, 232, -1, 180.00, 213.00, 14.00, 17, ABprppaapa
231, 229, 233, -1, 160.00, 246.00, 11.00, 15, ABprppaapp
232, 230, 234, -1, 196.00, 192.00, 16.00, 15, ABprppaaaa
233, 231, 235, -1, 183.00, 179.00, 20.00, 13, ABprppaaap
234, 232, 236, -1, 168.00, 197.00, 14.00, 13, ABprppapaaa
235, 233, 237, -1, 152.00, 210.00, 15.00, 13, ABprppapaap
236, 234, 238, -1, 134.00, 217.00, 14.00, 17, ABprppapap
237, 235, 239, -1, 120.00, 231.00, 13.00, 19, ABprppappp
238, 236, 240, -1, 154.00, 224.00, 12.00, 17, ABprppappa
239, 237, 241, -1, 320.00, 178.00, 32.00, 17, ABpraapaaa
240, 238, 242, -1, 292.00, 170.00, 29.00, 15, ABpraapaapa
241, 239, 243, -1, 259.00, 182.00, 26.00, 17, ABpraapapa
242, 240, 244, -1, 241.00, 169.00, 29.00, 15, ABpraapappp
243, 241, 245, -1, 256.00, 181.00, 29.00, 15, ABpraapappa
244, 242, 246, -1, 156.00, 191.00, 21.00, 15, ABpraapppp
245, 243, 247, -1, 185.00, 179.00, 23.00, 15, ABpraapppa
246, 244, 248, -1, 203.00, 168.00, 23.00, 15, ABpraappap
247, 245, 249, -1, 219.00, 169.00, 22.00, 15, ABpraappaa
248, 246, 250, -1, 278.00, 173.00, 26.00, 15, ABpraaapap
249, 247, 251, -1, 276.00, 177.00, 20.00, 15, ABpraaapaa
250, 248, 252, -1, 255.00, 181.00, 22.00, 17, ABpraaappa
251, 249, 253, -1, 239.00, 191.00, 25.00, 15, ABpraaapppa
252, 250, 254, -1, 226.00, 182.00, 27.00, 15, ABpraaapppp
253, 251, 255, -1, 284.00, 160.00, 21.00, 15, ABpraaaaap
254, 252, 256, -1, 272.00, 167.00, 15.00, 15, ABpraaaaaa
255, 253, 257, -1, 265.00, 163.00, 19.00, 17, ABpraaaapa
256, 254, 258, -1, 260.00, 160.00, 24.00, 15, ABpraaaapp
257, 255, 259, -1, 107.00, 224.00, 19.00, 15, ABprappapp
258, 256, 260, -1, 111.00, 225.00, 29.00, 15, ABprappapa
259, 257, 261, -1, 116.00, 213.00, 22.00, 15, ABprappaap
260, 258, 262, -1, 135.00, 208.00, 20.00, 17, ABprappaaa
261, 259, 263, -1, 87.00, 266.00, 16.00, 17, ABprapppaa
262, 260, 264, -1, 98.00, 270.00, 13.00, 15, ABprapppap
263, 261, 265, -1, 77.00, 277.00, 12.00, 17, ABprappppp
264, 262, 266, -1, 82.00, 254.00, 14.00, 15, ABprappppa
265, 263, 267, -1, 189.00, 188.00, 29.00, 15, ABprapaaap
266, 264, 268, -1, 207.00, 201.00, 31.00, 17, ABprapaaaa
267, 265, 269, -1, 140.00, 198.00, 24.00, 15, ABprapaapp
268, 266, 270, -1, 170.00, 184.00, 25.00, 15, ABprapaapa
269, 267, 271, -1, 90.00, 242.00, 16.00, 17, ABprapappa
270, 268, 272, -1, 73.00, 278.00, 18.00, 17, ABprapappp
271, 269, 273, -1, 90.00, 238.00, 21.00, 15, ABprapapap
272, 270, 274, -1, 83.00, 254.00, 26.00, 17, ABprapapaa
273, 271, 275, -1, 224.00, 203.00, 25.00, 13, MSppppap
274, 272, 276, -1, 223.00, 198.00, 20.00, 17, MSppppaa
275, 273, 277, -1, 233.00, 213.00, 30.00, 17, MSpppppa
276, 274, 278, -1, 195.00, 222.00, 30.00, 19, MSpppppp
277, 275, 279, -1, 209.00, 224.00, 17.00, 15, MSpppaaa
278, 276, 280, -1, 189.00, 231.00, 19.00, 17, MSpppaap
279, 277, 281, -1, 188.00, 216.00, 17.00, 13, MSpppapp
280, 278, 282, -1, 204.00, 211.00, 18.00, 11, MSpppapa
281, 279, 283, -1, 224.00, 211.00, 17.00, 13, MSppaapp
282, 280, 284, -1, 244.00, 207.00, 16.00, 11, MSppaapa
283, 281, 285, -1, 273.00, 205.00, 16.00, 11, MSppaaaa
284, 282, 286, -1, 274.00, 194.00, 20.00, 15, MSppaaap
285, 283, 287, -1, 278.00, 188.00, 28.00, 15, MSppappa
286, 284, 288, -1, 251.00, 197.00, 20.00, 15, MSppapaa
287, 285, 289, -1, 232.00, 194.00, 17.00, 15, MSppapap
288, 286, 290, -1, 194.00, 265.00, 15.00, 13, MSpapappp
289, 287, 291, -1, 214.00, 260.00, 16.00, 15, MSpapappa
290, 288, 292, -1, 205.00, 253.00, 19.00, 17, MSpapapa
291, 289, 293, -1, 247.00, 246.00, 17.00, 13, MSpapaaaa
292, 290, 294, -1, 230.00, 248.00, 18.00, 15, MSpapaaap
293, 291, 295, -1, 220.00, 233.00, 20.00, 15, MSpapaapa
294, 292, 296, -1, 216.00, 251.00, 22.00, 15, MSpapaapp
295, 293, 297, -1, 177.00, 304.00, 13.00, 15, MSpappaa
296, 294, 486, -1, 169.00, 278.00, 13.00, 15, MSpappap
297, 295, 299, -1, 163.00, 246.00, 14.00, 15, MSpapppp
298, 296, 300, -1, 168.00, 228.00, 17.00, 19, MSpapppa
299, 297, 301, -1, 256.00, 222.00, 28.00, 15, MSpaaappa
300, 298, 302, -1, 237.00, 236.00, 27.00, 13, MSpaaappp
301, 299, 303, -1, 249.00, 240.00, 30.00, 17, MSpaaapa
302, 300, 304, -1, 281.00, 212.00, 27.00, 13, MSpaaaapa
303, 301, 305, -1, 268.00, 209.00, 30.00, 15, MSpaaaapp
304, 302, 306, -1, 298.00, 205.00, 30.00, 15, MSpaaaaa
306, 304, 308, -1, 254.00, 218.00, 24.00, 17, MSpaapapa
307, 305, 309, -1, 261.00, 204.00, 26.00, 15, MSpaapaa
308, 306, 310, -1, 185.00, 250.00, 24.00, 23, Earap
309, 307, 311, -1, 267.00, 302.00, 22.00, 15, MSapppaa
310, 308, 312, -1, 256.00, 287.00, 26.00, 13, MSapppap
311, 309, 313, -1, 251.00, 278.00, 30.00, 15, MSappppa
312, 310, 314, -1, 215.00, 304.00, 30.00, 15, MSappppp
313, 311, 315, -1, 213.00, 317.00, 21.00, 15, MSappaap
314, 312, 316, -1, 234.00, 296.00, 21.00, 15, MSappaaa
315, 313, 317, -1, 234.00, 310.00, 19.00, 11, MSappapp
316, 314, 318, -1, 246.00, 303.00, 21.00, 13, MSappapa
317, 315, 319, -1, 296.00, 262.00, 27.00, 17, MSapappa
318, 316, 320, -1, 271.00, 273.00, 30.00, 17, MSapappp
319, 317, 321, -1, 278.00, 294.00, 18.00, 15, MSapapap
320, 318, 322, -1, 278.00, 276.00, 22.00, 15, MSapapaa
321, 319, 323, -1, 257.00, 293.00, 18.00, 15, MSapaapp
322, 320, 324, -1, 291.00, 270.00, 17.00, 13, MSapaapa
323, 321, 325, -1, 323.00, 254.00, 17.00, 15, MSapaaaa
324, 322, 326, -1, 318.00, 255.00, 24.00, 15, MSapaaap
325, 323, 327, -1, 316.00, 211.00, 28.00, 11, MSaaaaapa
326, 324, 328, -1, 305.00, 229.00, 31.00, 15, MSaaaaapp
327, 325, 329, -1, 332.00, 209.00, 24.00, 13, MSaaaaaa
328, 326, 330, -1, 288.00, 222.00, 31.00, 13, MSaaaapaa
329, 327, 331, -1, 267.00, 232.00, 30.00, 15, MSaaaapap
330, 328, 332, -1, 265.00, 252.00, 28.00, 17, MSaaaapp
331, 329, 333, -1, 251.00, 248.00, 25.00, 13, MSaaapapp
332, 330, 334, -1, 285.00, 245.00, 29.00, 13, MSaaapaap
333, 331, 335, -1, 304.00, 242.00, 28.00, 11, MSaaapaaa
334, 332, 336, -1, 253.00, 267.00, 27.00, 13, MSaaappa
335, 333, 337, -1, 232.00, 253.00, 28.00, 15, MSaaappp
336, 334, 338, -1, 192.00, 319.00, 16.00, 15, MSaapppp
337, 335, 339, -1, 214.00, 308.00, 16.00, 17, MSaapppa
338, 336, 340, -1, 247.00, 271.00, 17.00, 15, MSaapaaap
339, 337, 341, -1, 262.00, 270.00, 18.00, 11, MSaapaaaa
340, 338, 342, -1, 214.00, 291.00, 18.00, 13, MSaapappp
341, 339, 343, -1, 234.00, 274.00, 17.00, 13, MSaapappa
342, 340, 344, -1, 228.00, 278.00, 21.00, 15, MSaapapa
343, 341, 345, -1, 208.00, 285.00, 22.00, 21, Ealpa
344, 342, 346, -1, 169.00, 303.00, 23.00, 21, Ealpp
345, 343, 347, -1, 128.00, 305.00, 23.00, 23, Eplpa
346, 344, 348, -1, 137.00, 338.00, 20.00, 19, Cappap
347, 345, 349, -1, 158.00, 340.00, 26.00, 19, Cappaa
348, 346, 350, -1, 121.00, 338.00, 25.00, 17, Capppa
349, 347, 351, -1, 107.00, 321.00, 16.00, 15, Capppp
350, 348, 352, -1, 160.00, 342.00, 21.00, 17, Capapa
351, 349, 353, -1, 148.00, 330.00, 15.00, 19, Capapp
352, 350, 354, -1, 172.00, 322.00, 17.00, 17, Capaap
353, 351, 355, -1, 194.00, 329.00, 22.00, 17, Capaaa
354, 352, 356, -1, 85.00, 324.00, 28.00, 19, Caaapp
355, 353, 357, -1, 80.00, 328.00, 17.00, 19, Caappd
356, 354, 358, -1, 84.00, 325.00, 13.00, 15, Caappv
357, 355, 359, -1, 95.00, 302.00, 14.00, 19, Caapa
358, 356, 360, -1, 62.00, 305.00, 19.00, 17, Cpappd
359, 357, 361, -1, 71.00, 304.00, 14.00, 17, Cpappv
360, 358, 362, -1, 75.00, 337.00, 22.00, 19, Cpapaa
361, 359, 363, -1, 86.00, 294.00, 30.00, 19, Cpaapp
362, 360, 364, -1, 140.00, 244.00, 16.00, 17, Cppaap
363, 361, 365, -1, 147.00, 227.00, 20.00, 17, Cppaaa
364, 362, 366, -1, 120.00, 241.00, 22.00, 19, Cppapa
365, 363, 367, -1, 120.00, 254.00, 16.00, 17, Cppapp
366, 364, 368, 369, 128.00, 233.00, 26.00, 19, Cpppaa
367, 365, 370, -1, 104.00, 260.00, 19.00, 19, Cpppap
368, 366, 371, -1, 236.00, 320.00, 23.00, 15, Daapa
369, 367, 372, -1, 223.00, 332.00, 20.00, 15, Daapp
370, 368, 373, -1, 249.00, 299.00, 24.00, 15, Daaaa
371, 369, 374, -1, 233.00, 303.00, 27.00, 13, Daaap
372, 370, 375, -1, 195.00, 319.00, 29.00, 19, Dappa
373, 371, 376, -1, 159.00, 328.00, 30.00, 15, Dappp
374, 372, 377, -1, 170.00, 212.00, 19.00, 15, Dpapp
375, 373, 378, -1, 194.00, 205.00, 21.00, 15, Dpapa
376, 374, 379, -1, 201.00, 209.00, 26.00, 15, Dpaap
377, 375, 380, -1, 213.00, 202.00, 22.00, 15, Dpaaa
378, 376, 381, -1, 144.00, 239.00, 30.00, 21, Dpppp
379, 377, 382, -1, 167.00, 224.00, 27.00, 19, Dpppa
380, 378, 383, -1, 183.00, 205.00, 25.00, 19, Dppaa
381, 379, 384, -1, 157.00, 212.00, 23.00, 13, Dppap
382, 380, 385, -1, 156.00, 263.00, 16.00, 21, Z2
384, 382, 387, -1, 332.00, 299.00, 22.00, 13, ABalpppappa
385, 383, 388, -1, 318.00, 304.00, 25.00, 15, ABalpppappp
386, 384, 389, -1, 305.00, 278.00, 23.00, 15, ABalpppppaa
387, 385, 390, -1, 295.00, 284.00, 24.00, 15, ABalpppppap
388, 386, 391, -1, 279.00, 282.00, 26.00, 15, ABalppppppa
389, 387, 392, -1, 280.00, 307.00, 28.00, 17, ABalppppppp
390, 388, 393, -1, 321.00, 300.00, 29.00, 13, ABalppppapp
391, 389, 394, -1, 338.00, 282.00, 27.00, 15, ABalppppapa
392, 390, 395, -1, 317.00, 271.00, 18.00, 13, ABalppppaad
393, 391, 396, -1, 323.00, 284.00, 24.00, 13, ABalppppaav
394, 392, 397, -1, 331.00, 284.00, 17.00, 15, ABalpppaaa
395, 393, 398, -1, 341.00, 285.00, 21.00, 19, ABalpppaap
396, 394, 399, -1, 319.00, 292.00, 19.00, 11, ABalpppapad
397, 394, 400, -1, 317.00, 301.00, 21.00, 15, ABalpppapav
398, 395, 401, -1, 336.00, 262.00, 17.00, 13, ABalppaaaa
399, 396, 402, -1, 348.00, 271.00, 18.00, 15, ABalppaaap
400, 397, 403, -1, 309.00, 297.00, 14.00, 17, ABalppaapp
401, 398, 404, -1, 321.00, 287.00, 13.00, 13, ABalppaapa
402, 399, 405, -1, 288.00, 292.00, 12.00, 15, ABalppapppa
403, 400, 406, -1, 279.00, 307.00, 12.00, 13, ABalppapppp
404, 401, 407, -1, 299.00, 279.00, 13.00, 13, ABalppappap
405, 402, 408, -1, 322.00, 266.00, 15.00, 13, ABalppappaa
406, 403, 409, -1, 305.00, 269.00, 9.00, 13, ABalppapapa
407, 404, 410, -1, 283.00, 281.00, 9.00, 15, ABalppapapp
408, 405, 411, -1, 333.00, 264.00, 13.00, 13, ABalppapaaa
409, 405, 412, -1, 313.00, 274.00, 12.00, 13, ABalppapaap
410, 406, 413, -1, 253.00, 288.00, 10.00, 15, ABalpapapap
411, 407, 414, -1, 272.00, 274.00, 10.00, 13, ABalpapapaa
412, 408, 415, -1, 244.00, 323.00, 13.00, 17, ABalpapapp
413, 409, 416, -1, 276.00, 249.00, 9.00, 17, ABalpapaap
414, 410, 417, -1, 314.00, 256.00, 11.00, 13, ABalpapaaaa
415, 411, 418, -1, 290.00, 262.00, 11.00, 13, ABalpapaaap
416, 412, 419, -1, 269.00, 256.00, 12.00, 15, ABalpappapa
417, 413, 420, -1, 249.00, 266.00, 11.00, 15, ABalpappapp
418, 414, 421, -1, 286.00, 257.00, 14.00, 15, ABalpappaap
419, 415, 422, -1, 282.00, 238.00, 14.00, 11, ABalpappaaa
420, 416, 423, -1, 237.00, 273.00, 13.00, 17, ABalpappppp
421, 417, 424, -1, 264.00, 273.00, 14.00, 15, ABalpappppa
422, 418, 425, -1, 274.00, 258.00, 16.00, 17, ABalpapppa
423, 419, 426, -1, 279.00, 257.00, 19.00, 17, ABalpaaapp
424, 420, 427, -1, 298.00, 250.00, 17.00, 17, ABalpaaapa
425, 421, 428, -1, 297.00, 245.00, 11.00, 15, ABalpaaaap
426, 422, 429, -1, 306.00, 242.00, 13.00, 17, ABalpaaaaa
427, 423, 430, 431, 331.00, 246.00, 12.00, 17, ABalpaappp
428, 424, 432, -1, 323.00, 229.00, 12.00, 15, ABalpaappa
429, 425, 433, -1, 297.00, 251.00, 21.00, 15, ABalpaapapp
430, 426, 434, -1, 306.00, 243.00, 19.00, 15, ABalpaapapa
431, 427, 435, -1, 320.00, 238.00, 20.00, 13, ABalpaapaap
432, 428, 436, -1, 332.00, 228.00, 19.00, 11, ABalpaapaaa
433, 429, 437, -1, 174.00, 266.00, 27.00, 19, Epraa
434, 430, 438, -1, 145.00, 274.00, 27.00, 19, Eprap
435, 431, 439, -1, 205.00, 237.00, 24.00, 13, MSpaapp
436, 432, 440, -1, 161.00, 263.00, 23.00, 21, Earpp
437, 433, 441, -1, 190.00, 283.00, 26.00, 21, Ealap
438, 434, 442, -1, 216.00, 271.00, 27.00, 21, Ealaa
439, 435, 443, -1, 166.00, 288.00, 27.00, 21, Eplaa
440, 436, 444, -1, 147.00, 296.00, 23.00, 19, Eplap
441, 437, 445, -1, 124.00, 280.00, 20.00, 21, Eprpp
442, 438, 446, -1, 191.00, 338.00, 27.00, 17, Dapap
443, 439, 447, -1, 215.00, 323.00, 25.00, 17, Dapaa
444, 440, 448, -1, 226.00, 270.00, 24.00, 15, MSaapaapp
445, 441, 449, -1, 243.00, 263.00, 22.00, 13, MSaapaapa
446, 442, 450, -1, 153.00, 213.00, 31.00, 15, ABarpppapp
447, 443, 451, -1, 229.00, 322.00, 15.00, 17, ABplppaapa
448, 444, 452, -1, 65.00, 295.00, 24.00, 17, Cpapap
450, 446, 454, -1, 347.00, 243.00, 16.00, 15, ABalaaaala
451, 447, 455, -1, 259.00, 186.00, 35.00, 15, ABarpappaa
452, 448, 456, -1, 343.00, 207.00, 28.00, 15, ABalappaaa
453, 449, 457, -1, 94.00, 268.00, 24.00, 17, Cppppa
454, 450, 458, -1, 93.00, 286.00, 17.00, 19, Cppppp
455, 451, 459, -1, 189.00, 264.00, 19.00, 19, Earpa
456, 452, 460, -1, 247.00, 199.00, 30.00, 15, MSppappp
457, 453, 461, -1, 126.00, 276.00, 24.00, 19, Eprpa
458, 454, 462, -1, 223.00, 248.00, 33.00, 15, ABarpaappa
459, 455, 463, -1, 207.00, 297.00, 34.00, 19, ABarppaapa
460, 456, 464, -1, 130.00, 254.00, 34.00, 19, Cpaaap
461, 457, 484, -1, 116.00, 326.00, 33.00, 17, Caaapa
462, 458, 465, -1, 129.00, 304.00, 18.00, 23, Eplpp
463, 459, 466, -1, 206.00, 289.00, 14.00, 15, MSaappap
464, 460, 467, -1, 187.00, 291.00, 17.00, 21, Z3
465, 461, 468, -1, 262.00, 175.00, 12.00, 17, ABalaapapp
466, 462, 469, -1, 213.00, 272.00, 15.00, 15, MSaappaa
468, 464, 471, -1, 274.00, 243.00, 26.00, 13, MSaaapapa
469, 465, 472, -1, 249.00, 329.00, 19.00, 11, ABplppaaaap
470, 466, 473, -1, 130.00, 311.00, 9.00, 15, ABplpppapap
471, 467, 474, -1, 269.00, 172.00, 31.00, 15, ABpraapaapp
472, 468, 475, -1, 241.00, 341.00, 18.00, 15, ABplppapaaa
473, 469, 476, -1, 212.00, 240.00, 27.00, 23, Earaa
474, 470, 477, -1, 337.00, 227.00, 32.00, 15, ABalapapapa
477, 472, 480, -1, 258.00, 185.00, 15.67, 14, ABprpaaaaaa
478, 473, 481, -1, 190.00, 229.00, 35.00, 17, ABarpppapa
479, 474, 482, -1, 111.00, 286.00, 33.00, 15, Cpaapa
480, 475, 483, -1, 179.00, 252.00, 33.25, 17, Cpaaaa
481, 476, 485, -1, 138.00, 300.00, 33.00, 15, Caaaap
482, 477, 487, -1, 178.00, 302.00, 33.00, 17, Caaaaa
483, 478, 488, -1, 295.00, 221.00, 18.43, 15, ABaraaapapa
484, 303, 307, -1, 236.00, 235.00, 23.00, 15, MSpaapapp
