1, 1, 1, -1, 310.00, 207.00, 24.00, 17, ABaraappaa
2, 2, 2, -1, 276.00, 211.00, 24.00, 15, ABaraappapp
3, 3, 3, -1, 293.00, 205.00, 24.00, 15, ABaraappapa
4, 4, 4, -1, 252.00, 222.00, 21.00, 15, ABaraapppap
5, 5, 5, -1, 264.00, 214.00, 20.00, 13, ABaraapppaa
6, 6, 6, 320, 238.00, 233.00, 19.00, 17, ABaraapppp
7, 7, 7, -1, 258.00, 266.00, 20.00, 17, ABaraapapp
8, 8, 8, -1, 266.00, 252.00, 22.00, 15, ABaraapapap
9, 9, 9, -1, 282.00, 249.00, 23.00, 15, ABaraapapaa
10, 10, 10, -1, 322.00, 226.00, 23.00, 19, ABaraapaaa
11, 11, 11, -1, 288.00, 232.00, 25.00, 15, ABaraapaapp
12, 12, 12, -1, 306.00, 232.00, 24.00, 13, ABaraapaapa
13, 13, 13, -1, 311.00, 215.00, 12.00, 15, ABaraaappa
14, 14, 14, -1, 299.00, 207.00, 12.00, 11, ABaraaapppa
15, 14, 15, -1, 277.00, 211.00, 10.00, 11, ABaraaapppp
16, 15, 16, -1, 314.00, 214.00, 18.00, 13, ABaraaapaaa
18, 17, 18, -1, 302.00, 206.00, 20.00, 15, ABaraaapaap
19, 18, 19, -1, 279.00, 220.00, 21.00, 15, ABaraaapapp
20, 19, 20, -1, 315.00, 233.00, 17.00, 15, ABaraaaaaa
21, 20, 21, -1, 300.00, 211.00, 16.00, 15, ABaraaaaap
22, 21, 22, -1, 310.00, 226.00, 28.00, 13, ABaraaaapp
23, 22, 23, -1, 327.00, 213.00, 19.00, 15, ABaraaaapa
24, 23, 24, -1, 240.00, 248.00, 11.00, 13, ABarapapapp
25, 24, 25, -1, 257.00, 242.00, 11.00, 13, ABarapapapa
26, 25, 26, -1, 261.00, 238.00, 13.00, 15, ABarapapaap
27, 26, 27, -1, 272.00, 223.00, 16.00, 13, ABarapapaaa
28, 27, 28, -1, 220.00, 241.00, 13.00, 19, ABarapapppp
29, 28, 29, -1, 241.00, 232.00, 13.00, 15, ABarapapppa
30, 29, 30, -1, 248.00, 229.00, 15.00, 19, ABarapappa
31, 30, 31, -1, 280.00, 229.00, 11.00, 15, ABarapaaap
32, 31, 32, -1, 293.00, 226.00, 13.00, 15, ABarapaaaa
33, 32, 33, -1, 282.00, 219.00, 17.00, 19, ABarapaapa
34, 33, 34, -1, 246.00, 220.00, 18.00, 17, ABarapaappp
35, 34, 35, -1, 264.00, 233.00, 18.00, 15, ABarapaappa
36, 35, 36, -1, 260.00, 199.00, 10.00, 13, ABarapppapa
37, 36, 37, -1, 239.00, 210.00, 10.00, 11, ABarapppapp
38, 37, 38, 39, 274.00, 192.00, 11.00, 15, ABarapppaa
39, 38, 40, -1, 255.00, 199.00, 13.00, 13, ABarappppap
40, 39, 41, -1, 272.00, 186.00, 15.00, 13, ABarappppaa
41, 40, 42, -1, 240.00, 195.00, 12.00, 13, ABarapppppa
42, 41, 43, -1, 223.00, 191.00, 12.00, 13, ABarapppppp
43, 42, 44, -1, 260.00, 219.00, 11.00, 17, ABarappaaa
44, 43, 45, -1, 237.00, 227.00, 10.00, 19, ABarappaap
45, 44, 46, -1, 212.00, 221.00, 10.00, 17, ABarappapap
46, 45, 47, -1, 225.00, 205.00, 10.00, 15, ABarappapaa
47, 46, 48, -1, 190.00, 208.00, 11.00, 13, ABarappapp
48, 47, 49, -1, 222.00, 178.00, 31.00, 17, ABarpapppa
49, 48, 50, -1, 215.00, 187.00, 34.00, 19, ABarpapppp
50, 49, 51, -1, 245.00, 176.00, 33.00, 17, ABarpappap
51, 50, 52, -1, 299.00, 186.00, 35.00, 19, ABarpapaaa
52, 51, 53, -1, 293.00, 191.00, 32.00, 13, ABarpapaapa
53, 52, 54, -1, 278.00, 197.00, 35.00, 17, ABarpapaapp
54, 53, 55, -1, 240.00, 215.00, 35.00, 15, ABarpapapp
55, 54, 56, -1, 276.00, 220.00, 35.00, 15, ABarpapapa
56, 55, 57, -1, 213.00, 266.00, 34.00, 17, ABarpaappp
57, 56, 58, -1, 257.00, 221.00, 35.00, 13, ABarpaapaa
58, 57, 59, -1, 244.00, 253.00, 34.00, 21, ABarpaapap
59, 58, 60, -1, 325.00, 209.00, 33.00, 15, ABarpaaaaa
60, 59, 61, -1, 303.00, 233.00, 35.00, 15, ABarpaaaap
61, 60, 62, -1, 274.00, 236.00, 35.00, 13, ABarpaaapp
62, 61, 63, -1, 296.00, 213.00, 35.00, 17, ABarpaaapa
63, 62, 64, -1, 233.00, 319.00, 35.00, 17, ABarppaaap
64, 63, 65, -1, 237.00, 292.00, 35.00, 15, ABarppaaaa
65, 64, 66, -1, 186.00, 330.00, 34.00, 17, ABarppaapp
66, 65, 67, -1, 138.00, 351.00, 31.00, 17, ABarppappa
67, 66, 68, -1, 111.00, 358.00, 22.00, 17, ABarppappp
68, 67, 69, -1, 191.00, 349.00, 32.00, 17, ABarppapap
69, 68, 70, -1, 215.00, 333.00, 33.00, 17, ABarppapaa
70, 69, 71, -1, 71.00, 259.00, 21.00, 15, ABarpppppp
71, 70, 72, -1, 98.00, 245.00, 29.00, 17, ABarpppppa
72, 71, 73, -1, 161.00, 196.00, 30.00, 15, ABarppppaa
73, 72, 74, -1, 134.00, 213.00, 31.00, 17, ABarppppap
74, 73, 75, -1, 185.00, 196.00, 34.00, 19, ABarpppaap
75, 74, 76, -1, 208.00, 212.00, 34.00, 15, ABarpppaaa
76, 75, 77, -1, 318.00, 187.00, 27.00, 15, ABalappppaa
77, 76, 78, -1, 302.00, 183.00, 29.00, 13, ABalappppap
78, 77, 79, -1, 274.00, 178.00, 34.00, 13, ABalapppppp
79, 78, 80, -1, 342.00, 196.00, 24.00, 13, ABalapppaaa
80, 79, 81, -1, 336.00, 188.00, 29.00, 13, ABalapppaap
81, 80, 82, -1, 320.00, 197.00, 30.00, 11, ABalapppapa
82, 81, 83, -1, 305.00, 201.00, 34.00, 9, ABalapppapp
83, 82, 84, -1, 312.00, 183.00, 24.00, 15, ABalappapa
84, 83, 85, -1, 345.00, 222.00, 26.00, 15, ABalappaap
85, 84, 86, -1, 322.00, 169.00, 24.00, 13, ABalappappa
86, 85, 87, -1, 299.00, 165.00, 27.00, 13, ABalappappp
87, 86, 88, -1, 304.00, 273.00, 36.00, 13, ABalapapppp
88, 87, 89, -1, 321.00, 261.00, 33.00, 13, ABalapapppa
89, 88, 90, -1, 339.00, 243.00, 27.00, 15, ABalapappaa
90, 89, 91, -1, 326.00, 259.00, 30.00, 15, ABalapappap
91, 90, 92, -1, 325.00, 226.00, 34.00, 15, ABalapapaa
92, 91, 93, -1, 313.00, 249.00, 33.00, 13, ABalapapapp
93, 92, 94, -1, 343.00, 242.00, 25.00, 17, ABalapaaaa
94, 93, 95, -1, 354.00, 254.00, 27.00, 15, ABalapaaapa
95, 94, 96, -1, 338.00, 270.00, 30.00, 15, ABalapaaapp
96, 95, 97, -1, 339.00, 257.00, 24.00, 15, ABalapaappa
97, 96, 98, -1, 331.00, 265.00, 21.00, 15, ABalapaapa
98, 97, 99, -1, 338.00, 275.00, 24.00, 15, ABalapaappp
99, 98, 100, -1, 309.00, 192.00, 14.00, 15, ABalaapaaa
100, 99, 101, -1, 248.00, 182.00, 10.00, 15, ABalaapapa
101, 100, 102, -1, 295.00, 189.00, 11.00, 15, ABalaapaap
102, 101, 103, -1, 290.00, 187.00, 14.00, 13, ABalaappap
103, 102, 104, -1, 285.00, 171.00, 13.00, 15, ABalaappaa
104, 103, 105, -1, 300.00, 167.00, 24.00, 15, ABalaappppp
105, 104, 106, -1, 312.00, 173.00, 20.00, 13, ABalaappppa
106, 105, 107, -1, 296.00, 183.00, 21.00, 19, ABalaapppa
107, 106, 108, -1, 348.00, 256.00, 13.00, 17, ABalaaaalp
108, 107, 109, -1, 328.00, 200.00, 16.00, 17, ABalaaaarr
109, 108, 110, -1, 343.00, 224.00, 17.00, 17, ABalaaaarl
110, 109, 111, -1, 330.00, 190.00, 21.00, 17, ABalaaappl
111, 110, 112, -1, 320.00, 189.00, 18.00, 15, ABalaaapprr
112, 111, 113, -1, 301.00, 181.00, 17.00, 15, ABalaaapprl
113, 112, 114, -1, 346.00, 218.00, 22.00, 19, ABalaaapar
114, 113, 115, -1, 346.00, 264.00, 20.00, 15, ABalaaapalr
115, 114, 116, -1, 158.00, 326.00, 11.00, 13, ABplppppapa
116, 115, 117, -1, 149.00, 312.00, 10.00, 13, ABplppppapp
117, 116, 118, -1, 179.00, 310.00, 10.00, 13, ABplppppaaa
118, 117, 119, -1, 168.00, 311.00, 11.00, 13, ABplppppaap
119, 118, 120, -1, 94.00, 320.00, 11.00, 13, ABplppppppp
120, 118, 121, -1, 111.00, 311.00, 10.00, 13, ABplppppppa
121, 119, 122, -1, 150.00, 304.00, 14.00, 19, ABplpppppa
122, 120, 123, -1, 125.00, 312.00, 12.00, 13, ABplpppapp
123, 121, 124, -1, 138.00, 327.00, 10.00, 13, ABplpppapaa
124, 122, 125, -1, 133.00, 343.00, 11.00, 13, ABplpppaapp
125, 123, 126, -1, 153.00, 343.00, 12.00, 13, ABplpppaapa
126, 124, 127, -1, 182.00, 330.00, 10.00, 13, ABplpppaaaa
127, 125, 128, -1, 167.00, 345.00, 13.00, 13, ABplpppaaap
128, 126, 129, -1, 187.00, 339.00, 14.00, 17, ABplppappp
129, 127, 130, -1, 212.00, 334.00, 14.00, 15, ABplppappa
130, 128, 131, -1, 209.00, 347.00, 17.00, 13, ABplppapaap
131, 129, 132, -1, 195.00, 344.00, 18.00, 15, ABplppapap
132, 130, 133, 134, 200.00, 320.00, 11.00, 15, ABplppaapp
133, 131, 135, -1, 265.00, 314.00, 19.00, 13, ABplppaaaaa
134, 132, 136, -1, 250.00, 315.00, 18.00, 13, ABplppaaap
135, 133, 137, -1, 247.00, 275.00, 10.00, 15, ABplpappaaa
136, 134, 138, -1, 225.00, 285.00, 10.00, 15, ABplpappaap
137, 135, 139, -1, 216.00, 269.00, 11.00, 17, ABplpappap
138, 136, 140, -1, 158.00, 292.00, 10.00, 15, ABplpapppp
139, 137, 141, -1, 186.00, 288.00, 10.00, 13, ABplpapppaa
140, 138, 142, -1, 163.00, 274.00, 10.00, 13, ABplpapppap
141, 139, 143, -1, 216.00, 305.00, 11.00, 13, ABplpapappa
142, 140, 144, -1, 194.00, 300.00, 10.00, 11, ABplpapappp
143, 141, 145, -1, 220.00, 320.00, 11.00, 13, ABplpapapap
144, 142, 146, -1, 245.00, 302.00, 14.00, 13, ABplpapapaa
145, 143, 147, -1, 261.00, 310.00, 15.00, 15, ABplpapaap
146, 144, 148, -1, 265.00, 293.00, 13.00, 15, ABplpapaaa
147, 145, 149, -1, 251.00, 334.00, 15.00, 13, ABplpaaaapp
148, 146, 150, -1, 265.00, 320.00, 12.00, 15, ABplpaaaapa
149, 147, 151, -1, 292.00, 292.00, 16.00, 15, ABplpaaaaap
150, 148, 152, -1, 310.00, 275.00, 16.00, 15, ABplpaaaaaa
151, 149, 153, -1, 304.00, 305.00, 18.00, 17, ABplpaaapa
152, 150, 154, -1, 290.00, 313.00, 15.00, 15, ABplpaaappa
153, 151, 155, -1, 275.00, 323.00, 16.00, 13, ABplpaaappp
154, 152, 156, -1, 264.00, 310.00, 26.00, 13, ABplpaappap
155, 153, 157, -1, 284.00, 298.00, 24.00, 15, ABplpaappaa
156, 497, 158, -1, 288.00, 324.00, 18.00, 13, ABplpaapppa
157, 155, 159, -1, 293.00, 318.00, 20.00, 13, ABplpaapapp
158, 156, 160, -1, 271.00, 330.00, 20.00, 13, ABplpaapppp
159, 157, 161, -1, 297.00, 294.00, 21.00, 13, ABplpaapaap
160, 157, 162, -1, 304.00, 277.00, 19.00, 13, ABplpaapaaa
161, 158, 163, -1, 303.00, 312.00, 24.00, 15, ABplpaapapa
162, 159, 164, -1, 273.00, 329.00, 26.00, 15, ABplaappap
163, 160, 165, -1, 285.00, 322.00, 24.00, 13, ABplaappaa
164, 161, 166, -1, 256.00, 334.00, 26.00, 17, ABplaapppa
165, 162, 167, -1, 229.00, 348.00, 25.00, 17, ABplaapppp
166, 163, 168, -1, 338.00, 254.00, 33.00, 15, ABplaapaaa
167, 164, 169, -1, 339.00, 271.00, 33.00, 13, ABplaapaapa
168, 165, 170, -1, 321.00, 281.00, 31.00, 15, ABplaapaapp
169, 166, 171, -1, 298.00, 299.00, 30.00, 17, ABplaapappp
170, 167, 172, -1, 303.00, 279.00, 30.00, 15, ABplaapappa
171, 168, 173, -1, 305.00, 280.00, 27.00, 17, ABplaapapa
172, 169, 174, -1, 295.00, 258.00, 35.00, 13, ABplaaaaapp
173, 170, 175, -1, 307.00, 256.00, 30.00, 15, ABplaaaaapa
174, 171, 176, -1, 319.00, 247.00, 36.00, 17, ABplaaaaaa
175, 172, 177, -1, 264.00, 266.00, 35.00, 17, ABplaaaapp
176, 173, 178, -1, 277.00, 254.00, 34.00, 13, ABplaaaapa
177, 174, 179, -1, 261.00, 291.00, 33.00, 13, ABplaaappp
178, 175, 180, -1, 276.00, 299.00, 33.00, 17, ABplaaappa
179, 176, 181, -1, 292.00, 300.00, 33.00, 17, ABplaaapap
180, 177, 182, -1, 301.00, 286.00, 34.00, 15, ABplaaapaa
181, 178, 183, -1, 133.00, 354.00, 14.00, 15, ABplappppa
182, 179, 184, -1, 106.00, 337.00, 13.00, 15, ABplappppp
183, 180, 185, -1, 121.00, 344.00, 17.00, 17, ABplapppaa
184, 181, 186, -1, 123.00, 333.00, 13.00, 15, ABplapppap
185, 182, 187, -1, 193.00, 358.00, 25.00, 15, ABplappaaa
186, 183, 188, -1, 175.00, 361.00, 26.00, 15, ABplappaap
187, 184, 189, -1, 162.00, 364.00, 22.00, 15, ABplappapp
188, 185, 190, -1, 162.00, 348.00, 32.00, 17, ABplappapa
189, 186, 191, -1, 209.00, 352.00, 27.00, 15, ABplapaapp
190, 187, 192, -1, 243.00, 340.00, 28.00, 15, ABplapaapa
191, 188, 193, -1, 241.00, 300.00, 31.00, 15, ABplapaaaap
192, 189, 194, -1, 247.00, 321.00, 30.00, 17, ABplapaaap
193, 190, 195, -1, 104.00, 344.00, 18.00, 19, ABplapappp
194, 191, 196, -1, 142.00, 371.00, 23.00, 15, ABplapapap
195, 192, 197, -1, 132.00, 363.00, 18.00, 17, ABplapappa
196, 193, 198, -1, 125.00, 358.00, 28.00, 15, ABplapapaa
197, 194, 199, -1, 221.00, 215.00, 13.00, 17, ABprpapaaa
198, 195, 200, -1, 206.00, 201.00, 14.00, 17, ABprpapaap
199, 196, 201, -1, 180.00, 240.00, 11.00, 13, ABprpapappa
200, 197, 202, -1, 175.00, 260.00, 10.00, 13, ABprpapappp
201, 198, 203, -1, 182.00, 227.00, 12.00, 11, ABprpapapap
202, 199, 204, -1, 207.00, 231.00, 12.00, 13, ABprpapapaa
203, 200, 205, -1, 134.00, 293.00, 11.00, 13, ABprpappppp
204, 201, 206, -1, 148.00, 279.00, 14.00, 15, ABprpappppa
205, 202, 207, -1, 201.00, 250.00, 11.00, 15, ABprpapppaa
206, 203, 208, -1, 186.00, 269.00, 11.00, 15, ABprpapppap
207, 204, 507, -1, 197.00, 252.00, 9.00, 13, ABprpappapa
208, 205, 209, -1, 202.00, 283.00, 10.00, 15, ABprpappapp
209, 206, 210, -1, 213.00, 241.00, 9.00, 13, ABprpappaap
210, 207, 211, -1, 229.00, 249.00, 9.00, 15, ABprpappaaa
211, 208, 212, -1, 234.00, 180.00, 16.00, 15, ABprpaaaaap
212, 209, 213, -1, 256.00, 177.00, 17.00, 13, ABprpaapaaa
213, 210, 214, -1, 183.00, 190.00, 12.00, 15, ABprpaaaapp
214, 211, 215, -1, 208.00, 186.00, 11.00, 15, ABprpaaaapa
215, 212, 216, -1, 223.00, 172.00, 13.00, 15, ABprpaaappa
216, 213, 217, -1, 219.00, 186.00, 14.00, 15, ABprpaaappp
217, 214, 218, -1, 241.00, 170.00, 13.00, 15, ABprpaaapa
218, 215, 219, -1, 241.00, 172.00, 19.00, 13, ABprpaapaap
219, 216, 220, -1, 240.00, 158.00, 22.00, 15, ABprpaapapa
220, 217, 221, -1, 229.00, 162.00, 19.00, 15, ABprpaapapp
221, 218, 222, -1, 220.00, 165.00, 17.00, 15, ABprpaapppa
222, 219, 223, -1, 208.00, 169.00, 19.00, 15, ABprpaapppp
223, 220, 224, -1, 214.00, 189.00, 26.00, 15, ABprpaappap
224, 221, 225, -1, 231.00, 183.00, 22.00, 15, ABprpaappaa
225, 222, 226, -1, 92.00, 256.00, 11.00, 15, ABprpppaapp
226, 222, 227, -1, 109.00, 251.00, 10.00, 13, ABprpppaapa
227, 223, 228, -1, 118.00, 244.00, 10.00, 13, ABprpppaaap
228, 224, 229, -1, 146.00, 241.00, 11.00, 13, ABprpppaaaa
229, 225, 230, -1, 117.00, 265.00, 10.00, 13, ABprpppapaa
230, 226, 231, -1, 114.00, 282.00, 11.00, 15, ABprpppapap
231, 227, 232, -1, 120.00, 298.00, 10.00, 13, ABprpppapp
232, 228, 233, -1, 136.00, 257.00, 10.00, 13, ABprppppapa
233, 229, 234, -1, 130.00, 277.00, 10.00, 13, ABprppppapp
234, 230, 235, -1, 154.00, 263.00, 10.00, 13, ABprppppaaa
235, 231, 236, -1, 144.00, 273.00, 12.00, 13, ABprppppaap
236, 232, 237, -1, 83.00, 300.00, 10.00, 15, ABprppppppp
237, 233, 238, -1, 104.00, 294.00, 10.00, 13, ABprppppppa
238, 234, 239, -1, 133.00, 266.00, 16.00, 13, ABprpppppaa
239, 235, 240, -1, 121.00, 287.00, 14.00, 13, ABprpppppap
240, 236, 241, -1, 185.00, 209.00, 15.00, 17, ABprppaapa
241, 237, 242, -1, 164.00, 241.00, 10.00, 17, ABprppaapp
242, 238, 243, -1, 203.00, 181.00, 17.00, 15, ABprppaaaaa
243, 238, 244, -1, 191.00, 191.00, 16.00, 13, ABprppaaaap
244, 239, 245, -1, 185.00, 178.00, 20.00, 13, ABprppaaap
245, 240, 246, -1, 166.00, 197.00, 14.00, 15, ABprppapaaa
246, 241, 247, -1, 149.00, 207.00, 15.00, 13, ABprppapaap
247, 242, 248, -1, 137.00, 220.00, 14.00, 15, ABprppapap
248, 243, 249, -1, 123.00, 230.00, 12.00, 19, ABprppappp
249, 244, 250, -1, 157.00, 220.00, 12.00, 17, ABprppappa
250, 245, 251, -1, 320.00, 179.00, 32.00, 15, ABpraapaaa
251, 246, 252, -1, 293.00, 168.00, 30.00, 15, ABpraapaapa
252, 247, 253, -1, 262.00, 183.00, 26.00, 17, ABpraapapa
253, 248, 254, -1, 241.00, 172.00, 29.00, 15, ABpraapappp
254, 249, 255, -1, 258.00, 180.00, 29.00, 13, ABpraapappa
255, 250, 256, -1, 156.00, 192.00, 20.00, 15, ABpraapppp
256, 251, 257, -1, 186.00, 177.00, 23.00, 15, ABpraapppa
257, 252, 258, -1, 207.00, 170.00, 24.00, 17, ABpraappap
258, 253, 259, -1, 222.00, 167.00, 22.00, 13, ABpraappaa
259, 254, 260, -1, 280.00, 169.00, 26.00, 17, ABpraaapap
260, 255, 261, -1, 277.00, 176.00, 21.00, 15, ABpraaapaa
261, 256, 262, 263, 257.00, 179.00, 22.00, 17, ABpraaappa
262, 257, 264, -1, 240.00, 192.00, 25.00, 15, ABpraaapppa
263, 258, 265, -1, 227.00, 174.00, 26.00, 11, ABpraaapppp
264, 259, 266, -1, 287.00, 160.00, 21.00, 17, ABpraaaaap
265, 260, 267, -1, 273.00, 167.00, 15.00, 15, ABpraaaaaa
266, 261, 268, -1, 266.00, 163.00, 19.00, 17, ABpraaaapa
267, 262, 269, -1, 271.00, 158.00, 23.00, 13, ABpraaaappa
268, 263, 270, -1, 255.00, 164.00, 26.00, 15, ABpraaaappp
269, 264, 271, -1, 106.00, 224.00, 20.00, 17, ABprappapp
270, 265, 272, -1, 113.00, 225.00, 29.00, 15, ABprappapa
271, 266, 273, -1, 114.00, 215.00, 23.00, 17, ABprappaap
272, 267, 274, -1, 137.00, 207.00, 20.00, 17, ABprappaaa
273, 268, 275, -1, 87.00, 265.00, 16.00, 17, ABprapppaa
274, 269, 276, -1, 98.00, 271.00, 13.00, 15, ABprapppap
275, 270, 277, -1, 76.00, 277.00, 13.00, 17, ABprappppp
276, 271, 278, -1, 81.00, 253.00, 14.00, 15, ABprappppa
277, 272, 279, -1, 201.00, 189.00, 28.00, 15, ABprapaaapa
278, 272, 280, -1, 180.00, 188.00, 28.00, 15, ABprapaaapp
279, 273, 281, -1, 209.00, 202.00, 31.00, 17, ABprapaaaa
280, 274, 282, -1, 140.00, 198.00, 25.00, 13, ABprapaapp
281, 275, 283, -1, 170.00, 184.00, 24.00, 15, ABprapaapa
282, 276, 284, -1, 91.00, 240.00, 17.00, 17, ABprapappa
283, 277, 285, -1, 74.00, 276.00, 19.00, 15, ABprapappp
284, 278, 286, -1, 90.00, 238.00, 22.00, 15, ABprapapap
285, 279, 287, -1, 83.00, 257.00, 27.00, 17, ABprapapaa
286, 280, 288, -1, 225.00, 206.00, 26.00, 13, MSppppap
287, 281, 289, -1, 222.00, 196.00, 20.00, 15, MSppppaa
288, 282, 290, -1, 236.00, 214.00, 31.00, 15, MSpppppa
289, 283, 291, -1, 197.00, 219.00, 30.00, 15, MSpppppp
290, 284, 292, -1, 209.00, 225.00, 17.00, 13, MSpppaaa
291, 285, 293, -1, 182.00, 227.00, 20.00, 17, MSpppaap
292, 286, 294, -1, 190.00, 212.00, 18.00, 15, MSpppapp
293, 287, 295, -1, 205.00, 208.00, 18.00, 11, MSpppapa
294, 288, 296, -1, 223.00, 213.00, 17.00, 15, MSppaapp
295, 289, 297, -1, 242.00, 206.00, 16.00, 11, MSppaapa
296, 290, 298, -1, 271.00, 205.00, 15.00, 13, MSppaaaa
297, 291, 299, -1, 275.00, 192.00, 22.00, 15, MSppaaap
298, 292, 300, -1, 281.00, 187.00, 28.00, 15, MSppappa
299, 293, 301, -1, 249.00, 198.00, 21.00, 15, MSppapaa
300, 294, 302, -1, 233.00, 193.00, 17.00, 15, MSppapap
301, 295, 303, -1, 195.00, 265.00, 14.00, 13, MSpapappp
302, 296, 304, -1, 213.00, 259.00, 16.00, 15, MSpapappa
303, 297, 305, -1, 202.00, 248.00, 18.00, 15, MSpapapa
304, 298, 306, -1, 245.00, 246.00, 17.00, 13, MSpapaaaa
305, 299, 307, -1, 229.00, 247.00, 17.00, 15, MSpapaaap
306, 300, 308, -1, 222.00, 239.00, 20.00, 13, MSpapaapa
307, 301, 309, -1, 211.00, 245.00, 22.00, 17, MSpapaapp
308, 302, 310, -1, 175.00, 301.00, 13.00, 15, MSpappaa
310, 304, 312, -1, 160.00, 238.00, 14.00, 15, MSpapppp
311, 305, 313, -1, 169.00, 224.00, 17.00, 15, MSpapppa
312, 306, 314, -1, 258.00, 225.00, 29.00, 15, MSpaaappa
313, 307, 315, -1, 236.00, 237.00, 27.00, 15, MSpaaappp
314, 308, 316, -1, 247.00, 242.00, 30.00, 15, MSpaaapa
315, 309, 317, -1, 284.00, 210.00, 28.00, 19, MSpaaaapa
316, 310, 318, -1, 268.00, 210.00, 30.00, 15, MSpaaaapp
317, 311, 319, -1, 293.00, 206.00, 30.00, 17, MSpaaaaa
319, 313, 321, -1, 254.00, 220.00, 24.00, 15, MSpaapapa
320, 314, 322, -1, 258.00, 206.00, 27.00, 15, MSpaapaa
321, 315, 323, -1, 187.00, 257.00, 24.00, 19, Earap
322, 316, 324, -1, 266.00, 302.00, 22.00, 17, MSapppaa
323, 317, 325, -1, 255.00, 283.00, 26.00, 15, MSapppap
324, 318, 326, -1, 244.00, 278.00, 31.00, 13, MSappppa
325, 319, 327, -1, 211.00, 307.00, 30.00, 13, MSappppp
326, 320, 328, -1, 205.00, 318.00, 20.00, 15, MSappaap
327, 321, 329, -1, 233.00, 298.00, 22.00, 15, MSappaaa
328, 322, 330, -1, 233.00, 310.00, 20.00, 15, MSappapp
329, 323, 331, -1, 250.00, 308.00, 21.00, 13, MSappapa
330, 324, 332, -1, 291.00, 265.00, 28.00, 15, MSapappa
331, 325, 333, -1, 269.00, 274.00, 30.00, 15, MSapappp
332, 326, 334, -1, 277.00, 293.00, 18.00, 15, MSapapap
333, 327, 335, -1, 279.00, 278.00, 22.00, 15, MSapapaa
334, 328, 336, -1, 252.00, 296.00, 18.00, 15, MSapaapp
335, 329, 337, -1, 291.00, 270.00, 17.00, 11, MSapaapa
336, 330, 338, -1, 324.00, 254.00, 17.00, 15, MSapaaaa
337, 331, 339, -1, 318.00, 253.00, 25.00, 15, MSapaaap
338, 332, 340, -1, 317.00, 211.00, 28.00, 17, MSaaaaapa
339, 333, 341, -1, 307.00, 232.00, 31.00, 15, MSaaaaapp
340, 334, 342, -1, 330.00, 208.00, 25.00, 17, MSaaaaaa
341, 335, 343, -1, 289.00, 226.00, 31.00, 13, MSaaaapaa
342, 336, 344, -1, 270.00, 236.00, 31.00, 15, MSaaaapap
343, 337, 345, 346, 264.00, 256.00, 28.00, 17, MSaaaapp
344, 338, 347, -1, 252.00, 252.00, 25.00, 13, MSaaapapp
345, 339, 348, -1, 286.00, 249.00, 29.00, 13, MSaaapaap
346, 340, 349, -1, 305.00, 244.00, 28.00, 13, MSaaapaaa
347, 341, 350, -1, 247.00, 265.00, 27.00, 13, MSaaappa
348, 342, 351, -1, 232.00, 255.00, 28.00, 13, MSaaappp
349, 343, 352, -1, 190.00, 315.00, 16.00, 15, MSaapppp
350, 344, 353, -1, 214.00, 307.00, 15.00, 15, MSaapppa
351, 345, 354, -1, 250.00, 279.00, 17.00, 13, MSaapaaap
352, 346, 355, -1, 261.00, 272.00, 17.00, 13, MSaapaaaa
353, 347, 356, -1, 213.00, 290.00, 17.00, 13, MSaapappp
354, 348, 357, -1, 232.00, 276.00, 17.00, 15, MSaapappa
355, 349, 358, -1, 227.00, 279.00, 21.00, 15, MSaapapa
356, 350, 359, -1, 208.00, 282.00, 21.00, 21, Ealpa
357, 351, 360, -1, 167.00, 302.00, 22.00, 19, Ealpp
358, 352, 361, -1, 130.00, 304.00, 22.00, 21, Eplpa
359, 353, 362, -1, 134.00, 337.00, 20.00, 17, Cappap
360, 354, 363, -1, 157.00, 340.00, 25.00, 19, Cappaa
361, 355, 364, -1, 120.00, 338.00, 25.00, 19, Capppa
362, 356, 365, -1, 107.00, 322.00, 16.00, 15, Capppp
363, 357, 366, -1, 155.00, 343.00, 21.00, 17, Capapa
364, 358, 367, -1, 150.00, 330.00, 15.00, 19, Capapp
365, 359, 368, -1, 173.00, 328.00, 17.00, 19, Capaap
366, 360, 369, -1, 192.00, 329.00, 22.00, 19, Capaaa
367, 361, 370, -1, 84.00, 323.00, 28.00, 21, Caaapp
368, 362, 371, -1, 79.00, 324.00, 17.00, 21, Caappd
369, 363, 372, -1, 83.00, 325.00, 13.00, 15, Caappv
370, 364, 373, -1, 97.00, 302.00, 13.00, 15, Caapa
371, 365, 374, -1, 64.00, 304.00, 19.00, 17, Cpappd
372, 366, 375, -1, 71.00, 304.00, 14.00, 17, Cpappv
373, 367, 376, -1, 76.00, 332.00, 22.00, 17, Cpapaa
374, 368, 377, -1, 85.00, 292.00, 31.00, 21, Cpaapp
375, 369, 378, -1, 138.00, 242.00, 17.00, 17, Cppaap
376, 370, 379, -1, 150.00, 228.00, 21.00, 19, Cppaaa
377, 371, 380, -1, 120.00, 243.00, 22.00, 19, Cppapa
378, 372, 381, -1, 117.00, 251.00, 15.00, 19, Cppapp
379, 373, 382, -1, 120.00, 244.00, 28.00, 15, Cpppaap
380, 374, 383, -1, 135.00, 226.00, 24.00, 15, Cpppaaa
381, 375, 384, -1, 100.00, 262.00, 20.00, 17, Cpppap
382, 376, 385, -1, 235.00, 320.00, 23.00, 15, Daapa
383, 377, 386, -1, 221.00, 331.00, 20.00, 15, Daapp
384, 378, 387, -1, 247.00, 298.00, 25.00, 15, Daaaa
385, 379, 388, -1, 231.00, 303.00, 27.00, 15, Daaap
386, 380, 389, -1, 192.00, 319.00, 29.00, 19, Dappa
387, 381, 390, -1, 158.00, 330.00, 29.00, 15, Dappp
388, 382, 391, -1, 170.00, 209.00, 19.00, 15, Dpapp
389, 383, 392, -1, 194.00, 204.00, 22.00, 15, Dpapa
390, 384, 393, -1, 201.00, 209.00, 27.00, 15, Dpaap
391, 385, 394, -1, 213.00, 204.00, 22.00, 15, Dpaaa
392, 386, 395, -1, 142.00, 237.00, 29.00, 17, Dpppp
393, 387, 396, -1, 168.00, 224.00, 28.00, 19, Dpppa
394, 388, 397, -1, 182.00, 204.00, 25.00, 17, Dppaa
395, 389, 398, -1, 156.00, 210.00, 23.00, 13, Dppap
396, 390, 399, -1, 158.00, 256.00, 15.00, 21, Z2
398, 392, 401, -1, 330.00, 299.00, 22.00, 13, ABalpppappa
399, 393, 402, -1, 319.00, 300.00, 26.00, 15, ABalpppappp
400, 394, 403, -1, 306.00, 277.00, 23.00, 13, ABalpppppaa
401, 395, 404, -1, 291.00, 282.00, 24.00, 13, ABalpppppap
402, 396, 405, -1, 276.00, 287.00, 27.00, 15, ABalppppppa
403, 397, 406, -1, 283.00, 307.00, 28.00, 17, ABalppppppp
404, 398, 407, -1, 326.00, 296.00, 29.00, 13, ABalppppapp
405, 399, 408, -1, 339.00, 282.00, 27.00, 15, ABalppppapa
406, 400, 409, -1, 316.00, 271.00, 19.00, 13, ABalppppaad
407, 401, 410, -1, 320.00, 280.00, 24.00, 13, ABalppppaav
408, 402, 411, -1, 332.00, 286.00, 17.00, 15, ABalpppaaa
409, 403, 412, -1, 340.00, 287.00, 22.00, 17, ABalpppaap
410, 404, 413, -1, 318.00, 292.00, 18.00, 13, ABalpppapad
411, 405, 414, -1, 314.00, 304.00, 22.00, 15, ABalpppapav
412, 406, 415, -1, 336.00, 262.00, 17.00, 13, ABalppaaaa
413, 407, 416, -1, 343.00, 273.00, 16.00, 13, ABalppaaap
414, 408, 417, -1, 305.00, 296.00, 14.00, 15, ABalppaapp
415, 409, 418, -1, 318.00, 288.00, 13.00, 13, ABalppaapa
416, 410, 419, -1, 288.00, 289.00, 13.00, 13, ABalppapppa
417, 411, 420, -1, 282.00, 304.00, 12.00, 13, ABalppapppp
418, 412, 421, -1, 301.00, 276.00, 13.00, 13, ABalppappap
419, 413, 422, -1, 321.00, 267.00, 15.00, 13, ABalppappaa
420, 414, 423, -1, 304.00, 267.00, 9.00, 15, ABalppapapa
421, 415, 424, -1, 281.00, 286.00, 10.00, 13, ABalppapapp
422, 416, 425, -1, 333.00, 267.00, 12.00, 15, ABalppapaaa
423, 417, 426, -1, 314.00, 275.00, 11.00, 15, ABalppapaap
424, 418, 427, -1, 252.00, 294.00, 10.00, 15, ABalpapapap
425, 419, 428, -1, 270.00, 275.00, 10.00, 13, ABalpapapaa
426, 420, 429, -1, 251.00, 316.00, 12.00, 13, ABalpapappa
427, 421, 430, -1, 234.00, 332.00, 13.00, 13, ABalpapappp
428, 422, 431, -1, 276.00, 247.00, 9.00, 19, ABalpapaap
429, 423, 432, -1, 312.00, 252.00, 10.00, 13, ABalpapaaaa
430, 424, 433, -1, 289.00, 263.00, 11.00, 13, ABalpapaaap
431, 425, 434, -1, 268.00, 260.00, 11.00, 15, ABalpappapa
432, 426, 435, -1, 245.00, 268.00, 11.00, 17, ABalpappapp
433, 427, 436, -1, 285.00, 255.00, 14.00, 15, ABalpappaap
434, 428, 437, -1, 280.00, 237.00, 15.00, 11, ABalpappaaa
435, 429, 438, -1, 237.00, 272.00, 14.00, 19, ABalpappppp
436, 430, 439, -1, 262.00, 268.00, 14.00, 15, ABalpappppa
437, 431, 440, -1, 272.00, 259.00, 16.00, 15, ABalpapppa
438, 432, 441, -1, 277.00, 256.00, 19.00, 15, ABalpaaapp
439, 433, 442, -1, 296.00, 251.00, 18.00, 15, ABalpaaapa
440, 434, 443, -1, 294.00, 245.00, 11.00, 15, ABalpaaaap
441, 435, 444, -1, 303.00, 245.00, 14.00, 17, ABalpaaaaa
442, 436, 445, -1, 334.00, 234.00, 13.00, 13, ABalpaapppa
443, 437, 446, -1, 326.00, 255.00, 12.00, 13, ABalpaapppp
444, 438, 447, -1, 318.00, 230.00, 14.00, 13, ABalpaappaa
445, 438, 448, -1, 319.00, 235.00, 12.00, 13, ABalpaappap
446, 439, 449, -1, 294.00, 251.00, 22.00, 15, ABalpaapapp
447, 440, 450, -1, 305.00, 242.00, 20.00, 15, ABalpaapapa
448, 441, 451, -1, 322.00, 245.00, 21.00, 13, ABalpaapaap
449, 442, 452, -1, 329.00, 231.00, 19.00, 13, ABalpaapaaa
450, 443, 453, -1, 170.00, 266.00, 28.00, 15, Epraa
451, 444, 454, -1, 145.00, 276.00, 27.00, 21, Eprap
452, 445, 455, -1, 205.00, 236.00, 24.00, 13, MSpaapp
453, 446, 456, -1, 159.00, 264.00, 24.00, 21, Earpp
454, 447, 457, -1, 189.00, 285.00, 25.00, 19, Ealap
455, 448, 458, -1, 213.00, 272.00, 27.00, 23, Ealaa
456, 449, 459, -1, 167.00, 289.00, 28.00, 21, Eplaa
457, 450, 460, -1, 148.00, 295.00, 22.00, 15, Eplap
458, 451, 461, -1, 124.00, 280.00, 19.00, 21, Eprpp
459, 452, 462, -1, 188.00, 338.00, 27.00, 15, Dapap
460, 453, 463, -1, 215.00, 323.00, 26.00, 15, Dapaa
461, 454, 464, -1, 227.00, 268.00, 23.00, 19, MSaapaapp
462, 455, 465, -1, 242.00, 264.00, 22.00, 13, MSaapaapa
463, 456, 466, -1, 152.00, 212.00, 31.00, 15, ABarpppapp
464, 457, 467, -1, 233.00, 318.00, 15.00, 17, ABplppaapa
465, 458, 468, -1, 66.00, 297.00, 24.00, 19, Cpapap
467, 460, 470, -1, 346.00, 246.00, 17.00, 15, ABalaaaala
468, 461, 471, -1, 259.00, 180.00, 35.00, 15, ABarpappaa
469, 462, 472, -1, 339.00, 209.00, 28.00, 15, ABalappaaa
470, 463, 473, -1, 98.00, 269.00, 26.00, 19, Cppppa
471, 464, 474, -1, 92.00, 286.00, 17.00, 19, Cppppp
472, 465, 475, -1, 188.00, 262.00, 19.00, 21, Earpa
473, 466, 476, -1, 251.00, 198.00, 31.00, 15, MSppappp
474, 467, 477, -1, 127.00, 277.00, 24.00, 21, Eprpa
475, 468, 478, -1, 225.00, 246.00, 34.00, 17, ABarpaappa
476, 469, 479, -1, 209.00, 298.00, 34.00, 19, ABarppaapa
477, 470, 503, -1, 137.00, 259.00, 34.00, 19, Cpaaap
478, 471, 480, -1, 129.00, 303.00, 17.00, 23, Eplpp
479, 472, 481, -1, 206.00, 288.00, 14.00, 13, MSaappap
480, 473, 482, -1, 184.00, 288.00, 16.00, 21, Z3
481, 474, 483, -1, 262.00, 174.00, 12.00, 15, ABalaapapp
482, 475, 484, -1, 215.00, 272.00, 14.00, 15, MSaappaa
484, 477, 486, -1, 271.00, 244.00, 26.00, 13, MSaaapapa
485, 478, 487, -1, 251.00, 327.00, 21.00, 11, ABplppaaaap
486, 479, 488, -1, 132.00, 309.00, 9.00, 13, ABplpppapap
487, 480, 489, -1, 270.00, 169.00, 31.00, 15, ABpraapaapp
488, 481, 490, -1, 239.00, 342.00, 18.00, 13, ABplppapaaa
489, 482, 491, -1, 212.00, 247.00, 27.00, 17, Earaa
490, 483, 492, -1, 333.00, 227.00, 32.00, 15, ABalapapapa
491, 484, 493, -1, 348.00, 240.00, 20.00, 15, ABalaaapall
493, 486, 495, -1, 258.00, 190.00, 17.00, 13, ABprpaaaaaa
494, 487, 496, -1, 181.00, 255.00, 34.00, 19, Cpaaaa
495, 488, 497, -1, 142.00, 298.00, 34.00, 19, Caaaap
496, 489, 498, -1, 166.00, 276.00, 13.00, 15, MSpappap
497, 490, 501, -1, 248.00, 300.00, 31.00, 16, ABplapaaaaa
498, 491, 502, -1, 190.00, 226.00, 35.00, 18, ABarpppapa
499, 492, 504, -1, 115.00, 292.00, 33.00, 15, Cpaapa
500, 493, 505, -1, 113.00, 323.00, 33.00, 15, Caaapa
501, 494, 506, -1, 182.00, 301.00, 33.00, 17, Caaaaa
502, 495, 17, -1, 292.00, 220.00, 18.86, 15, ABaraaapapa
503, 496, 508, -1, 293.00, 174.00, 32.00, 13, ABalapppppa
504, 312, 499, -1, 236.00, 234.00, 23.00, 13, MSpaapapp
