1, 1, 1, -1, 309.00, 206.00, 24.00, 17, ABaraappaa
2, 2, 2, -1, 275.00, 209.00, 24.00, 17, ABaraappapp
3, 3, 3, -1, 293.00, 204.00, 24.00, 17, ABaraappapa
4, 4, 4, -1, 251.00, 219.00, 21.00, 17, ABaraapppap
5, 5, 5, -1, 264.00, 212.00, 20.00, 15, ABaraapppaa
6, 6, 6, -1, 237.00, 236.00, 20.00, 13, ABaraappppp
7, 7, 7, -1, 256.00, 266.00, 20.00, 15, ABaraapapp
8, 8, 8, -1, 267.00, 255.00, 23.00, 17, ABaraapapap
9, 9, 9, -1, 280.00, 247.00, 23.00, 17, ABaraapapaa
10, 10, 10, -1, 323.00, 225.00, 23.00, 17, ABaraapaaa
11, 11, 11, -1, 289.00, 235.00, 25.00, 15, ABaraapaapp
12, 12, 12, -1, 307.00, 230.00, 24.00, 15, ABaraapaapa
13, 13, 13, -1, 313.00, 218.00, 11.00, 17, ABaraaappa
14, 14, 14, -1, 302.00, 206.00, 12.00, 11, ABaraaapppa
15, 15, 15, -1, 277.00, 209.00, 10.00, 11, ABaraaapppp
16, 16, 16, -1, 316.00, 213.00, 19.00, 13, ABaraaapaaa
17, 502, 17, -1, 291.00, 219.00, 19.00, 15, ABaraaapapa
18, 18, 18, -1, 302.00, 207.00, 20.00, 13, ABaraaapaap
19, 19, 19, -1, 279.00, 219.00, 21.00, 15, ABaraaapapp
20, 20, 20, -1, 315.00, 232.00, 17.00, 17, ABaraaaaaa
21, 21, 21, -1, 301.00, 210.00, 16.00, 17, ABaraaaaap
22, 22, 22, -1, 309.00, 225.00, 28.00, 11, ABaraaaapp
23, 23, 23, -1, 327.00, 211.00, 19.00, 15, ABaraaaapa
24, 24, 24, -1, 239.00, 246.00, 11.00, 13, ABarapapapp
25, 25, 25, -1, 256.00, 239.00, 11.00, 13, ABarapapapa
26, 26, 26, -1, 260.00, 236.00, 13.00, 15, ABarapapaap
27, 27, 27, -1, 274.00, 223.00, 15.00, 13, ABarapapaaa
28, 28, 28, -1, 219.00, 240.00, 13.00, 17, ABarapapppp
29, 29, 507, -1, 241.00, 233.00, 13.00, 15, ABarapapppa
30, 30, 29, -1, 248.00, 226.00, 16.00, 19, ABarapappa
31, 31, 30, -1, 278.00, 228.00, 12.00, 15, ABarapaaap
32, 32, 31, -1, 294.00, 223.00, 13.00, 15, ABarapaaaa
33, 33, 32, -1, 281.00, 216.00, 17.00, 17, ABarapaapa
34, 34, 33, -1, 247.00, 219.00, 18.00, 15, ABarapaappp
35, 35, 34, -1, 264.00, 232.00, 18.00, 15, ABarapaappa
36, 36, 35, -1, 258.00, 199.00, 10.00, 13, ABarapppapa
37, 37, 36, -1, 238.00, 210.00, 10.00, 11, ABarapppapp
38, 38, 37, -1, 285.00, 194.00, 11.00, 13, ABarapppaaa
39, 38, 38, -1, 266.00, 191.00, 11.00, 13, ABarapppaap
40, 39, 39, -1, 253.00, 199.00, 13.00, 13, ABarappppap
41, 40, 40, -1, 271.00, 187.00, 14.00, 13, ABarappppaa
42, 41, 41, -1, 239.00, 196.00, 12.00, 11, ABarapppppa
43, 42, 42, -1, 222.00, 190.00, 12.00, 13, ABarapppppp
44, 43, 43, -1, 259.00, 217.00, 11.00, 17, ABarappaaa
45, 44, 44, -1, 236.00, 227.00, 10.00, 17, ABarappaap
46, 45, 45, -1, 210.00, 219.00, 9.00, 15, ABarappapap
47, 46, 46, -1, 224.00, 202.00, 10.00, 15, ABarappapaa
48, 47, 47, 48, 189.00, 207.00, 11.00, 15, ABarappapp
49, 48, 49, -1, 223.00, 177.00, 31.00, 17, ABarpapppa
50, 49, 50, -1, 216.00, 189.00, 35.00, 19, ABarpapppp
51, 50, 51, -1, 245.00, 174.00, 33.00, 19, ABarpappap
52, 51, 52, -1, 298.00, 185.00, 35.00, 19, ABarpapaaa
53, 52, 53, -1, 295.00, 190.00, 32.00, 13, ABarpapaapa
54, 53, 54, -1, 278.00, 198.00, 35.00, 15, ABarpapaapp
55, 54, 55, -1, 242.00, 215.00, 34.00, 15, ABarpapapp
56, 55, 56, -1, 277.00, 220.00, 35.00, 15, ABarpapapa
57, 56, 57, -1, 214.00, 265.00, 34.00, 19, ABarpaappp
58, 57, 58, -1, 258.00, 220.00, 34.00, 13, ABarpaapaa
59, 58, 59, -1, 245.00, 253.00, 34.00, 19, ABarpaapap
60, 59, 60, -1, 329.00, 208.00, 32.00, 15, ABarpaaaaa
61, 60, 61, -1, 303.00, 233.00, 35.00, 17, ABarpaaaap
62, 61, 62, -1, 274.00, 235.00, 35.00, 13, ABarpaaapp
63, 62, 63, -1, 297.00, 212.00, 35.00, 17, ABarpaaapa
64, 63, 64, -1, 233.00, 318.00, 34.00, 15, ABarppaaap
65, 64, 65, -1, 236.00, 291.00, 34.00, 15, ABarppaaaa
66, 65, 66, -1, 187.00, 330.00, 33.00, 15, ABarppaapp
67, 66, 67, -1, 138.00, 351.00, 31.00, 17, ABarppappa
68, 67, 68, -1, 109.00, 357.00, 22.00, 17, ABarppappp
69, 68, 69, -1, 190.00, 348.00, 32.00, 17, ABarppapap
70, 69, 70, -1, 214.00, 332.00, 34.00, 17, ABarppapaa
71, 70, 71, -1, 72.00, 258.00, 21.00, 17, ABarpppppp
72, 71, 72, -1, 98.00, 244.00, 29.00, 17, ABarpppppa
73, 72, 73, -1, 161.00, 196.00, 31.00, 15, ABarppppaa
74, 73, 74, -1, 135.00, 212.00, 31.00, 17, ABarppppap
75, 74, 75, -1, 186.00, 196.00, 34.00, 17, ABarpppaap
76, 75, 76, -1, 209.00, 212.00, 34.00, 17, ABarpppaaa
77, 76, 77, -1, 319.00, 187.00, 26.00, 19, ABalappppaa
78, 77, 78, -1, 301.00, 181.00, 28.00, 11, ABalappppap
79, 78, 79, -1, 275.00, 180.00, 34.00, 13, ABalapppppp
80, 79, 80, -1, 342.00, 196.00, 24.00, 13, ABalapppaaa
81, 80, 81, -1, 334.00, 187.00, 29.00, 13, ABalapppaap
82, 81, 82, -1, 319.00, 197.00, 31.00, 11, ABalapppapa
83, 82, 83, -1, 305.00, 200.00, 34.00, 13, ABalapppapp
84, 83, 84, -1, 312.00, 182.00, 24.00, 15, ABalappapa
85, 84, 85, -1, 344.00, 221.00, 27.00, 17, ABalappaap
86, 85, 86, -1, 322.00, 170.00, 25.00, 13, ABalappappa
87, 86, 87, -1, 299.00, 164.00, 26.00, 13, ABalappappp
88, 87, 88, -1, 306.00, 274.00, 36.00, 13, ABalapapppp
89, 88, 89, -1, 320.00, 259.00, 33.00, 13, ABalapapppa
90, 89, 90, -1, 338.00, 243.00, 27.00, 17, ABalapappaa
91, 90, 91, -1, 327.00, 259.00, 29.00, 13, ABalapappap
92, 91, 92, -1, 325.00, 226.00, 34.00, 15, ABalapapaa
93, 92, 93, -1, 310.00, 250.00, 32.00, 15, ABalapapapp
94, 93, 94, -1, 340.00, 244.00, 25.00, 19, ABalapaaaa
95, 94, 95, -1, 353.00, 257.00, 26.00, 15, ABalapaaapa
96, 95, 96, -1, 342.00, 271.00, 30.00, 15, ABalapaaapp
97, 96, 97, -1, 335.00, 258.00, 24.00, 15, ABalapaappa
98, 97, 98, -1, 328.00, 265.00, 20.00, 17, ABalapaapa
99, 98, 99, -1, 336.00, 274.00, 24.00, 15, ABalapaappp
100, 99, 100, -1, 311.00, 190.00, 14.00, 15, ABalaapaaa
101, 100, 101, -1, 246.00, 181.00, 10.00, 13, ABalaapapa
102, 101, 102, -1, 300.00, 188.00, 11.00, 15, ABalaapaap
103, 102, 103, -1, 287.00, 180.00, 15.00, 17, ABalaappap
104, 103, 104, -1, 283.00, 171.00, 13.00, 17, ABalaappaa
105, 104, 105, -1, 299.00, 169.00, 24.00, 15, ABalaappppp
106, 105, 106, -1, 312.00, 172.00, 20.00, 13, ABalaappppa
107, 106, 107, -1, 297.00, 184.00, 21.00, 17, ABalaapppa
108, 107, 108, -1, 347.00, 254.00, 13.00, 17, ABalaaaalp
109, 108, 109, -1, 328.00, 199.00, 16.00, 15, ABalaaaarr
110, 109, 110, -1, 342.00, 223.00, 17.00, 15, ABalaaaarl
111, 110, 111, -1, 331.00, 188.00, 21.00, 17, ABalaaappl
112, 111, 112, -1, 320.00, 187.00, 18.00, 13, ABalaaapprr
113, 112, 113, -1, 300.00, 178.00, 17.00, 13, ABalaaapprl
114, 113, 114, -1, 346.00, 219.00, 22.00, 17, ABalaaapar
115, 114, 115, -1, 344.00, 265.00, 20.00, 15, ABalaaapalr
116, 115, 116, -1, 159.00, 325.00, 11.00, 13, ABplppppapa
117, 116, 117, -1, 150.00, 310.00, 10.00, 13, ABplppppapp
118, 117, 118, -1, 177.00, 308.00, 10.00, 13, ABplppppaaa
119, 118, 119, -1, 168.00, 310.00, 11.00, 13, ABplppppaap
120, 119, 120, -1, 91.00, 322.00, 12.00, 15, ABplppppppp
121, 120, 121, -1, 113.00, 310.00, 10.00, 13, ABplppppppa
122, 121, 122, -1, 150.00, 307.00, 14.00, 19, ABplpppppa
123, 122, 123, -1, 125.00, 311.00, 12.00, 13, ABplpppapp
124, 123, 124, -1, 138.00, 325.00, 10.00, 13, ABplpppapaa
125, 124, 125, -1, 133.00, 343.00, 11.00, 15, ABplpppaapp
126, 125, 126, -1, 152.00, 341.00, 11.00, 15, ABplpppaapa
127, 126, 127, -1, 181.00, 330.00, 10.00, 13, ABplpppaaaa
128, 127, 128, -1, 167.00, 345.00, 13.00, 13, ABplpppaaap
129, 128, 129, -1, 188.00, 338.00, 14.00, 17, ABplppappp
130, 129, 130, -1, 212.00, 332.00, 14.00, 15, ABplppappa
131, 130, 131, -1, 210.00, 347.00, 17.00, 13, ABplppapaap
132, 131, 132, -1, 194.00, 343.00, 17.00, 19, ABplppapap
133, 132, 133, -1, 205.00, 314.00, 11.00, 13, ABplppaappa
134, 132, 134, -1, 195.00, 320.00, 10.00, 13, ABplppaappp
135, 133, 135, -1, 264.00, 313.00, 19.00, 13, ABplppaaaaa
136, 134, 136, -1, 251.00, 315.00, 18.00, 13, ABplppaaap
137, 135, 137, -1, 245.00, 273.00, 10.00, 15, ABplpappaaa
138, 136, 138, -1, 222.00, 280.00, 9.00, 15, ABplpappaap
139, 137, 139, -1, 215.00, 268.00, 11.00, 17, ABplpappap
140, 138, 140, 141, 158.00, 290.00, 10.00, 15, ABplpapppp
141, 139, 142, -1, 184.00, 286.00, 10.00, 13, ABplpapppaa
142, 140, 143, -1, 163.00, 271.00, 10.00, 13, ABplpapppap
143, 141, 144, -1, 216.00, 301.00, 11.00, 13, ABplpapappa
144, 142, 145, -1, 191.00, 300.00, 10.00, 13, ABplpapappp
145, 143, 146, -1, 221.00, 319.00, 11.00, 13, ABplpapapap
146, 144, 147, -1, 243.00, 301.00, 13.00, 13, ABplpapapaa
147, 145, 148, -1, 261.00, 310.00, 15.00, 13, ABplpapaap
148, 146, 149, 150, 264.00, 292.00, 13.00, 15, ABplpapaaa
149, 147, 151, -1, 251.00, 332.00, 15.00, 13, ABplpaaaapp
150, 148, 152, -1, 262.00, 321.00, 12.00, 17, ABplpaaaapa
151, 149, 153, -1, 291.00, 292.00, 16.00, 15, ABplpaaaaap
152, 150, 154, -1, 309.00, 275.00, 16.00, 15, ABplpaaaaaa
153, 151, 155, -1, 305.00, 305.00, 18.00, 17, ABplpaaapa
154, 152, 156, -1, 288.00, 312.00, 15.00, 13, ABplpaaappa
155, 153, 157, -1, 275.00, 321.00, 16.00, 13, ABplpaaappp
156, 154, 158, -1, 264.00, 308.00, 26.00, 13, ABplpaappap
157, 155, 159, -1, 286.00, 300.00, 24.00, 15, ABplpaappaa
158, 156, 160, -1, 288.00, 322.00, 18.00, 13, ABplpaapppa
159, 157, 161, -1, 295.00, 318.00, 20.00, 15, ABplpaapapp
160, 158, 162, -1, 272.00, 328.00, 20.00, 15, ABplpaapppp
161, 159, 163, -1, 297.00, 295.00, 20.00, 13, ABplpaapaap
162, 160, 164, -1, 304.00, 275.00, 18.00, 13, ABplpaapaaa
163, 161, 165, -1, 303.00, 312.00, 25.00, 15, ABplpaapapa
164, 162, 166, -1, 271.00, 328.00, 26.00, 15, ABplaappap
165, 163, 167, -1, 285.00, 322.00, 24.00, 15, ABplaappaa
166, 164, 168, -1, 256.00, 331.00, 26.00, 17, ABplaapppa
167, 165, 169, -1, 230.00, 347.00, 24.00, 17, ABplaapppp
168, 166, 170, -1, 337.00, 253.00, 31.00, 15, ABplaapaaa
169, 167, 171, -1, 340.00, 269.00, 33.00, 13, ABplaapaapa
170, 168, 172, -1, 323.00, 280.00, 31.00, 15, ABplaapaapp
171, 169, 173, -1, 296.00, 296.00, 30.00, 17, ABplaapappp
172, 170, 174, -1, 304.00, 279.00, 30.00, 13, ABplaapappa
173, 171, 175, -1, 302.00, 282.00, 26.00, 15, ABplaapapa
174, 172, 176, -1, 296.00, 257.00, 35.00, 15, ABplaaaaapp
175, 173, 177, -1, 306.00, 256.00, 30.00, 15, ABplaaaaapa
176, 174, 178, -1, 320.00, 247.00, 36.00, 17, ABplaaaaaa
177, 175, 179, -1, 265.00, 265.00, 35.00, 17, ABplaaaapp
178, 176, 180, -1, 278.00, 252.00, 34.00, 15, ABplaaaapa
179, 177, 181, -1, 263.00, 293.00, 34.00, 15, ABplaaappp
180, 178, 182, -1, 277.00, 299.00, 33.00, 15, ABplaaappa
181, 179, 183, -1, 295.00, 299.00, 33.00, 17, ABplaaapap
182, 180, 184, -1, 304.00, 284.00, 34.00, 15, ABplaaapaa
183, 181, 185, -1, 137.00, 352.00, 14.00, 17, ABplappppa
184, 182, 186, -1, 107.00, 337.00, 13.00, 15, ABplappppp
185, 183, 187, -1, 121.00, 344.00, 17.00, 15, ABplapppaa
186, 184, 188, -1, 124.00, 333.00, 13.00, 15, ABplapppap
187, 185, 189, -1, 194.00, 357.00, 25.00, 15, ABplappaaa
188, 186, 190, -1, 175.00, 361.00, 25.00, 15, ABplappaap
189, 187, 191, -1, 162.00, 363.00, 22.00, 15, ABplappapp
190, 188, 192, -1, 163.00, 347.00, 32.00, 17, ABplappapa
191, 189, 193, -1, 209.00, 352.00, 27.00, 15, ABplapaapp
192, 190, 194, -1, 243.00, 339.00, 28.00, 15, ABplapaapa
193, 191, 195, -1, 242.00, 299.00, 31.00, 15, ABplapaaaap
194, 192, 196, 197, 247.00, 319.00, 30.00, 15, ABplapaaap
195, 193, 198, -1, 104.00, 344.00, 18.00, 17, ABplapappp
196, 194, 199, -1, 142.00, 370.00, 22.00, 15, ABplapapap
197, 195, 200, -1, 132.00, 363.00, 18.00, 17, ABplapappa
198, 196, 201, -1, 126.00, 357.00, 28.00, 17, ABplapapaa
199, 197, 202, -1, 220.00, 214.00, 13.00, 17, ABprpapaaa
200, 198, 203, -1, 207.00, 201.00, 13.00, 15, ABprpapaap
201, 199, 204, -1, 179.00, 238.00, 11.00, 13, ABprpapappa
202, 200, 205, -1, 175.00, 258.00, 10.00, 13, ABprpapappp
203, 201, 206, -1, 179.00, 228.00, 12.00, 15, ABprpapapap
204, 202, 207, -1, 206.00, 228.00, 12.00, 13, ABprpapapaa
205, 203, 208, -1, 134.00, 292.00, 11.00, 11, ABprpappppp
206, 204, 209, -1, 148.00, 280.00, 14.00, 15, ABprpappppa
207, 205, 210, -1, 198.00, 248.00, 11.00, 15, ABprpapppaa
208, 206, 211, -1, 186.00, 267.00, 11.00, 15, ABprpapppap
209, 208, 212, -1, 199.00, 281.00, 10.00, 17, ABprpappapp
210, 209, 213, -1, 211.00, 240.00, 9.00, 13, ABprpappaap
211, 210, 214, -1, 227.00, 247.00, 9.00, 15, ABprpappaaa
212, 211, 215, -1, 234.00, 180.00, 16.00, 15, ABprpaaaaap
213, 212, 216, -1, 256.00, 178.00, 17.00, 13, ABprpaapaaa
214, 213, 217, -1, 183.00, 188.00, 12.00, 15, ABprpaaaapp
215, 214, 218, -1, 206.00, 188.00, 11.00, 15, ABprpaaaapa
216, 215, 219, -1, 222.00, 173.00, 13.00, 13, ABprpaaappa
217, 216, 220, -1, 218.00, 185.00, 14.00, 15, ABprpaaappp
218, 217, 221, -1, 240.00, 171.00, 12.00, 15, ABprpaaapa
219, 218, 222, -1, 244.00, 171.00, 19.00, 15, ABprpaapaap
220, 219, 223, -1, 242.00, 158.00, 22.00, 15, ABprpaapapa
221, 220, 224, -1, 230.00, 160.00, 18.00, 15, ABprpaapapp
222, 221, 225, -1, 221.00, 164.00, 17.00, 17, ABprpaapppa
223, 222, 226, -1, 210.00, 167.00, 18.00, 15, ABprpaapppp
224, 223, 227, -1, 217.00, 188.00, 26.00, 15, ABprpaappap
225, 224, 228, -1, 231.00, 184.00, 22.00, 15, ABprpaappaa
226, 225, 229, -1, 87.00, 260.00, 11.00, 15, ABprpppaapp
227, 226, 230, -1, 107.00, 250.00, 11.00, 13, ABprpppaapa
228, 227, 231, -1, 114.00, 239.00, 11.00, 17, ABprpppaaap
229, 228, 232, -1, 144.00, 238.00, 11.00, 13, ABprpppaaaa
230, 229, 233, -1, 115.00, 265.00, 10.00, 13, ABprpppapaa
231, 230, 234, -1, 113.00, 283.00, 10.00, 13, ABprpppapap
232, 231, 235, -1, 119.00, 297.00, 10.00, 13, ABprpppapp
233, 232, 236, -1, 134.00, 255.00, 10.00, 15, ABprppppapa
234, 233, 237, -1, 129.00, 276.00, 10.00, 13, ABprppppapp
235, 234, 238, -1, 153.00, 261.00, 10.00, 13, ABprppppaaa
236, 235, 239, -1, 142.00, 271.00, 12.00, 13, ABprppppaap
237, 236, 240, -1, 86.00, 299.00, 10.00, 15, ABprppppppp
238, 237, 241, -1, 104.00, 296.00, 10.00, 13, ABprppppppa
239, 238, 242, -1, 133.00, 264.00, 15.00, 13, ABprpppppaa
240, 239, 243, -1, 121.00, 283.00, 13.00, 13, ABprpppppap
241, 240, 244, -1, 184.00, 210.00, 15.00, 19, ABprppaapa
242, 241, 245, -1, 162.00, 240.00, 10.00, 17, ABprppaapp
243, 242, 246, -1, 207.00, 180.00, 17.00, 15, ABprppaaaaa
244, 243, 247, -1, 188.00, 191.00, 16.00, 13, ABprppaaaap
245, 244, 248, -1, 190.00, 176.00, 20.00, 13, ABprppaaap
246, 245, 249, -1, 166.00, 196.00, 14.00, 13, ABprppapaaa
247, 246, 250, -1, 149.00, 205.00, 15.00, 13, ABprppapaap
248, 247, 251, -1, 134.00, 218.00, 14.00, 17, ABprppapap
249, 248, 252, -1, 122.00, 230.00, 13.00, 19, ABprppappp
250, 249, 253, -1, 158.00, 218.00, 12.00, 19, ABprppappa
251, 250, 254, -1, 318.00, 177.00, 31.00, 15, ABpraapaaa
252, 251, 255, -1, 294.00, 168.00, 30.00, 15, ABpraapaapa
253, 252, 256, -1, 263.00, 181.00, 26.00, 17, ABpraapapa
254, 253, 257, -1, 241.00, 172.00, 29.00, 15, ABpraapappp
255, 254, 258, -1, 258.00, 179.00, 29.00, 13, ABpraapappa
256, 255, 259, -1, 159.00, 191.00, 21.00, 17, ABpraapppp
257, 256, 260, -1, 188.00, 177.00, 24.00, 17, ABpraapppa
258, 257, 261, -1, 207.00, 170.00, 24.00, 17, ABpraappap
259, 258, 262, -1, 223.00, 165.00, 22.00, 13, ABpraappaa
260, 259, 263, -1, 279.00, 167.00, 26.00, 17, ABpraaapap
261, 260, 264, -1, 279.00, 178.00, 20.00, 15, ABpraaapaa
262, 261, 265, -1, 261.00, 176.00, 20.00, 11, ABpraaappaa
263, 261, 266, -1, 252.00, 178.00, 23.00, 13, ABpraaappap
264, 262, 267, -1, 240.00, 191.00, 25.00, 15, ABpraaapppa
265, 263, 268, -1, 227.00, 172.00, 26.00, 13, ABpraaapppp
266, 264, 269, -1, 288.00, 161.00, 20.00, 17, ABpraaaaap
267, 265, 270, -1, 272.00, 167.00, 15.00, 15, ABpraaaaaa
268, 266, 271, -1, 266.00, 162.00, 19.00, 15, ABpraaaapa
269, 267, 272, -1, 275.00, 160.00, 23.00, 13, ABpraaaappa
270, 268, 273, -1, 256.00, 161.00, 25.00, 15, ABpraaaappp
271, 269, 274, -1, 107.00, 223.00, 19.00, 17, ABprappapp
272, 270, 275, -1, 113.00, 223.00, 29.00, 15, ABprappapa
273, 271, 276, -1, 115.00, 213.00, 23.00, 15, ABprappaap
274, 272, 277, -1, 136.00, 206.00, 20.00, 17, ABprappaaa
275, 273, 278, -1, 87.00, 263.00, 16.00, 17, ABprapppaa
276, 274, 279, -1, 99.00, 270.00, 13.00, 15, ABprapppap
277, 275, 280, -1, 75.00, 280.00, 13.00, 17, ABprappppp
278, 276, 281, -1, 81.00, 254.00, 14.00, 17, ABprappppa
279, 277, 282, -1, 203.00, 191.00, 28.00, 13, ABprapaaapa
280, 278, 283, -1, 179.00, 186.00, 29.00, 13, ABprapaaapp
281, 279, 284, -1, 210.00, 201.00, 31.00, 17, ABprapaaaa
282, 280, 285, -1, 141.00, 197.00, 24.00, 13, ABprapaapp
283, 281, 286, -1, 170.00, 183.00, 24.00, 15, ABprapaapa
284, 282, 287, -1, 89.00, 241.00, 16.00, 17, ABprapappa
285, 283, 288, -1, 75.00, 276.00, 19.00, 15, ABprapappp
286, 284, 289, -1, 90.00, 236.00, 22.00, 15, ABprapapap
287, 285, 290, -1, 82.00, 256.00, 27.00, 15, ABprapapaa
288, 286, 291, -1, 227.00, 205.00, 26.00, 13, MSppppap
289, 287, 292, -1, 221.00, 196.00, 19.00, 15, MSppppaa
290, 288, 293, -1, 234.00, 213.00, 30.00, 15, MSpppppa
291, 289, 294, -1, 200.00, 221.00, 30.00, 15, MSpppppp
292, 290, 295, -1, 207.00, 227.00, 17.00, 13, MSpppaaa
293, 291, 296, -1, 180.00, 228.00, 20.00, 17, MSpppaap
294, 292, 297, -1, 189.00, 214.00, 18.00, 15, MSpppapp
295, 293, 298, -1, 205.00, 207.00, 19.00, 13, MSpppapa
296, 294, 299, -1, 220.00, 212.00, 17.00, 13, MSppaapp
297, 295, 300, -1, 240.00, 207.00, 16.00, 11, MSppaapa
298, 296, 301, -1, 270.00, 205.00, 15.00, 11, MSppaaaa
299, 297, 302, -1, 276.00, 192.00, 22.00, 15, MSppaaap
300, 298, 303, -1, 280.00, 187.00, 29.00, 13, MSppappa
301, 299, 304, -1, 250.00, 195.00, 20.00, 17, MSppapaa
302, 300, 305, -1, 233.00, 192.00, 17.00, 15, MSppapap
303, 301, 306, -1, 195.00, 265.00, 14.00, 13, MSpapappp
304, 302, 307, -1, 213.00, 258.00, 16.00, 15, MSpapappa
305, 303, 308, -1, 202.00, 250.00, 18.00, 15, MSpapapa
306, 304, 309, -1, 243.00, 245.00, 17.00, 13, MSpapaaaa
307, 305, 310, -1, 228.00, 246.00, 16.00, 15, MSpapaaap
308, 306, 311, -1, 221.00, 239.00, 20.00, 15, MSpapaapa
309, 307, 312, -1, 210.00, 246.00, 22.00, 15, MSpapaapp
310, 308, 313, -1, 175.00, 300.00, 13.00, 15, MSpappaa
312, 310, 314, -1, 156.00, 236.00, 15.00, 17, MSpapppp
313, 311, 315, -1, 168.00, 223.00, 17.00, 15, MSpapppa
314, 312, 316, -1, 256.00, 225.00, 28.00, 15, MSpaaappa
315, 313, 317, -1, 234.00, 237.00, 27.00, 15, MSpaaappp
316, 314, 318, -1, 247.00, 242.00, 30.00, 15, MSpaaapa
317, 315, 319, -1, 283.00, 211.00, 28.00, 17, MSpaaaapa
318, 316, 320, -1, 267.00, 212.00, 30.00, 15, MSpaaaapp
319, 317, 321, -1, 292.00, 207.00, 31.00, 15, MSpaaaaa
320, 6, 322, -1, 238.00, 227.00, 20.00, 13, ABaraappppa
321, 319, 323, -1, 254.00, 219.00, 24.00, 15, MSpaapapa
322, 320, 324, -1, 258.00, 204.00, 27.00, 15, MSpaapaa
323, 321, 325, -1, 187.00, 257.00, 24.00, 19, Earap
324, 322, 326, -1, 265.00, 301.00, 22.00, 19, MSapppaa
325, 323, 327, -1, 253.00, 283.00, 26.00, 13, MSapppap
326, 324, 328, -1, 247.00, 278.00, 30.00, 15, MSappppa
327, 325, 329, -1, 210.00, 306.00, 30.00, 15, MSappppp
328, 326, 330, -1, 203.00, 318.00, 19.00, 17, MSappaap
329, 327, 331, -1, 231.00, 299.00, 21.00, 15, MSappaaa
330, 328, 332, -1, 235.00, 309.00, 20.00, 13, MSappapp
331, 329, 333, -1, 250.00, 306.00, 21.00, 11, MSappapa
332, 330, 334, -1, 290.00, 267.00, 29.00, 15, MSapappa
333, 331, 335, -1, 270.00, 273.00, 30.00, 15, MSapappp
334, 332, 336, -1, 276.00, 293.00, 18.00, 15, MSapapap
335, 333, 337, -1, 276.00, 277.00, 22.00, 15, MSapapaa
336, 334, 338, -1, 250.00, 295.00, 18.00, 17, MSapaapp
337, 335, 339, -1, 290.00, 270.00, 17.00, 11, MSapaapa
338, 336, 340, -1, 322.00, 253.00, 17.00, 13, MSapaaaa
339, 337, 341, -1, 316.00, 254.00, 25.00, 15, MSapaaap
340, 338, 342, -1, 319.00, 211.00, 28.00, 15, MSaaaaapa
341, 339, 343, -1, 306.00, 229.00, 31.00, 15, MSaaaaapp
342, 340, 344, -1, 330.00, 207.00, 24.00, 15, MSaaaaaa
343, 341, 345, -1, 289.00, 227.00, 31.00, 13, MSaaaapaa
344, 342, 346, -1, 270.00, 235.00, 30.00, 13, MSaaaapap
345, 343, 347, -1, 258.00, 260.00, 28.00, 13, MSaaaappp
346, 343, 348, -1, 270.00, 252.00, 28.00, 13, MSaaaappa
347, 344, 349, -1, 253.00, 252.00, 25.00, 15, MSaaapapp
348, 345, 350, -1, 286.00, 250.00, 29.00, 11, MSaaapaap
349, 346, 351, -1, 304.00, 242.00, 28.00, 13, MSaaapaaa
350, 347, 352, -1, 244.00, 264.00, 27.00, 11, MSaaappa
351, 348, 353, -1, 231.00, 255.00, 27.00, 13, MSaaappp
352, 349, 354, -1, 190.00, 313.00, 15.00, 15, MSaapppp
353, 350, 355, -1, 214.00, 306.00, 16.00, 19, MSaapppa
354, 351, 356, -1, 249.00, 278.00, 16.00, 13, MSaapaaap
355, 352, 357, -1, 261.00, 271.00, 17.00, 13, MSaapaaaa
356, 353, 358, -1, 213.00, 288.00, 17.00, 15, MSaapappp
357, 354, 359, -1, 231.00, 276.00, 18.00, 15, MSaapappa
358, 355, 360, -1, 227.00, 279.00, 20.00, 15, MSaapapa
359, 356, 361, -1, 207.00, 280.00, 21.00, 23, Ealpa
360, 357, 362, -1, 165.00, 301.00, 21.00, 19, Ealpp
361, 358, 363, -1, 129.00, 304.00, 22.00, 21, Eplpa
362, 359, 364, -1, 134.00, 336.00, 19.00, 19, Cappap
363, 360, 365, -1, 157.00, 340.00, 25.00, 19, Cappaa
364, 361, 366, -1, 121.00, 338.00, 25.00, 15, Capppa
365, 362, 367, -1, 107.00, 322.00, 16.00, 15, Capppp
366, 363, 368, -1, 155.00, 343.00, 21.00, 17, Capapa
367, 364, 369, -1, 152.00, 329.00, 14.00, 19, Capapp
368, 365, 370, -1, 172.00, 327.00, 17.00, 21, Capaap
369, 366, 371, -1, 194.00, 330.00, 22.00, 19, Capaaa
370, 367, 372, -1, 86.00, 322.00, 28.00, 21, Caaapp
371, 368, 373, -1, 80.00, 323.00, 17.00, 19, Caappd
372, 369, 374, -1, 82.00, 324.00, 13.00, 17, Caappv
373, 370, 375, 376, 95.00, 305.00, 14.00, 19, Caapa
374, 371, 377, -1, 64.00, 306.00, 19.00, 19, Cpappd
375, 372, 378, -1, 71.00, 303.00, 14.00, 15, Cpappv
376, 373, 379, -1, 78.00, 332.00, 22.00, 15, Cpapaa
377, 374, 380, -1, 86.00, 293.00, 31.00, 21, Cpaapp
378, 375, 381, -1, 136.00, 241.00, 17.00, 19, Cppaap
379, 376, 382, -1, 149.00, 225.00, 21.00, 19, Cppaaa
380, 377, 383, -1, 119.00, 241.00, 23.00, 19, Cppapa
381, 378, 384, -1, 115.00, 250.00, 15.00, 19, Cppapp
382, 379, 385, -1, 117.00, 244.00, 28.00, 13, Cpppaap
383, 380, 386, -1, 136.00, 224.00, 24.00, 15, Cpppaaa
384, 381, 387, -1, 101.00, 260.00, 19.00, 19, Cpppap
385, 382, 388, -1, 236.00, 319.00, 23.00, 15, Daapa
386, 383, 389, -1, 221.00, 329.00, 20.00, 15, Daapp
387, 384, 390, -1, 247.00, 298.00, 25.00, 15, Daaaa
388, 385, 391, -1, 229.00, 305.00, 27.00, 15, Daaap
389, 386, 392, -1, 191.00, 319.00, 29.00, 19, Dappa
390, 387, 393, -1, 157.00, 329.00, 29.00, 15, Dappp
391, 388, 394, -1, 170.00, 207.00, 19.00, 17, Dpapp
392, 389, 395, -1, 193.00, 204.00, 22.00, 15, Dpapa
393, 390, 396, -1, 201.00, 208.00, 26.00, 15, Dpaap
394, 391, 397, -1, 215.00, 206.00, 22.00, 15, Dpaaa
395, 392, 398, -1, 143.00, 233.00, 29.00, 17, Dpppp
396, 393, 399, -1, 169.00, 224.00, 27.00, 15, Dpppa
397, 394, 400, -1, 183.00, 204.00, 25.00, 17, Dppaa
398, 395, 401, -1, 157.00, 209.00, 23.00, 13, Dppap
399, 396, 402, -1, 157.00, 256.00, 16.00, 21, Z2
401, 398, 404, -1, 328.00, 297.00, 21.00, 13, ABalpppappa
402, 399, 405, -1, 320.00, 300.00, 25.00, 15, ABalpppappp
403, 400, 406, -1, 303.00, 277.00, 23.00, 13, ABalpppppaa
404, 401, 407, -1, 290.00, 283.00, 23.00, 11, ABalpppppap
405, 402, 408, -1, 275.00, 287.00, 26.00, 15, ABalppppppa
406, 403, 409, -1, 284.00, 307.00, 28.00, 15, ABalppppppp
407, 404, 410, -1, 328.00, 295.00, 28.00, 13, ABalppppapp
408, 405, 411, -1, 339.00, 281.00, 26.00, 15, ABalppppapa
409, 406, 412, -1, 315.00, 271.00, 19.00, 13, ABalppppaad
410, 407, 413, -1, 319.00, 279.00, 24.00, 13, ABalppppaav
411, 408, 414, -1, 329.00, 285.00, 17.00, 17, ABalpppaaa
412, 409, 415, -1, 340.00, 286.00, 22.00, 17, ABalpppaap
413, 410, 416, -1, 317.00, 291.00, 18.00, 13, ABalpppapad
414, 411, 417, -1, 313.00, 301.00, 22.00, 13, ABalpppapav
415, 412, 418, -1, 336.00, 260.00, 16.00, 13, ABalppaaaa
416, 413, 419, -1, 342.00, 274.00, 16.00, 15, ABalppaaap
417, 414, 420, -1, 306.00, 297.00, 14.00, 13, ABalppaapp
418, 415, 421, -1, 318.00, 287.00, 13.00, 13, ABalppaapa
419, 416, 422, -1, 288.00, 288.00, 12.00, 15, ABalppapppa
420, 417, 423, -1, 281.00, 303.00, 12.00, 13, ABalppapppp
421, 418, 424, -1, 301.00, 275.00, 13.00, 13, ABalppappap
422, 419, 425, -1, 320.00, 266.00, 15.00, 11, ABalppappaa
423, 420, 426, -1, 301.00, 267.00, 9.00, 15, ABalppapapa
424, 421, 427, -1, 279.00, 289.00, 9.00, 15, ABalppapapp
425, 422, 428, -1, 332.00, 267.00, 12.00, 15, ABalppapaaa
426, 423, 429, -1, 312.00, 273.00, 11.00, 15, ABalppapaap
427, 424, 430, -1, 250.00, 295.00, 10.00, 17, ABalpapapap
428, 425, 431, -1, 270.00, 274.00, 10.00, 15, ABalpapapaa
429, 426, 432, -1, 248.00, 314.00, 11.00, 13, ABalpapappa
430, 427, 433, -1, 233.00, 331.00, 13.00, 15, ABalpapappp
431, 428, 434, -1, 276.00, 243.00, 10.00, 19, ABalpapaap
432, 429, 435, -1, 309.00, 253.00, 10.00, 13, ABalpapaaaa
433, 430, 436, -1, 286.00, 263.00, 10.00, 13, ABalpapaaap
434, 431, 437, -1, 267.00, 258.00, 11.00, 15, ABalpappapa
435, 432, 438, -1, 243.00, 266.00, 11.00, 17, ABalpappapp
436, 433, 439, -1, 284.00, 255.00, 14.00, 15, ABalpappaap
437, 434, 440, -1, 281.00, 236.00, 15.00, 11, ABalpappaaa
438, 435, 441, -1, 238.00, 270.00, 14.00, 17, ABalpappppp
439, 436, 442, -1, 262.00, 263.00, 13.00, 15, ABalpappppa
440, 437, 443, -1, 272.00, 258.00, 16.00, 19, ABalpapppa
441, 438, 444, -1, 276.00, 256.00, 19.00, 17, ABalpaaapp
442, 439, 445, -1, 295.00, 250.00, 18.00, 17, ABalpaaapa
443, 440, 446, -1, 294.00, 243.00, 11.00, 15, ABalpaaaap
444, 441, 447, -1, 303.00, 243.00, 14.00, 17, ABalpaaaaa
445, 442, 448, -1, 334.00, 234.00, 13.00, 13, ABalpaapppa
446, 443, 449, -1, 324.00, 254.00, 11.00, 11, ABalpaapppp
447, 444, 450, -1, 321.00, 224.00, 14.00, 13, ABalpaappaa
448, 445, 451, -1, 318.00, 238.00, 11.00, 13, ABalpaappap
449, 446, 452, -1, 295.00, 250.00, 21.00, 13, ABalpaapapp
450, 447, 453, -1, 304.00, 242.00, 20.00, 15, ABalpaapapa
451, 448, 454, -1, 319.00, 244.00, 21.00, 13, ABalpaapaap
452, 449, 455, -1, 330.00, 230.00, 19.00, 11, ABalpaapaaa
453, 450, 456, -1, 173.00, 266.00, 28.00, 21, Epraa
454, 451, 497, -1, 144.00, 276.00, 27.00, 21, Eprap
455, 452, 458, -1, 202.00, 235.00, 24.00, 11, MSpaapp
456, 453, 459, -1, 159.00, 264.00, 24.00, 21, Earpp
457, 454, 460, -1, 188.00, 285.00, 25.00, 21, Ealap
458, 455, 461, -1, 212.00, 271.00, 27.00, 23, Ealaa
459, 456, 462, -1, 167.00, 290.00, 27.00, 19, Eplaa
460, 457, 463, -1, 147.00, 293.00, 22.00, 17, Eplap
461, 458, 464, -1, 127.00, 277.00, 19.00, 19, Eprpp
462, 459, 465, -1, 188.00, 337.00, 27.00, 15, Dapap
463, 460, 466, -1, 215.00, 323.00, 26.00, 15, Dapaa
464, 461, 467, -1, 228.00, 270.00, 23.00, 19, MSaapaapp
465, 462, 468, -1, 241.00, 264.00, 22.00, 13, MSaapaapa
466, 463, 469, -1, 153.00, 212.00, 31.00, 15, ABarpppapp
467, 464, 470, -1, 235.00, 319.00, 15.00, 17, ABplppaapa
468, 465, 471, -1, 67.00, 296.00, 25.00, 19, Cpapap
470, 467, 473, -1, 346.00, 246.00, 17.00, 17, ABalaaaala
471, 468, 474, -1, 261.00, 181.00, 35.00, 13, ABarpappaa
472, 469, 475, -1, 340.00, 206.00, 28.00, 13, ABalappaaa
473, 470, 476, -1, 98.00, 267.00, 27.00, 15, Cppppa
474, 471, 477, -1, 92.00, 286.00, 17.00, 19, Cppppp
475, 472, 478, -1, 188.00, 262.00, 18.00, 19, Earpa
476, 473, 479, -1, 252.00, 198.00, 31.00, 15, MSppappp
477, 474, 480, -1, 126.00, 274.00, 24.00, 21, Eprpa
478, 475, 481, -1, 226.00, 247.00, 34.00, 17, ABarpaappa
479, 476, 482, -1, 209.00, 297.00, 34.00, 23, ABarppaapa
480, 478, 483, -1, 129.00, 302.00, 17.00, 23, Eplpp
481, 479, 484, -1, 205.00, 287.00, 14.00, 13, MSaappap
482, 480, 485, -1, 184.00, 289.00, 15.00, 19, Z3
483, 481, 486, -1, 261.00, 174.00, 11.00, 17, ABalaapapp
484, 482, 487, -1, 215.00, 271.00, 14.00, 13, MSaappaa
486, 484, 489, -1, 271.00, 244.00, 26.00, 13, MSaaapapa
487, 485, 490, -1, 251.00, 327.00, 20.00, 13, ABplppaaaap
488, 486, 491, -1, 129.00, 310.00, 10.00, 17, ABplpppapap
489, 487, 492, -1, 272.00, 167.00, 30.00, 15, ABpraapaapp
490, 488, 493, -1, 237.00, 341.00, 17.00, 13, ABplppapaaa
491, 489, 494, -1, 211.00, 246.00, 27.00, 17, Earaa
492, 490, 495, -1, 331.00, 228.00, 32.00, 15, ABalapapapa
493, 491, 496, -1, 347.00, 240.00, 20.00, 15, ABalaaapall
495, 493, 498, -1, 257.00, 190.00, 16.00, 13, ABprpaaaaaa
496, 494, 499, -1, 181.00, 253.00, 34.00, 17, Cpaaaa
497, 495, 500, -1, 140.00, 297.00, 34.00, 17, Caaaap
498, 496, 501, -1, 166.00, 276.00, 13.00, 13, MSpappap
499, 504, 502, -1, 236.00, 237.00, 23.00, 13, MSpaapapp
501, 497, 505, -1, 248.00, 299.00, 30.50, 15, ABplapaaaaa
502, 498, 504, -1, 190.00, 225.00, 35.00, 18, ABarpppapa
503, 477, 506, -1, 140.00, 261.00, 34.00, 19, Cpaaap
504, 499, 508, -1, 113.00, 291.00, 33.00, 15, Cpaapa
505, 500, 509, -1, 112.00, 321.00, 33.00, 15, Caaapa
506, 501, 510, -1, 184.00, 302.00, 33.00, 17, Caaaaa
507, 207, 511, -1, 197.00, 252.00, 8.00, 13, ABprpappapa
508, 503, 512, -1, 294.00, 174.00, 32.00, 13, ABalapppppa
