1, 1, 1, -1, 308.00, 209.00, 24.00, 15, ABaraappaa
2, 2, 2, -1, 268.00, 207.00, 24.00, 15, ABaraappapp
3, 3, 3, -1, 290.00, 209.00, 24.00, 15, ABaraappapa
4, 4, 4, -1, 253.00, 229.00, 23.00, 17, MSpaapapa
5, 5, 5, -1, 260.00, 211.00, 20.00, 15, ABaraapppaa
6, 6, 6, -1, 238.00, 242.00, 19.00, 13, ABaraappppp
7, 7, 7, -1, 267.00, 271.00, 20.00, 13, ABaraapappa
8, 8, 8, -1, 244.00, 257.00, 19.00, 15, ABaraapappp
9, 9, 9, -1, 263.00, 259.00, 23.00, 15, ABaraapapap
10, 10, 10, -1, 274.00, 253.00, 23.00, 17, ABaraapapaa
11, 11, 11, -1, 320.00, 220.00, 21.00, 15, ABaraapaaaa
12, 12, 12, -1, 314.00, 229.00, 25.00, 13, ABaraapaaap
13, 13, 13, -1, 288.00, 244.00, 25.00, 15, ABaraapaapp
14, 14, 14, -1, 302.00, 231.00, 24.00, 15, ABaraapaapa
15, 15, 15, -1, 313.00, 215.00, 12.00, 15, ABaraaappa
16, 16, 16, -1, 301.00, 206.00, 11.00, 13, ABaraaapppa
17, 17, 17, -1, 275.00, 203.00, 10.00, 11, ABaraaapppp
18, 18, 18, -1, 310.00, 211.00, 18.00, 13, ABaraaapaaa
19, 19, 19, -1, 283.00, 216.00, 19.00, 17, ABaraaapapa
20, 20, 20, -1, 298.00, 205.00, 20.00, 15, ABaraaapaap
21, 21, 21, -1, 274.00, 223.00, 21.00, 15, ABaraaapapp
22, 22, 22, -1, 310.00, 234.00, 17.00, 17, ABaraaaaaa
23, 23, 23, -1, 299.00, 211.00, 16.00, 17, ABaraaaaap
24, 24, 24, -1, 300.00, 228.00, 28.00, 11, ABaraaaapp
25, 25, 25, -1, 324.00, 216.00, 17.00, 15, ABaraaaapa
26, 26, 26, -1, 236.00, 245.00, 10.00, 15, ABarapapapp
27, 27, 27, -1, 256.00, 239.00, 11.00, 15, ABarapapapa
28, 28, 28, -1, 264.00, 232.00, 14.00, 13, ABarapapaap
29, 29, 29, -1, 269.00, 216.00, 15.00, 13, ABarapapaaa
30, 30, 30, -1, 218.00, 239.00, 12.00, 17, ABarapapppp
31, 31, 31, -1, 247.00, 226.00, 15.00, 17, ABarapappa
32, 32, 32, -1, 275.00, 224.00, 11.00, 15, ABarapaaap
33, 33, 33, -1, 291.00, 223.00, 13.00, 15, ABarapaaaa
34, 34, 34, -1, 279.00, 212.00, 17.00, 15, ABarapaapa
35, 35, 35, -1, 248.00, 222.00, 18.00, 15, ABarapaappp
36, 36, 36, -1, 264.00, 232.00, 18.00, 15, ABarapaappa
37, 37, 37, -1, 256.00, 202.00, 10.00, 13, ABarapppapa
38, 38, 38, -1, 232.00, 206.00, 9.00, 13, ABarapppapp
39, 39, 39, -1, 289.00, 195.00, 10.00, 15, ABarapppaaa
40, 40, 40, -1, 267.00, 187.00, 9.00, 13, ABarapppaap
41, 41, 41, -1, 259.00, 196.00, 13.00, 13, ABarappppap
42, 42, 42, -1, 273.00, 188.00, 14.00, 15, ABarappppaa
43, 43, 43, -1, 242.00, 195.00, 12.00, 11, ABarapppppa
44, 44, 44, -1, 227.00, 189.00, 12.00, 13, ABarapppppp
45, 45, 45, -1, 249.00, 211.00, 12.00, 15, ABarappaaap
46, 46, 46, -1, 264.00, 219.00, 10.00, 13, ABarappaaaa
47, 47, 47, -1, 243.00, 226.00, 10.00, 17, ABarappaap
48, 48, 48, -1, 215.00, 217.00, 9.00, 17, ABarappapap
49, 49, 49, -1, 220.00, 195.00, 10.00, 15, ABarappapaa
50, 50, 50, -1, 176.00, 209.00, 11.00, 15, ABarappappp
51, 51, 51, -1, 196.00, 207.00, 10.00, 15, ABarappappa
52, 52, 52, -1, 224.00, 174.00, 31.00, 17, ABarpapppa
53, 53, 53, -1, 220.00, 184.00, 34.00, 17, ABarpapppp
54, 54, 54, -1, 250.00, 174.00, 33.00, 17, ABarpappap
55, 55, 55, -1, 299.00, 187.00, 34.00, 17, ABarpapaaa
56, 56, 56, -1, 292.00, 195.00, 30.00, 13, ABarpapaapa
57, 57, 57, -1, 280.00, 195.00, 34.00, 13, ABarpapaapp
58, 58, 58, -1, 244.00, 216.00, 34.00, 17, ABarpapapp
59, 59, 59, -1, 283.00, 216.00, 35.00, 15, ABarpapapa
60, 60, 60, -1, 224.00, 264.00, 34.00, 17, ABarpaappp
61, 61, 61, -1, 263.00, 215.00, 35.00, 15, ABarpaapaa
62, 62, 62, -1, 252.00, 259.00, 34.00, 19, ABarpaapap
63, 63, 63, -1, 328.00, 208.00, 32.00, 17, ABarpaaaaa
64, 64, 64, -1, 306.00, 232.00, 35.00, 17, ABarpaaaap
65, 65, 65, -1, 279.00, 231.00, 35.00, 13, ABarpaaapp
66, 66, 66, -1, 304.00, 208.00, 35.00, 17, ABarpaaapa
67, 67, 67, -1, 240.00, 326.00, 33.00, 15, ABarppaaap
68, 68, 68, -1, 199.00, 329.00, 33.00, 15, ABarppaapp
69, 69, 69, -1, 141.00, 352.00, 31.00, 19, ABarppappa
70, 70, 70, -1, 110.00, 359.00, 22.00, 17, ABarppappp
71, 71, 71, -1, 191.00, 348.00, 31.00, 15, ABarppapap
72, 72, 72, -1, 218.00, 335.00, 33.00, 15, ABarppapaa
73, 73, 73, -1, 74.00, 253.00, 22.00, 15, ABarpppppp
74, 74, 74, -1, 101.00, 245.00, 30.00, 19, ABarpppppa
75, 75, 75, -1, 167.00, 195.00, 32.00, 15, ABarppppaa
76, 76, 76, -1, 141.00, 214.00, 32.00, 15, ABarppppap
77, 77, 77, -1, 192.00, 193.00, 34.00, 15, ABarpppaap
78, 78, 78, -1, 218.00, 212.00, 34.00, 13, ABarpppaaa
79, 79, 79, -1, 325.00, 188.00, 25.00, 15, ABalappppaa
80, 80, 80, -1, 307.00, 184.00, 28.00, 13, ABalappppap
81, 81, 81, -1, 282.00, 180.00, 32.00, 11, ABalapppppp
82, 82, 82, -1, 338.00, 200.00, 23.00, 11, ABalapppaaa
83, 83, 83, -1, 328.00, 195.00, 28.00, 13, ABalapppaap
84, 84, 84, -1, 318.00, 196.00, 30.00, 13, ABalapppapa
85, 85, 85, -1, 309.00, 184.00, 24.00, 15, ABalappapa
86, 537, 86, -1, 342.00, 206.00, 28.00, 13, ABalappaaa
87, 87, 87, -1, 320.00, 170.00, 24.00, 13, ABalappappa
88, 88, 88, -1, 304.00, 164.00, 26.00, 11, ABalappappp
89, 89, 89, -1, 313.00, 267.00, 35.00, 11, ABalapapppp
90, 90, 90, -1, 325.00, 263.00, 33.00, 11, ABalapapppa
91, 91, 91, -1, 334.00, 236.00, 26.00, 13, ABalapappaa
92, 92, 92, -1, 329.00, 253.00, 29.00, 13, ABalapappap
93, 93, 93, -1, 326.00, 228.00, 33.00, 15, ABalapapaa
94, 94, 94, -1, 316.00, 244.00, 33.00, 11, ABalapapapp
95, 95, 95, -1, 337.00, 249.00, 25.00, 15, ABalapaaaa
96, 96, 96, -1, 353.00, 247.00, 26.00, 13, ABalapaaapa
97, 97, 97, -1, 346.00, 260.00, 29.00, 15, ABalapaaapp
98, 98, 98, -1, 343.00, 250.00, 22.00, 17, ABalapaappa
99, 99, 99, -1, 330.00, 265.00, 19.00, 17, ABalapaapa
100, 100, 100, -1, 344.00, 268.00, 23.00, 15, ABalapaappp
101, 101, 101, -1, 314.00, 192.00, 15.00, 15, ABalaapaaa
102, 102, 102, -1, 247.00, 179.00, 10.00, 15, ABalaapapa
103, 103, 103, -1, 303.00, 191.00, 11.00, 17, ABalaapaap
104, 104, 104, -1, 301.00, 181.00, 14.00, 13, ABalaappapa
105, 105, 105, -1, 278.00, 181.00, 11.00, 13, ABalaappapp
106, 106, 106, -1, 277.00, 173.00, 12.00, 15, ABalaappaa
107, 107, 107, -1, 299.00, 172.00, 23.00, 13, ABalaappppp
108, 108, 108, -1, 312.00, 176.00, 20.00, 15, ABalaappppa
109, 109, 109, -1, 295.00, 185.00, 20.00, 13, ABalaapppa
110, 110, 110, -1, 340.00, 254.00, 13.00, 15, ABalaaaalp
111, 111, 111, -1, 328.00, 199.00, 18.00, 15, ABalaaaarr
112, 112, 112, -1, 341.00, 223.00, 17.00, 17, ABalaaaarl
113, 113, 113, -1, 333.00, 187.00, 21.00, 17, ABalaaappl
114, 114, 114, -1, 320.00, 184.00, 18.00, 15, ABalaaapprr
115, 115, 115, -1, 301.00, 175.00, 17.00, 15, ABalaaapprl
116, 116, 116, -1, 345.00, 218.00, 22.00, 17, ABalaaapar
117, 117, 439, -1, 353.00, 260.00, 20.00, 15, ABalaaapalr
118, 118, 117, -1, 157.00, 324.00, 10.00, 13, ABplppppapa
119, 119, 118, -1, 145.00, 312.00, 10.00, 13, ABplppppapp
120, 120, 119, -1, 173.00, 302.00, 10.00, 15, ABplppppaaa
121, 121, 120, -1, 162.00, 304.00, 11.00, 13, ABplppppaap
122, 122, 121, -1, 93.00, 322.00, 11.00, 13, ABplppppppp
123, 123, 122, -1, 104.00, 311.00, 10.00, 13, ABplppppppa
124, 124, 123, -1, 135.00, 310.00, 13.00, 15, ABplpppppap
125, 125, 124, -1, 157.00, 306.00, 16.00, 17, ABplpppppaa
126, 126, 125, -1, 117.00, 312.00, 12.00, 11, ABplpppapp
127, 127, 126, -1, 135.00, 322.00, 10.00, 13, ABplpppapaa
128, 128, 127, -1, 132.00, 343.00, 11.00, 13, ABplpppaapp
129, 129, 128, -1, 149.00, 339.00, 11.00, 13, ABplpppaapa
130, 130, 129, -1, 177.00, 324.00, 10.00, 15, ABplpppaaaa
131, 131, 130, -1, 165.00, 341.00, 12.00, 13, ABplpppaaap
132, 132, 131, -1, 183.00, 333.00, 12.00, 17, ABplppappp
133, 133, 132, -1, 200.00, 327.00, 11.00, 13, ABplppappap
134, 134, 133, -1, 221.00, 324.00, 14.00, 13, ABplppappaa
135, 135, 134, -1, 207.00, 336.00, 14.00, 15, ABplppapaap
136, 136, 135, -1, 192.00, 339.00, 17.00, 15, ABplppapap
137, 137, 136, -1, 209.00, 310.00, 9.00, 13, ABplppaappa
138, 138, 137, -1, 190.00, 313.00, 10.00, 13, ABplppaappp
139, 139, 138, -1, 265.00, 307.00, 18.00, 13, ABplppaaaaa
140, 140, 139, -1, 252.00, 312.00, 18.00, 13, ABplppaaap
141, 141, 140, -1, 246.00, 271.00, 9.00, 17, ABplpappaaa
142, 142, 141, -1, 233.00, 289.00, 10.00, 13, ABplpappaap
143, 143, 142, -1, 222.00, 276.00, 11.00, 15, ABplpappap
144, 144, 143, -1, 142.00, 297.00, 10.00, 13, ABplpappppp
145, 145, 144, -1, 161.00, 280.00, 10.00, 13, ABplpappppa
146, 146, 145, -1, 181.00, 280.00, 10.00, 13, ABplpapppaa
147, 147, 146, -1, 163.00, 262.00, 10.00, 13, ABplpapppap
148, 148, 147, -1, 213.00, 295.00, 10.00, 13, ABplpapappa
149, 149, 148, -1, 191.00, 295.00, 10.00, 13, ABplpapappp
150, 150, 149, -1, 223.00, 309.00, 11.00, 15, ABplpapapap
151, 151, 150, -1, 239.00, 302.00, 12.00, 13, ABplpapapaa
152, 152, 151, -1, 270.00, 299.00, 13.00, 11, ABplpapaapa
153, 153, 152, -1, 253.00, 312.00, 15.00, 13, ABplpapaapp
154, 154, 153, -1, 255.00, 299.00, 12.00, 15, ABplpapaaap
155, 155, 154, -1, 274.00, 286.00, 12.00, 11, ABplpapaaaa
156, 156, 155, -1, 244.00, 336.00, 16.00, 13, ABplpaaaapp
157, 157, 156, -1, 256.00, 325.00, 14.00, 17, ABplpaaaapa
158, 158, 157, -1, 295.00, 285.00, 16.00, 15, ABplpaaaaap
159, 159, 158, -1, 310.00, 274.00, 16.00, 13, ABplpaaaaaa
160, 160, 159, -1, 306.00, 303.00, 16.00, 17, ABplpaaapa
161, 161, 160, -1, 288.00, 309.00, 15.00, 13, ABplpaaappa
162, 162, 161, -1, 274.00, 314.00, 15.00, 13, ABplpaaappp
163, 163, 162, -1, 266.00, 308.00, 26.00, 13, ABplpaappap
164, 164, 163, -1, 282.00, 302.00, 23.00, 15, ABplpaappaa
165, 165, 164, -1, 294.00, 313.00, 18.00, 15, ABplpaapppa
166, 166, 165, -1, 302.00, 314.00, 20.00, 13, ABplpaapapp
167, 167, 166, -1, 279.00, 321.00, 19.00, 15, ABplpaapppp
168, 168, 167, -1, 305.00, 295.00, 20.00, 15, ABplpaapaap
169, 169, 168, -1, 303.00, 275.00, 19.00, 13, ABplpaapaaa
170, 170, 169, -1, 311.00, 311.00, 24.00, 15, ABplpaapapa
171, 171, 170, -1, 273.00, 328.00, 23.00, 17, ABplaappap
172, 172, 171, -1, 290.00, 322.00, 22.00, 13, ABplaappaa
173, 173, 172, -1, 260.00, 330.00, 26.00, 15, ABplaapppa
174, 174, 173, -1, 231.00, 346.00, 23.00, 17, ABplaapppp
175, 175, 174, -1, 342.00, 230.00, 29.00, 15, ABplaapaaaa
176, 176, 175, -1, 340.00, 254.00, 32.00, 13, ABplaapaaap
177, 177, 176, -1, 343.00, 267.00, 33.00, 15, ABplaapaapa
178, 178, 177, -1, 327.00, 279.00, 30.00, 17, ABplaapaapp
179, 179, 178, -1, 292.00, 294.00, 30.00, 15, ABplaapappp
180, 180, 179, -1, 309.00, 278.00, 29.00, 13, ABplaapappa
181, 181, 180, -1, 304.00, 291.00, 27.00, 13, ABplaapapap
182, 182, 181, -1, 311.00, 274.00, 26.00, 13, ABplaapapaa
183, 183, 182, -1, 298.00, 257.00, 33.00, 13, ABplaaaaapp
184, 184, 183, -1, 314.00, 255.00, 30.00, 13, ABplaaaaapa
185, 185, 184, -1, 327.00, 248.00, 35.00, 15, ABplaaaaaa
186, 186, 185, -1, 268.00, 259.00, 34.00, 17, ABplaaaapp
187, 187, 186, -1, 284.00, 251.00, 35.00, 15, ABplaaaapa
189, 189, 188, -1, 284.00, 304.00, 33.00, 15, ABplaaappa
190, 190, 189, -1, 268.00, 306.00, 34.00, 13, ABplaaappp
191, 191, 190, -1, 301.00, 297.00, 33.00, 15, ABplaaapap
192, 192, 191, -1, 310.00, 279.00, 33.00, 15, ABplaaapaa
193, 193, 192, -1, 135.00, 350.00, 14.00, 17, ABplappppa
194, 194, 193, -1, 104.00, 335.00, 12.00, 15, ABplappppp
195, 195, 194, -1, 119.00, 346.00, 16.00, 17, ABplapppaa
196, 196, 195, 196, 123.00, 332.00, 13.00, 15, ABplapppap
197, 197, 197, -1, 197.00, 355.00, 24.00, 15, ABplappaaa
198, 198, 198, -1, 176.00, 360.00, 25.00, 15, ABplappaap
199, 199, 199, -1, 163.00, 363.00, 22.00, 15, ABplappapp
200, 200, 200, -1, 166.00, 348.00, 32.00, 17, ABplappapa
201, 201, 201, -1, 210.00, 352.00, 26.00, 15, ABplapaapp
202, 202, 202, -1, 246.00, 340.00, 26.00, 15, ABplapaapa
203, 203, 203, -1, 246.00, 292.00, 34.00, 15, ABarppaaaa
204, 204, 204, -1, 240.00, 332.00, 30.00, 15, ABplapaaapp
205, 205, 205, -1, 251.00, 316.00, 29.00, 15, ABplapaaapa
206, 206, 206, -1, 104.00, 345.00, 18.00, 17, ABplapappp
207, 207, 207, -1, 143.00, 370.00, 22.00, 15, ABplapapap
208, 208, 208, -1, 132.00, 363.00, 18.00, 17, ABplapappa
209, 209, 209, -1, 125.00, 359.00, 27.00, 19, ABplapapaa
210, 210, 210, -1, 230.00, 210.00, 12.00, 11, ABprpapaaaa
211, 211, 211, -1, 199.00, 201.00, 13.00, 13, ABprpapaapp
212, 212, 212, -1, 184.00, 236.00, 11.00, 13, ABprpapappa
213, 213, 213, -1, 174.00, 256.00, 10.00, 13, ABprpapappp
214, 214, 214, -1, 184.00, 224.00, 12.00, 13, ABprpapapap
215, 215, 215, -1, 202.00, 222.00, 12.00, 11, ABprpapapaa
216, 216, 216, -1, 127.00, 287.00, 12.00, 13, ABprpappppp
217, 217, 217, -1, 149.00, 287.00, 13.00, 13, ABprpappppa
218, 218, 218, -1, 201.00, 243.00, 11.00, 13, ABprpapppaa
219, 219, 219, -1, 191.00, 260.00, 11.00, 15, ABprpapppap
220, 220, 220, -1, 199.00, 277.00, 10.00, 17, ABprpappapp
221, 221, 221, -1, 216.00, 235.00, 10.00, 13, ABprpappaap
222, 222, 222, -1, 233.00, 244.00, 9.00, 19, ABprpappaaa
223, 223, 223, -1, 242.00, 187.00, 16.00, 13, ABprpaaaaap
224, 224, 224, -1, 258.00, 189.00, 18.00, 15, ABprpaapaaa
225, 225, 225, -1, 183.00, 192.00, 12.00, 13, ABprpaaaapp
226, 226, 226, -1, 207.00, 189.00, 11.00, 15, ABprpaaaapa
227, 227, 227, -1, 232.00, 176.00, 14.00, 13, ABprpaaappa
228, 228, 228, -1, 222.00, 199.00, 14.00, 13, ABprpapaapa
229, 229, 229, -1, 220.00, 183.00, 15.00, 13, ABprpaaappp
230, 230, 230, -1, 244.00, 166.00, 15.00, 15, ABprpaaapa
231, 231, 231, -1, 247.00, 176.00, 20.00, 15, ABprpaapaap
232, 232, 232, -1, 244.00, 157.00, 22.00, 15, ABprpaapapa
233, 233, 233, -1, 233.00, 160.00, 19.00, 15, ABprpaapapp
234, 234, 234, -1, 229.00, 164.00, 17.00, 15, ABprpaapppa
235, 235, 235, -1, 216.00, 171.00, 18.00, 13, ABprpaapppp
236, 236, 236, -1, 220.00, 193.00, 26.00, 13, ABprpaappap
237, 237, 237, -1, 231.00, 184.00, 22.00, 15, ABprpaappaa
238, 238, 238, -1, 83.00, 264.00, 10.00, 15, ABprpppaapp
239, 239, 239, -1, 106.00, 254.00, 11.00, 15, ABprpppaapa
240, 240, 240, -1, 114.00, 243.00, 11.00, 13, ABprpppaaap
241, 241, 241, -1, 138.00, 242.00, 11.00, 13, ABprpppaaaa
242, 242, 242, -1, 112.00, 274.00, 10.00, 13, ABprpppapaa
243, 243, 243, -1, 108.00, 289.00, 11.00, 11, ABprpppapap
244, 244, 244, -1, 111.00, 301.00, 11.00, 13, ABprpppapp
245, 245, 245, -1, 132.00, 259.00, 10.00, 15, ABprppppapa
246, 246, 246, -1, 126.00, 280.00, 10.00, 13, ABprppppapp
247, 247, 247, -1, 148.00, 267.00, 10.00, 15, ABprppppaaa
248, 248, 248, -1, 143.00, 271.00, 11.00, 15, ABprppppaap
249, 249, 249, -1, 79.00, 294.00, 11.00, 15, ABprppppppp
250, 250, 250, -1, 95.00, 296.00, 9.00, 13, ABprppppppa
251, 251, 251, -1, 127.00, 260.00, 15.00, 15, ABprpppppaa
252, 252, 252, -1, 116.00, 274.00, 14.00, 13, ABprpppppap
253, 253, 253, -1, 185.00, 209.00, 14.00, 19, ABprppaapa
254, 254, 254, -1, 173.00, 237.00, 10.00, 13, ABprppaappa
255, 255, 255, -1, 152.00, 241.00, 10.00, 13, ABprppaappp
256, 256, 256, -1, 211.00, 189.00, 17.00, 13, ABprppaaaaa
257, 257, 257, -1, 196.00, 193.00, 16.00, 17, ABprppaaaap
258, 258, 258, -1, 194.00, 179.00, 19.00, 11, ABprppaaap
259, 259, 259, -1, 166.00, 199.00, 15.00, 15, ABprppapaaa
260, 260, 260, -1, 149.00, 206.00, 16.00, 13, ABprppapaap
261, 261, 261, -1, 131.00, 222.00, 14.00, 17, ABprppapap
262, 262, 262, -1, 125.00, 231.00, 12.00, 15, ABprppappp
263, 263, 263, -1, 165.00, 214.00, 12.00, 13, ABprppappaa
264, 263, 264, -1, 150.00, 224.00, 12.00, 13, ABprppappap
265, 264, 265, -1, 333.00, 184.00, 30.00, 15, ABpraapaaaa
266, 265, 266, -1, 314.00, 177.00, 33.00, 13, ABpraapaaap
267, 266, 267, -1, 295.00, 170.00, 29.00, 15, ABpraapaapa
268, 267, 268, -1, 252.00, 171.00, 26.00, 13, ABpraapapap
269, 268, 269, -1, 271.00, 180.00, 24.00, 15, ABpraapapaa
270, 269, 270, -1, 243.00, 172.00, 30.00, 15, ABpraapappp
271, 270, 271, -1, 263.00, 174.00, 29.00, 15, ABpraapappa
272, 271, 272, -1, 158.00, 191.00, 21.00, 15, ABpraapppp
273, 272, 273, -1, 192.00, 176.00, 23.00, 17, ABpraapppa
274, 273, 274, -1, 207.00, 170.00, 21.00, 17, ABpraappap
275, 274, 275, -1, 223.00, 164.00, 22.00, 15, ABpraappaa
276, 275, 276, -1, 283.00, 168.00, 25.00, 15, ABpraaapap
277, 276, 277, -1, 279.00, 181.00, 20.00, 17, ABpraaapaa
278, 277, 278, -1, 264.00, 181.00, 21.00, 13, ABpraaappaa
279, 278, 279, -1, 248.00, 174.00, 23.00, 13, ABpraaappap
280, 279, 280, -1, 241.00, 189.00, 26.00, 15, ABpraaapppa
281, 280, 281, -1, 226.00, 177.00, 27.00, 17, ABpraaapppp
282, 281, 282, -1, 287.00, 161.00, 19.00, 17, ABpraaaaap
283, 282, 283, -1, 280.00, 166.00, 15.00, 19, ABpraaaaaa
284, 283, 284, -1, 269.00, 174.00, 17.00, 13, ABpraaaapav
285, 284, 285, -1, 263.00, 160.00, 20.00, 13, ABpraaaapad
286, 285, 286, -1, 277.00, 158.00, 22.00, 11, ABpraaaappa
287, 286, 287, -1, 264.00, 158.00, 25.00, 15, ABpraaaappp
288, 287, 288, -1, 109.00, 222.00, 20.00, 15, ABprappapp
289, 288, 289, -1, 119.00, 224.00, 30.00, 15, ABprappapa
290, 289, 290, -1, 117.00, 211.00, 23.00, 15, ABprappaap
291, 290, 291, -1, 136.00, 204.00, 20.00, 17, ABprappaaa
292, 291, 292, -1, 82.00, 259.00, 17.00, 15, ABprapppaa
293, 292, 293, -1, 93.00, 268.00, 12.00, 17, ABprapppap
294, 293, 294, -1, 73.00, 276.00, 14.00, 17, ABprappppp
295, 294, 295, -1, 85.00, 249.00, 13.00, 19, ABprappppa
296, 295, 296, -1, 201.00, 195.00, 27.00, 15, ABprapaaapa
297, 296, 297, -1, 186.00, 189.00, 28.00, 15, ABprapaaapp
298, 297, 298, -1, 210.00, 198.00, 33.00, 13, ABprapaaaap
299, 297, 299, -1, 220.00, 205.00, 30.00, 13, ABprapaaaaa
300, 298, 300, -1, 143.00, 195.00, 25.00, 15, ABprapaapp
301, 299, 301, -1, 175.00, 182.00, 23.00, 15, ABprapaapa
302, 300, 302, -1, 92.00, 240.00, 16.00, 15, ABprapappa
303, 301, 303, -1, 68.00, 278.00, 18.00, 15, ABprapapppp
304, 301, 304, -1, 75.00, 269.00, 21.00, 15, ABprapapppa
305, 302, 305, -1, 92.00, 233.00, 22.00, 15, ABprapapap
306, 303, 306, -1, 83.00, 255.00, 27.00, 17, ABprapapaa
307, 304, 307, -1, 230.00, 209.00, 27.00, 13, MSppppap
308, 305, 308, -1, 221.00, 201.00, 19.00, 11, MSppppaa
309, 306, 309, -1, 238.00, 219.00, 30.00, 15, MSpppppa
310, 307, 310, -1, 205.00, 223.00, 31.00, 17, MSpppppp
311, 308, 311, -1, 207.00, 222.00, 19.00, 13, MSpppaaa
312, 309, 312, -1, 164.00, 228.00, 20.00, 17, MSpppaap
313, 310, 313, -1, 192.00, 212.00, 18.00, 13, MSpppapp
314, 311, 314, -1, 212.00, 210.00, 18.00, 11, MSpppapa
315, 312, 315, -1, 211.00, 216.00, 13.00, 13, ABprpapaaap
316, 313, 316, -1, 194.00, 231.00, 15.00, 15, MSppaapp
317, 314, 317, -1, 232.00, 205.00, 16.00, 13, MSppaapa
318, 315, 318, -1, 287.00, 197.00, 15.00, 13, MSppaaaa
319, 316, 319, -1, 290.00, 191.00, 24.00, 13, MSppaaap
320, 317, 320, -1, 269.00, 188.00, 28.00, 15, MSppappa
321, 318, 321, -1, 251.00, 195.00, 23.00, 15, MSppapaa
322, 319, 322, -1, 236.00, 191.00, 18.00, 15, MSppapap
323, 320, 323, -1, 196.00, 260.00, 15.00, 15, MSpapappp
324, 321, 324, -1, 215.00, 256.00, 16.00, 15, MSpapappa
325, 322, 325, -1, 200.00, 245.00, 18.00, 15, MSpapapa
326, 323, 326, -1, 237.00, 236.00, 17.00, 15, MSpapaaaa
327, 324, 327, -1, 222.00, 239.00, 16.00, 13, MSpapaaap
328, 325, 328, -1, 221.00, 243.00, 20.00, 15, MSpapaapa
330, 327, 330, -1, 206.00, 243.00, 22.00, 15, MSpapaapp
331, 328, 331, -1, 170.00, 308.00, 13.00, 15, MSpappaa
332, 329, 332, -1, 149.00, 234.00, 16.00, 15, MSpapppp
333, 330, 333, -1, 169.00, 221.00, 17.00, 19, MSpapppa
334, 331, 334, -1, 255.00, 237.00, 27.00, 15, MSpaaappa
335, 332, 335, -1, 235.00, 238.00, 27.00, 15, MSpaaappp
336, 333, 336, -1, 243.00, 251.00, 30.00, 17, MSpaaapa
337, 334, 337, -1, 281.00, 213.00, 28.00, 15, MSpaaaapa
338, 335, 338, -1, 264.00, 214.00, 29.00, 15, MSpaaaapp
339, 336, 339, -1, 278.00, 216.00, 31.00, 17, MSpaaaaa
340, 337, 340, -1, 231.00, 216.00, 19.00, 13, ABaraappppa
341, 338, 341, -1, 246.00, 219.00, 21.00, 17, ABaraapppap
342, 339, 342, 343, 251.00, 217.00, 26.00, 17, MSpaapaa
343, 340, 344, -1, 183.00, 256.00, 24.00, 23, Earap
344, 341, 345, -1, 264.00, 299.00, 21.00, 17, MSapppaa
345, 342, 346, -1, 259.00, 283.00, 26.00, 15, MSapppap
346, 343, 347, -1, 244.00, 282.00, 30.00, 15, MSappppa
347, 344, 348, -1, 213.00, 307.00, 30.00, 15, MSappppp
348, 345, 349, -1, 182.00, 315.00, 18.00, 17, MSappaap
349, 346, 350, -1, 231.00, 298.00, 21.00, 15, MSappaaa
350, 347, 351, -1, 243.00, 302.00, 20.00, 11, MSappapp
351, 348, 352, -1, 254.00, 294.00, 19.00, 11, MSappapa
352, 349, 353, -1, 293.00, 270.00, 29.00, 17, MSapappa
353, 350, 354, -1, 271.00, 270.00, 30.00, 19, MSapappp
354, 351, 355, -1, 275.00, 292.00, 18.00, 13, MSapapap
355, 352, 356, -1, 279.00, 278.00, 23.00, 15, MSapapaa
356, 353, 357, -1, 224.00, 297.00, 15.00, 15, MSapaapp
357, 354, 358, -1, 284.00, 279.00, 17.00, 11, MSapaapa
358, 355, 359, -1, 319.00, 252.00, 16.00, 15, MSapaaaa
359, 356, 360, -1, 317.00, 254.00, 24.00, 15, MSapaaap
360, 357, 361, -1, 308.00, 211.00, 28.00, 15, MSaaaaapa
361, 358, 362, -1, 304.00, 231.00, 32.00, 15, MSaaaaapp
362, 359, 363, -1, 326.00, 211.00, 25.00, 15, MSaaaaaa
363, 360, 364, -1, 288.00, 231.00, 31.00, 13, MSaaaapaa
364, 361, 365, -1, 270.00, 241.00, 30.00, 17, MSaaaapap
365, 362, 366, -1, 248.00, 263.00, 28.00, 13, MSaaaappp
366, 363, 367, -1, 271.00, 251.00, 28.00, 15, MSaaaappa
367, 364, 368, -1, 249.00, 261.00, 25.00, 13, MSaaapapp
368, 365, 369, -1, 285.00, 252.00, 28.00, 11, MSaaapaap
370, 367, 371, -1, 226.00, 269.00, 26.00, 13, MSaaappa
371, 368, 372, -1, 230.00, 259.00, 27.00, 13, MSaaappp
372, 369, 373, -1, 188.00, 314.00, 15.00, 15, MSaapppp
373, 370, 374, -1, 209.00, 312.00, 16.00, 17, MSaapppa
374, 371, 375, -1, 245.00, 278.00, 17.00, 13, MSaapaaap
375, 372, 376, -1, 260.00, 273.00, 16.00, 13, MSaapaaaa
376, 373, 377, -1, 208.00, 283.00, 16.00, 13, MSaapappp
377, 374, 378, -1, 229.00, 275.00, 17.00, 15, MSaapappa
378, 375, 379, -1, 223.00, 279.00, 20.00, 15, MSaapapa
379, 376, 380, -1, 203.00, 283.00, 21.00, 19, Ealpa
380, 377, 381, -1, 167.00, 300.00, 22.00, 17, Ealpp
381, 378, 382, -1, 133.00, 304.00, 20.00, 21, Eplpa
382, 379, 383, -1, 127.00, 337.00, 19.00, 17, Cappap
383, 380, 384, -1, 155.00, 339.00, 27.00, 19, Cappaa
384, 381, 385, -1, 118.00, 338.00, 25.00, 19, Capppa
385, 382, 386, -1, 103.00, 320.00, 16.00, 17, Capppp
386, 383, 387, -1, 146.00, 346.00, 23.00, 19, Capapa
387, 384, 388, -1, 151.00, 329.00, 14.00, 17, Capapp
388, 385, 389, -1, 163.00, 335.00, 18.00, 19, Capaap
389, 386, 390, -1, 189.00, 332.00, 22.00, 19, Capaaa
390, 387, 391, -1, 88.00, 316.00, 28.00, 21, Caaapp
391, 388, 392, -1, 74.00, 317.00, 17.00, 17, Caappd
392, 389, 393, -1, 77.00, 327.00, 14.00, 15, Caappv
393, 390, 394, -1, 94.00, 301.00, 15.00, 15, Caapaa
394, 391, 395, -1, 86.00, 308.00, 11.00, 15, Caapap
395, 392, 396, -1, 67.00, 304.00, 20.00, 17, Cpappd
396, 393, 397, -1, 72.00, 303.00, 14.00, 17, Cpappv
397, 394, 398, -1, 78.00, 330.00, 22.00, 19, Cpapaa
398, 395, 399, -1, 90.00, 295.00, 32.00, 23, Cpaapp
399, 396, 400, -1, 130.00, 240.00, 19.00, 19, Cppaap
400, 397, 401, -1, 147.00, 221.00, 22.00, 19, Cppaaa
401, 398, 402, -1, 118.00, 241.00, 25.00, 21, Cppapa
402, 399, 403, -1, 112.00, 251.00, 15.00, 19, Cppapp
403, 400, 404, -1, 120.00, 248.00, 29.00, 15, Cpppaap
404, 401, 405, -1, 136.00, 222.00, 27.00, 15, Cpppaaa
405, 402, 406, -1, 94.00, 265.00, 18.00, 15, Cpppapp
406, 402, 407, -1, 104.00, 254.00, 21.00, 15, Cpppapa
407, 403, 408, -1, 237.00, 317.00, 23.00, 15, Daapa
408, 404, 409, -1, 221.00, 329.00, 20.00, 17, Daapp
409, 405, 410, -1, 250.00, 293.00, 24.00, 15, Daaaa
410, 406, 411, -1, 233.00, 306.00, 27.00, 15, Daaap
411, 407, 412, -1, 193.00, 317.00, 30.00, 19, Dappa
412, 408, 413, -1, 159.00, 328.00, 30.00, 17, Dappp
413, 409, 414, -1, 171.00, 204.00, 19.00, 15, Dpapp
414, 410, 415, -1, 196.00, 203.00, 22.00, 15, Dpapa
415, 411, 416, -1, 206.00, 213.00, 28.00, 15, Dpaap
416, 412, 417, -1, 216.00, 207.00, 22.00, 15, Dpaaa
417, 413, 418, -1, 145.00, 237.00, 31.00, 19, Dpppp
418, 414, 419, -1, 169.00, 224.00, 28.00, 17, Dpppa
419, 415, 420, -1, 189.00, 208.00, 25.00, 19, Dppaa
420, 416, 421, -1, 159.00, 208.00, 25.00, 15, Dppap
421, 417, 422, -1, 157.00, 252.00, 14.00, 19, Z2
423, 419, 424, -1, 328.00, 294.00, 24.00, 13, ABalpppappa
424, 420, 425, -1, 320.00, 293.00, 27.00, 13, ABalpppappp
425, 421, 426, -1, 304.00, 276.00, 21.00, 11, ABalpppppaa
426, 422, 427, -1, 293.00, 287.00, 23.00, 13, ABalpppppap
427, 423, 428, -1, 276.00, 293.00, 26.00, 15, ABalppppppa
428, 424, 429, -1, 289.00, 310.00, 27.00, 15, ABalppppppp
429, 425, 430, -1, 338.00, 282.00, 27.00, 13, ABalppppapp
430, 426, 431, -1, 345.00, 270.00, 26.00, 17, ABalppppapa
431, 427, 432, -1, 317.00, 272.00, 19.00, 13, ABalppppaad
432, 428, 433, -1, 321.00, 277.00, 23.00, 13, ABalppppaav
433, 429, 434, -1, 347.00, 276.00, 18.00, 13, ABalpppaaaa
434, 430, 435, -1, 327.00, 289.00, 16.00, 13, ABalpppaaap
435, 431, 436, -1, 341.00, 284.00, 22.00, 17, ABalpppaap
436, 432, 437, -1, 323.00, 291.00, 18.00, 15, ABalpppapad
437, 433, 438, -1, 322.00, 302.00, 21.00, 15, ABalpppapav
439, 435, 440, -1, 350.00, 259.00, 16.00, 13, ABalppaaaa
440, 436, 441, -1, 335.00, 278.00, 14.00, 13, ABalppaaapp
441, 437, 442, -1, 296.00, 300.00, 13.00, 13, ABalppaappp
442, 438, 443, -1, 317.00, 291.00, 14.00, 15, ABalppaappa
443, 439, 444, -1, 317.00, 284.00, 12.00, 15, ABalppaapa
444, 440, 445, -1, 290.00, 281.00, 12.00, 13, ABalppapppa
445, 441, 446, -1, 283.00, 299.00, 11.00, 15, ABalppapppp
446, 442, 447, -1, 306.00, 272.00, 14.00, 13, ABalppappap
447, 443, 448, -1, 323.00, 263.00, 15.00, 13, ABalppappaa
448, 444, 449, -1, 300.00, 269.00, 9.00, 13, ABalppapapa
449, 445, 450, -1, 282.00, 291.00, 9.00, 15, ABalppapapp
450, 446, 451, -1, 330.00, 266.00, 12.00, 13, ABalppapaaa
451, 447, 452, -1, 312.00, 274.00, 11.00, 13, ABalppapaap
452, 448, 453, -1, 256.00, 303.00, 10.00, 17, ABalpapapap
453, 449, 454, -1, 266.00, 279.00, 10.00, 15, ABalpapapaa
454, 450, 455, -1, 249.00, 322.00, 11.00, 15, ABalpapappa
455, 451, 456, -1, 229.00, 332.00, 13.00, 17, ABalpapappp
456, 452, 457, -1, 265.00, 247.00, 10.00, 13, ABalpapaapp
457, 453, 458, -1, 281.00, 240.00, 10.00, 13, ABalpapaapa
458, 454, 459, -1, 305.00, 256.00, 10.00, 13, ABalpapaaaa
459, 455, 460, -1, 281.00, 263.00, 10.00, 17, ABalpapaaap
460, 456, 461, -1, 265.00, 259.00, 12.00, 17, ABalpappapa
461, 457, 462, -1, 283.00, 252.00, 14.00, 15, ABalpappaap
462, 458, 463, -1, 282.00, 234.00, 16.00, 11, ABalpappaaa
463, 459, 464, -1, 235.00, 263.00, 12.00, 19, ABalpappapp
464, 460, 465, -1, 270.00, 261.00, 16.00, 19, ABalpapppa
465, 461, 466, -1, 276.00, 256.00, 19.00, 17, ABalpaaapp
466, 462, 467, -1, 294.00, 251.00, 18.00, 19, ABalpaaapa
467, 463, 468, -1, 295.00, 248.00, 11.00, 17, ABalpaaaap
468, 464, 469, -1, 295.00, 245.00, 14.00, 13, ABalpaaaaap
469, 464, 470, -1, 309.00, 235.00, 13.00, 13, ABalpaaaaaa
470, 465, 471, -1, 332.00, 231.00, 12.00, 15, ABalpaapppa
471, 466, 472, -1, 322.00, 255.00, 11.00, 13, ABalpaapppp
472, 467, 473, -1, 323.00, 227.00, 14.00, 13, ABalpaappaa
473, 468, 474, -1, 313.00, 238.00, 11.00, 15, ABalpaappap
474, 469, 475, -1, 290.00, 254.00, 21.00, 15, ABalpaapapp
475, 470, 476, -1, 301.00, 245.00, 21.00, 17, ABalpaapapa
476, 471, 477, -1, 317.00, 243.00, 21.00, 15, ABalpaapaap
477, 472, 478, -1, 325.00, 234.00, 19.00, 13, ABalpaapaaa
478, 473, 479, -1, 173.00, 266.00, 27.00, 23, Epraa
480, 475, 481, -1, 203.00, 241.00, 24.00, 11, MSpaapp
481, 476, 482, -1, 154.00, 262.00, 25.00, 23, Earpp
482, 477, 483, -1, 187.00, 283.00, 25.00, 19, Ealap
483, 478, 484, -1, 209.00, 279.00, 26.00, 15, Ealaa
484, 479, 485, -1, 164.00, 288.00, 27.00, 21, Eplaa
485, 480, 486, -1, 143.00, 303.00, 24.00, 17, Eplap
486, 481, 487, -1, 139.00, 277.00, 18.00, 15, Eprpp
487, 482, 488, -1, 190.00, 337.00, 27.00, 15, Dapap
488, 483, 489, -1, 214.00, 327.00, 24.00, 17, Dapaa
489, 484, 490, -1, 227.00, 275.00, 22.00, 15, MSaapaapp
490, 485, 491, -1, 242.00, 270.00, 22.00, 15, MSaapaapa
491, 486, 492, -1, 159.00, 210.00, 31.00, 15, ABarpppapp
492, 487, 493, 494, 237.00, 317.00, 14.00, 15, ABplppaapa
493, 488, 495, -1, 70.00, 295.00, 26.00, 15, Cpapap
494, 489, 496, -1, 210.00, 246.00, 28.00, 23, Earaa
495, 490, 497, -1, 341.00, 242.00, 16.00, 15, ABalaaaala
496, 491, 498, -1, 268.00, 181.00, 35.00, 15, ABarpappaa
498, 493, 500, -1, 95.00, 274.00, 26.00, 17, Cppppa
500, 495, 502, -1, 187.00, 262.00, 18.00, 19, Earpa
501, 496, 503, -1, 251.00, 196.00, 31.00, 15, MSppappp
502, 497, 504, -1, 127.00, 278.00, 23.00, 23, Eprpa
503, 498, 505, -1, 233.00, 247.00, 34.00, 19, ABarpaappa
504, 499, 506, -1, 218.00, 302.00, 34.00, 17, ABarppaapa
505, 500, 507, -1, 130.00, 297.00, 16.00, 21, Eplpp
506, 501, 508, -1, 202.00, 282.00, 13.00, 13, MSaappap
507, 502, 509, -1, 183.00, 290.00, 15.00, 21, Z3
508, 503, 510, -1, 252.00, 178.00, 12.00, 17, ABalaapapp
509, 504, 511, -1, 212.00, 269.00, 13.00, 13, MSaappaa
511, 506, 513, -1, 252.00, 325.00, 20.00, 15, ABplppaaaap
512, 507, 514, -1, 126.00, 306.00, 9.00, 13, ABplpppapap
513, 508, 515, -1, 274.00, 167.00, 30.00, 15, ABpraapaapp
514, 509, 516, -1, 228.00, 335.00, 17.00, 15, ABplppapaaa
515, 510, 517, -1, 327.00, 230.00, 30.00, 13, ABalapapapa
516, 511, 518, -1, 345.00, 240.00, 19.00, 15, ABalaaapall
517, 512, 519, -1, 140.00, 279.00, 27.00, 19, Eprap
518, 513, 520, -1, 262.00, 192.00, 16.00, 15, ABprpaaaaaa
519, 514, 521, -1, 192.00, 265.00, 33.00, 19, Cpaaaa
520, 515, 522, -1, 162.00, 275.00, 13.00, 15, MSpappap
521, 516, 523, -1, 232.00, 236.00, 24.00, 15, MSpaapapp
523, 518, 525, -1, 188.00, 219.00, 35.00, 15, ABarpppapa
524, 519, 526, -1, 91.00, 284.00, 17.00, 19, Cppppp
525, 520, 527, -1, 253.00, 296.00, 29.00, 13, ABplapaaaaa
527, 522, 529, -1, 157.00, 277.00, 33.00, 21, Cpaaap
529, 524, 531, -1, 249.00, 304.00, 33.00, 17, ABplapaaaap
530, 526, 532, -1, 354.00, 269.00, 15.00, 13, ABalppaaapa
531, 527, 533, -1, 242.00, 268.00, 14.00, 17, ABalpappppp
532, 528, 537, -1, 241.00, 230.00, 13.00, 16, ABarapapppa
533, 525, 538, -1, 125.00, 297.00, 33.00, 16, Cpaapa
534, 529, 539, -1, 111.00, 312.00, 33.00, 15, Caaapa
535, 530, 540, -1, 139.00, 285.00, 33.38, 16, Caaaap
536, 531, 541, -1, 193.00, 309.00, 33.00, 17, Caaaaa
537, 532, 542, -1, 200.00, 250.00, 8.00, 13, ABprpappapa
538, 533, 543, -1, 263.00, 259.00, 13.00, 15, ABalpappppa
539, 534, 544, -1, 296.00, 172.00, 31.00, 13, ABalapppppa
540, 535, 545, -1, 340.00, 217.00, 26.71, 17, ABalappaap
541, 536, 546, -1, 303.00, 202.00, 32.91, 12, ABalapppapp
542, 538, 547, -1, 269.00, 254.00, 27.00, 13, MSaaapapa
543, 539, 548, -1, 302.00, 246.00, 27.50, 13, MSaaapaaa
