1, 1, 1, -1, 313.00, 209.00, 22.00, 13, ABaraappaaa
2, 2, 2, -1, 299.00, 212.00, 24.00, 13, ABaraappaap
3, 3, 3, -1, 268.00, 207.00, 24.00, 17, ABaraappapp
4, 4, 4, -1, 288.00, 207.00, 24.00, 15, ABaraappapa
5, 5, 5, -1, 249.00, 232.00, 24.00, 13, MSpaapapa
6, 6, 6, -1, 252.00, 216.00, 21.00, 15, ABaraapppaa
7, 7, 7, -1, 238.00, 241.00, 20.00, 13, ABaraappppp
8, 8, 8, -1, 257.00, 274.00, 21.00, 13, ABaraapappa
9, 9, 9, -1, 247.00, 255.00, 19.00, 15, ABaraapappp
10, 10, 10, -1, 258.00, 265.00, 24.00, 17, ABaraapapap
11, 11, 11, -1, 272.00, 261.00, 24.00, 17, ABaraapapaa
12, 12, 12, -1, 318.00, 224.00, 22.00, 13, ABaraapaaaa
13, 13, 13, -1, 313.00, 228.00, 25.00, 13, ABaraapaaap
14, 14, 14, -1, 291.00, 247.00, 25.00, 15, ABaraapaapp
15, 15, 15, -1, 302.00, 233.00, 24.00, 13, ABaraapaapa
16, 16, 16, -1, 305.00, 212.00, 10.00, 17, ABaraaappap
17, 17, 17, -1, 324.00, 215.00, 14.00, 13, ABaraaappaa
18, 18, 18, -1, 314.00, 202.00, 13.00, 13, ABaraaapppa
19, 19, 19, -1, 280.00, 208.00, 9.00, 15, ABaraaapppp
20, 20, 20, -1, 309.00, 212.00, 18.00, 13, ABaraaapaaa
21, 21, 21, -1, 281.00, 213.00, 21.00, 15, ABaraaapapa
22, 22, 22, -1, 297.00, 207.00, 20.00, 15, ABaraaapaap
23, 23, 23, -1, 267.00, 225.00, 21.00, 15, ABaraaapapp
24, 24, 24, -1, 295.00, 235.00, 18.00, 13, ABaraaaaaap
25, 25, 25, -1, 318.00, 231.00, 16.00, 13, ABaraaaaaaa
26, 26, 26, -1, 291.00, 213.00, 18.00, 13, ABaraaaaapp
27, 27, 27, -1, 309.00, 213.00, 15.00, 13, ABaraaaaapa
28, 28, 28, -1, 293.00, 227.00, 26.00, 11, ABaraaaapp
29, 29, 29, -1, 322.00, 214.00, 18.00, 17, ABaraaaapa
30, 30, 30, -1, 240.00, 253.00, 10.00, 15, ABarapapapp
31, 31, 31, -1, 256.00, 240.00, 11.00, 15, ABarapapapa
32, 32, 32, -1, 263.00, 239.00, 15.00, 13, ABarapapaap
33, 33, 33, -1, 267.00, 221.00, 15.00, 13, ABarapapaaa
34, 34, 34, -1, 222.00, 245.00, 13.00, 17, ABarapapppp
35, 572, 35, -1, 247.00, 226.00, 15.00, 15, ABarapappa
36, 36, 36, -1, 281.00, 228.00, 12.00, 17, ABarapaaap
37, 37, 37, -1, 280.00, 230.00, 14.00, 11, ABarapaaaap
38, 38, 38, -1, 275.00, 217.00, 17.00, 19, ABarapaapa
39, 39, 39, -1, 261.00, 233.00, 19.00, 15, ABarapaappa
40, 40, 40, -1, 258.00, 200.00, 10.00, 13, ABarapppapa
41, 41, 41, -1, 238.00, 213.00, 10.00, 13, ABarapppapp
42, 42, 42, -1, 289.00, 196.00, 11.00, 13, ABarapppaaa
43, 43, 43, -1, 274.00, 192.00, 9.00, 13, ABarapppaap
44, 44, 44, -1, 267.00, 195.00, 13.00, 13, ABarappppap
45, 45, 45, -1, 280.00, 190.00, 15.00, 13, ABarappppaa
46, 46, 46, -1, 247.00, 198.00, 12.00, 13, ABarapppppa
47, 47, 47, -1, 231.00, 194.00, 11.00, 13, ABarapppppp
48, 48, 48, -1, 250.00, 214.00, 12.00, 13, ABarappaaap
49, 49, 49, -1, 269.00, 215.00, 11.00, 13, ABarappaaaa
50, 50, 50, -1, 259.00, 226.00, 10.00, 13, ABarappaapa
51, 51, 51, -1, 239.00, 233.00, 10.00, 13, ABarappaapp
52, 52, 52, -1, 218.00, 221.00, 9.00, 17, ABarappapap
53, 53, 53, -1, 220.00, 198.00, 10.00, 15, ABarappapaa
54, 54, 54, -1, 175.00, 214.00, 11.00, 15, ABarappappp
55, 55, 55, -1, 191.00, 211.00, 10.00, 13, ABarappappa
56, 56, 56, -1, 228.00, 169.00, 30.00, 15, ABarpapppa
57, 57, 57, -1, 223.00, 182.00, 33.00, 17, ABarpapppp
58, 58, 58, -1, 254.00, 169.00, 32.00, 15, ABarpappap
59, 59, 59, -1, 294.00, 188.00, 34.00, 13, ABarpapaaap
60, 60, 60, -1, 289.00, 193.00, 27.00, 13, ABarpapaapa
61, 61, 61, -1, 283.00, 196.00, 31.00, 15, ABarpapaapp
62, 62, 62, -1, 248.00, 207.00, 35.00, 17, ABarpapapp
63, 63, 63, -1, 287.00, 212.00, 35.00, 17, ABarpapapa
64, 64, 64, -1, 233.00, 273.00, 34.00, 19, ABarpaappp
65, 65, 65, -1, 268.00, 217.00, 34.00, 13, ABarpaapaa
66, 66, 66, -1, 257.00, 261.00, 35.00, 19, ABarpaapap
67, 67, 67, -1, 329.00, 211.00, 33.00, 15, ABarpaaaaa
68, 68, 68, -1, 314.00, 230.00, 35.00, 19, ABarpaaaap
69, 69, 69, -1, 285.00, 229.00, 35.00, 11, ABarpaaapp
70, 70, 70, -1, 307.00, 208.00, 35.00, 17, ABarpaaapa
71, 71, 71, -1, 249.00, 327.00, 32.00, 15, ABarppaaap
72, 72, 72, -1, 210.00, 333.00, 31.00, 15, ABarppaapp
73, 73, 73, -1, 145.00, 350.00, 32.00, 19, ABarppappa
74, 74, 74, -1, 115.00, 360.00, 22.00, 17, ABarppappp
75, 75, 75, -1, 199.00, 349.00, 30.00, 15, ABarppapap
76, 76, 76, -1, 226.00, 337.00, 32.00, 17, ABarppapaa
77, 77, 77, -1, 76.00, 256.00, 22.00, 17, ABarpppppp
78, 78, 78, -1, 103.00, 236.00, 29.00, 15, ABarpppppa
79, 79, 79, -1, 171.00, 193.00, 32.00, 15, ABarppppaa
80, 80, 80, -1, 145.00, 210.00, 32.00, 15, ABarppppap
81, 81, 81, -1, 193.00, 186.00, 32.00, 15, ABarpppaap
82, 82, 82, -1, 224.00, 209.00, 34.00, 15, ABarpppaaa
83, 83, 83, -1, 323.00, 191.00, 24.00, 13, ABalappppaa
84, 84, 84, -1, 315.00, 184.00, 28.00, 15, ABalappppap
85, 85, 85, -1, 282.00, 178.00, 30.00, 11, ABalapppppp
86, 86, 86, -1, 332.00, 203.00, 25.00, 9, ABalapppaaa
87, 87, 87, -1, 325.00, 196.00, 28.00, 11, ABalapppaap
88, 88, 88, -1, 316.00, 197.00, 31.00, 13, ABalapppapa
89, 89, 89, -1, 307.00, 181.00, 25.00, 15, ABalappapa
90, 90, 90, -1, 336.00, 210.00, 28.00, 13, ABalappaaa
91, 91, 91, -1, 323.00, 177.00, 23.00, 13, ABalappappa
92, 92, 92, -1, 310.00, 164.00, 25.00, 11, ABalappappp
93, 93, 93, -1, 318.00, 262.00, 32.00, 11, ABalapapppp
94, 94, 94, -1, 331.00, 263.00, 31.00, 11, ABalapapppa
95, 95, 95, -1, 341.00, 232.00, 24.00, 15, ABalapappaa
96, 96, 96, -1, 333.00, 250.00, 28.00, 15, ABalapappap
97, 97, 97, -1, 323.00, 229.00, 32.00, 13, ABalapapaa
98, 98, 98, -1, 319.00, 242.00, 32.00, 13, ABalapapapp
99, 99, 99, -1, 334.00, 250.00, 26.00, 15, ABalapaaaa
100, 100, 100, -1, 351.00, 249.00, 25.00, 15, ABalapaaapa
101, 101, 101, -1, 350.00, 262.00, 28.00, 13, ABalapaaapp
102, 102, 102, -1, 347.00, 257.00, 21.00, 15, ABalapaappa
103, 103, 103, -1, 326.00, 276.00, 18.00, 11, ABalapaapap
104, 103, 104, -1, 331.00, 259.00, 19.00, 13, ABalapaapaa
105, 104, 105, -1, 334.00, 268.00, 23.00, 15, ABalapaappp
106, 105, 106, -1, 314.00, 189.00, 14.00, 15, ABalaapaaa
107, 106, 107, -1, 241.00, 174.00, 10.00, 13, ABalaapapa
108, 107, 108, -1, 302.00, 191.00, 11.00, 15, ABalaapaap
109, 108, 109, -1, 299.00, 175.00, 14.00, 13, ABalaappapa
110, 109, 110, -1, 278.00, 173.00, 12.00, 13, ABalaappaa
111, 110, 111, -1, 307.00, 169.00, 22.00, 15, ABalaappppp
112, 111, 112, -1, 309.00, 184.00, 20.00, 17, ABalaappppa
113, 112, 113, -1, 296.00, 175.00, 21.00, 13, ABalaapppaa
114, 113, 114, -1, 296.00, 189.00, 18.00, 13, ABalaapppap
115, 114, 115, -1, 341.00, 252.00, 13.00, 17, ABalaaaalp
116, 115, 116, -1, 334.00, 204.00, 20.00, 13, ABalaaaarrp
117, 116, 117, -1, 328.00, 194.00, 17.00, 13, ABalaaaarra
118, 117, 118, -1, 337.00, 213.00, 18.00, 13, ABalaaaarlp
119, 118, 119, -1, 344.00, 229.00, 18.00, 13, ABalaaaarla
120, 119, 120, -1, 331.00, 184.00, 20.00, 13, ABalaaapplr
121, 120, 121, -1, 318.00, 188.00, 18.00, 15, ABalaaapprr
122, 121, 122, -1, 308.00, 176.00, 17.00, 15, ABalaaapprl
123, 122, 123, -1, 344.00, 217.00, 26.00, 15, ABalappaap
124, 123, 124, -1, 153.00, 326.00, 10.00, 13, ABplppppapa
125, 124, 125, -1, 141.00, 312.00, 10.00, 13, ABplppppapp
126, 125, 126, -1, 170.00, 304.00, 10.00, 13, ABplppppaaa
127, 126, 127, -1, 158.00, 308.00, 11.00, 13, ABplppppaap
128, 127, 128, -1, 89.00, 324.00, 12.00, 13, ABplppppppp
129, 128, 129, -1, 95.00, 317.00, 10.00, 13, ABplppppppa
130, 129, 130, -1, 135.00, 317.00, 14.00, 13, ABplpppppap
131, 130, 131, -1, 151.00, 313.00, 15.00, 15, ABplpppppaa
132, 131, 132, -1, 113.00, 305.00, 12.00, 13, ABplpppapp
133, 132, 133, -1, 129.00, 320.00, 9.00, 13, ABplpppapaa
134, 133, 134, -1, 127.00, 338.00, 11.00, 15, ABplpppaapp
135, 134, 135, -1, 142.00, 337.00, 11.00, 13, ABplpppaapa
136, 135, 136, -1, 174.00, 321.00, 10.00, 13, ABplpppaaaa
137, 136, 137, -1, 164.00, 340.00, 11.00, 13, ABplpppaaap
138, 137, 138, -1, 172.00, 340.00, 13.00, 13, ABplppapppp
139, 138, 139, -1, 192.00, 331.00, 13.00, 15, ABplppapppa
140, 139, 140, -1, 197.00, 318.00, 11.00, 13, ABplppappap
141, 140, 141, -1, 211.00, 315.00, 12.00, 13, ABplppappaa
142, 141, 142, -1, 208.00, 332.00, 13.00, 13, ABplppapaap
143, 142, 143, -1, 202.00, 339.00, 16.00, 15, ABplppapapa
144, 143, 144, -1, 179.00, 337.00, 17.00, 13, ABplppapapp
145, 144, 145, -1, 203.00, 302.00, 10.00, 13, ABplppaappa
146, 145, 146, -1, 188.00, 311.00, 10.00, 13, ABplppaappp
147, 146, 147, -1, 266.00, 303.00, 18.00, 13, ABplppaaaaa
148, 147, 148, -1, 257.00, 317.00, 19.00, 15, ABplppaaap
149, 148, 149, -1, 247.00, 270.00, 10.00, 15, ABplpappaaa
150, 149, 150, -1, 228.00, 281.00, 9.00, 15, ABplpappaap
151, 150, 151, -1, 222.00, 280.00, 12.00, 13, ABplpappap
152, 151, 152, -1, 143.00, 297.00, 10.00, 15, ABplpappppp
153, 152, 153, -1, 159.00, 285.00, 10.00, 13, ABplpappppa
154, 153, 154, -1, 179.00, 283.00, 10.00, 15, ABplpapppaa
155, 154, 155, -1, 164.00, 266.00, 10.00, 15, ABplpapppap
156, 155, 156, -1, 211.00, 293.00, 10.00, 13, ABplpapappa
157, 156, 157, -1, 189.00, 291.00, 11.00, 15, ABplpapappp
158, 157, 158, -1, 224.00, 300.00, 12.00, 11, ABplpapapap
159, 158, 159, -1, 241.00, 298.00, 14.00, 13, ABplpapapaa
160, 159, 160, -1, 273.00, 296.00, 14.00, 13, ABplpapaapa
161, 160, 161, -1, 256.00, 304.00, 14.00, 13, ABplpapaapp
162, 161, 162, -1, 259.00, 290.00, 13.00, 13, ABplpapaaap
163, 162, 163, -1, 275.00, 286.00, 12.00, 13, ABplpapaaaa
164, 163, 164, -1, 237.00, 329.00, 14.00, 13, ABplpaaaapp
165, 164, 165, -1, 246.00, 318.00, 12.00, 15, ABplpaaaapa
166, 165, 166, -1, 313.00, 274.00, 16.00, 15, ABplpaaaaaa
167, 166, 167, -1, 303.00, 308.00, 17.00, 17, ABplpaaapap
168, 167, 168, -1, 316.00, 295.00, 15.00, 13, ABplpaaapaa
169, 168, 169, -1, 291.00, 294.00, 15.00, 13, ABplpaaappa
170, 169, 170, -1, 279.00, 302.00, 15.00, 15, ABplpaaappp
171, 170, 171, -1, 266.00, 314.00, 26.00, 13, ABplpaappap
172, 171, 172, -1, 286.00, 302.00, 23.00, 15, ABplpaappaa
173, 172, 173, -1, 293.00, 305.00, 19.00, 11, ABplpaapppa
174, 173, 174, -1, 307.00, 312.00, 19.00, 13, ABplpaapapp
175, 174, 175, -1, 281.00, 313.00, 17.00, 11, ABplpaapppp
176, 175, 176, -1, 305.00, 291.00, 19.00, 15, ABplpaapaap
177, 176, 177, -1, 306.00, 272.00, 18.00, 15, ABplpaapaaa
178, 177, 178, -1, 317.00, 308.00, 23.00, 15, ABplpaapapa
179, 178, 179, -1, 275.00, 327.00, 19.00, 15, ABplaappap
180, 179, 180, -1, 291.00, 320.00, 20.00, 13, ABplaappaa
181, 180, 181, -1, 261.00, 334.00, 20.00, 11, ABplaapppa
182, 181, 182, -1, 233.00, 345.00, 23.00, 15, ABplaapppp
183, 182, 183, -1, 345.00, 233.00, 29.00, 15, ABplaapaaaa
184, 183, 184, -1, 343.00, 251.00, 31.00, 15, ABplaapaaap
185, 184, 185, -1, 343.00, 270.00, 31.00, 13, ABplaapaapa
186, 185, 186, -1, 329.00, 284.00, 29.00, 19, ABplaapaapp
187, 186, 187, -1, 294.00, 297.00, 29.00, 19, ABplaapappp
188, 187, 188, -1, 307.00, 278.00, 29.00, 15, ABplaapappa
189, 188, 189, -1, 297.00, 288.00, 26.00, 13, ABplaapapap
190, 189, 190, -1, 305.00, 271.00, 25.00, 13, ABplaapapaa
191, 190, 191, -1, 307.00, 256.00, 33.00, 13, ABplaaaaapp
192, 191, 192, -1, 318.00, 257.00, 29.00, 13, ABplaaaaapa
193, 192, 193, -1, 331.00, 248.00, 35.00, 17, ABplaaaaaa
194, 193, 194, -1, 275.00, 259.00, 34.00, 17, ABplaaaapp
195, 194, 195, -1, 292.00, 251.00, 35.00, 17, ABplaaaapa
196, 195, 196, -1, 290.00, 300.00, 32.00, 17, ABplaaappa
197, 196, 197, -1, 275.00, 306.00, 32.00, 13, ABplaaappp
198, 197, 198, -1, 308.00, 298.00, 32.00, 17, ABplaaapap
199, 198, 199, -1, 315.00, 279.00, 33.00, 13, ABplaaapaa
200, 199, 200, -1, 129.00, 353.00, 14.00, 17, ABplappppa
201, 200, 201, -1, 105.00, 338.00, 14.00, 15, ABplappppp
202, 201, 202, -1, 113.00, 347.00, 17.00, 17, ABplapppaa
203, 202, 203, -1, 114.00, 324.00, 12.00, 13, ABplapppapp
204, 203, 204, -1, 124.00, 335.00, 14.00, 13, ABplapppapa
205, 204, 205, -1, 198.00, 355.00, 24.00, 15, ABplappaaa
206, 205, 206, -1, 178.00, 360.00, 24.00, 15, ABplappaap
207, 206, 207, -1, 161.00, 361.00, 21.00, 15, ABplappapp
208, 207, 208, -1, 170.00, 348.00, 32.00, 17, ABplappapa
209, 208, 209, -1, 215.00, 351.00, 25.00, 15, ABplapaapp
210, 209, 210, -1, 250.00, 341.00, 22.00, 13, ABplapaapa
211, 210, 211, -1, 255.00, 298.00, 33.00, 15, ABarppaaaa
212, 211, 212, -1, 244.00, 330.00, 27.00, 17, ABplapaaapp
213, 212, 213, -1, 248.00, 316.00, 27.00, 17, ABplapaaapa
214, 213, 214, -1, 104.00, 354.00, 20.00, 13, ABplapapppa
215, 214, 215, -1, 88.00, 342.00, 17.00, 15, ABplapapppp
216, 215, 216, -1, 141.00, 370.00, 22.00, 15, ABplapapap
217, 216, 217, -1, 131.00, 362.00, 18.00, 17, ABplapappa
218, 217, 218, -1, 129.00, 359.00, 28.00, 19, ABplapapaa
219, 218, 219, -1, 234.00, 214.00, 12.00, 11, ABprpapaaaa
220, 219, 220, -1, 210.00, 202.00, 13.00, 13, ABprpapaapp
221, 220, 221, -1, 182.00, 235.00, 11.00, 13, ABprpapappa
222, 221, 222, -1, 176.00, 259.00, 10.00, 15, ABprpapappp
223, 222, 223, -1, 192.00, 226.00, 13.00, 11, ABprpapapap
224, 223, 224, -1, 205.00, 223.00, 12.00, 11, ABprpapapaa
225, 224, 225, -1, 129.00, 290.00, 13.00, 15, ABprpappppp
226, 225, 226, -1, 149.00, 290.00, 13.00, 15, ABprpappppa
227, 226, 227, -1, 207.00, 241.00, 11.00, 13, ABprpapppaa
228, 227, 228, -1, 193.00, 253.00, 11.00, 13, ABprpapppap
229, 228, 229, -1, 200.00, 274.00, 10.00, 15, ABprpappapp
230, 229, 230, -1, 220.00, 236.00, 10.00, 15, ABprpappaap
231, 230, 231, -1, 230.00, 244.00, 9.00, 15, ABprpappaaa
232, 231, 232, -1, 249.00, 189.00, 16.00, 13, ABprpaaaaap
233, 232, 233, -1, 264.00, 194.00, 18.00, 15, ABprpaapaaa
234, 233, 234, -1, 181.00, 196.00, 13.00, 13, ABprpaaaapp
235, 234, 235, -1, 199.00, 195.00, 11.00, 15, ABprpaaaapa
236, 235, 236, -1, 237.00, 184.00, 14.00, 15, ABprpaaappa
237, 236, 237, -1, 227.00, 203.00, 14.00, 13, ABprpapaapa
238, 237, 238, -1, 227.00, 189.00, 15.00, 13, ABprpaaappp
239, 238, 239, -1, 255.00, 173.00, 12.00, 13, ABprpaaapaa
240, 239, 240, -1, 238.00, 167.00, 15.00, 13, ABprpaaapap
241, 240, 241, -1, 248.00, 181.00, 19.00, 13, ABprpaapaap
242, 241, 242, -1, 255.00, 159.00, 20.00, 13, ABprpaapapa
243, 242, 243, -1, 238.00, 164.00, 19.00, 11, ABprpaapapp
244, 243, 244, -1, 232.00, 171.00, 17.00, 13, ABprpaapppa
245, 244, 245, -1, 219.00, 175.00, 17.00, 13, ABprpaapppp
246, 245, 246, -1, 218.00, 188.00, 26.00, 13, ABprpaappap
247, 246, 247, -1, 231.00, 181.00, 22.00, 17, ABprpaappaa
248, 247, 248, -1, 83.00, 263.00, 10.00, 15, ABprpppaapp
249, 248, 249, -1, 101.00, 259.00, 11.00, 13, ABprpppaapa
250, 249, 250, -1, 114.00, 242.00, 11.00, 15, ABprpppaaap
251, 250, 251, -1, 138.00, 246.00, 11.00, 13, ABprpppaaaa
252, 251, 252, -1, 110.00, 275.00, 10.00, 13, ABprpppapaa
253, 252, 253, -1, 102.00, 292.00, 10.00, 13, ABprpppapap
254, 253, 254, -1, 107.00, 307.00, 10.00, 13, ABprpppapp
255, 254, 255, -1, 127.00, 261.00, 10.00, 15, ABprppppapa
256, 255, 256, -1, 124.00, 283.00, 10.00, 13, ABprppppapp
257, 256, 257, -1, 148.00, 268.00, 10.00, 13, ABprppppaaa
258, 257, 258, -1, 139.00, 276.00, 11.00, 13, ABprppppaap
259, 258, 259, -1, 73.00, 298.00, 13.00, 15, ABprppppppp
260, 259, 260, -1, 87.00, 303.00, 10.00, 13, ABprppppppa
261, 260, 261, -1, 126.00, 264.00, 14.00, 13, ABprpppppaa
262, 261, 262, -1, 108.00, 274.00, 15.00, 13, ABprpppppap
263, 262, 263, -1, 179.00, 212.00, 14.00, 11, ABprppaapap
264, 263, 264, -1, 200.00, 210.00, 14.00, 11, ABprppaapaa
265, 264, 265, -1, 173.00, 240.00, 10.00, 15, ABprppaappa
266, 265, 266, -1, 154.00, 245.00, 10.00, 13, ABprppaappp
267, 266, 267, -1, 218.00, 196.00, 17.00, 13, ABprppaaaaa
268, 267, 268, -1, 203.00, 194.00, 15.00, 15, ABprppaaaap
269, 268, 269, -1, 195.00, 182.00, 17.00, 11, ABprppaaap
270, 269, 270, -1, 167.00, 208.00, 16.00, 15, ABprppapaaa
271, 270, 271, -1, 151.00, 213.00, 15.00, 13, ABprppapaap
272, 271, 272, -1, 131.00, 223.00, 15.00, 15, ABprppapap
273, 272, 273, -1, 132.00, 234.00, 12.00, 19, ABprppappp
274, 273, 274, -1, 165.00, 218.00, 13.00, 15, ABprppappaa
275, 274, 275, -1, 152.00, 225.00, 11.00, 13, ABprppappap
276, 275, 276, -1, 337.00, 186.00, 29.00, 13, ABpraapaaaa
277, 276, 277, -1, 316.00, 184.00, 34.00, 13, ABarpapaaaa
278, 277, 278, -1, 322.00, 177.00, 31.00, 15, ABpraapaaap
279, 278, 279, -1, 298.00, 169.00, 28.00, 15, ABpraapaapa
280, 279, 280, -1, 250.00, 172.00, 25.00, 17, ABpraapapap
281, 280, 281, -1, 271.00, 180.00, 24.00, 13, ABpraapapaa
282, 281, 282, -1, 245.00, 171.00, 28.00, 15, ABpraapappp
283, 282, 283, -1, 264.00, 177.00, 27.00, 15, ABpraapappa
284, 283, 284, -1, 168.00, 190.00, 24.00, 15, ABpraapppp
285, 284, 285, -1, 192.00, 175.00, 21.00, 15, ABpraapppa
286, 285, 286, -1, 209.00, 173.00, 20.00, 17, ABpraappap
287, 286, 287, -1, 226.00, 163.00, 20.00, 13, ABpraappaa
288, 287, 288, -1, 292.00, 168.00, 24.00, 15, ABpraaapapa
289, 288, 289, -1, 273.00, 160.00, 24.00, 13, ABpraaapapp
290, 289, 290, -1, 279.00, 180.00, 20.00, 15, ABpraaapaa
291, 290, 291, -1, 262.00, 185.00, 21.00, 17, ABpraaappaa
292, 291, 292, -1, 250.00, 180.00, 23.00, 13, ABpraaappap
293, 292, 293, -1, 236.00, 184.00, 26.00, 13, ABpraaapppa
294, 293, 294, -1, 225.00, 170.00, 26.00, 15, ABpraaapppp
295, 294, 295, -1, 287.00, 163.00, 19.00, 17, ABpraaaaap
296, 295, 296, -1, 286.00, 173.00, 16.00, 13, ABpraaaaaaa
297, 296, 297, -1, 262.00, 170.00, 15.00, 13, ABpraaaaaap
298, 297, 298, -1, 262.00, 177.00, 17.00, 15, ABpraaaapav
299, 298, 299, -1, 269.00, 162.00, 18.00, 13, ABpraaaapad
300, 299, 300, -1, 277.00, 156.00, 22.00, 11, ABpraaaappa
301, 300, 301, -1, 263.00, 162.00, 23.00, 15, ABpraaaappp
302, 301, 302, -1, 109.00, 222.00, 20.00, 13, ABprappapp
303, 302, 303, -1, 122.00, 220.00, 30.00, 17, ABprappapa
304, 303, 304, -1, 121.00, 211.00, 23.00, 15, ABprappaap
305, 304, 305, -1, 142.00, 208.00, 20.00, 15, ABprappaaa
306, 305, 306, -1, 80.00, 261.00, 18.00, 17, ABprapppaa
307, 306, 307, -1, 91.00, 282.00, 12.00, 13, ABprapppapp
308, 307, 308, -1, 92.00, 263.00, 14.00, 11, ABprapppapa
309, 308, 309, -1, 74.00, 273.00, 14.00, 17, ABprappppp
310, 309, 310, -1, 82.00, 250.00, 14.00, 17, ABprappppa
311, 310, 311, -1, 203.00, 193.00, 27.00, 15, ABprapaaapa
312, 311, 312, -1, 186.00, 189.00, 26.00, 15, ABprapaaapp
313, 312, 313, -1, 212.00, 199.00, 33.00, 15, ABprapaaaap
314, 313, 314, -1, 221.00, 201.00, 30.00, 13, ABprapaaaaa
315, 314, 315, -1, 149.00, 195.00, 24.00, 13, ABprapaapp
316, 315, 316, -1, 177.00, 184.00, 20.00, 15, ABprapaapa
317, 316, 317, -1, 90.00, 241.00, 17.00, 15, ABprapappa
318, 317, 318, -1, 71.00, 282.00, 18.00, 15, ABprapapppp
319, 318, 319, -1, 70.00, 274.00, 22.00, 13, ABprapapppa
320, 319, 320, -1, 93.00, 233.00, 21.00, 15, ABprapapap
321, 320, 321, -1, 84.00, 254.00, 27.00, 17, ABprapapaa
322, 321, 322, -1, 234.00, 202.00, 28.00, 15, MSppppap
323, 322, 323, -1, 226.00, 206.00, 19.00, 11, MSppppaa
324, 323, 324, -1, 241.00, 216.00, 31.00, 17, MSpppppa
325, 324, 325, -1, 211.00, 226.00, 30.00, 15, MSpppppp
326, 325, 326, -1, 211.00, 217.00, 22.00, 13, MSpppaaa
327, 326, 327, -1, 145.00, 244.00, 19.00, 15, MSpppaap
328, 327, 328, -1, 198.00, 212.00, 18.00, 15, MSpppapp
329, 328, 329, -1, 213.00, 217.00, 17.00, 11, MSpppapa
330, 329, 330, -1, 218.00, 219.00, 13.00, 11, ABprpapaaap
331, 330, 331, -1, 176.00, 242.00, 13.00, 15, MSppaapp
332, 331, 332, -1, 245.00, 207.00, 16.00, 13, MSppaapa
333, 332, 333, -1, 287.00, 205.00, 15.00, 15, MSppaaaa
334, 333, 334, -1, 288.00, 190.00, 24.00, 13, MSppaaap
335, 334, 335, -1, 262.00, 189.00, 29.00, 17, MSppappa
336, 335, 336, -1, 245.00, 197.00, 23.00, 13, MSppapaa
337, 336, 337, -1, 238.00, 196.00, 19.00, 13, MSppapap
338, 337, 338, -1, 198.00, 261.00, 14.00, 13, MSpapappp
339, 338, 339, -1, 215.00, 250.00, 16.00, 15, MSpapappa
340, 339, 340, -1, 197.00, 245.00, 17.00, 15, MSpapapa
341, 340, 341, -1, 227.00, 234.00, 16.00, 15, MSpapaaaa
342, 341, 342, -1, 223.00, 236.00, 17.00, 15, MSpapaaap
343, 342, 343, -1, 204.00, 236.00, 22.00, 15, MSpapaapp
344, 343, 344, -1, 194.00, 241.00, 24.00, 11, Nuc266_24_194_238
346, 345, 346, -1, 168.00, 320.00, 14.00, 15, MSpappaa
347, 346, 347, -1, 153.00, 231.00, 16.00, 13, MSpapppp
348, 347, 348, -1, 172.00, 222.00, 18.00, 23, MSpapppa
349, 348, 349, -1, 250.00, 233.00, 27.00, 15, MSpaaappa
350, 349, 350, -1, 232.00, 241.00, 27.00, 15, MSpaaappp
351, 350, 351, -1, 253.00, 249.00, 30.00, 13, MSpaaapaa
352, 350, 352, -1, 232.00, 255.00, 30.00, 15, MSpaaapap
353, 351, 353, -1, 279.00, 214.00, 27.00, 15, MSpaaaapa
354, 352, 354, -1, 262.00, 220.00, 28.00, 15, MSpaaaapp
355, 353, 355, -1, 269.00, 220.00, 31.00, 19, MSpaaaaa
356, 354, 356, -1, 230.00, 222.00, 19.00, 13, ABaraappppa
357, 355, 357, -1, 235.00, 223.00, 22.00, 15, ABaraapppap
358, 356, 358, -1, 235.00, 222.00, 27.00, 13, MSpaapaap
359, 357, 359, -1, 252.00, 213.00, 26.00, 13, MSpaapaaa
360, 358, 360, -1, 177.00, 254.00, 24.00, 15, Earap
361, 359, 361, -1, 263.00, 301.00, 21.00, 13, MSapppaa
362, 360, 362, -1, 252.00, 287.00, 27.00, 15, MSapppap
363, 361, 363, -1, 246.00, 281.00, 30.00, 17, MSappppa
364, 362, 364, -1, 216.00, 302.00, 30.00, 17, MSappppp
365, 363, 365, -1, 169.00, 317.00, 18.00, 15, MSappaap
366, 364, 366, -1, 232.00, 299.00, 21.00, 13, MSappaaa
367, 365, 367, -1, 243.00, 306.00, 19.00, 13, MSappapp
368, 366, 368, -1, 252.00, 295.00, 20.00, 13, MSappapa
369, 367, 369, -1, 291.00, 272.00, 30.00, 15, MSapappa
370, 368, 370, -1, 282.00, 265.00, 31.00, 17, MSapappp
371, 369, 371, -1, 274.00, 285.00, 18.00, 11, MSapapap
372, 370, 372, -1, 276.00, 281.00, 23.00, 15, MSapapaa
373, 371, 373, -1, 214.00, 298.00, 15.00, 17, MSapaapp
374, 372, 374, -1, 284.00, 281.00, 17.00, 13, MSapaapa
375, 373, 375, -1, 318.00, 251.00, 16.00, 15, MSapaaaa
376, 374, 376, -1, 316.00, 256.00, 24.00, 15, MSapaaap
377, 375, 377, -1, 306.00, 217.00, 29.00, 15, MSaaaaapa
378, 376, 378, -1, 298.00, 228.00, 31.00, 15, MSaaaaapp
379, 377, 379, -1, 322.00, 213.00, 25.00, 15, MSaaaaaa
380, 378, 380, -1, 282.00, 231.00, 31.00, 13, MSaaaapaa
381, 379, 381, -1, 267.00, 241.00, 30.00, 13, MSaaaapap
382, 380, 382, -1, 244.00, 264.00, 27.00, 13, MSaaaappp
383, 381, 383, -1, 264.00, 258.00, 29.00, 15, MSaaaappa
384, 382, 384, -1, 242.00, 264.00, 25.00, 17, MSaaapapp
385, 383, 385, -1, 281.00, 251.00, 28.00, 13, MSaaapaap
387, 385, 387, -1, 227.00, 274.00, 27.00, 11, MSaaappa
388, 386, 388, -1, 229.00, 260.00, 29.00, 21, MSaaappp
389, 387, 389, -1, 185.00, 317.00, 16.00, 15, MSaapppp
390, 388, 390, -1, 208.00, 319.00, 18.00, 19, MSaapppa
391, 389, 391, -1, 242.00, 277.00, 16.00, 15, MSaapaaap
392, 390, 392, -1, 258.00, 276.00, 18.00, 13, MSaapaaaa
393, 391, 393, -1, 209.00, 279.00, 17.00, 15, MSaapappp
394, 392, 394, -1, 235.00, 279.00, 18.00, 15, MSaapappa
395, 393, 395, -1, 222.00, 278.00, 19.00, 15, MSaapapa
396, 394, 396, -1, 200.00, 285.00, 21.00, 19, Ealpa
397, 395, 397, -1, 162.00, 302.00, 23.00, 19, Ealpp
398, 396, 398, -1, 131.00, 302.00, 20.00, 15, Eplpa
399, 397, 399, -1, 123.00, 337.00, 19.00, 15, Cappap
400, 398, 400, -1, 168.00, 342.00, 26.00, 15, Cappaaa
401, 399, 401, -1, 110.00, 334.00, 26.00, 17, Capppa
402, 400, 402, -1, 103.00, 321.00, 16.00, 15, Capppp
403, 401, 403, -1, 142.00, 343.00, 24.00, 21, Capapa
404, 402, 404, -1, 145.00, 336.00, 15.00, 17, Capapp
405, 403, 405, -1, 158.00, 341.00, 20.00, 21, Capaap
406, 404, 406, -1, 187.00, 336.00, 22.00, 19, Capaaa
407, 405, 407, -1, 86.00, 288.00, 29.00, 21, Caaapp
408, 406, 408, -1, 61.00, 302.00, 18.00, 15, Caappd
409, 407, 409, -1, 79.00, 328.00, 14.00, 17, Caappv
410, 408, 410, -1, 95.00, 309.00, 15.00, 13, Caapaa
411, 409, 579, -1, 85.00, 307.00, 12.00, 13, Caapap
412, 410, 411, -1, 72.00, 306.00, 22.00, 19, Cpappd
413, 411, 412, -1, 74.00, 312.00, 16.00, 19, Cpappv
414, 412, 413, -1, 78.00, 329.00, 24.00, 21, Cpapaa
415, 413, 414, -1, 123.00, 240.00, 19.00, 17, Cppaap
416, 414, 415, -1, 134.00, 227.00, 22.00, 13, Cppaaap
417, 415, 416, -1, 161.00, 217.00, 23.00, 15, Cppaaaa
418, 416, 417, -1, 120.00, 241.00, 25.00, 17, Cppapa
419, 417, 418, -1, 107.00, 253.00, 16.00, 15, Cppapp
420, 418, 419, -1, 125.00, 247.00, 30.00, 15, Cpppaap
421, 419, 420, -1, 143.00, 223.00, 26.00, 15, Cpppaaa
422, 420, 421, -1, 93.00, 269.00, 18.00, 13, Cpppapp
423, 421, 422, -1, 103.00, 253.00, 22.00, 17, Cpppapa
424, 422, 423, -1, 241.00, 318.00, 22.00, 15, Daapa
425, 423, 424, -1, 224.00, 328.00, 21.00, 17, Daapp
426, 424, 425, -1, 252.00, 299.00, 25.00, 15, Daaaa
427, 425, 426, -1, 232.00, 308.00, 27.00, 15, Daaap
428, 426, 427, -1, 200.00, 314.00, 30.00, 17, Dappa
429, 427, 428, -1, 162.00, 328.00, 30.00, 17, Dappp
430, 428, 429, -1, 176.00, 206.00, 20.00, 15, Dpapp
431, 429, 430, -1, 198.00, 202.00, 22.00, 15, Dpapa
432, 430, 431, -1, 206.00, 214.00, 28.00, 17, Dpaap
433, 431, 432, -1, 217.00, 201.00, 24.00, 15, Dpaaa
434, 432, 433, -1, 151.00, 231.00, 30.00, 15, Dpppp
435, 433, 434, -1, 178.00, 224.00, 31.00, 17, Dpppa
436, 434, 435, -1, 188.00, 210.00, 25.00, 17, Dppaa
437, 435, 436, -1, 162.00, 214.00, 26.00, 15, Dppap
438, 436, 437, -1, 155.00, 250.00, 15.00, 19, Z2
440, 438, 439, -1, 319.00, 294.00, 24.00, 11, ABalpppappa
441, 439, 440, -1, 318.00, 291.00, 26.00, 15, ABalpppappp
442, 440, 441, -1, 301.00, 277.00, 22.00, 13, ABalpppppaa
443, 441, 442, -1, 295.00, 289.00, 23.00, 15, ABalpppppap
444, 442, 443, -1, 275.00, 297.00, 27.00, 15, ABalppppppa
445, 443, 444, -1, 290.00, 312.00, 26.00, 19, ABalppppppp
446, 444, 445, -1, 338.00, 278.00, 27.00, 11, ABalppppapp
448, 446, 447, -1, 316.00, 277.00, 21.00, 11, ABalppppaad
449, 447, 448, -1, 319.00, 278.00, 23.00, 11, ABalppppaav
450, 448, 449, -1, 345.00, 282.00, 17.00, 13, ABalpppaaaa
451, 449, 450, -1, 331.00, 287.00, 15.00, 13, ABalpppaaap
452, 450, 451, -1, 348.00, 275.00, 20.00, 13, ABalpppaapd
453, 451, 452, -1, 338.00, 286.00, 23.00, 13, ABalpppaapv
454, 452, 453, -1, 327.00, 291.00, 18.00, 13, ABalpppapad
455, 453, 454, -1, 323.00, 302.00, 19.00, 13, ABalpppapav
456, 454, 455, -1, 354.00, 260.00, 18.00, 13, ABalaaapalr
457, 455, 456, -1, 342.00, 265.00, 16.00, 11, ABalppaaaa
458, 456, 457, -1, 337.00, 273.00, 13.00, 13, ABalppaaapp
459, 457, 458, -1, 293.00, 305.00, 12.00, 17, ABalppaappp
460, 458, 459, -1, 316.00, 278.00, 11.00, 13, ABalppaapa
461, 581, 460, -1, 300.00, 281.00, 16.00, 15, ABplpaaaaap
462, 460, 461, -1, 297.00, 279.00, 13.00, 15, ABalppapppa
463, 461, 462, -1, 312.00, 271.00, 14.00, 13, ABalppappap
464, 462, 463, -1, 326.00, 259.00, 15.00, 13, ABalppappaa
465, 463, 464, -1, 297.00, 271.00, 10.00, 13, ABalppapapa
466, 464, 465, -1, 280.00, 295.00, 9.00, 19, ABalppapapp
467, 465, 466, -1, 327.00, 261.00, 11.00, 13, ABalppapaaa
468, 466, 467, -1, 312.00, 265.00, 10.00, 11, ABalppapaap
469, 467, 468, -1, 253.00, 301.00, 10.00, 15, ABalpapapap
470, 468, 469, -1, 265.00, 281.00, 10.00, 15, ABalpapapaa
471, 469, 470, -1, 233.00, 315.00, 11.00, 13, ABalpapappa
472, 470, 471, -1, 223.00, 322.00, 12.00, 13, ABalpapappp
473, 471, 472, -1, 263.00, 243.00, 9.00, 13, ABalpapaapp
474, 472, 473, -1, 284.00, 242.00, 9.00, 15, ABalpapaapa
475, 473, 474, -1, 303.00, 253.00, 10.00, 13, ABalpapaaaa
476, 474, 475, -1, 282.00, 267.00, 10.00, 15, ABalpapaaap
477, 475, 476, -1, 272.00, 254.00, 11.00, 15, ABalpappapa
478, 483, 477, -1, 295.00, 247.00, 14.00, 13, ABalpaaaaap
479, 477, 478, -1, 279.00, 237.00, 17.00, 11, ABalpappaaa
480, 478, 479, -1, 228.00, 266.00, 13.00, 15, ABalpappapp
481, 479, 480, -1, 273.00, 264.00, 16.00, 19, ABalpapppa
482, 480, 481, -1, 304.00, 251.00, 17.00, 13, ABalpaaapaa
483, 481, 482, -1, 295.00, 258.00, 20.00, 13, ABalpaaapap
484, 482, 483, -1, 298.00, 246.00, 12.00, 13, ABalpaaaap
485, 476, 484, -1, 285.00, 254.00, 16.00, 17, ABalpappaap
486, 484, 485, -1, 311.00, 236.00, 13.00, 13, ABalpaaaaaa
487, 485, 486, -1, 337.00, 227.00, 14.00, 13, ABalpaapppa
488, 486, 487, -1, 320.00, 249.00, 11.00, 13, ABalpaapppp
489, 487, 488, -1, 324.00, 226.00, 13.00, 13, ABalpaappaa
490, 488, 489, -1, 315.00, 234.00, 10.00, 15, ABalpaappap
491, 489, 584, -1, 286.00, 251.00, 23.00, 15, ABalpaapapp
492, 490, 491, -1, 300.00, 245.00, 21.00, 19, ABalpaapapa
493, 491, 492, -1, 316.00, 240.00, 22.00, 13, ABalpaapaap
494, 492, 493, -1, 320.00, 234.00, 19.00, 15, ABalpaapaaa
495, 493, 494, -1, 171.00, 269.00, 28.00, 19, Epraa
497, 577, 496, -1, 206.00, 251.00, 27.00, 21, Earaa
498, 496, 497, -1, 155.00, 265.00, 25.00, 23, Earpp
499, 497, 498, -1, 183.00, 285.00, 23.00, 17, Ealap
500, 498, 499, -1, 208.00, 275.00, 25.00, 23, Ealaa
501, 499, 500, -1, 163.00, 291.00, 26.00, 21, Eplaa
502, 500, 501, -1, 138.00, 303.00, 24.00, 21, Eplap
503, 501, 502, -1, 130.00, 276.00, 18.00, 23, Eprpp
504, 502, 503, -1, 190.00, 335.00, 28.00, 17, Dapap
505, 503, 504, -1, 213.00, 326.00, 24.00, 17, Dapaa
506, 504, 505, -1, 225.00, 279.00, 22.00, 15, MSaapaapp
507, 505, 506, -1, 238.00, 271.00, 22.00, 15, MSaapaapa
508, 506, 507, -1, 165.00, 209.00, 32.00, 15, ABarpppapp
509, 507, 508, -1, 226.00, 313.00, 15.00, 13, ABplppaapap
510, 508, 509, -1, 248.00, 306.00, 15.00, 13, ABplppaapaa
511, 509, 510, -1, 77.00, 301.00, 26.00, 19, Cpapap
512, 511, 511, -1, 344.00, 246.00, 17.00, 17, ABalaaaala
513, 512, 512, -1, 273.00, 174.00, 33.00, 13, ABarpappaa
514, 513, 513, -1, 105.00, 263.00, 29.00, 15, Cppppaa
515, 514, 514, -1, 90.00, 279.00, 24.00, 17, Cppppap
516, 515, 515, -1, 96.00, 291.00, 15.00, 15, Cpppppv
517, 516, 516, -1, 186.00, 265.00, 18.00, 19, Earpa
518, 517, 517, -1, 258.00, 195.00, 31.00, 17, MSppappp
519, 518, 582, -1, 127.00, 279.00, 22.00, 19, Eprpa
520, 519, 519, -1, 237.00, 246.00, 35.00, 17, ABarpaappa
521, 520, 520, -1, 226.00, 305.00, 34.00, 19, ABarppaapa
522, 521, 521, -1, 127.00, 300.00, 16.00, 23, Eplpp
523, 522, 522, -1, 200.00, 280.00, 15.00, 13, MSaappap
524, 523, 523, -1, 178.00, 294.00, 14.00, 21, Z3
525, 524, 524, -1, 264.00, 181.00, 10.00, 13, ABalaapappa
526, 525, 525, -1, 211.00, 270.00, 14.00, 11, MSaappaa
528, 527, 527, -1, 255.00, 319.00, 17.00, 15, ABplppaaaap
529, 528, 528, -1, 123.00, 303.00, 10.00, 11, ABplpppapap
530, 529, 529, -1, 229.00, 329.00, 17.00, 15, ABplppapaaa
531, 530, 530, -1, 327.00, 228.00, 30.00, 13, ABalapapapa
532, 531, 531, -1, 343.00, 243.00, 20.00, 15, ABalaaapall
533, 532, 532, -1, 138.00, 280.00, 27.00, 17, Eprap
534, 533, 533, -1, 267.00, 194.00, 16.00, 15, ABprpaaaaaa
535, 534, 534, -1, 200.00, 271.00, 33.00, 17, Cpaaaa
536, 535, 535, -1, 153.00, 269.00, 13.00, 15, MSpappap
537, 536, 536, -1, 223.00, 243.00, 24.00, 15, MSpaapapp
539, 538, 538, -1, 199.00, 222.00, 35.00, 21, ABarpppapa
540, 539, 539, -1, 86.00, 284.00, 20.00, 13, Cpppppd
541, 540, 540, -1, 257.00, 296.00, 30.00, 13, ABplapaaaaa
544, 544, 543, -1, 256.00, 308.00, 32.00, 15, ABplapaaaap
545, 545, 544, -1, 356.00, 267.00, 16.00, 13, ABalppaaapa
546, 546, 545, -1, 250.00, 262.00, 14.00, 15, ABalpappppp
548, 548, 547, -1, 344.00, 209.00, 23.00, 13, ABalaaaparr
549, 549, 548, -1, 348.00, 228.00, 22.00, 13, ABalaaaparl
550, 550, 549, -1, 265.00, 262.00, 21.00, 13, ABalpaaappp
551, 551, 550, -1, 282.00, 256.00, 19.00, 11, ABalpaaappa
553, 553, 552, -1, 206.00, 255.00, 9.00, 15, ABprpappapa
555, 555, 554, -1, 136.00, 336.00, 28.00, 15, Cappaap
556, 556, 555, -1, 269.00, 255.00, 13.00, 15, ABalpappppa
557, 570, 556, -1, 242.00, 235.00, 13.00, 15, ABarapapppa
559, 559, 558, -1, 301.00, 203.00, 31.00, 13, ABalapppapp
561, 561, 560, -1, 220.00, 245.00, 21.00, 15, MSpapaapa
562, 562, 561, -1, 277.00, 164.00, 28.00, 15, ABpraapaapp
563, 563, 562, -1, 303.00, 180.00, 30.00, 11, ABalapppppa
566, 566, 565, -1, 302.00, 221.00, 12.00, 13, ABarapaaaaa
569, 569, 568, -1, 198.00, 307.00, 35.00, 17, Caaaaa
570, 580, 569, -1, 287.00, 288.00, 12.00, 13, ABalppapppp
571, 582, 570, -1, 340.00, 193.00, 23.00, 13, ABalaaappll
573, 542, 573, -1, 171.00, 293.00, 34.00, 19, Cpaaap
574, 571, 574, -1, 247.00, 223.00, 18.00, 16, ABarapaappp
575, 573, 575, -1, 101.00, 300.00, 32.00, 17, Cpaapp
576, 574, 576, -1, 130.00, 301.00, 33.00, 15, Cpaapa
577, 575, 577, -1, 110.00, 286.00, 33.00, 15, Caaapa
578, 576, 578, -1, 144.00, 275.00, 33.00, 15, Caaaap
579, 578, 580, -1, 313.00, 287.00, 12.00, 14, ABalppaappa
580, 579, 581, -1, 281.00, 179.00, 11.20, 14, ABalaappapp
581, 583, 583, -1, 266.00, 262.00, 27.00, 13, MSaaapapa
582, 584, 585, -1, 342.00, 267.00, 25.67, 14, ABalppppapa
583, 585, 586, -1, 300.00, 250.00, 27.00, 13, MSaaapaaa
584, 586, 587, -1, 240.00, 181.00, 12.00, 13, ABalaapappp
