1, 1, 1, 2, 241.00, 199.00, 22.00, 31, ABar
2, 2, 3, -1, 344.00, 213.00, 22.00, 27, ABala
3, 3, 4, -1, 262.00, 296.00, 22.00, 25, ABplp
4, 3, 5, -1, 268.00, 274.00, 26.00, 27, ABpla
6, 5, 7, -1, 165.00, 243.00, 14.00, 25, ABprp
7, 5, 8, -1, 165.00, 220.00, 17.00, 25, ABpra
8, 6, 9, -1, 254.00, 266.00, 10.00, 43, MS
9, 7, 10, -1, 164.00, 322.00, 16.00, 41, E
10, 8, 11, -1, 137.00, 279.00, 28.00, 37, C
11, 9, 12, -1, 107.00, 336.00, 19.00, 31, P3
13, 2, 14, -1, 340.00, 231.00, 18.00, 30, ABalp
