1, 1, 1, -1, 312.00, 206.00, 22.00, 13, ABaraappaaa
2, 2, 2, -1, 300.00, 207.00, 25.00, 13, ABaraappaap
3, 3, 3, -1, 265.00, 209.00, 24.00, 15, ABaraappapp
4, 4, 4, -1, 287.00, 206.00, 24.00, 17, ABaraappapa
5, 5, 5, -1, 246.00, 231.00, 24.00, 15, MSpaapapa
6, 6, 6, -1, 251.00, 218.00, 21.00, 15, ABaraapppaa
7, 7, 7, -1, 241.00, 240.00, 20.00, 13, ABaraappppp
8, 8, 8, -1, 253.00, 273.00, 21.00, 13, ABaraapappa
9, 9, 9, -1, 246.00, 253.00, 20.00, 13, ABaraapappp
10, 10, 10, -1, 256.00, 267.00, 24.00, 19, ABaraapapap
11, 11, 11, -1, 268.00, 259.00, 23.00, 17, ABaraapapaa
12, 12, 12, -1, 315.00, 223.00, 22.00, 15, ABaraapaaaa
13, 13, 13, -1, 308.00, 227.00, 24.00, 15, ABaraapaaap
14, 14, 14, -1, 287.00, 249.00, 25.00, 15, ABaraapaapp
15, 15, 15, -1, 301.00, 236.00, 23.00, 13, ABaraapaapa
16, 16, 16, -1, 311.00, 208.00, 10.00, 15, ABaraaappap
17, 17, 17, -1, 324.00, 211.00, 14.00, 13, ABaraaappaa
18, 18, 18, -1, 317.00, 199.00, 14.00, 15, ABaraaapppa
19, 19, 19, -1, 283.00, 206.00, 9.00, 13, ABaraaapppp
20, 20, 20, -1, 308.00, 210.00, 18.00, 13, ABaraaapaaa
21, 21, 21, -1, 281.00, 214.00, 21.00, 17, ABaraaapapa
22, 22, 22, -1, 299.00, 204.00, 20.00, 13, ABaraaapaap
23, 23, 23, -1, 267.00, 222.00, 21.00, 15, ABaraaapapp
24, 24, 24, -1, 297.00, 229.00, 17.00, 11, ABaraaaaaap
25, 25, 25, -1, 318.00, 233.00, 17.00, 13, ABaraaaaaaa
26, 26, 26, -1, 290.00, 211.00, 18.00, 13, ABaraaaaapp
27, 27, 27, -1, 308.00, 214.00, 15.00, 13, ABaraaaaapa
28, 28, 28, -1, 290.00, 229.00, 26.00, 11, ABaraaaapp
29, 29, 29, -1, 325.00, 213.00, 18.00, 17, ABaraaaapa
30, 30, 30, -1, 240.00, 252.00, 11.00, 15, ABarapapapp
31, 31, 31, -1, 259.00, 238.00, 11.00, 15, ABarapapapa
32, 32, 32, -1, 264.00, 238.00, 15.00, 13, ABarapapaap
33, 33, 33, -1, 267.00, 221.00, 14.00, 11, ABarapapaaa
34, 34, 34, -1, 226.00, 242.00, 14.00, 15, ABarapapppp
35, 35, 35, -1, 250.00, 223.00, 16.00, 15, ABarapappa
36, 36, 36, -1, 285.00, 227.00, 12.00, 13, ABarapaaap
37, 37, 37, -1, 284.00, 231.00, 14.00, 15, ABarapaaaap
38, 38, 38, -1, 279.00, 221.00, 16.00, 11, ABarapaapap
39, 39, 39, -1, 275.00, 209.00, 19.00, 13, ABarapaapaa
40, 40, 40, -1, 265.00, 226.00, 18.00, 15, ABarapaappa
41, 41, 41, -1, 260.00, 200.00, 10.00, 11, ABarapppapa
42, 42, 42, -1, 237.00, 210.00, 10.00, 13, ABarapppapp
43, 43, 43, -1, 290.00, 196.00, 11.00, 13, ABarapppaaa
44, 44, 44, -1, 275.00, 193.00, 10.00, 13, ABarapppaap
45, 45, 45, -1, 268.00, 195.00, 13.00, 13, ABarappppap
46, 46, 46, -1, 284.00, 189.00, 14.00, 13, ABarappppaa
47, 47, 47, -1, 250.00, 195.00, 12.00, 13, ABarapppppa
48, 48, 48, -1, 232.00, 189.00, 11.00, 13, ABarapppppp
49, 49, 49, -1, 247.00, 214.00, 11.00, 15, ABarappaaap
50, 50, 50, -1, 269.00, 212.00, 11.00, 13, ABarappaaaa
51, 51, 51, -1, 261.00, 226.00, 10.00, 15, ABarappaapa
52, 52, 52, -1, 241.00, 229.00, 10.00, 15, ABarappaapp
53, 53, 53, -1, 217.00, 218.00, 9.00, 17, ABarappapap
54, 54, 54, -1, 222.00, 195.00, 9.00, 15, ABarappapaa
55, 55, 55, -1, 178.00, 217.00, 12.00, 15, ABarappappp
56, 56, 56, -1, 190.00, 214.00, 11.00, 15, ABarappappa
57, 57, 57, -1, 234.00, 169.00, 32.00, 17, ABarpapppa
58, 58, 58, -1, 224.00, 182.00, 33.00, 19, ABarpapppp
59, 59, 59, -1, 259.00, 170.00, 32.00, 17, ABarpappap
60, 60, 60, -1, 297.00, 189.00, 34.00, 15, ABarpapaaap
61, 61, 61, -1, 288.00, 192.00, 26.00, 13, ABarpapaapa
62, 62, 62, -1, 288.00, 195.00, 31.00, 15, ABarpapaapp
63, 63, 63, -1, 253.00, 212.00, 35.00, 19, ABarpapapp
64, 64, 64, -1, 292.00, 216.00, 35.00, 17, ABarpapapa
65, 65, 65, -1, 235.00, 268.00, 34.00, 21, ABarpaappp
66, 66, 66, -1, 272.00, 216.00, 35.00, 13, ABarpaapaa
67, 67, 67, -1, 261.00, 261.00, 34.00, 17, ABarpaapap
68, 68, 68, -1, 330.00, 214.00, 31.00, 17, ABarpaaaaa
69, 69, 69, -1, 313.00, 232.00, 34.00, 17, ABarpaaaap
70, 70, 70, -1, 289.00, 231.00, 35.00, 11, ABarpaaapp
71, 71, 71, 72, 307.00, 211.00, 33.00, 13, ABarpaaapa
72, 72, 73, -1, 252.00, 328.00, 32.00, 15, ABarppaaap
73, 73, 74, -1, 213.00, 331.00, 31.00, 15, ABarppaapp
74, 74, 75, -1, 145.00, 352.00, 32.00, 17, ABarppappa
75, 75, 76, -1, 113.00, 361.00, 22.00, 17, ABarppappp
76, 76, 77, -1, 201.00, 349.00, 30.00, 15, ABarppapap
77, 77, 78, -1, 228.00, 338.00, 31.00, 17, ABarppapaa
78, 78, 79, -1, 75.00, 252.00, 22.00, 15, ABarpppppp
79, 79, 80, -1, 105.00, 234.00, 30.00, 17, ABarpppppa
80, 80, 81, -1, 173.00, 194.00, 31.00, 15, ABarppppaa
81, 81, 82, -1, 145.00, 209.00, 32.00, 19, ABarppppap
82, 82, 83, -1, 197.00, 189.00, 34.00, 19, ABarpppaap
83, 83, 84, -1, 222.00, 207.00, 34.00, 15, ABarpppaaa
84, 84, 85, -1, 327.00, 190.00, 24.00, 13, ABalappppaa
85, 85, 86, -1, 320.00, 184.00, 27.00, 13, ABalappppap
86, 86, 87, -1, 288.00, 178.00, 31.00, 13, ABalapppppp
87, 87, 88, -1, 334.00, 204.00, 24.00, 11, ABalapppaaa
88, 88, 89, -1, 323.00, 199.00, 28.00, 11, ABalapppaap
89, 89, 90, -1, 318.00, 199.00, 30.00, 15, ABalapppapa
90, 90, 91, -1, 302.00, 180.00, 26.00, 11, ABalappapap
91, 90, 92, -1, 311.00, 182.00, 25.00, 13, ABalappapaa
92, 91, 93, -1, 333.00, 212.00, 28.00, 13, ABalappaaa
93, 92, 94, -1, 323.00, 175.00, 23.00, 13, ABalappappa
94, 93, 95, -1, 308.00, 165.00, 24.00, 11, ABalappappp
95, 94, 96, -1, 322.00, 267.00, 32.00, 11, ABalapapppp
96, 95, 97, -1, 328.00, 264.00, 31.00, 15, ABalapapppa
97, 96, 98, -1, 339.00, 234.00, 24.00, 15, ABalapappaa
98, 97, 99, -1, 334.00, 249.00, 28.00, 15, ABalapappap
99, 98, 100, -1, 323.00, 231.00, 31.00, 13, ABalapapaa
100, 99, 101, -1, 319.00, 244.00, 31.00, 11, ABalapapapp
101, 100, 102, -1, 332.00, 253.00, 26.00, 17, ABalapaaaa
102, 101, 103, -1, 351.00, 255.00, 25.00, 15, ABalapaaapa
103, 102, 104, -1, 345.00, 267.00, 29.00, 15, ABalapaaapp
104, 103, 599, -1, 344.00, 262.00, 21.00, 15, ABalapaappa
105, 104, 107, -1, 323.00, 282.00, 17.00, 11, ABalapaapap
106, 105, 108, -1, 328.00, 260.00, 18.00, 13, ABalapaapaa
107, 106, 109, -1, 333.00, 272.00, 22.00, 17, ABalapaappp
108, 107, 110, -1, 317.00, 186.00, 15.00, 19, ABalaapaaa
109, 108, 111, -1, 238.00, 172.00, 10.00, 15, ABalaapapa
110, 109, 112, -1, 303.00, 190.00, 12.00, 15, ABalaapaap
111, 110, 113, -1, 298.00, 174.00, 13.00, 13, ABalaappapa
112, 111, 114, -1, 279.00, 169.00, 13.00, 13, ABalaappaa
113, 112, 115, -1, 304.00, 170.00, 22.00, 15, ABalaappppp
114, 113, 116, -1, 309.00, 186.00, 20.00, 13, ABalaappppa
115, 114, 117, -1, 296.00, 182.00, 20.00, 13, ABalaapppaa
116, 115, 118, -1, 290.00, 188.00, 18.00, 13, ABalaapppap
117, 116, 119, -1, 337.00, 257.00, 13.00, 13, ABalaaaalpp
118, 116, 120, -1, 346.00, 244.00, 14.00, 13, ABalaaaalpa
119, 117, 121, -1, 334.00, 203.00, 21.00, 13, ABalaaaarrp
120, 118, 122, -1, 332.00, 193.00, 18.00, 13, ABalaaaarra
121, 119, 123, -1, 341.00, 211.00, 18.00, 13, ABalaaaarlp
122, 120, 124, -1, 343.00, 230.00, 19.00, 13, ABalaaaarla
123, 121, 125, -1, 332.00, 180.00, 21.00, 13, ABalaaapplr
124, 122, 126, -1, 318.00, 189.00, 18.00, 15, ABalaaapprr
125, 123, 127, -1, 309.00, 177.00, 17.00, 15, ABalaaapprl
127, 125, 129, -1, 153.00, 322.00, 10.00, 13, ABplppppapa
128, 126, 130, -1, 141.00, 308.00, 11.00, 13, ABplppppapp
129, 127, 131, -1, 167.00, 303.00, 10.00, 13, ABplppppaaa
130, 128, 132, -1, 158.00, 305.00, 11.00, 13, ABplppppaap
131, 129, 133, -1, 88.00, 323.00, 13.00, 13, ABplppppppp
132, 130, 134, -1, 94.00, 318.00, 11.00, 13, ABplppppppa
133, 131, 135, -1, 134.00, 314.00, 14.00, 13, ABplpppppap
134, 132, 136, -1, 149.00, 315.00, 16.00, 13, ABplpppppaa
135, 133, 137, -1, 116.00, 297.00, 12.00, 11, ABplpppapp
136, 134, 138, -1, 129.00, 315.00, 10.00, 13, ABplpppapaa
137, 135, 139, -1, 131.00, 333.00, 10.00, 23, ABplpppaapp
138, 137, 140, -1, 175.00, 319.00, 10.00, 13, ABplpppaaaa
139, 138, 141, -1, 164.00, 336.00, 11.00, 15, ABplpppaaap
140, 139, 142, -1, 170.00, 337.00, 13.00, 15, ABplppapppp
141, 140, 143, -1, 190.00, 328.00, 12.00, 13, ABplppapppa
142, 141, 144, -1, 201.00, 317.00, 12.00, 15, ABplppappap
143, 142, 145, -1, 210.00, 310.00, 14.00, 15, ABplppappaa
144, 143, 146, -1, 205.00, 332.00, 14.00, 15, ABplppapaap
145, 144, 147, -1, 196.00, 336.00, 16.00, 13, ABplppapapa
146, 145, 148, -1, 179.00, 334.00, 17.00, 13, ABplppapapp
147, 146, 149, -1, 200.00, 301.00, 10.00, 15, ABplppaappa
148, 147, 150, -1, 187.00, 308.00, 10.00, 13, ABplppaappp
149, 148, 151, -1, 266.00, 299.00, 18.00, 13, ABplppaaaaa
150, 149, 152, -1, 255.00, 305.00, 18.00, 11, ABplppaaap
151, 150, 153, -1, 242.00, 269.00, 9.00, 15, ABplpappaaa
152, 151, 154, -1, 226.00, 277.00, 10.00, 15, ABplpappaap
153, 152, 155, -1, 216.00, 274.00, 12.00, 13, ABplpappap
154, 153, 156, -1, 142.00, 295.00, 11.00, 15, ABplpappppp
155, 154, 157, -1, 160.00, 282.00, 11.00, 13, ABplpappppa
156, 155, 158, -1, 177.00, 284.00, 10.00, 15, ABplpapppaa
157, 156, 159, -1, 165.00, 266.00, 10.00, 13, ABplpapppap
158, 157, 160, -1, 210.00, 290.00, 10.00, 13, ABplpapappa
159, 158, 161, -1, 189.00, 287.00, 10.00, 13, ABplpapappp
160, 159, 162, -1, 223.00, 297.00, 14.00, 13, ABplpapapap
161, 160, 163, -1, 240.00, 294.00, 14.00, 13, ABplpapapaa
162, 161, 164, -1, 272.00, 291.00, 13.00, 11, ABplpapaapa
163, 162, 165, -1, 256.00, 300.00, 14.00, 13, ABplpapaapp
164, 163, 166, -1, 258.00, 287.00, 13.00, 11, ABplpapaaap
165, 164, 167, -1, 270.00, 279.00, 12.00, 11, ABplpapaaaa
166, 165, 168, -1, 221.00, 328.00, 12.00, 13, ABplpaaaapp
167, 166, 169, -1, 235.00, 318.00, 12.00, 15, ABplpaaaapa
168, 167, 170, -1, 313.00, 272.00, 16.00, 15, ABplpaaaaaa
169, 168, 171, -1, 301.00, 306.00, 15.00, 15, ABplpaaapap
170, 169, 172, -1, 313.00, 295.00, 14.00, 13, ABplpaaapaa
171, 170, 173, -1, 292.00, 292.00, 14.00, 15, ABplpaaappa
172, 171, 174, -1, 281.00, 294.00, 16.00, 13, ABplpaaappp
173, 172, 175, -1, 266.00, 315.00, 25.00, 13, ABplpaappap
174, 173, 176, -1, 285.00, 302.00, 22.00, 15, ABplpaappaa
175, 174, 177, -1, 294.00, 306.00, 17.00, 11, ABplpaapppa
176, 175, 178, -1, 304.00, 311.00, 18.00, 13, ABplpaapapp
177, 176, 179, -1, 278.00, 308.00, 15.00, 11, ABplpaapppp
178, 177, 180, -1, 301.00, 289.00, 19.00, 15, ABplpaapaap
179, 178, 181, -1, 305.00, 272.00, 18.00, 15, ABplpaapaaa
180, 179, 182, -1, 316.00, 308.00, 22.00, 15, ABplpaapapa
181, 180, 183, -1, 272.00, 324.00, 18.00, 15, ABplaappap
182, 181, 184, -1, 287.00, 319.00, 18.00, 13, ABplaappaa
183, 182, 185, -1, 263.00, 329.00, 21.00, 13, ABplaapppa
184, 183, 186, -1, 233.00, 343.00, 23.00, 15, ABplaapppp
185, 184, 187, -1, 347.00, 232.00, 28.00, 13, ABplaapaaaa
186, 185, 188, -1, 344.00, 251.00, 31.00, 13, ABplaapaaap
187, 186, 189, -1, 339.00, 273.00, 32.00, 13, ABplaapaapa
188, 187, 190, -1, 326.00, 284.00, 28.00, 17, ABplaapaapp
189, 188, 191, -1, 293.00, 298.00, 29.00, 15, ABplaapappp
190, 189, 192, -1, 306.00, 277.00, 28.00, 15, ABplaapappa
191, 190, 193, -1, 297.00, 290.00, 26.00, 13, ABplaapapap
192, 191, 194, -1, 303.00, 275.00, 25.00, 15, ABplaapapaa
193, 192, 195, -1, 310.00, 256.00, 33.00, 13, ABplaaaaapp
194, 193, 196, -1, 315.00, 255.00, 29.00, 13, ABplaaaaapa
195, 194, 197, -1, 331.00, 250.00, 34.00, 15, ABplaaaaaa
196, 195, 198, -1, 279.00, 257.00, 34.00, 17, ABplaaaapp
197, 196, 199, -1, 298.00, 252.00, 35.00, 15, ABplaaaapa
198, 197, 200, -1, 292.00, 302.00, 32.00, 17, ABplaaappa
199, 198, 201, -1, 276.00, 310.00, 32.00, 17, ABplaaappp
200, 199, 202, -1, 308.00, 301.00, 31.00, 15, ABplaaapap
201, 200, 203, -1, 318.00, 281.00, 32.00, 13, ABplaaapaa
202, 201, 204, -1, 128.00, 349.00, 13.00, 17, ABplappppa
203, 202, 205, -1, 102.00, 335.00, 13.00, 15, ABplappppp
204, 203, 206, -1, 113.00, 346.00, 16.00, 15, ABplapppaa
205, 204, 207, -1, 116.00, 323.00, 13.00, 13, ABplapppapp
206, 205, 208, -1, 122.00, 336.00, 12.00, 13, ABplapppapa
207, 206, 209, -1, 197.00, 352.00, 23.00, 15, ABplappaaa
208, 207, 210, -1, 179.00, 359.00, 24.00, 15, ABplappaap
209, 208, 211, -1, 162.00, 360.00, 21.00, 15, ABplappapp
210, 209, 212, -1, 171.00, 350.00, 31.00, 17, ABplappapa
211, 210, 213, -1, 215.00, 351.00, 25.00, 15, ABplapaapp
212, 211, 214, -1, 249.00, 338.00, 21.00, 13, ABplapaapa
213, 212, 215, -1, 258.00, 298.00, 33.00, 13, ABarppaaaa
214, 213, 216, -1, 246.00, 329.00, 26.00, 15, ABplapaaapp
215, 214, 217, -1, 249.00, 317.00, 27.00, 17, ABplapaaapa
216, 215, 218, -1, 104.00, 354.00, 20.00, 13, ABplapapppa
217, 216, 219, -1, 92.00, 341.00, 17.00, 15, ABplapapppp
218, 217, 220, -1, 141.00, 368.00, 21.00, 17, ABplapapap
219, 218, 221, -1, 131.00, 361.00, 18.00, 15, ABplapappa
220, 219, 222, -1, 126.00, 360.00, 28.00, 19, ABplapapaa
221, 220, 223, -1, 236.00, 210.00, 12.00, 13, ABprpapaaaa
222, 221, 224, -1, 215.00, 200.00, 13.00, 13, ABprpapaapp
223, 222, 225, -1, 185.00, 237.00, 11.00, 13, ABprpapappa
224, 223, 226, -1, 184.00, 262.00, 10.00, 15, ABprpapappp
225, 224, 227, -1, 194.00, 230.00, 13.00, 13, ABprpapapap
226, 225, 228, -1, 206.00, 223.00, 12.00, 11, ABprpapapaa
227, 226, 229, -1, 127.00, 288.00, 13.00, 15, ABprpappppp
228, 227, 230, -1, 147.00, 289.00, 13.00, 15, ABprpappppa
229, 228, 231, -1, 212.00, 236.00, 12.00, 13, ABprpapppaa
230, 229, 232, -1, 197.00, 251.00, 12.00, 15, ABprpapppap
231, 230, 233, -1, 199.00, 274.00, 10.00, 15, ABprpappapp
232, 231, 234, -1, 222.00, 232.00, 10.00, 13, ABprpappaap
233, 232, 235, -1, 233.00, 245.00, 9.00, 15, ABprpappaaa
234, 233, 236, -1, 250.00, 184.00, 17.00, 15, ABprpaaaaap
235, 234, 237, -1, 264.00, 191.00, 18.00, 15, ABprpaapaaa
236, 235, 238, -1, 178.00, 200.00, 13.00, 13, ABprpaaaapp
237, 236, 239, -1, 198.00, 203.00, 11.00, 15, ABprpaaaapa
238, 237, 240, -1, 244.00, 184.00, 15.00, 13, ABprpaaappa
239, 238, 241, -1, 231.00, 202.00, 14.00, 15, ABprpapaapa
240, 239, 242, -1, 228.00, 185.00, 14.00, 15, ABprpaaappp
241, 240, 243, -1, 256.00, 173.00, 12.00, 13, ABprpaaapaa
242, 241, 244, -1, 241.00, 165.00, 15.00, 15, ABprpaaapap
243, 242, 245, -1, 246.00, 177.00, 20.00, 13, ABprpaapaap
244, 243, 246, -1, 256.00, 157.00, 21.00, 15, ABprpaapapa
245, 244, 247, -1, 241.00, 163.00, 19.00, 13, ABprpaapapp
246, 245, 248, -1, 236.00, 168.00, 17.00, 13, ABprpaapppa
247, 246, 249, -1, 222.00, 176.00, 16.00, 15, ABprpaapppp
248, 247, 250, -1, 218.00, 185.00, 26.00, 13, ABprpaappap
249, 248, 251, -1, 230.00, 182.00, 23.00, 15, ABprpaappaa
250, 249, 252, -1, 84.00, 263.00, 10.00, 17, ABprpppaapp
251, 250, 253, -1, 101.00, 260.00, 11.00, 13, ABprpppaapa
252, 251, 254, -1, 117.00, 241.00, 11.00, 13, ABprpppaaap
253, 252, 255, -1, 143.00, 250.00, 11.00, 15, ABprpppaaaa
254, 253, 256, -1, 110.00, 275.00, 10.00, 13, ABprpppapaa
255, 254, 257, -1, 103.00, 293.00, 10.00, 15, ABprpppapap
256, 255, 258, -1, 108.00, 309.00, 10.00, 11, ABprpppapp
257, 256, 259, -1, 129.00, 261.00, 10.00, 15, ABprppppapa
258, 257, 260, -1, 124.00, 280.00, 10.00, 11, ABprppppapp
259, 258, 261, -1, 150.00, 267.00, 11.00, 13, ABprppppaaa
260, 259, 262, -1, 139.00, 274.00, 11.00, 13, ABprppppaap
261, 260, 263, -1, 73.00, 299.00, 12.00, 13, ABprppppppp
262, 261, 264, -1, 88.00, 305.00, 10.00, 13, ABprppppppa
263, 262, 265, -1, 126.00, 261.00, 15.00, 15, ABprpppppaa
264, 263, 266, -1, 109.00, 273.00, 15.00, 13, ABprpppppap
265, 264, 267, -1, 183.00, 217.00, 14.00, 13, ABprppaapap
266, 265, 268, -1, 203.00, 210.00, 13.00, 13, ABprppaapaa
267, 266, 269, -1, 177.00, 241.00, 10.00, 15, ABprppaappa
268, 267, 270, -1, 161.00, 247.00, 10.00, 13, ABprppaappp
269, 268, 271, -1, 219.00, 195.00, 17.00, 13, ABprppaaaaa
270, 269, 272, -1, 205.00, 193.00, 15.00, 15, ABprppaaaap
271, 270, 273, -1, 200.00, 184.00, 17.00, 11, ABprppaaap
272, 271, 274, -1, 170.00, 205.00, 16.00, 15, ABprppapaaa
273, 272, 275, -1, 156.00, 214.00, 15.00, 13, ABprppapaap
274, 273, 276, -1, 141.00, 216.00, 14.00, 13, ABprppapapa
275, 274, 277, -1, 127.00, 229.00, 16.00, 13, ABprppapapp
276, 275, 278, -1, 138.00, 237.00, 12.00, 17, ABprppappp
277, 276, 279, -1, 166.00, 220.00, 13.00, 15, ABprppappaa
278, 277, 280, -1, 156.00, 228.00, 11.00, 13, ABprppappap
279, 278, 281, -1, 337.00, 186.00, 28.00, 13, ABpraapaaaa
280, 279, 282, -1, 319.00, 184.00, 33.00, 15, ABarpapaaaa
281, 280, 283, -1, 325.00, 179.00, 31.00, 15, ABpraapaaap
282, 281, 284, -1, 298.00, 167.00, 27.00, 15, ABpraapaapa
283, 282, 285, -1, 248.00, 176.00, 26.00, 13, ABpraapapap
284, 283, 286, -1, 270.00, 182.00, 26.00, 15, ABpraapapaa
285, 284, 287, -1, 244.00, 170.00, 29.00, 17, ABpraapappp
286, 285, 288, -1, 263.00, 177.00, 28.00, 15, ABpraapappa
287, 286, 289, -1, 168.00, 189.00, 24.00, 15, ABpraapppp
288, 287, 290, -1, 194.00, 173.00, 21.00, 13, ABpraapppa
289, 288, 291, -1, 211.00, 172.00, 19.00, 15, ABpraappap
290, 289, 292, -1, 227.00, 163.00, 20.00, 13, ABpraappaa
291, 290, 293, -1, 293.00, 170.00, 24.00, 13, ABpraaapapa
292, 291, 294, -1, 276.00, 163.00, 25.00, 13, ABpraaapapp
293, 292, 295, -1, 269.00, 171.00, 22.00, 13, ABpraaapaad
294, 293, 296, -1, 280.00, 183.00, 20.00, 13, ABpraaapaav
295, 294, 297, -1, 260.00, 187.00, 21.00, 13, ABpraaappaa
296, 295, 298, -1, 247.00, 178.00, 23.00, 13, ABpraaappap
297, 296, 299, -1, 233.00, 184.00, 28.00, 13, ABpraaapppa
298, 297, 300, -1, 225.00, 168.00, 25.00, 15, ABpraaapppp
299, 298, 301, -1, 281.00, 161.00, 21.00, 13, ABpraaaaapd
300, 299, 302, -1, 292.00, 168.00, 18.00, 15, ABpraaaaapv
301, 300, 303, -1, 284.00, 173.00, 16.00, 13, ABpraaaaaaa
302, 301, 304, -1, 264.00, 170.00, 15.00, 15, ABpraaaaaap
303, 302, 305, -1, 264.00, 173.00, 17.00, 13, ABpraaaapav
304, 303, 306, -1, 271.00, 161.00, 18.00, 13, ABpraaaapad
305, 304, 307, -1, 274.00, 155.00, 23.00, 13, ABpraaaappa
306, 305, 308, -1, 260.00, 161.00, 24.00, 13, ABpraaaappp
307, 306, 309, -1, 110.00, 220.00, 20.00, 13, ABprappapp
308, 307, 310, -1, 123.00, 217.00, 30.00, 15, ABprappapa
309, 308, 311, -1, 123.00, 209.00, 23.00, 17, ABprappaap
310, 309, 312, -1, 143.00, 210.00, 20.00, 15, ABprappaaa
311, 310, 313, -1, 82.00, 258.00, 17.00, 17, ABprapppaa
312, 311, 314, -1, 94.00, 278.00, 13.00, 15, ABprapppapp
313, 312, 315, -1, 88.00, 264.00, 13.00, 11, ABprapppapa
314, 313, 316, -1, 73.00, 276.00, 13.00, 17, ABprappppp
315, 314, 317, -1, 83.00, 249.00, 14.00, 15, ABprappppa
316, 315, 318, -1, 204.00, 192.00, 28.00, 15, ABprapaaapa
317, 316, 319, -1, 186.00, 188.00, 26.00, 15, ABprapaaapp
318, 317, 320, -1, 213.00, 200.00, 33.00, 15, ABprapaaaap
319, 318, 321, -1, 222.00, 202.00, 30.00, 13, ABprapaaaaa
320, 319, 322, -1, 150.00, 195.00, 23.00, 13, ABprapaapp
321, 320, 323, -1, 180.00, 182.00, 20.00, 13, ABprapaapa
322, 321, 324, -1, 92.00, 239.00, 16.00, 17, ABprapappa
323, 322, 325, -1, 72.00, 277.00, 18.00, 13, ABprapapppp
324, 323, 326, -1, 65.00, 267.00, 21.00, 13, ABprapapppa
325, 324, 327, -1, 94.00, 231.00, 20.00, 15, ABprapapap
326, 325, 328, -1, 84.00, 251.00, 27.00, 17, ABprapapaa
327, 326, 329, -1, 240.00, 200.00, 29.00, 13, MSppppap
328, 327, 330, -1, 224.00, 201.00, 21.00, 13, MSppppaa
329, 328, 331, -1, 241.00, 217.00, 32.00, 17, MSpppppa
330, 329, 332, -1, 213.00, 228.00, 31.00, 15, MSpppppp
331, 330, 333, -1, 216.00, 215.00, 23.00, 13, MSpppaaa
332, 331, 334, -1, 141.00, 245.00, 19.00, 17, MSpppaap
333, 332, 335, -1, 200.00, 213.00, 17.00, 13, MSpppapp
334, 333, 336, -1, 213.00, 213.00, 18.00, 13, MSpppapa
335, 334, 337, -1, 221.00, 217.00, 13.00, 13, ABprpapaaap
336, 335, 338, -1, 172.00, 252.00, 13.00, 17, MSppaapp
337, 336, 339, -1, 246.00, 205.00, 16.00, 13, MSppaapa
338, 337, 340, -1, 287.00, 205.00, 15.00, 15, MSppaaaa
339, 338, 341, -1, 285.00, 191.00, 24.00, 15, MSppaaap
340, 339, 342, -1, 263.00, 189.00, 29.00, 15, MSppappa
341, 340, 343, -1, 244.00, 196.00, 23.00, 15, MSppapaa
342, 341, 344, -1, 239.00, 195.00, 19.00, 15, MSppapap
343, 342, 345, -1, 200.00, 257.00, 15.00, 13, MSpapappp
344, 343, 346, -1, 213.00, 246.00, 18.00, 15, MSpapappa
345, 344, 347, -1, 196.00, 243.00, 17.00, 15, MSpapapa
346, 345, 348, -1, 223.00, 231.00, 18.00, 13, MSpapaaap
347, 346, 349, -1, 202.00, 235.00, 22.00, 17, MSpapaapp
348, 347, 350, -1, 191.00, 242.00, 25.00, 11, Nuc266_24_194_238
350, 349, 352, -1, 164.00, 319.00, 14.00, 13, MSpappaa
351, 350, 353, -1, 151.00, 230.00, 17.00, 13, MSpapppp
352, 351, 354, -1, 174.00, 219.00, 18.00, 19, MSpapppa
353, 352, 355, -1, 249.00, 233.00, 28.00, 15, MSpaaappa
354, 353, 356, -1, 232.00, 237.00, 28.00, 15, MSpaaappp
355, 354, 357, -1, 251.00, 251.00, 31.00, 15, MSpaaapaa
356, 355, 358, -1, 228.00, 251.00, 29.00, 13, MSpaaapap
357, 356, 359, -1, 281.00, 214.00, 27.00, 17, MSpaaaapa
358, 357, 360, -1, 262.00, 220.00, 28.00, 13, MSpaaaapp
359, 358, 361, -1, 271.00, 223.00, 31.00, 21, MSpaaaaa
360, 359, 362, -1, 232.00, 220.00, 19.00, 13, ABaraappppa
361, 360, 363, -1, 234.00, 221.00, 22.00, 15, ABaraapppap
362, 361, 364, -1, 234.00, 219.00, 28.00, 13, MSpaapaap
363, 362, 365, -1, 254.00, 215.00, 27.00, 13, MSpaapaaa
364, 363, 366, -1, 175.00, 254.00, 24.00, 13, Earap
365, 364, 367, -1, 266.00, 299.00, 21.00, 15, MSapppaa
366, 365, 368, -1, 253.00, 287.00, 27.00, 15, MSapppap
367, 366, 369, -1, 247.00, 280.00, 30.00, 15, MSappppa
368, 367, 370, -1, 219.00, 299.00, 30.00, 15, MSappppp
369, 368, 371, -1, 165.00, 318.00, 18.00, 13, MSappaap
370, 369, 372, -1, 233.00, 298.00, 22.00, 15, MSappaaa
371, 370, 373, -1, 240.00, 298.00, 18.00, 11, MSappapp
372, 371, 374, -1, 251.00, 292.00, 20.00, 11, MSappapa
373, 372, 375, -1, 289.00, 277.00, 31.00, 17, MSapappa
374, 373, 376, -1, 280.00, 264.00, 31.00, 17, MSapappp
375, 374, 377, -1, 272.00, 280.00, 18.00, 13, MSapapap
376, 375, 378, -1, 274.00, 280.00, 23.00, 15, MSapapaa
377, 376, 379, -1, 200.00, 295.00, 14.00, 15, MSapaapp
378, 377, 380, -1, 286.00, 278.00, 18.00, 11, MSapaapa
379, 378, 381, -1, 315.00, 251.00, 15.00, 13, MSapaaaa
380, 379, 382, -1, 312.00, 257.00, 25.00, 13, MSapaaap
381, 380, 383, -1, 304.00, 215.00, 28.00, 17, MSaaaaapa
382, 381, 384, -1, 295.00, 234.00, 31.00, 17, MSaaaaapp
383, 382, 385, -1, 323.00, 215.00, 25.00, 17, MSaaaaaa
384, 383, 386, -1, 281.00, 237.00, 30.00, 13, MSaaaapaa
385, 384, 387, -1, 265.00, 245.00, 30.00, 13, MSaaaapap
386, 385, 388, -1, 242.00, 262.00, 28.00, 15, MSaaaappp
387, 386, 389, -1, 260.00, 260.00, 28.00, 13, MSaaaappa
388, 387, 390, -1, 241.00, 264.00, 25.00, 15, MSaaapapp
389, 388, 391, -1, 280.00, 256.00, 28.00, 13, MSaaapaap
391, 390, 393, -1, 225.00, 273.00, 27.00, 11, MSaaappa
392, 391, 394, -1, 224.00, 266.00, 30.00, 15, MSaaappp
393, 392, 395, -1, 182.00, 314.00, 16.00, 15, MSaapppp
394, 393, 396, -1, 208.00, 314.00, 18.00, 19, MSaapppa
395, 394, 397, -1, 235.00, 275.00, 16.00, 15, MSaapaaap
396, 395, 398, -1, 252.00, 277.00, 17.00, 15, MSaapaaaa
397, 396, 399, -1, 211.00, 275.00, 16.00, 13, MSaapappp
398, 397, 400, -1, 233.00, 280.00, 19.00, 13, MSaapappa
399, 398, 401, -1, 219.00, 280.00, 19.00, 15, MSaapapa
400, 399, 402, -1, 198.00, 279.00, 20.00, 17, Ealpa
401, 400, 403, -1, 157.00, 300.00, 22.00, 17, Ealpp
402, 401, 404, -1, 122.00, 339.00, 20.00, 15, Cappap
403, 402, 405, -1, 167.00, 341.00, 26.00, 15, Cappaaa
404, 403, 406, -1, 109.00, 334.00, 26.00, 17, Capppa
405, 404, 407, -1, 98.00, 320.00, 16.00, 19, Capppp
406, 405, 408, -1, 141.00, 342.00, 24.00, 21, Capapa
407, 406, 409, -1, 144.00, 336.00, 15.00, 17, Capapp
408, 407, 410, -1, 160.00, 340.00, 20.00, 21, Capaap
409, 408, 411, -1, 188.00, 333.00, 23.00, 19, Capaaa
410, 409, 412, -1, 85.00, 287.00, 30.00, 15, Caaapp
411, 410, 413, -1, 61.00, 298.00, 18.00, 17, Caappd
412, 411, 414, -1, 74.00, 322.00, 13.00, 13, Caappv
413, 412, 415, -1, 96.00, 305.00, 15.00, 13, Caapaa
414, 413, 416, -1, 71.00, 313.00, 21.00, 21, Cpappd
415, 414, 417, -1, 75.00, 312.00, 16.00, 19, Cpappv
416, 415, 418, -1, 79.00, 327.00, 24.00, 21, Cpapaa
417, 416, 419, -1, 120.00, 238.00, 21.00, 19, Cppaap
418, 417, 420, -1, 132.00, 226.00, 22.00, 13, Cppaaap
419, 418, 421, -1, 160.00, 214.00, 24.00, 15, Cppaaaa
420, 419, 422, -1, 127.00, 231.00, 26.00, 13, Cppapaa
421, 420, 423, -1, 109.00, 253.00, 15.00, 19, Cppapp
422, 421, 424, -1, 126.00, 246.00, 30.00, 15, Cpppaap
423, 422, 425, -1, 143.00, 222.00, 27.00, 15, Cpppaaa
424, 423, 426, -1, 93.00, 266.00, 19.00, 15, Cpppapp
425, 424, 427, -1, 99.00, 253.00, 23.00, 15, Cpppapa
426, 425, 428, -1, 241.00, 316.00, 22.00, 15, Daapa
427, 426, 429, -1, 225.00, 327.00, 20.00, 15, Daapp
428, 427, 430, -1, 252.00, 300.00, 24.00, 15, Daaaa
429, 428, 431, -1, 233.00, 306.00, 27.00, 13, Daaap
430, 429, 432, -1, 201.00, 313.00, 29.00, 17, Dappa
431, 430, 433, -1, 161.00, 330.00, 30.00, 17, Dappp
432, 431, 434, -1, 181.00, 203.00, 20.00, 13, Dpapp
433, 432, 435, -1, 202.00, 200.00, 22.00, 17, Dpapa
434, 433, 436, -1, 203.00, 211.00, 29.00, 15, Dpaap
435, 434, 437, -1, 216.00, 199.00, 25.00, 13, Dpaaa
436, 435, 438, -1, 153.00, 229.00, 31.00, 19, Dpppp
437, 436, 439, -1, 179.00, 223.00, 31.00, 17, Dpppa
438, 437, 440, -1, 186.00, 207.00, 25.00, 17, Dppaa
439, 438, 441, -1, 161.00, 215.00, 27.00, 15, Dppap
440, 439, 442, -1, 158.00, 247.00, 16.00, 21, Z2
442, 441, 444, -1, 319.00, 295.00, 24.00, 15, ABalpppappa
443, 442, 445, -1, 317.00, 287.00, 26.00, 19, ABalpppappp
444, 443, 446, -1, 300.00, 279.00, 22.00, 13, ABalpppppaa
445, 444, 447, -1, 290.00, 289.00, 23.00, 15, ABalpppppap
446, 445, 448, -1, 276.00, 304.00, 27.00, 17, ABalppppppa
447, 446, 449, -1, 291.00, 314.00, 25.00, 21, ABalppppppp
448, 447, 598, -1, 340.00, 276.00, 27.00, 11, ABalppppapp
449, 591, 597, -1, 340.00, 269.00, 25.00, 11, ABalppppapa
450, 449, 451, -1, 322.00, 283.00, 21.00, 13, ABalppppaav
452, 451, 452, -1, 341.00, 283.00, 17.00, 15, ABalpppaaaa
453, 452, 453, -1, 326.00, 285.00, 14.00, 13, ABalpppaaap
454, 453, 454, -1, 349.00, 277.00, 20.00, 15, ABalpppaapd
455, 454, 455, -1, 339.00, 287.00, 24.00, 13, ABalpppaapv
456, 455, 456, -1, 327.00, 293.00, 17.00, 13, ABalpppapad
457, 456, 457, -1, 319.00, 302.00, 18.00, 13, ABalpppapav
458, 457, 458, -1, 348.00, 258.00, 17.00, 13, ABalaaapalr
459, 458, 459, -1, 342.00, 266.00, 15.00, 11, ABalppaaaa
461, 459, 461, -1, 336.00, 272.00, 12.00, 13, ABalppaaapp
462, 460, 462, -1, 281.00, 303.00, 10.00, 15, ABalppaappp
463, 461, 463, -1, 310.00, 278.00, 10.00, 11, ABalppaapa
464, 462, 464, -1, 301.00, 280.00, 16.00, 15, ABplpaaaaap
465, 463, 465, -1, 297.00, 278.00, 13.00, 13, ABalppapppa
466, 464, 466, -1, 310.00, 266.00, 13.00, 13, ABalppappap
467, 465, 467, -1, 330.00, 260.00, 16.00, 13, ABalppappaa
468, 466, 468, -1, 296.00, 267.00, 10.00, 15, ABalppapapa
469, 467, 469, -1, 275.00, 288.00, 9.00, 15, ABalppapapp
470, 468, 470, -1, 325.00, 260.00, 11.00, 13, ABalppapaaa
471, 469, 471, -1, 310.00, 262.00, 11.00, 13, ABalppapaap
472, 470, 472, -1, 246.00, 300.00, 11.00, 15, ABalpapapap
473, 471, 473, -1, 256.00, 285.00, 10.00, 17, ABalpapapaa
474, 472, 474, -1, 222.00, 310.00, 10.00, 13, ABalpapappa
475, 473, 475, -1, 220.00, 312.00, 13.00, 15, ABalpapappp
476, 474, 476, -1, 266.00, 243.00, 9.00, 15, ABalpapaapp
477, 475, 477, -1, 284.00, 240.00, 9.00, 15, ABalpapaapa
478, 476, 478, -1, 303.00, 253.00, 9.00, 15, ABalpapaaaa
479, 477, 479, -1, 278.00, 263.00, 10.00, 17, ABalpapaaap
480, 478, 480, -1, 276.00, 250.00, 11.00, 19, ABalpappapa
481, 479, 481, -1, 296.00, 244.00, 15.00, 13, ABalpaaaaap
482, 480, 482, -1, 280.00, 236.00, 17.00, 13, ABalpappaaa
483, 481, 483, -1, 227.00, 263.00, 13.00, 15, ABalpappapp
484, 482, 484, -1, 278.00, 265.00, 16.00, 13, ABalpapppaa
485, 482, 485, -1, 261.00, 259.00, 18.00, 13, ABalpapppap
486, 483, 486, -1, 304.00, 248.00, 18.00, 13, ABalpaaapaa
487, 484, 487, -1, 297.00, 258.00, 21.00, 13, ABalpaaapap
488, 485, 488, -1, 293.00, 247.00, 12.00, 13, ABalpaaaapp
489, 485, 489, -1, 303.00, 241.00, 12.00, 13, ABalpaaaapa
490, 486, 490, -1, 287.00, 253.00, 16.00, 15, ABalpappaap
491, 487, 491, -1, 312.00, 234.00, 14.00, 13, ABalpaaaaaa
492, 488, 492, -1, 338.00, 227.00, 14.00, 13, ABalpaapppa
493, 489, 493, -1, 323.00, 245.00, 11.00, 13, ABalpaapppp
494, 490, 494, -1, 325.00, 224.00, 14.00, 13, ABalpaappaa
495, 491, 495, -1, 317.00, 232.00, 11.00, 13, ABalpaappap
496, 492, 496, -1, 298.00, 241.00, 21.00, 15, ABalpaapapa
497, 493, 497, -1, 316.00, 241.00, 21.00, 13, ABalpaapaap
498, 494, 498, -1, 320.00, 230.00, 19.00, 13, ABalpaapaaa
499, 495, 499, -1, 169.00, 267.00, 29.00, 19, Epraa
501, 497, 501, -1, 202.00, 252.00, 26.00, 25, Earaa
502, 498, 502, -1, 151.00, 266.00, 26.00, 21, Earpp
503, 499, 503, -1, 182.00, 284.00, 22.00, 17, Ealap
504, 500, 504, -1, 208.00, 273.00, 25.00, 21, Ealaa
505, 501, 505, -1, 164.00, 292.00, 26.00, 19, Eplaa
506, 502, 506, -1, 137.00, 301.00, 24.00, 19, Eplap
507, 503, 507, -1, 125.00, 277.00, 19.00, 23, Eprpp
508, 504, 508, -1, 191.00, 332.00, 28.00, 17, Dapap
509, 505, 509, -1, 214.00, 326.00, 24.00, 17, Dapaa
510, 506, 510, -1, 225.00, 278.00, 23.00, 15, MSaapaapp
511, 507, 511, -1, 236.00, 267.00, 23.00, 15, MSaapaapa
512, 508, 512, -1, 165.00, 209.00, 32.00, 15, ABarpppapp
513, 509, 513, -1, 229.00, 311.00, 17.00, 13, ABplppaapap
514, 510, 514, -1, 244.00, 306.00, 15.00, 15, ABplppaapaa
515, 511, 515, -1, 74.00, 300.00, 26.00, 19, Cpapap
516, 512, 516, 517, 340.00, 243.00, 17.00, 17, ABalaaaala
517, 513, 518, -1, 278.00, 173.00, 33.00, 15, ABarpappaa
518, 514, 519, -1, 103.00, 263.00, 29.00, 15, Cppppaa
519, 515, 520, -1, 86.00, 278.00, 25.00, 17, Cppppap
520, 516, 521, -1, 92.00, 287.00, 15.00, 17, Cpppppv
521, 517, 522, -1, 184.00, 261.00, 18.00, 19, Earpa
522, 518, 523, -1, 266.00, 199.00, 32.00, 17, MSppappp
524, 520, 525, -1, 238.00, 243.00, 34.00, 17, ABarpaappa
525, 521, 526, -1, 227.00, 307.00, 34.00, 19, ABarppaapa
526, 522, 527, -1, 122.00, 299.00, 17.00, 21, Eplpp
527, 523, 528, -1, 198.00, 276.00, 15.00, 13, MSaappap
528, 524, 529, -1, 176.00, 291.00, 15.00, 21, Z3
529, 525, 530, -1, 266.00, 179.00, 10.00, 13, ABalaapappa
530, 526, 590, -1, 210.00, 268.00, 14.00, 15, MSaappaa
532, 528, 533, -1, 253.00, 317.00, 17.00, 13, ABplppaaaap
533, 529, 534, -1, 121.00, 299.00, 9.00, 17, ABplpppapap
534, 530, 535, -1, 225.00, 328.00, 17.00, 13, ABplppapaaa
535, 531, 536, -1, 345.00, 247.00, 21.00, 15, ABalaaapall
536, 532, 537, -1, 137.00, 282.00, 28.00, 19, Eprap
537, 533, 538, -1, 268.00, 191.00, 16.00, 15, ABprpaaaaaa
538, 534, 539, -1, 203.00, 276.00, 34.00, 21, Cpaaaa
539, 535, 540, -1, 150.00, 266.00, 13.00, 13, MSpappap
540, 536, 541, -1, 224.00, 241.00, 26.00, 17, MSpaapapp
542, 538, 543, -1, 201.00, 222.00, 35.00, 19, ABarpppapa
543, 539, 544, -1, 83.00, 285.00, 20.00, 15, Cpppppd
544, 540, 545, -1, 259.00, 297.00, 30.00, 13, ABplapaaaaa
545, 541, 546, -1, 128.00, 303.00, 21.00, 23, Eplpa
547, 543, 548, -1, 258.00, 310.00, 31.00, 15, ABplapaaaap
548, 544, 549, -1, 355.00, 269.00, 16.00, 15, ABalppaaapa
549, 545, 550, -1, 250.00, 259.00, 14.00, 15, ABalpappppp
551, 547, 552, -1, 346.00, 211.00, 23.00, 13, ABalaaaparr
552, 548, 553, -1, 348.00, 232.00, 23.00, 15, ABalaaaparl
553, 549, 554, -1, 263.00, 260.00, 20.00, 11, ABalpaaappp
554, 550, 555, -1, 282.00, 256.00, 20.00, 15, ABalpaaappa
556, 552, 557, -1, 209.00, 253.00, 9.00, 15, ABprpappapa
558, 554, 559, -1, 138.00, 335.00, 29.00, 15, Cappaap
559, 555, 560, -1, 269.00, 255.00, 13.00, 15, ABalpappppa
560, 556, 561, -1, 245.00, 233.00, 13.00, 15, ABarapapppa
562, 558, 563, -1, 303.00, 203.00, 31.00, 13, ABalapppapp
564, 560, 564, -1, 220.00, 243.00, 21.00, 15, MSpapaapa
565, 561, 565, -1, 279.00, 167.00, 28.00, 17, ABpraapaapp
566, 562, 566, -1, 305.00, 179.00, 29.00, 13, ABalapppppa
569, 565, 569, -1, 302.00, 220.00, 11.00, 13, ABarapaaaaa
571, 567, 571, -1, 285.00, 282.00, 12.00, 13, ABalppapppp
572, 568, 572, -1, 342.00, 194.00, 23.00, 13, ABalaaappll
574, 570, 574, -1, 109.00, 248.00, 26.00, 13, Cppapap
575, 572, 575, -1, 282.00, 177.00, 11.00, 15, ABalaappapp
576, 573, 576, -1, 125.00, 276.00, 22.00, 21, Eprpa
579, 576, 579, -1, 247.00, 220.00, 19.00, 13, ABarapaappp
580, 577, 580, -1, 311.00, 272.00, 21.00, 11, ABalppppaad
583, 579, 585, -1, 172.00, 300.00, 34.00, 16, Cpaaap
584, 580, 586, -1, 102.00, 306.00, 32.00, 15, Cpaapp
585, 581, 587, -1, 130.00, 299.00, 33.00, 15, Cpaapa
586, 582, 588, -1, 109.00, 280.00, 33.00, 15, Caaapa
587, 583, 589, -1, 226.00, 230.00, 16.00, 15, MSpapaaaa
588, 584, 591, -1, 140.00, 271.00, 33.00, 15, Caaaap
589, 585, 592, -1, 196.00, 306.00, 33.00, 17, Caaaaa
590, 586, 593, -1, 92.00, 304.00, 13.00, 13, Caapap
591, 136, 594, -1, 141.00, 335.00, 11.33, 13, ABplpppaapa
592, 587, 583, -1, 311.00, 286.00, 11.20, 14, ABalppaappa
594, 589, 595, -1, 265.00, 265.00, 27.00, 13, MSaaapapa
595, 590, 596, -1, 285.00, 253.00, 23.00, 15, ABalpaapapp
596, 592, 600, -1, 324.00, 229.00, 29.00, 15, ABalapapapa
597, 593, 601, -1, 339.00, 218.00, 26.00, 14, ABalappaap
598, 594, 602, -1, 297.00, 245.00, 28.00, 13, MSaaapaaa
599, 595, 604, -1, 243.00, 183.00, 12.00, 13, ABalaapappp
