1, 1, 1, -1, 298.00, 216.00, 24.00, 13, ABaraappaaa
2, 2, 2, -1, 295.00, 216.00, 26.00, 15, ABaraappaap
3, 3, 3, -1, 254.00, 217.00, 27.00, 19, ABaraappapp
4, 4, 4, -1, 283.00, 210.00, 25.00, 13, ABaraappapa
5, 5, 5, -1, 225.00, 234.00, 28.00, 13, MSpaapapa
6, 6, 6, -1, 233.00, 211.00, 25.00, 17, ABaraapppaa
7, 7, 7, -1, 229.00, 236.00, 22.00, 15, ABaraappppp
8, 8, 8, -1, 254.00, 281.00, 22.00, 15, ABaraapappa
9, 9, 9, -1, 240.00, 263.00, 22.00, 15, ABaraapappp
10, 10, 10, -1, 246.00, 275.00, 28.00, 17, ABaraapapap
11, 11, 11, -1, 258.00, 274.00, 25.00, 15, ABaraapapaa
12, 12, 12, -1, 305.00, 228.00, 23.00, 15, ABaraapaaaa
13, 13, 13, -1, 302.00, 232.00, 25.00, 15, ABaraapaaap
15, 15, 15, -1, 299.00, 245.00, 26.00, 15, ABaraapaapa
16, 16, 16, -1, 304.00, 221.00, 12.00, 13, ABaraaappap
17, 17, 17, -1, 314.00, 219.00, 15.00, 11, ABaraaappaa
18, 18, 18, -1, 310.00, 206.00, 15.00, 13, ABaraaapppa
19, 19, 19, -1, 294.00, 212.00, 11.00, 13, ABaraaapppp
20, 20, 20, -1, 296.00, 214.00, 20.00, 13, ABaraaapaaa
21, 21, 21, -1, 271.00, 209.00, 23.00, 11, ABaraaapapa
22, 22, 22, -1, 285.00, 209.00, 23.00, 11, ABaraaapaap
23, 23, 23, -1, 251.00, 221.00, 25.00, 15, ABaraaapapp
24, 24, 24, -1, 281.00, 240.00, 19.00, 11, ABaraaaaaap
25, 25, 25, -1, 283.00, 216.00, 19.00, 11, ABaraaaaapp
26, 26, 26, -1, 303.00, 214.00, 17.00, 13, ABaraaaaapa
27, 27, 27, -1, 281.00, 236.00, 28.00, 13, ABaraaaapp
28, 28, 28, -1, 310.00, 221.00, 20.00, 13, ABaraaaapap
29, 29, 29, -1, 321.00, 221.00, 18.00, 13, ABaraaaapaa
30, 30, 30, -1, 221.00, 257.00, 16.00, 15, ABarapapapp
31, 31, 31, -1, 264.00, 236.00, 13.00, 15, ABarapapapa
32, 32, 32, -1, 257.00, 219.00, 18.00, 15, ABarapapaap
33, 33, 33, -1, 246.00, 244.00, 16.00, 15, ABarapapaaa
34, 34, 34, -1, 250.00, 209.00, 20.00, 15, ABarapappaa
35, 35, 35, -1, 241.00, 231.00, 17.00, 19, ABarapapppp
36, 36, 36, -1, 270.00, 229.00, 15.00, 13, ABarapaaapp
37, 37, 37, -1, 283.00, 225.00, 15.00, 13, ABarapaaapa
39, 39, 39, -1, 272.00, 225.00, 19.00, 13, ABarapaapap
40, 40, 40, -1, 270.00, 207.00, 20.00, 13, ABarapaapaa
41, 41, 41, -1, 257.00, 205.00, 23.00, 15, ABarapaappa
42, 42, 42, -1, 258.00, 217.00, 12.00, 13, ABarapppapa
43, 43, 43, -1, 245.00, 216.00, 11.00, 15, ABarapppapp
44, 44, 44, -1, 293.00, 200.00, 13.00, 13, ABarapppaaa
45, 45, 45, -1, 289.00, 202.00, 10.00, 13, ABarapppaap
46, 46, 46, -1, 282.00, 193.00, 14.00, 13, ABarappppap
47, 47, 47, -1, 293.00, 188.00, 16.00, 13, ABarappppaa
48, 48, 48, -1, 266.00, 200.00, 12.00, 15, ABarapppppa
49, 49, 49, -1, 264.00, 209.00, 13.00, 15, ABarapppppp
50, 50, 50, -1, 250.00, 231.00, 12.00, 11, ABarappaaap
51, 51, 51, -1, 278.00, 217.00, 12.00, 11, ABarappaaaa
52, 52, 52, -1, 271.00, 231.00, 11.00, 15, ABarappaapa
53, 53, 53, -1, 257.00, 240.00, 11.00, 13, ABarappaapp
54, 54, 54, -1, 222.00, 237.00, 10.00, 15, ABarappapap
55, 55, 55, -1, 238.00, 235.00, 11.00, 15, ABarappapaa
56, 56, 56, -1, 192.00, 237.00, 13.00, 13, ABarappappp
57, 57, 57, -1, 185.00, 249.00, 14.00, 15, ABarappappa
58, 58, 58, -1, 259.00, 163.00, 30.00, 15, ABarpapppa
59, 59, 59, -1, 238.00, 172.00, 31.00, 15, ABarpapppp
60, 60, 60, -1, 279.00, 163.00, 30.00, 13, ABarpappap
61, 61, 61, -1, 314.00, 194.00, 28.00, 15, ABarpapaaap
63, 63, 63, -1, 301.00, 197.00, 29.00, 13, ABarpapaapp
64, 64, 64, -1, 280.00, 224.00, 36.00, 19, ABarpapapp
65, 65, 65, -1, 327.00, 207.00, 34.00, 17, ABarpapapa
66, 66, 66, -1, 228.00, 205.00, 36.00, 15, ABarpaappp
67, 67, 67, -1, 292.00, 199.00, 35.00, 15, ABarpaapaa
68, 68, 68, -1, 346.00, 217.00, 28.00, 13, ABarpaaaaar
69, 69, 69, -1, 336.00, 217.00, 31.00, 13, ABarpaaaapa
70, 70, 70, -1, 310.00, 207.00, 35.00, 17, ABarpaaapp
71, 71, 71, -1, 338.00, 196.00, 31.00, 13, ABarpaaapaa
72, 72, 72, -1, 322.00, 183.00, 32.00, 15, ABarpaaapap
73, 73, 73, -1, 266.00, 336.00, 27.00, 15, ABarppaaap
74, 74, 74, -1, 226.00, 334.00, 28.00, 15, ABarppaapp
75, 75, 75, -1, 158.00, 358.00, 29.00, 15, ABarppappa
76, 76, 76, -1, 120.00, 365.00, 21.00, 17, ABarppappp
77, 77, 77, -1, 213.00, 351.00, 27.00, 17, ABarppapap
78, 78, 78, -1, 239.00, 341.00, 27.00, 15, ABarppapaa
79, 79, 79, -1, 111.00, 220.00, 26.00, 15, ABarpppppa
80, 80, 80, -1, 179.00, 183.00, 28.00, 13, ABarppppaa
81, 81, 81, -1, 155.00, 201.00, 31.00, 13, ABarppppap
82, 82, 82, -1, 204.00, 172.00, 29.00, 17, ABarpppaap
83, 83, 83, -1, 236.00, 192.00, 34.00, 13, ABarpppaaa
84, 84, 84, -1, 328.00, 193.00, 22.00, 11, ABalappppaa
85, 85, 85, -1, 326.00, 184.00, 25.00, 11, ABalappppap
86, 86, 86, -1, 331.00, 215.00, 21.00, 11, ABalapppaaa
87, 87, 87, -1, 324.00, 201.00, 25.00, 11, ABalapppaap
88, 88, 88, -1, 319.00, 209.00, 29.00, 11, ABalapppapa
89, 89, 89, -1, 289.00, 182.00, 25.00, 11, ABalappapap
90, 90, 90, -1, 306.00, 192.00, 24.00, 13, ABalappapaa
91, 91, 91, -1, 337.00, 204.00, 25.00, 11, ABalappaaa
92, 92, 92, -1, 324.00, 186.00, 21.00, 17, ABalappappa
93, 93, 93, -1, 313.00, 174.00, 23.00, 11, ABalappappp
94, 94, 94, -1, 332.00, 255.00, 28.00, 13, ABalapapppa
95, 95, 95, -1, 328.00, 260.00, 30.00, 13, ABalapapppp
96, 96, 96, -1, 340.00, 230.00, 23.00, 13, ABalapappaa
97, 97, 97, -1, 341.00, 235.00, 26.00, 17, ABalapappap
98, 98, 98, -1, 321.00, 223.00, 31.00, 11, ABalapapaa
99, 99, 99, -1, 322.00, 237.00, 31.00, 13, ABalapapapp
100, 100, 100, -1, 322.00, 275.00, 26.00, 11, ABalapaaaap
101, 100, 101, -1, 329.00, 258.00, 25.00, 11, ABalapaaaaa
102, 101, 102, -1, 336.00, 239.00, 22.00, 15, ABalapaaapa
103, 102, 103, -1, 347.00, 262.00, 25.00, 13, ABalapaaapp
105, 104, 105, -1, 334.00, 257.00, 22.00, 13, ABalppppapa
106, 105, 636, -1, 318.00, 281.00, 18.00, 13, ABalapaapap
107, 106, 106, -1, 316.00, 270.00, 19.00, 11, ABalapaapaa
108, 107, 107, -1, 317.00, 202.00, 18.00, 11, ABalaapaaar
109, 108, 108, -1, 254.00, 194.00, 10.00, 11, ABalaapapa
110, 109, 109, -1, 306.00, 196.00, 11.00, 13, ABalaapaapp
111, 110, 110, -1, 316.00, 189.00, 13.00, 15, ABalaapaapa
112, 111, 111, -1, 294.00, 184.00, 10.00, 13, ABalaappapp
113, 112, 112, -1, 305.00, 176.00, 19.00, 13, ABalaappppp
114, 113, 113, -1, 293.00, 188.00, 19.00, 11, ABalaappppa
115, 114, 114, -1, 280.00, 170.00, 18.00, 11, ABalaapppaa
116, 115, 115, -1, 339.00, 249.00, 12.00, 13, ABalaaaalpp
117, 116, 116, -1, 346.00, 239.00, 14.00, 13, ABalaaaalpa
118, 117, 117, -1, 333.00, 206.00, 19.00, 13, ABalaaaarrp
119, 118, 118, -1, 324.00, 199.00, 16.00, 13, ABalaaaarra
120, 119, 119, -1, 336.00, 215.00, 17.00, 11, ABalaaaarlp
121, 120, 120, -1, 337.00, 227.00, 18.00, 13, ABalaaaarla
122, 121, 121, -1, 329.00, 190.00, 18.00, 13, ABalaaapplr
123, 122, 122, -1, 309.00, 195.00, 20.00, 15, ABalaaapprr
124, 123, 123, -1, 308.00, 176.00, 16.00, 13, ABalaaapprl
125, 124, 124, -1, 332.00, 211.00, 27.00, 11, ABalappaapa
126, 125, 125, -1, 150.00, 311.00, 12.00, 13, ABplppppapa
127, 126, 126, -1, 138.00, 298.00, 11.00, 13, ABplppppapp
128, 127, 127, -1, 150.00, 303.00, 14.00, 13, ABplppppaaa
129, 128, 128, -1, 142.00, 302.00, 15.00, 13, ABplppppaap
130, 129, 129, -1, 86.00, 317.00, 13.00, 15, ABplppppppp
131, 130, 130, -1, 95.00, 318.00, 11.00, 13, ABplppppppa
132, 131, 131, -1, 129.00, 315.00, 16.00, 13, ABplpppppap
133, 132, 132, -1, 144.00, 311.00, 18.00, 13, ABplpppppaa
134, 133, 133, -1, 131.00, 314.00, 10.00, 13, ABplpppapaa
135, 134, 134, -1, 122.00, 323.00, 13.00, 11, ABplpppaapp
136, 135, 135, -1, 165.00, 303.00, 12.00, 13, ABplpppaaaa
137, 136, 136, -1, 163.00, 322.00, 12.00, 15, ABplpppaaap
138, 137, 137, -1, 168.00, 319.00, 14.00, 13, ABplppapppp
139, 138, 138, -1, 171.00, 300.00, 14.00, 15, ABplppapppa
140, 139, 139, -1, 191.00, 294.00, 16.00, 13, ABplppappap
141, 140, 140, -1, 202.00, 291.00, 16.00, 13, ABplppappaa
142, 141, 141, -1, 198.00, 313.00, 16.00, 13, ABplppapaap
143, 142, 142, -1, 184.00, 309.00, 14.00, 13, ABplppapapa
144, 143, 143, -1, 177.00, 323.00, 16.00, 15, ABplppapapp
145, 144, 144, -1, 197.00, 281.00, 13.00, 13, ABplppaappa
146, 145, 145, -1, 180.00, 290.00, 12.00, 13, ABplppaappp
147, 146, 146, -1, 266.00, 295.00, 15.00, 13, ABplppaaaaa
148, 147, 147, -1, 266.00, 319.00, 17.00, 11, ABplppaaap
149, 148, 148, -1, 233.00, 254.00, 12.00, 11, ABplpappaaa
150, 149, 149, -1, 204.00, 267.00, 18.00, 13, MSaappaa
151, 150, 150, -1, 128.00, 292.00, 14.00, 13, ABplpappppp
152, 151, 151, -1, 149.00, 284.00, 14.00, 11, ABplpappppa
153, 152, 152, -1, 161.00, 284.00, 12.00, 13, ABplpapppaa
154, 153, 153, -1, 150.00, 270.00, 12.00, 11, ABplpapppap
155, 154, 154, -1, 207.00, 280.00, 14.00, 11, ABplpapappa
156, 155, 155, -1, 179.00, 282.00, 14.00, 11, ABplpapappp
157, 156, 156, -1, 227.00, 298.00, 16.00, 13, ABplpapapap
158, 157, 157, -1, 236.00, 288.00, 16.00, 13, ABplpapapaa
159, 158, 158, -1, 268.00, 275.00, 14.00, 13, ABplpapaapa
160, 159, 159, -1, 258.00, 290.00, 13.00, 11, ABplpapaapp
161, 160, 160, -1, 247.00, 286.00, 14.00, 13, ABplpapaaap
162, 161, 161, -1, 254.00, 269.00, 13.00, 17, ABplpapaaaa
163, 162, 162, -1, 193.00, 307.00, 12.00, 13, ABplpaaaapp
164, 163, 163, -1, 224.00, 290.00, 11.00, 15, ABplpaaaapa
165, 164, 164, -1, 314.00, 279.00, 15.00, 15, ABplpaaaaaa
166, 165, 165, -1, 303.00, 290.00, 13.00, 11, ABplpaaapap
167, 166, 166, -1, 310.00, 276.00, 11.00, 13, ABplpaaapaa
168, 167, 167, -1, 298.00, 280.00, 15.00, 13, ABplpaaappa
169, 168, 168, -1, 281.00, 285.00, 16.00, 13, ABplpaaappp
170, 169, 169, -1, 264.00, 323.00, 20.00, 15, ABplpaappap
171, 170, 170, -1, 267.00, 312.00, 22.00, 15, ABplpaappaa
172, 171, 171, -1, 288.00, 294.00, 14.00, 14, ABplpaapppa
173, 172, 172, -1, 302.00, 302.00, 13.00, 11, ABplpaapapp
174, 173, 173, -1, 276.00, 289.00, 12.00, 17, ABplpaapppp
175, 174, 174, -1, 283.00, 305.00, 20.00, 13, ABplpaapaap
176, 175, 175, -1, 309.00, 277.00, 20.00, 13, ABplpaapaaa
177, 176, 176, -1, 334.00, 293.00, 19.00, 17, ABplpaapapa
178, 177, 177, -1, 270.00, 308.00, 12.00, 13, ABplaappap
179, 178, 178, -1, 279.00, 288.00, 10.00, 17, ABplaappaa
180, 179, 179, -1, 260.00, 324.00, 14.00, 15, ABplaapppa
181, 180, 180, -1, 237.00, 335.00, 18.00, 17, ABplaapppp
182, 181, 181, -1, 350.00, 222.00, 25.00, 15, ABplaapaaaa
183, 182, 182, -1, 353.00, 250.00, 27.00, 15, ABplaapaaap
184, 183, 183, -1, 335.00, 277.00, 24.00, 13, ABplaapaapa
185, 184, 184, -1, 325.00, 287.00, 23.00, 15, ABplaapaapp
186, 185, 185, -1, 296.00, 311.00, 27.00, 17, ABplaapappp
187, 186, 186, -1, 301.00, 284.00, 29.00, 15, ABplaapappa
188, 187, 187, -1, 283.00, 301.00, 27.00, 13, ABplaapapap
189, 188, 188, -1, 294.00, 287.00, 26.00, 13, ABplaapapaa
190, 189, 189, -1, 316.00, 253.00, 31.00, 15, ABplaaaaapp
191, 190, 190, -1, 311.00, 263.00, 26.00, 15, MSapaaap
192, 191, 191, -1, 336.00, 247.00, 31.00, 13, ABplaaaaaap
193, 192, 192, -1, 342.00, 238.00, 28.00, 13, ABplaaaaaaa
194, 193, 193, -1, 302.00, 235.00, 35.00, 17, ABplaaaapp
195, 194, 194, -1, 314.00, 295.00, 31.00, 17, ABplaaappa
196, 195, 195, -1, 295.00, 311.00, 31.00, 17, ABplaaappp
197, 196, 196, -1, 328.00, 291.00, 29.00, 15, ABplaaapap
198, 197, 197, -1, 337.00, 272.00, 29.00, 13, ABplaaapaa
199, 198, 198, -1, 139.00, 332.00, 11.00, 13, ABplappppa
200, 199, 199, -1, 97.00, 331.00, 12.00, 15, ABplappppp
201, 200, 200, -1, 126.00, 356.00, 17.00, 15, ABplapppaaa
202, 201, 201, -1, 114.00, 333.00, 14.00, 13, ABplapppapp
203, 202, 202, -1, 111.00, 339.00, 11.00, 13, ABplapppapa
204, 203, 203, -1, 201.00, 341.00, 20.00, 17, ABplappaaa
205, 204, 204, -1, 181.00, 350.00, 20.00, 17, ABplappaap
206, 205, 205, -1, 165.00, 347.00, 18.00, 15, ABplappapp
207, 206, 206, -1, 182.00, 355.00, 28.00, 15, ABplappapa
208, 207, 207, -1, 215.00, 337.00, 18.00, 15, ABplapaapp
209, 208, 208, -1, 238.00, 322.00, 13.00, 15, ABplapaapa
210, 209, 209, -1, 276.00, 299.00, 34.00, 15, ABarppaaaa
211, 210, 210, -1, 242.00, 324.00, 27.00, 13, ABplapaaapp
212, 211, 211, -1, 257.00, 324.00, 25.00, 15, ABplapaaapa
213, 212, 212, -1, 109.00, 358.00, 18.00, 11, ABplapapppa
214, 213, 213, -1, 98.00, 339.00, 16.00, 15, ABplapapppp
215, 214, 214, -1, 148.00, 359.00, 19.00, 15, ABplapapap
216, 215, 215, -1, 142.00, 349.00, 14.00, 17, ABplapappa
217, 216, 216, -1, 143.00, 367.00, 23.00, 17, ABplapapaa
218, 217, 217, -1, 232.00, 222.00, 14.00, 13, ABprpapaaaa
219, 218, 218, -1, 225.00, 215.00, 11.00, 11, ABprpapaapp
220, 219, 219, -1, 201.00, 256.00, 15.00, 11, ABprpapappa
221, 220, 220, -1, 170.00, 269.00, 14.00, 13, ABprpapappp
222, 221, 221, -1, 201.00, 226.00, 15.00, 11, ABprpapapap
223, 222, 222, -1, 213.00, 231.00, 15.00, 13, ABprpapapaa
224, 223, 223, -1, 123.00, 296.00, 16.00, 15, ABprpappppp
225, 224, 224, -1, 136.00, 286.00, 16.00, 13, ABprpappppa
226, 225, 225, -1, 234.00, 233.00, 14.00, 13, ABprpapppaa
227, 226, 226, -1, 193.00, 239.00, 15.00, 13, ABprpapppap
228, 227, 227, -1, 188.00, 268.00, 15.00, 13, ABprpappapp
229, 228, 228, -1, 217.00, 254.00, 11.00, 13, ABprpappaap
230, 229, 229, -1, 244.00, 248.00, 11.00, 11, ABprpappaaa
231, 230, 230, -1, 250.00, 170.00, 17.00, 13, ABprpaaaaap
232, 231, 231, -1, 255.00, 181.00, 22.00, 13, ABpraaappaa
233, 232, 232, -1, 173.00, 247.00, 12.00, 17, ABprpaaaapp
234, 233, 233, -1, 202.00, 239.00, 11.00, 15, ABprpaaaapa
235, 234, 234, -1, 264.00, 187.00, 15.00, 13, ABprpaaappa
236, 235, 235, -1, 241.00, 213.00, 13.00, 11, ABprpapaapa
237, 236, 236, -1, 247.00, 199.00, 16.00, 13, ABprpaaappp
238, 237, 237, -1, 273.00, 186.00, 12.00, 13, ABprpaaapaa
239, 238, 238, -1, 261.00, 176.00, 13.00, 13, ABprpaaapap
240, 239, 239, -1, 231.00, 178.00, 20.00, 15, ABprpaapaap
241, 240, 240, -1, 276.00, 156.00, 20.00, 13, ABprpaapapa
242, 241, 241, -1, 249.00, 173.00, 15.00, 13, ABprpaapapp
243, 242, 635, -1, 244.00, 189.00, 15.00, 15, ABprpaapppa
244, 243, 242, -1, 238.00, 195.00, 12.00, 13, ABprpaapppp
245, 244, 243, -1, 207.00, 178.00, 20.00, 13, ABprpaappap
246, 245, 244, -1, 222.00, 185.00, 23.00, 15, ABprpaappaa
247, 246, 245, -1, 99.00, 261.00, 12.00, 13, ABprpppaapp
248, 247, 246, -1, 100.00, 265.00, 15.00, 13, ABprpppaapa
249, 248, 247, -1, 125.00, 237.00, 14.00, 13, ABprpppaaap
250, 249, 248, -1, 142.00, 256.00, 12.00, 14, ABprpppaaaa
251, 250, 249, -1, 120.00, 275.00, 10.00, 15, ABprpppapaa
252, 251, 250, -1, 106.00, 292.00, 10.00, 15, ABprpppapap
254, 253, 252, -1, 130.00, 258.00, 11.00, 13, ABprppppapa
255, 254, 253, -1, 127.00, 275.00, 12.00, 15, ABprppppapp
256, 255, 254, -1, 143.00, 263.00, 15.00, 15, ABprppppaaa
257, 256, 255, -1, 129.00, 272.00, 15.00, 15, ABprppppaap
258, 257, 256, -1, 78.00, 293.00, 13.00, 13, ABprppppppp
259, 258, 257, -1, 90.00, 296.00, 10.00, 15, ABprppppppa
260, 259, 258, -1, 121.00, 259.00, 19.00, 13, ABprpppppaa
261, 260, 259, -1, 105.00, 262.00, 18.00, 13, ABprpppppap
262, 261, 260, -1, 203.00, 212.00, 14.00, 13, ABprppaapap
263, 262, 261, -1, 208.00, 220.00, 10.00, 11, ABprppaapaa
264, 263, 262, -1, 187.00, 262.00, 12.00, 13, ABprppaappa
265, 264, 263, -1, 168.00, 266.00, 12.00, 15, ABprppaappp
266, 265, 264, -1, 232.00, 201.00, 14.00, 13, ABprppaaaaa
267, 266, 265, -1, 216.00, 201.00, 13.00, 13, ABprppaaaap
269, 268, 267, -1, 181.00, 222.00, 14.00, 13, ABprppapaaa
270, 269, 268, -1, 166.00, 230.00, 16.00, 13, ABprppapaap
271, 270, 269, -1, 158.00, 239.00, 14.00, 13, ABprppapapa
272, 271, 270, -1, 144.00, 234.00, 15.00, 11, ABprppapapp
273, 272, 271, -1, 157.00, 254.00, 12.00, 11, ABprppapppa
274, 273, 272, -1, 140.00, 245.00, 13.00, 11, ABprppapppp
275, 274, 273, -1, 177.00, 237.00, 16.00, 13, ABprppappaa
276, 275, 274, -1, 171.00, 251.00, 15.00, 13, ABprppappap
277, 276, 275, -1, 346.00, 191.00, 24.00, 17, ABpraapaaaa
278, 277, 276, -1, 326.00, 184.00, 27.00, 13, ABarpapaaaa
279, 278, 277, -1, 331.00, 175.00, 26.00, 15, ABpraapaaap
280, 279, 278, -1, 292.00, 169.00, 24.00, 15, ABpraapaapa
281, 280, 279, -1, 231.00, 178.00, 27.00, 13, ABpraapapap
282, 281, 280, -1, 247.00, 182.00, 25.00, 15, ABpraapapaa
283, 282, 281, -1, 240.00, 164.00, 26.00, 15, ABpraapappp
284, 283, 282, -1, 252.00, 182.00, 29.00, 13, ABpraapappa
285, 284, 283, -1, 179.00, 188.00, 20.00, 15, ABpraapppp
286, 285, 284, -1, 223.00, 182.00, 12.00, 13, ABpraappap
287, 286, 285, -1, 241.00, 181.00, 11.00, 15, ABpraappaa
288, 287, 286, -1, 299.00, 179.00, 21.00, 13, ABpraaapapa
289, 288, 287, -1, 304.00, 166.00, 21.00, 11, ABpraaapapp
290, 289, 288, -1, 272.00, 181.00, 24.00, 15, ABpraaapaad
291, 290, 289, -1, 277.00, 178.00, 22.00, 13, ABpraaapaav
292, 291, 290, -1, 241.00, 182.00, 23.00, 13, ABpraaappap
293, 292, 291, -1, 215.00, 172.00, 24.00, 13, ABpraaapppa
295, 294, 294, -1, 296.00, 158.00, 22.00, 13, ABpraaaaapd
296, 295, 295, -1, 297.00, 164.00, 18.00, 15, ABpraaaaapv
297, 296, 296, -1, 286.00, 167.00, 15.00, 15, ABpraaaaaaa
298, 297, 297, -1, 277.00, 179.00, 11.00, 13, ABpraaaaaap
299, 298, 298, -1, 268.00, 168.00, 16.00, 15, ABpraaaapav
300, 299, 299, -1, 270.00, 165.00, 14.00, 13, ABpraaaapad
301, 300, 300, -1, 261.00, 165.00, 24.00, 11, ABpraaaappa
302, 301, 301, -1, 264.00, 173.00, 27.00, 15, ABpraaaappp
303, 302, 302, -1, 118.00, 220.00, 19.00, 15, ABprappapp
304, 303, 303, -1, 133.00, 209.00, 28.00, 15, ABprappapa
305, 304, 304, -1, 136.00, 211.00, 19.00, 15, ABprappaap
306, 305, 305, -1, 153.00, 209.00, 21.00, 17, ABprappaaa
307, 306, 306, -1, 76.00, 253.00, 15.00, 13, ABprapppaap
308, 307, 307, -1, 93.00, 246.00, 16.00, 15, ABprapppaaa
309, 308, 308, -1, 88.00, 273.00, 14.00, 15, ABprapppapp
310, 309, 309, -1, 82.00, 264.00, 11.00, 13, ABprapppapa
311, 310, 310, -1, 75.00, 276.00, 12.00, 17, ABprappppp
312, 311, 311, -1, 102.00, 254.00, 10.00, 17, ABprappppa
313, 312, 312, -1, 205.00, 185.00, 26.00, 15, ABprapaaapa
314, 313, 313, -1, 189.00, 193.00, 26.00, 13, ABprapaaapp
315, 314, 314, -1, 221.00, 187.00, 32.00, 17, ABprapaaaap
316, 315, 315, -1, 239.00, 175.00, 33.00, 13, ABprapaaaaa
317, 316, 316, -1, 164.00, 199.00, 20.00, 13, ABprapaapp
318, 317, 317, -1, 190.00, 219.00, 11.00, 15, ABprapaapa
319, 318, 318, -1, 101.00, 238.00, 12.00, 15, ABprapappa
320, 319, 319, -1, 73.00, 273.00, 16.00, 15, ABprapapppp
321, 320, 320, -1, 71.00, 254.00, 18.00, 13, ABprapapppa
322, 321, 321, -1, 105.00, 226.00, 16.00, 15, ABprapapap
323, 322, 322, -1, 91.00, 234.00, 25.00, 17, ABprapapaa
324, 323, 323, -1, 254.00, 193.00, 32.00, 15, MSppppap
325, 324, 324, -1, 232.00, 198.00, 21.00, 13, MSppppaa
326, 325, 325, -1, 254.00, 210.00, 34.00, 17, MSpppppa
327, 326, 326, -1, 216.00, 221.00, 33.00, 17, MSpppppp
328, 327, 327, -1, 243.00, 198.00, 28.00, 13, MSpppaaa
329, 328, 328, -1, 126.00, 245.00, 22.00, 13, MSpppaap
330, 329, 329, -1, 217.00, 203.00, 17.00, 15, MSpppapp
331, 330, 330, -1, 214.00, 224.00, 13.00, 13, ABprpapaaap
332, 331, 331, -1, 142.00, 276.00, 19.00, 15, MSppaapp
333, 332, 332, -1, 258.00, 200.00, 19.00, 11, MSppaapa
334, 333, 333, -1, 288.00, 202.00, 18.00, 13, MSppaaaa
335, 334, 334, -1, 281.00, 191.00, 26.00, 17, MSppaaap
336, 335, 335, -1, 218.00, 193.00, 27.00, 15, MSppapaa
337, 336, 336, -1, 250.00, 189.00, 19.00, 11, MSppapap
338, 337, 337, -1, 197.00, 254.00, 20.00, 13, MSpapappp
339, 338, 338, -1, 216.00, 247.00, 22.00, 15, MSpapapaa
340, 339, 339, -1, 210.00, 234.00, 20.00, 13, MSpapaaap
341, 340, 340, -1, 193.00, 223.00, 26.00, 15, MSpapaapp
342, 341, 341, -1, 192.00, 245.00, 24.00, 11, Nuc266_24_194_238
343, 342, 342, -1, 168.00, 326.00, 19.00, 17, MSpappaa
344, 343, 343, -1, 150.00, 231.00, 19.00, 15, MSpapppp
345, 344, 344, -1, 255.00, 239.00, 30.00, 15, MSpaaappa
346, 345, 345, -1, 229.00, 236.00, 32.00, 15, MSpaaappp
347, 346, 346, -1, 239.00, 253.00, 33.00, 13, MSpaaapaa
348, 347, 347, -1, 223.00, 255.00, 31.00, 13, MSpaaapap
349, 348, 348, -1, 280.00, 210.00, 28.00, 13, MSpaaaapa
350, 349, 349, -1, 266.00, 216.00, 29.00, 15, MSpaaaapp
351, 350, 350, -1, 284.00, 226.00, 32.00, 17, MSpaaaaaa
352, 351, 351, -1, 267.00, 229.00, 33.00, 11, MSpaaaaap
353, 352, 352, -1, 224.00, 211.00, 21.00, 13, ABaraappppa
354, 353, 353, -1, 227.00, 213.00, 27.00, 17, ABaraapppap
355, 354, 354, -1, 238.00, 224.00, 30.00, 13, MSpaapaap
356, 355, 355, -1, 254.00, 227.00, 29.00, 11, MSpaapaaa
357, 356, 356, -1, 178.00, 264.00, 27.00, 21, Earap
358, 357, 357, -1, 268.00, 293.00, 21.00, 15, MSapppaa
359, 358, 358, -1, 255.00, 299.00, 31.00, 15, MSapppap
360, 359, 359, -1, 256.00, 279.00, 33.00, 17, MSappppa
361, 360, 360, -1, 227.00, 291.00, 32.00, 17, MSappppp
362, 361, 361, -1, 154.00, 321.00, 22.00, 15, MSappaap
363, 362, 362, -1, 252.00, 294.00, 28.00, 11, MSappaaa
365, 364, 364, -1, 264.00, 292.00, 18.00, 11, MSappapa
366, 365, 365, -1, 282.00, 263.00, 29.00, 15, ABaraapaapp
367, 366, 366, -1, 302.00, 255.00, 33.00, 15, MSapappp
368, 367, 367, -1, 286.00, 286.00, 19.00, 11, MSapapap
369, 368, 368, -1, 263.00, 304.00, 26.00, 13, MSapapaa
370, 369, 369, -1, 164.00, 269.00, 17.00, 15, MSapaapp
371, 370, 370, -1, 297.00, 283.00, 19.00, 9, MSapaapa
372, 371, 371, -1, 311.00, 258.00, 19.00, 13, MSapaaaa
373, 372, 372, -1, 301.00, 228.00, 30.00, 15, MSaaaaapa
374, 373, 373, -1, 276.00, 245.00, 32.00, 17, MSaaaaapp
375, 374, 374, -1, 319.00, 228.00, 25.00, 17, MSaaaaaa
376, 375, 375, -1, 266.00, 248.00, 33.00, 13, MSaaaapaa
377, 376, 376, -1, 253.00, 252.00, 31.00, 13, MSaaaapap
378, 377, 377, -1, 246.00, 268.00, 32.00, 11, MSaaaappa
379, 378, 378, -1, 230.00, 278.00, 29.00, 13, MSaaapapp
380, 379, 379, -1, 268.00, 267.00, 27.00, 13, MSaaapaap
381, 380, 380, -1, 213.00, 276.00, 31.00, 11, MSaaappa
382, 381, 381, -1, 214.00, 263.00, 32.00, 13, MSaaappp
383, 382, 382, -1, 184.00, 308.00, 19.00, 17, MSaapppp
384, 383, 383, -1, 217.00, 301.00, 20.00, 13, MSaapppa
385, 384, 384, -1, 233.00, 270.00, 19.00, 13, MSaapaaap
386, 385, 385, -1, 250.00, 276.00, 19.00, 13, MSaapaaaa
387, 386, 386, -1, 209.00, 279.00, 20.00, 13, MSaapappp
388, 387, 387, -1, 235.00, 287.00, 26.00, 15, MSaapappa
389, 388, 388, -1, 224.00, 282.00, 21.00, 15, MSaapapa
390, 389, 389, -1, 192.00, 282.00, 23.00, 17, Ealpa
391, 390, 390, -1, 110.00, 307.00, 24.00, 23, Eplpa
392, 391, 391, -1, 120.00, 347.00, 22.00, 15, Cappapa
393, 392, 392, -1, 111.00, 339.00, 20.00, 17, Cappapp
394, 393, 393, -1, 173.00, 340.00, 28.00, 15, Cappaaa
395, 394, 394, -1, 88.00, 336.00, 23.00, 15, Capppap
396, 395, 395, -1, 108.00, 339.00, 29.00, 15, Capppaa
397, 602, 396, -1, 89.00, 321.00, 17.00, 15, Cappppv
398, 397, 397, -1, 125.00, 346.00, 25.00, 15, Capapap
399, 398, 398, -1, 151.00, 343.00, 27.00, 15, Capapaa
400, 399, 399, -1, 143.00, 329.00, 16.00, 17, Capapp
401, 400, 400, -1, 180.00, 338.00, 23.00, 17, Capaaap
402, 401, 401, -1, 204.00, 331.00, 23.00, 15, Capaaaa
403, 402, 402, -1, 59.00, 284.00, 18.00, 19, Caappd
404, 403, 403, -1, 73.00, 305.00, 13.00, 13, Caappv
405, 404, 404, -1, 96.00, 300.00, 12.00, 11, Caapap
406, 405, 405, -1, 81.00, 344.00, 20.00, 19, Cpappd
407, 406, 406, -1, 77.00, 328.00, 14.00, 17, Cpappv
408, 407, 407, -1, 62.00, 287.00, 23.00, 21, Cpapaa
409, 408, 408, -1, 108.00, 239.00, 23.00, 15, Cppaapp
410, 409, 409, -1, 131.00, 226.00, 23.00, 15, Cppaapa
411, 410, 410, -1, 145.00, 221.00, 25.00, 15, Cppaaap
412, 411, 411, -1, 169.00, 215.00, 24.00, 15, Cppaaaa
413, 412, 412, -1, 132.00, 232.00, 28.00, 15, Cppapaa
414, 413, 413, -1, 116.00, 259.00, 15.00, 13, Cppappp
415, 414, 414, -1, 107.00, 243.00, 18.00, 15, Cppappa
416, 415, 415, -1, 127.00, 245.00, 32.00, 15, Cpppaap
417, 416, 416, -1, 156.00, 224.00, 28.00, 15, Cpppaaa
418, 417, 417, -1, 86.00, 262.00, 20.00, 17, Cpppapp
419, 418, 418, -1, 86.00, 259.00, 24.00, 17, Cpppapa
420, 419, 419, -1, 245.00, 314.00, 19.00, 13, Daapa
421, 420, 420, -1, 228.00, 316.00, 18.00, 17, Daapp
422, 421, 421, -1, 249.00, 308.00, 23.00, 15, Daaaa
423, 422, 422, -1, 233.00, 308.00, 29.00, 17, Daaap
424, 423, 423, -1, 209.00, 311.00, 32.00, 17, Dappa
425, 424, 424, -1, 175.00, 327.00, 32.00, 17, Dappp
426, 425, 425, -1, 189.00, 206.00, 18.00, 15, Dpapp
427, 426, 426, -1, 205.00, 199.00, 19.00, 15, Dpapa
428, 427, 427, -1, 203.00, 205.00, 31.00, 17, Dpaap
430, 429, 429, -1, 208.00, 197.00, 23.00, 13, Dpaaa
431, 430, 430, -1, 162.00, 232.00, 33.00, 17, Dpppp
432, 431, 431, -1, 189.00, 223.00, 33.00, 21, Dpppa
433, 432, 432, -1, 190.00, 203.00, 23.00, 15, Dppaa
434, 433, 433, -1, 169.00, 213.00, 28.00, 15, Dppap
436, 435, 435, -1, 311.00, 283.00, 26.00, 11, ABalpppappa
437, 436, 436, -1, 309.00, 296.00, 27.00, 13, ABalpppappp
438, 438, 437, -1, 285.00, 299.00, 24.00, 13, ABalpppppap
439, 439, 438, -1, 280.00, 321.00, 24.00, 13, ABalppppppa
440, 440, 439, -1, 303.00, 316.00, 23.00, 13, ABalpppppppa
441, 441, 440, -1, 346.00, 264.00, 23.00, 11, ABalppppapp
442, 442, 441, -1, 336.00, 284.00, 16.00, 13, ABalpppaaaa
443, 443, 442, -1, 324.00, 277.00, 12.00, 15, ABalpppaaap
444, 444, 443, -1, 350.00, 274.00, 18.00, 13, ABalpppaapd
445, 445, 444, -1, 347.00, 279.00, 22.00, 13, ABalpppaapv
446, 446, 445, -1, 316.00, 295.00, 16.00, 13, ABalpppapad
447, 447, 446, -1, 318.00, 293.00, 14.00, 11, ABalpppapav
448, 448, 447, -1, 349.00, 260.00, 16.00, 13, ABalaaapalr
449, 449, 448, -1, 338.00, 263.00, 13.00, 11, ABalppaaaa
450, 450, 449, -1, 334.00, 261.00, 11.00, 15, ABalppaaapp
451, 451, 450, -1, 285.00, 275.00, 12.00, 15, ABalppaappp
452, 452, 451, -1, 300.00, 251.00, 9.00, 15, ABalppaapa
453, 453, 452, -1, 302.00, 303.00, 19.00, 15, ABplpaaaaap
454, 454, 453, -1, 299.00, 266.00, 12.00, 13, ABalppapppa
455, 455, 454, -1, 316.00, 266.00, 14.00, 13, ABalppappap
456, 456, 455, -1, 325.00, 260.00, 16.00, 13, ABalppappaa
457, 457, 456, -1, 282.00, 257.00, 12.00, 13, ABalppapapa
458, 458, 457, -1, 271.00, 270.00, 11.00, 13, ABalppapapp
459, 459, 458, -1, 324.00, 253.00, 12.00, 13, ABalppapaaa
460, 460, 459, -1, 240.00, 287.00, 11.00, 17, ABalpapapap
461, 461, 460, -1, 255.00, 263.00, 11.00, 15, ABalpapapaa
462, 462, 461, -1, 202.00, 294.00, 14.00, 11, ABalpapappa
464, 464, 463, -1, 276.00, 240.00, 10.00, 13, ABalpapaapp
465, 465, 464, -1, 289.00, 233.00, 11.00, 13, ABalpapaapa
466, 466, 465, -1, 307.00, 250.00, 11.00, 15, ABalppapaap
467, 467, 466, -1, 299.00, 244.00, 12.00, 15, ABalpapaaaa
468, 468, 467, -1, 290.00, 250.00, 18.00, 13, ABalpaaaaap
469, 469, 468, -1, 264.00, 242.00, 18.00, 11, ABalpappaaa
470, 470, 469, -1, 219.00, 259.00, 19.00, 15, ABalpappapp
471, 471, 470, -1, 276.00, 273.00, 19.00, 13, ABalpapppaa
472, 472, 471, -1, 261.00, 257.00, 22.00, 15, ABalpapppap
473, 473, 472, -1, 297.00, 257.00, 21.00, 13, ABalpaaapaa
474, 474, 473, -1, 292.00, 262.00, 25.00, 11, ABalpaaapap
475, 475, 474, -1, 282.00, 248.00, 16.00, 13, ABalpaaaapp
476, 476, 475, -1, 298.00, 241.00, 14.00, 13, ABalpaaaapa
477, 477, 476, -1, 285.00, 263.00, 19.00, 15, ABalpappaap
478, 478, 477, -1, 303.00, 242.00, 16.00, 17, ABalpaaaaaa
479, 479, 478, -1, 329.00, 227.00, 14.00, 11, ABalpaapppa
480, 480, 479, -1, 325.00, 239.00, 12.00, 13, ABalpaapppp
481, 481, 480, -1, 318.00, 229.00, 16.00, 13, ABalpaappaa
482, 482, 481, -1, 310.00, 232.00, 12.00, 11, ABalpaappap
483, 483, 482, -1, 285.00, 249.00, 24.00, 13, ABalpaapapa
484, 484, 483, -1, 301.00, 244.00, 22.00, 15, ABalpaapaap
485, 485, 484, -1, 310.00, 239.00, 19.00, 15, ABalpaapaaa
487, 487, 486, -1, 143.00, 307.00, 24.00, 19, Ealpp
488, 634, 634, -1, 196.00, 253.00, 26.00, 23, Earaa
489, 489, 488, -1, 142.00, 279.00, 27.00, 19, Earpp
490, 490, 489, -1, 177.00, 282.00, 26.00, 15, Ealap
491, 491, 490, -1, 206.00, 276.00, 25.00, 23, Ealaa
492, 492, 491, -1, 120.00, 309.00, 27.00, 19, Eplap
493, 493, 492, -1, 103.00, 283.00, 20.00, 15, Eprpp
494, 494, 493, -1, 196.00, 333.00, 28.00, 17, Dapap
495, 495, 494, -1, 226.00, 318.00, 23.00, 17, Dapaa
496, 496, 495, -1, 224.00, 297.00, 25.00, 15, MSaapaapp
497, 497, 496, -1, 240.00, 285.00, 23.00, 11, MSaapaapa
498, 498, 497, -1, 174.00, 200.00, 31.00, 15, ABarpppapp
499, 499, 498, -1, 243.00, 302.00, 14.00, 13, ABplppaapap
500, 500, 499, -1, 244.00, 306.00, 10.00, 11, ABplppaapaa
501, 501, 500, -1, 87.00, 342.00, 27.00, 17, Cpapap
502, 502, 501, -1, 337.00, 247.00, 16.00, 13, ABalaaaalar
503, 503, 502, -1, 336.00, 240.00, 17.00, 13, ABalaaaalal
504, 504, 503, -1, 300.00, 181.00, 29.00, 11, ABalapppppp
505, 505, 504, -1, 297.00, 169.00, 29.00, 15, ABarpappaa
506, 506, 505, -1, 95.00, 271.00, 32.00, 17, Cppppaa
507, 507, 506, -1, 73.00, 284.00, 26.00, 15, Cppppap
508, 508, 507, -1, 104.00, 282.00, 15.00, 15, Cpppppv
509, 509, 508, -1, 179.00, 258.00, 24.00, 19, Earpa
511, 511, 510, -1, 108.00, 284.00, 25.00, 19, Eprpa
512, 512, 511, -1, 257.00, 242.00, 35.00, 21, ABarpaappa
513, 513, 512, -1, 249.00, 305.00, 34.00, 19, ABarppaapa
515, 515, 514, -1, 200.00, 269.00, 20.00, 15, MSaappap
516, 516, 515, -1, 162.00, 297.00, 18.00, 23, Z3
517, 517, 516, -1, 275.00, 200.00, 9.00, 11, ABalaapappa
519, 519, 518, -1, 220.00, 315.00, 14.00, 13, ABplppapaaa
520, 520, 519, -1, 335.00, 242.00, 19.00, 15, ABalaaapall
522, 522, 521, -1, 273.00, 192.00, 17.00, 13, ABprpaaaaaa
523, 523, 522, -1, 131.00, 241.00, 17.00, 15, MSpappap
524, 524, 523, -1, 211.00, 244.00, 29.00, 13, MSpaapapp
526, 526, 525, -1, 76.00, 293.00, 18.00, 15, Cpppppd
527, 527, 526, -1, 277.00, 304.00, 32.00, 15, ABplapaaaaa
529, 529, 528, -1, 267.00, 313.00, 31.00, 15, ABplapaaaap
530, 530, 529, -1, 335.00, 273.00, 15.00, 11, ABalppaaapa
531, 531, 530, -1, 261.00, 261.00, 18.00, 17, ABalpappppp
532, 532, 531, -1, 140.00, 252.00, 19.00, 23, Z2
533, 533, 532, -1, 350.00, 212.00, 20.00, 13, ABalaaaparr
534, 534, 533, -1, 348.00, 226.00, 20.00, 13, ABalaaaparl
535, 535, 534, -1, 266.00, 273.00, 23.00, 13, ABalpaaappp
536, 536, 535, -1, 280.00, 272.00, 22.00, 15, ABalpaaappa
538, 538, 537, -1, 218.00, 243.00, 14.00, 11, ABprpappapa
540, 540, 539, -1, 143.00, 335.00, 32.00, 17, Cappaap
541, 541, 540, -1, 276.00, 246.00, 14.00, 13, ABalpappapa
542, 542, 541, -1, 238.00, 248.00, 15.00, 15, ABarapapppa
544, 544, 543, -1, 209.00, 222.00, 26.00, 15, MSpapappa
545, 545, 544, -1, 208.00, 219.00, 22.00, 15, MSpapaapa
546, 546, 545, -1, 276.00, 163.00, 25.00, 11, ABpraapaapp
547, 547, 546, -1, 305.00, 180.00, 26.00, 15, ABalapppppa
548, 548, 547, -1, 293.00, 217.00, 15.00, 15, ABarapaaaaa
549, 549, 548, -1, 296.00, 262.00, 14.00, 15, ABalppapppp
550, 550, 549, -1, 342.00, 197.00, 20.00, 13, ABalaaappll
552, 552, 551, -1, 102.00, 250.00, 28.00, 17, Cppapap
553, 553, 552, -1, 241.00, 224.00, 21.00, 15, ABarapaappp
557, 557, 556, -1, 304.00, 263.00, 9.00, 15, ABalppaappa
558, 558, 557, -1, 281.00, 270.00, 25.00, 15, ABalpaapapp
559, 559, 558, -1, 126.00, 331.00, 14.00, 19, ABplpppaapa
560, 560, 559, -1, 339.00, 235.00, 32.00, 13, ABarpaaaapp
564, 564, 563, -1, 221.00, 234.00, 18.00, 15, MSpapaaaa
565, 565, 564, -1, 199.00, 195.00, 12.00, 15, ABpraapppa
566, 566, 565, -1, 194.00, 222.00, 19.00, 13, MSpapppaa
567, 567, 566, -1, 171.00, 227.00, 20.00, 15, MSpapppap
568, 568, 567, -1, 279.00, 252.00, 36.00, 19, ABarpaapap
569, 569, 568, -1, 268.00, 185.00, 20.00, 13, ABprpaapaaa
570, 570, 569, -1, 259.00, 251.00, 16.00, 13, ABalpappppa
571, 571, 570, -1, 287.00, 318.00, 19.00, 13, ABalpppppppp
572, 572, 571, -1, 107.00, 311.00, 10.00, 11, ABprpppapp
573, 573, 572, -1, 153.00, 298.00, 29.00, 21, Eplaa
574, 574, 573, -1, 80.00, 263.00, 29.00, 15, Caaapp
575, 575, 574, -1, 214.00, 204.00, 10.00, 9, ABprppaaap
576, 576, 575, -1, 227.00, 274.00, 15.00, 13, ABplpappap
577, 577, 576, -1, 122.00, 287.00, 30.00, 17, Eprap
578, 578, 577, -1, 102.00, 247.00, 32.00, 17, Caaapa
579, 579, 578, -1, 293.00, 175.00, 12.00, 11, ABalaappaa
580, 580, 579, -1, 151.00, 275.00, 31.00, 14, Epraa
581, 581, 580, -1, 122.00, 346.00, 32.00, 19, Cpaapp
582, 582, 581, -1, 309.00, 192.00, 14.00, 13, ABalaapaaal
583, 583, 582, -1, 343.00, 194.00, 27.00, 15, ABarpaaaaal
585, 585, 584, -1, 101.00, 296.00, 14.00, 17, Caapaa
586, 586, 585, -1, 201.00, 199.00, 34.00, 15, ABarpppapa
587, 641, 586, -1, 266.00, 253.00, 11.00, 14, ABalpapaaap
588, 588, 587, -1, 252.00, 296.00, 19.00, 13, MSappapp
589, 589, 588, -1, 79.00, 241.00, 19.00, 13, ABarpppppp
593, 593, 592, -1, 230.00, 202.00, 17.00, 11, MSpppapa
594, 594, 593, -1, 291.00, 275.00, 31.00, 15, MSapappa
599, 599, 597, -1, 292.00, 202.00, 33.00, 17, MSppappp
602, 602, 600, -1, 109.00, 311.00, 14.00, 13, Cappppd
604, 604, 602, -1, 235.00, 258.00, 29.00, 15, MSaaaappp
605, 605, 603, -1, 111.00, 350.00, 14.00, 13, ABplapppaap
609, 609, 606, -1, 315.00, 270.00, 30.00, 13, ABplaaaaapa
611, 611, 607, -1, 322.00, 232.00, 35.00, 17, ABplaaaapa
614, 614, 609, -1, 195.00, 239.00, 20.00, 13, MSpapapap
618, 618, 613, -1, 115.00, 303.00, 20.00, 23, Eplpp
622, 622, 616, -1, 139.00, 339.00, 21.00, 13, Capaapp
623, 623, 617, -1, 168.00, 341.00, 23.00, 13, Capaapa
626, 626, 620, -1, 279.00, 188.00, 32.00, 17, MSppappa
627, 635, 621, -1, 219.00, 298.00, 12.00, 13, ABalpapappp
630, 633, 624, -1, 214.00, 335.00, 32.00, 17, Caaaaa
633, 627, 626, -1, 232.00, 162.00, 20.33, 15, ABpraaapppp
634, 628, 629, -1, 191.00, 324.00, 34.00, 17, Cpaaap
635, 629, 630, -1, 239.00, 224.00, 19.25, 13, ABarapappap
636, 38, 38, -1, 276.00, 227.00, 17.00, 15, ABarapaaaap
637, 630, 631, -1, 128.00, 308.00, 33.00, 15, Cpaapa
638, 631, 632, -1, 229.00, 303.00, 33.00, 15, Cpaaaa
639, 632, 633, -1, 140.00, 231.00, 33.00, 15, Caaaap
640, 437, 627, -1, 299.00, 288.00, 21.00, 15, ABalpppppaa
641, 636, 637, -1, 317.00, 202.00, 30.67, 13, ABalapppapp
642, 637, 638, -1, 340.00, 268.00, 21.00, 19, ABalapaappp
643, 638, 639, -1, 276.00, 182.00, 19.00, 13, ABalaapppap
647, 554, 643, -1, 298.00, 281.00, 22.25, 13, ABalppppaad
648, 643, 644, -1, 129.00, 299.00, 10.00, 13, ABplpppapap
649, 644, 645, -1, 299.00, 184.00, 13.00, 13, ABalaappapa
650, 645, 646, -1, 261.00, 271.00, 30.00, 13, MSaaapapa
651, 646, 647, -1, 256.00, 312.00, 15.00, 16, ABplppaaaap
652, 647, 648, -1, 223.00, 271.00, 12.20, 15, ABplpappaap
653, 648, 649, -1, 312.00, 242.00, 18.00, 11, ABaraaaaaaa
654, 649, 650, -1, 330.00, 259.00, 19.00, 15, ABalapaappa
655, 650, 651, -1, 325.00, 227.00, 29.00, 15, ABalapapapa
656, 651, 652, -1, 293.00, 249.00, 30.00, 13, MSaaapaaa
658, 653, 654, -1, 254.00, 197.00, 12.00, 13, ABalaapappp
659, 654, 655, -1, 310.00, 280.00, 22.69, 13, ABalppppaav
