1, 1, 1, -1, 297.00, 216.00, 24.00, 13, ABaraappaaa
2, 2, 2, -1, 295.00, 216.00, 26.00, 13, ABaraappaap
3, 3, 3, -1, 250.00, 216.00, 28.00, 19, ABaraappapp
4, 4, 4, -1, 282.00, 211.00, 26.00, 13, ABaraappapa
5, 5, 5, -1, 224.00, 234.00, 28.00, 13, MSpaapapa
6, 6, 6, -1, 230.00, 212.00, 24.00, 19, ABaraapppaa
7, 7, 7, -1, 228.00, 236.00, 22.00, 15, ABaraappppp
8, 8, 8, -1, 252.00, 282.00, 22.00, 13, ABaraapappa
9, 9, 9, -1, 242.00, 264.00, 23.00, 15, ABaraapappp
10, 10, 10, -1, 248.00, 275.00, 28.00, 17, ABaraapapap
11, 11, 11, -1, 260.00, 275.00, 25.00, 17, ABaraapapaa
12, 12, 12, -1, 305.00, 227.00, 23.00, 15, ABaraapaaaa
13, 13, 13, -1, 299.00, 234.00, 25.00, 15, ABaraapaaap
15, 15, 15, -1, 300.00, 248.00, 26.00, 13, ABaraapaapa
16, 16, 16, -1, 304.00, 221.00, 12.00, 11, ABaraaappap
17, 17, 17, -1, 313.00, 217.00, 14.00, 13, ABaraaappaa
18, 18, 18, -1, 309.00, 205.00, 15.00, 11, ABaraaapppa
19, 19, 19, -1, 295.00, 210.00, 11.00, 13, ABaraaapppp
20, 20, 20, -1, 295.00, 215.00, 20.00, 13, ABaraaapaaa
21, 21, 21, -1, 270.00, 209.00, 24.00, 15, ABaraaapapa
22, 22, 22, -1, 285.00, 210.00, 23.00, 11, ABaraaapaap
23, 23, 23, -1, 249.00, 222.00, 25.00, 15, ABaraaapapp
24, 24, 24, -1, 278.00, 239.00, 20.00, 11, ABaraaaaaap
25, 25, 25, -1, 281.00, 215.00, 19.00, 11, ABaraaaaapp
26, 26, 26, -1, 302.00, 214.00, 17.00, 13, ABaraaaaapa
27, 27, 27, -1, 277.00, 237.00, 27.00, 13, ABaraaaapp
28, 28, 28, -1, 312.00, 220.00, 20.00, 17, ABaraaaapap
29, 29, 29, -1, 319.00, 219.00, 19.00, 13, ABaraaaapaa
30, 30, 30, -1, 220.00, 257.00, 16.00, 15, ABarapapapp
31, 31, 31, -1, 266.00, 234.00, 13.00, 15, ABarapapapa
32, 32, 32, -1, 256.00, 219.00, 18.00, 15, ABarapapaap
33, 33, 33, -1, 243.00, 244.00, 16.00, 15, ABarapapaaa
34, 34, 34, -1, 249.00, 210.00, 20.00, 15, ABarapappaa
35, 35, 35, -1, 241.00, 232.00, 17.00, 19, ABarapapppp
36, 36, 36, -1, 271.00, 229.00, 16.00, 11, ABarapaaapp
37, 37, 37, -1, 283.00, 222.00, 15.00, 13, ABarapaaapa
38, 636, 38, -1, 274.00, 226.00, 17.00, 15, ABarapaaaap
39, 39, 39, -1, 270.00, 225.00, 20.00, 13, ABarapaapap
40, 40, 40, -1, 270.00, 206.00, 21.00, 13, ABarapaapaa
41, 41, 41, -1, 255.00, 205.00, 23.00, 15, ABarapaappa
42, 42, 42, -1, 256.00, 216.00, 12.00, 14, ABarapppapa
43, 43, 43, -1, 248.00, 218.00, 10.00, 17, ABarapppapp
44, 44, 44, -1, 293.00, 198.00, 13.00, 13, ABarapppaaa
45, 45, 45, -1, 290.00, 200.00, 10.00, 15, ABarapppaap
46, 46, 46, -1, 281.00, 192.00, 14.00, 13, ABarappppap
47, 47, 47, -1, 291.00, 185.00, 16.00, 13, ABarappppaa
48, 48, 48, -1, 266.00, 202.00, 12.00, 17, ABarapppppa
49, 49, 49, -1, 265.00, 207.00, 13.00, 15, ABarapppppp
50, 50, 50, -1, 251.00, 230.00, 12.00, 13, ABarappaaap
51, 51, 51, -1, 279.00, 216.00, 12.00, 11, ABarappaaaa
52, 52, 52, -1, 273.00, 228.00, 11.00, 13, ABarappaapa
53, 53, 53, -1, 260.00, 238.00, 11.00, 11, ABarappaapp
54, 54, 54, -1, 222.00, 238.00, 10.00, 15, ABarappapap
55, 55, 55, -1, 240.00, 237.00, 10.00, 15, ABarappapaa
56, 56, 56, -1, 191.00, 237.00, 12.00, 13, ABarappappp
57, 57, 57, -1, 184.00, 252.00, 14.00, 13, ABarappappa
58, 58, 58, -1, 259.00, 161.00, 29.00, 15, ABarpapppa
59, 59, 59, -1, 239.00, 171.00, 31.00, 15, ABarpapppp
60, 60, 60, -1, 280.00, 164.00, 30.00, 13, ABarpappap
61, 61, 61, -1, 315.00, 194.00, 29.00, 15, ABarpapaaap
63, 63, 63, -1, 300.00, 196.00, 29.00, 13, ABarpapaapp
64, 64, 64, -1, 281.00, 222.00, 36.00, 21, ABarpapapp
65, 65, 65, -1, 329.00, 206.00, 33.00, 17, ABarpapapa
66, 66, 66, -1, 230.00, 210.00, 36.00, 11, ABarpaappp
67, 67, 67, -1, 292.00, 197.00, 35.00, 15, ABarpaapaa
68, 68, 68, -1, 346.00, 215.00, 28.00, 13, ABarpaaaaar
69, 69, 69, -1, 339.00, 216.00, 31.00, 13, ABarpaaaapa
70, 70, 70, -1, 311.00, 206.00, 35.00, 17, ABarpaaapp
71, 71, 71, -1, 339.00, 196.00, 31.00, 15, ABarpaaapaa
72, 72, 72, -1, 324.00, 183.00, 32.00, 15, ABarpaaapap
73, 73, 73, -1, 267.00, 336.00, 26.00, 15, ABarppaaap
74, 74, 74, -1, 227.00, 334.00, 28.00, 15, ABarppaapp
75, 75, 75, -1, 159.00, 357.00, 29.00, 17, ABarppappa
76, 76, 76, -1, 119.00, 364.00, 21.00, 15, ABarppappp
77, 77, 77, -1, 214.00, 350.00, 26.00, 17, ABarppapap
78, 78, 78, -1, 240.00, 341.00, 27.00, 15, ABarppapaa
79, 79, 79, -1, 112.00, 219.00, 26.00, 15, ABarpppppa
80, 80, 80, -1, 180.00, 183.00, 28.00, 15, ABarppppaa
81, 81, 81, -1, 156.00, 198.00, 30.00, 13, ABarppppap
82, 82, 82, -1, 205.00, 173.00, 30.00, 19, ABarpppaap
83, 83, 83, -1, 236.00, 192.00, 34.00, 13, ABarpppaaa
84, 84, 84, -1, 326.00, 193.00, 22.00, 11, ABalappppaa
85, 85, 85, -1, 326.00, 183.00, 24.00, 11, ABalappppap
86, 86, 86, -1, 329.00, 217.00, 22.00, 11, ABalapppaaa
87, 87, 87, -1, 322.00, 203.00, 25.00, 11, ABalapppaap
88, 88, 88, -1, 319.00, 211.00, 29.00, 9, ABalapppapa
89, 89, 89, -1, 287.00, 183.00, 25.00, 13, ABalappapap
90, 90, 90, -1, 304.00, 192.00, 24.00, 13, ABalappapaa
91, 91, 91, -1, 335.00, 208.00, 25.00, 11, ABalappaaa
92, 92, 92, -1, 323.00, 185.00, 21.00, 15, ABalappappa
93, 93, 93, -1, 309.00, 175.00, 24.00, 13, ABalappappp
94, 94, 94, -1, 331.00, 254.00, 27.00, 13, ABalapapppa
95, 95, 95, -1, 331.00, 258.00, 30.00, 11, ABalapapppp
96, 96, 96, -1, 338.00, 229.00, 22.00, 11, ABalapappaa
97, 97, 97, -1, 341.00, 234.00, 26.00, 15, ABalapappap
98, 98, 98, -1, 322.00, 223.00, 32.00, 11, ABalapapaa
99, 99, 99, -1, 320.00, 237.00, 31.00, 14, ABalapapapp
100, 100, 100, -1, 323.00, 276.00, 26.00, 11, ABalapaaaap
101, 101, 101, -1, 328.00, 255.00, 25.00, 11, ABalapaaaaa
102, 102, 102, -1, 336.00, 241.00, 22.00, 15, ABalapaaapa
103, 103, 103, -1, 348.00, 259.00, 25.00, 15, ABalapaaapp
105, 105, 105, -1, 334.00, 257.00, 22.00, 15, ABalppppapa
106, 107, 638, -1, 314.00, 269.00, 18.00, 11, ABalapaapaa
107, 108, 107, -1, 316.00, 202.00, 18.00, 13, ABalaapaaar
108, 109, 108, -1, 254.00, 195.00, 10.00, 11, ABalaapapa
109, 110, 109, -1, 307.00, 194.00, 11.00, 15, ABalaapaapp
110, 111, 110, -1, 317.00, 188.00, 14.00, 13, ABalaapaapa
111, 112, 641, -1, 296.00, 185.00, 10.00, 11, ABalaappapp
112, 113, 112, -1, 304.00, 176.00, 19.00, 13, ABalaappppp
113, 114, 113, -1, 294.00, 187.00, 19.00, 15, ABalaappppa
114, 115, 114, -1, 278.00, 169.00, 18.00, 11, ABalaapppaa
115, 116, 115, -1, 339.00, 246.00, 13.00, 11, ABalaaaalpp
116, 117, 116, -1, 344.00, 236.00, 14.00, 15, ABalaaaalpa
117, 118, 117, -1, 332.00, 206.00, 19.00, 13, ABalaaaarrp
118, 119, 118, -1, 322.00, 197.00, 16.00, 13, ABalaaaarra
119, 120, 119, -1, 335.00, 215.00, 17.00, 13, ABalaaaarlp
120, 121, 120, -1, 339.00, 227.00, 18.00, 17, ABalaaaarla
121, 122, 121, -1, 329.00, 189.00, 18.00, 13, ABalaaapplr
122, 123, 122, -1, 307.00, 196.00, 21.00, 13, ABalaaapprr
123, 124, 123, -1, 307.00, 176.00, 16.00, 13, ABalaaapprl
124, 125, 124, -1, 333.00, 211.00, 27.00, 13, ABalappaapa
125, 126, 125, -1, 149.00, 309.00, 12.00, 13, ABplppppapa
126, 127, 126, -1, 139.00, 297.00, 11.00, 13, ABplppppapp
127, 128, 127, -1, 150.00, 303.00, 15.00, 13, ABplppppaaa
128, 129, 128, -1, 141.00, 301.00, 15.00, 13, ABplppppaap
129, 130, 129, -1, 85.00, 316.00, 13.00, 15, ABplppppppp
130, 131, 130, -1, 94.00, 318.00, 11.00, 11, ABplppppppa
131, 132, 131, -1, 129.00, 315.00, 17.00, 15, ABplpppppap
132, 133, 132, -1, 142.00, 311.00, 19.00, 13, ABplpppppaa
133, 134, 133, -1, 130.00, 313.00, 10.00, 13, ABplpppapaa
134, 135, 134, -1, 122.00, 323.00, 13.00, 13, ABplpppaapp
135, 136, 135, -1, 164.00, 303.00, 13.00, 15, ABplpppaaaa
136, 137, 136, -1, 163.00, 322.00, 13.00, 15, ABplpppaaap
137, 138, 137, -1, 169.00, 317.00, 14.00, 13, ABplppapppp
138, 139, 138, -1, 171.00, 301.00, 14.00, 13, ABplppapppa
139, 140, 139, -1, 191.00, 293.00, 16.00, 13, ABplppappap
140, 141, 140, -1, 203.00, 289.00, 17.00, 13, ABplppappaa
141, 142, 141, -1, 197.00, 314.00, 16.00, 13, ABplppapaap
142, 143, 142, -1, 185.00, 309.00, 14.00, 15, ABplppapapa
143, 144, 143, -1, 178.00, 323.00, 16.00, 15, ABplppapapp
144, 145, 144, -1, 197.00, 281.00, 13.00, 11, ABplppaappa
145, 146, 145, -1, 179.00, 290.00, 12.00, 13, ABplppaappp
146, 147, 146, -1, 267.00, 295.00, 15.00, 15, ABplppaaaaa
147, 148, 147, -1, 268.00, 319.00, 17.00, 11, ABplppaaap
148, 149, 148, -1, 234.00, 255.00, 12.00, 13, ABplpappaaa
149, 150, 149, -1, 204.00, 265.00, 18.00, 13, MSaappaa
150, 151, 150, -1, 127.00, 292.00, 14.00, 13, ABplpappppp
151, 152, 151, -1, 147.00, 283.00, 14.00, 13, ABplpappppa
152, 153, 152, -1, 160.00, 284.00, 12.00, 13, ABplpapppaa
153, 154, 153, -1, 148.00, 268.00, 13.00, 13, ABplpapppap
154, 155, 154, -1, 209.00, 281.00, 15.00, 11, ABplpapappa
155, 156, 155, -1, 178.00, 282.00, 14.00, 13, ABplpapappp
156, 157, 156, -1, 226.00, 297.00, 15.00, 15, ABplpapapap
157, 158, 157, -1, 237.00, 287.00, 16.00, 11, ABplpapapaa
158, 159, 158, -1, 267.00, 275.00, 14.00, 13, ABplpapaapa
159, 160, 159, -1, 259.00, 288.00, 14.00, 13, ABplpapaapp
160, 161, 160, -1, 248.00, 286.00, 14.00, 13, ABplpapaaap
161, 162, 161, -1, 253.00, 269.00, 13.00, 15, ABplpapaaaa
162, 163, 162, -1, 193.00, 306.00, 12.00, 15, ABplpaaaapp
163, 164, 163, -1, 225.00, 291.00, 11.00, 15, ABplpaaaapa
164, 165, 164, -1, 315.00, 279.00, 15.00, 15, ABplpaaaaaa
165, 166, 165, -1, 304.00, 288.00, 13.00, 11, ABplpaaapap
166, 167, 166, -1, 310.00, 271.00, 11.00, 13, ABplpaaapaa
167, 168, 167, -1, 298.00, 278.00, 16.00, 11, ABplpaaappa
168, 169, 168, -1, 280.00, 285.00, 15.00, 15, ABplpaaappp
169, 170, 169, -1, 264.00, 324.00, 20.00, 13, ABplpaappap
170, 171, 170, -1, 267.00, 312.00, 22.00, 15, ABplpaappaa
171, 172, 171, -1, 284.00, 292.00, 14.00, 15, ABplpaapppa
172, 173, 172, -1, 302.00, 299.00, 13.00, 11, ABplpaapapp
173, 174, 173, -1, 277.00, 288.00, 12.00, 17, ABplpaapppp
174, 175, 174, -1, 281.00, 305.00, 20.00, 13, ABplpaapaap
175, 176, 175, -1, 308.00, 277.00, 20.00, 13, ABplpaapaaa
176, 177, 176, -1, 337.00, 290.00, 19.00, 15, ABplpaapapa
177, 178, 587, -1, 271.00, 306.00, 12.00, 13, ABplaappap
178, 179, 178, -1, 281.00, 286.00, 10.00, 15, ABplaappaa
179, 180, 179, -1, 260.00, 322.00, 14.00, 15, ABplaapppa
180, 181, 180, -1, 237.00, 335.00, 18.00, 17, ABplaapppp
181, 182, 181, -1, 351.00, 221.00, 24.00, 13, ABplaapaaaa
182, 183, 182, -1, 354.00, 248.00, 26.00, 15, ABplaapaaap
183, 184, 183, -1, 336.00, 275.00, 25.00, 13, ABplaapaapa
184, 185, 184, -1, 326.00, 286.00, 22.00, 15, ABplaapaapp
185, 186, 185, -1, 298.00, 310.00, 27.00, 17, ABplaapappp
186, 187, 186, -1, 301.00, 284.00, 29.00, 15, ABplaapappa
187, 188, 187, -1, 283.00, 302.00, 27.00, 13, ABplaapapap
188, 189, 188, -1, 293.00, 287.00, 26.00, 13, ABplaapapaa
189, 190, 189, -1, 317.00, 253.00, 31.00, 15, ABplaaaaapp
190, 191, 190, -1, 311.00, 264.00, 27.00, 15, MSapaaap
191, 192, 191, -1, 336.00, 245.00, 31.00, 13, ABplaaaaaap
192, 193, 192, -1, 343.00, 237.00, 28.00, 15, ABplaaaaaaa
193, 194, 193, -1, 302.00, 234.00, 35.00, 17, ABplaaaapp
194, 195, 194, -1, 316.00, 296.00, 31.00, 14, ABplaaappa
195, 196, 195, -1, 298.00, 308.00, 31.00, 17, ABplaaappp
196, 197, 196, -1, 331.00, 289.00, 29.00, 15, ABplaaapap
197, 198, 197, -1, 341.00, 269.00, 29.00, 13, ABplaaapaa
198, 199, 198, -1, 140.00, 328.00, 10.00, 17, ABplappppa
199, 200, 199, -1, 97.00, 331.00, 13.00, 15, ABplappppp
200, 201, 200, -1, 128.00, 354.00, 17.00, 13, ABplapppaaa
201, 202, 201, -1, 113.00, 331.00, 15.00, 13, ABplapppapp
202, 203, 202, -1, 111.00, 337.00, 11.00, 13, ABplapppapa
203, 204, 203, -1, 202.00, 340.00, 21.00, 17, ABplappaaa
204, 205, 204, -1, 182.00, 349.00, 20.00, 17, ABplappaap
205, 206, 205, -1, 165.00, 345.00, 18.00, 15, ABplappapp
206, 207, 206, -1, 182.00, 355.00, 27.00, 15, ABplappapa
207, 208, 207, -1, 215.00, 336.00, 18.00, 15, ABplapaapp
208, 209, 208, -1, 239.00, 322.00, 14.00, 15, ABplapaapa
209, 210, 209, -1, 278.00, 297.00, 34.00, 15, ABarppaaaa
210, 211, 210, -1, 243.00, 323.00, 27.00, 13, ABplapaaapp
211, 212, 211, -1, 258.00, 323.00, 26.00, 15, ABplapaaapa
212, 213, 212, -1, 109.00, 359.00, 18.00, 13, ABplapapppa
213, 214, 213, -1, 99.00, 341.00, 16.00, 15, ABplapapppp
214, 215, 214, -1, 150.00, 358.00, 18.00, 17, ABplapapap
215, 216, 215, -1, 145.00, 347.00, 13.00, 19, ABplapappa
216, 217, 216, -1, 142.00, 368.00, 23.00, 17, ABplapapaa
217, 218, 217, -1, 233.00, 224.00, 14.00, 13, ABprpapaaaa
218, 219, 218, -1, 224.00, 216.00, 11.00, 11, ABprpapaapp
219, 220, 219, -1, 199.00, 257.00, 14.00, 13, ABprpapappa
220, 221, 220, -1, 169.00, 271.00, 14.00, 11, ABprpapappp
221, 222, 221, -1, 202.00, 227.00, 14.00, 11, ABprpapapap
222, 223, 222, -1, 214.00, 232.00, 15.00, 13, ABprpapapaa
223, 224, 223, -1, 123.00, 296.00, 16.00, 15, ABprpappppp
224, 225, 224, -1, 134.00, 285.00, 16.00, 13, ABprpappppa
225, 226, 225, -1, 235.00, 237.00, 13.00, 11, ABprpapppaa
226, 227, 226, -1, 192.00, 238.00, 14.00, 11, ABprpapppap
227, 228, 227, -1, 187.00, 269.00, 15.00, 13, ABprpappapp
228, 229, 228, -1, 216.00, 254.00, 11.00, 15, ABprpappaap
229, 230, 229, -1, 247.00, 248.00, 11.00, 11, ABprpappaaa
230, 231, 230, -1, 249.00, 172.00, 18.00, 15, ABprpaaaaap
231, 232, 231, -1, 254.00, 181.00, 22.00, 13, ABpraaappaa
232, 233, 232, -1, 172.00, 248.00, 12.00, 15, ABprpaaaapp
233, 234, 233, -1, 202.00, 241.00, 11.00, 13, ABprpaaaapa
234, 235, 234, -1, 264.00, 188.00, 15.00, 15, ABprpaaappa
235, 236, 235, -1, 239.00, 214.00, 13.00, 11, ABprpapaapa
236, 237, 236, -1, 246.00, 199.00, 16.00, 13, ABprpaaappp
237, 238, 237, -1, 274.00, 185.00, 12.00, 13, ABprpaaapaa
238, 239, 238, -1, 261.00, 177.00, 13.00, 11, ABprpaaapap
239, 240, 239, -1, 228.00, 178.00, 19.00, 15, ABprpaapaap
240, 241, 240, -1, 275.00, 155.00, 20.00, 15, ABprpaapapa
241, 242, 241, -1, 250.00, 174.00, 14.00, 13, ABprpaapapp
242, 244, 242, -1, 238.00, 196.00, 12.00, 13, ABprpaapppp
243, 245, 243, -1, 206.00, 177.00, 20.00, 13, ABprpaappap
244, 246, 244, -1, 221.00, 183.00, 22.00, 13, ABprpaappaa
245, 247, 245, -1, 100.00, 261.00, 12.00, 13, ABprpppaapp
246, 248, 246, -1, 100.00, 265.00, 15.00, 13, ABprpppaapa
247, 249, 247, -1, 125.00, 236.00, 14.00, 15, ABprpppaaap
248, 250, 248, -1, 139.00, 255.00, 13.00, 15, ABprpppaaaa
249, 251, 249, -1, 121.00, 275.00, 10.00, 17, ABprpppapaa
250, 252, 250, -1, 105.00, 294.00, 10.00, 17, ABprpppapap
252, 254, 252, -1, 131.00, 257.00, 11.00, 15, ABprppppapa
253, 255, 253, -1, 126.00, 274.00, 12.00, 15, ABprppppapp
254, 256, 254, -1, 141.00, 263.00, 15.00, 13, ABprppppaaa
255, 257, 255, -1, 128.00, 272.00, 15.00, 13, ABprppppaap
256, 258, 256, -1, 79.00, 293.00, 13.00, 13, ABprppppppp
257, 259, 257, -1, 90.00, 296.00, 10.00, 13, ABprppppppa
258, 260, 258, -1, 120.00, 257.00, 18.00, 13, ABprpppppaa
259, 261, 259, -1, 105.00, 262.00, 18.00, 13, ABprpppppap
260, 262, 260, -1, 203.00, 213.00, 14.00, 13, ABprppaapap
261, 263, 261, -1, 209.00, 221.00, 10.00, 11, ABprppaapaa
262, 264, 262, -1, 186.00, 265.00, 12.00, 13, ABprppaappa
263, 265, 263, -1, 166.00, 266.00, 12.00, 15, ABprppaappp
264, 266, 264, -1, 230.00, 201.00, 14.00, 13, ABprppaaaaa
265, 267, 265, -1, 216.00, 201.00, 13.00, 13, ABprppaaaap
267, 269, 267, -1, 181.00, 223.00, 14.00, 15, ABprppapaaa
268, 270, 268, -1, 165.00, 231.00, 16.00, 13, ABprppapaap
269, 271, 269, -1, 157.00, 240.00, 14.00, 13, ABprppapapa
270, 272, 270, -1, 144.00, 235.00, 15.00, 13, ABprppapapp
271, 273, 271, -1, 157.00, 256.00, 12.00, 13, ABprppapppa
272, 274, 272, -1, 138.00, 244.00, 14.00, 13, ABprppapppp
273, 275, 273, -1, 178.00, 237.00, 16.00, 13, ABprppappaa
274, 276, 274, -1, 171.00, 251.00, 16.00, 13, ABprppappap
275, 277, 275, -1, 344.00, 193.00, 24.00, 15, ABpraapaaaa
276, 278, 276, -1, 328.00, 187.00, 27.00, 13, ABarpapaaaa
277, 279, 277, -1, 333.00, 177.00, 26.00, 13, ABpraapaaap
278, 280, 278, -1, 291.00, 167.00, 24.00, 15, ABpraapaapa
279, 281, 279, -1, 230.00, 178.00, 27.00, 13, ABpraapapap
280, 282, 280, -1, 246.00, 182.00, 25.00, 13, ABpraapapaa
281, 283, 281, -1, 239.00, 164.00, 26.00, 15, ABpraapappp
282, 284, 282, -1, 249.00, 182.00, 28.00, 13, ABpraapappa
283, 285, 283, -1, 181.00, 187.00, 20.00, 15, ABpraapppp
284, 286, 284, -1, 222.00, 182.00, 12.00, 13, ABpraappap
285, 287, 285, -1, 240.00, 183.00, 11.00, 15, ABpraappaa
286, 288, 286, -1, 298.00, 177.00, 21.00, 15, ABpraaapapa
287, 289, 287, -1, 304.00, 165.00, 21.00, 13, ABpraaapapp
288, 290, 288, -1, 269.00, 181.00, 24.00, 15, ABpraaapaad
289, 291, 289, -1, 276.00, 179.00, 22.00, 11, ABpraaapaav
290, 292, 290, -1, 240.00, 183.00, 23.00, 13, ABpraaappap
291, 293, 291, -1, 219.00, 175.00, 24.00, 17, ABpraaapppa
294, 295, 293, -1, 297.00, 158.00, 22.00, 13, ABpraaaaapd
295, 296, 294, -1, 296.00, 163.00, 18.00, 15, ABpraaaaapv
296, 297, 295, -1, 284.00, 167.00, 15.00, 15, ABpraaaaaaa
297, 298, 296, -1, 278.00, 178.00, 11.00, 13, ABpraaaaaap
298, 299, 297, -1, 266.00, 169.00, 17.00, 11, ABpraaaapav
299, 300, 298, -1, 268.00, 164.00, 15.00, 15, ABpraaaapad
300, 301, 299, -1, 259.00, 165.00, 24.00, 11, ABpraaaappa
301, 302, 300, -1, 263.00, 173.00, 27.00, 15, ABpraaaappp
302, 303, 301, -1, 118.00, 220.00, 19.00, 17, ABprappapp
303, 304, 302, -1, 135.00, 208.00, 28.00, 15, ABprappapa
304, 305, 303, -1, 136.00, 210.00, 19.00, 15, ABprappaap
305, 306, 304, -1, 152.00, 207.00, 21.00, 15, ABprappaaa
306, 307, 305, -1, 76.00, 252.00, 15.00, 11, ABprapppaap
307, 308, 306, -1, 93.00, 247.00, 16.00, 15, ABprapppaaa
308, 309, 307, -1, 90.00, 272.00, 14.00, 15, ABprapppapp
309, 310, 308, -1, 82.00, 264.00, 11.00, 13, ABprapppapa
310, 311, 309, -1, 76.00, 276.00, 12.00, 17, ABprappppp
311, 312, 310, -1, 103.00, 254.00, 10.00, 17, ABprappppa
312, 313, 311, -1, 203.00, 184.00, 26.00, 15, ABprapaaapa
313, 314, 312, -1, 188.00, 195.00, 26.00, 13, ABprapaaapp
314, 315, 313, -1, 222.00, 187.00, 32.00, 17, ABprapaaaap
315, 316, 314, -1, 240.00, 174.00, 32.00, 13, ABprapaaaaa
316, 317, 315, -1, 164.00, 200.00, 19.00, 13, ABprapaapp
317, 318, 316, -1, 189.00, 219.00, 11.00, 13, ABprapaapa
318, 319, 317, -1, 103.00, 238.00, 12.00, 15, ABprapappa
319, 320, 318, -1, 74.00, 271.00, 16.00, 15, ABprapapppp
320, 321, 319, -1, 71.00, 253.00, 18.00, 13, ABprapapppa
321, 322, 320, -1, 105.00, 227.00, 16.00, 15, ABprapapap
322, 323, 321, -1, 92.00, 233.00, 24.00, 17, ABprapapaa
323, 324, 322, -1, 253.00, 194.00, 31.00, 15, MSppppap
324, 325, 323, -1, 231.00, 198.00, 20.00, 13, MSppppaa
325, 326, 324, -1, 254.00, 208.00, 34.00, 17, MSpppppa
326, 327, 325, -1, 215.00, 220.00, 34.00, 17, MSpppppp
327, 328, 326, -1, 242.00, 197.00, 28.00, 13, MSpppaaa
328, 329, 327, -1, 124.00, 247.00, 22.00, 13, MSpppaap
329, 330, 328, -1, 217.00, 203.00, 17.00, 13, MSpppapp
330, 331, 329, -1, 215.00, 223.00, 13.00, 13, ABprpapaaap
331, 332, 330, -1, 141.00, 278.00, 19.00, 15, MSppaapp
332, 333, 331, -1, 258.00, 198.00, 19.00, 11, MSppaapa
333, 334, 332, -1, 286.00, 201.00, 18.00, 13, MSppaaaa
334, 335, 333, -1, 279.00, 190.00, 27.00, 19, MSppaaap
335, 336, 334, -1, 215.00, 194.00, 27.00, 15, MSppapaa
336, 337, 335, -1, 249.00, 189.00, 19.00, 11, MSppapap
337, 338, 336, -1, 197.00, 255.00, 20.00, 13, MSpapappp
338, 339, 337, -1, 215.00, 248.00, 22.00, 15, MSpapapaa
339, 340, 338, -1, 210.00, 236.00, 20.00, 13, MSpapaaap
340, 341, 339, -1, 193.00, 224.00, 25.00, 17, MSpapaapp
341, 342, 484, -1, 191.00, 246.00, 24.00, 9, Nuc266_24_194_238
342, 343, 340, -1, 169.00, 324.00, 19.00, 17, MSpappaa
343, 344, 341, -1, 151.00, 232.00, 20.00, 15, MSpapppp
344, 345, 342, -1, 254.00, 239.00, 30.00, 15, MSpaaappa
345, 346, 343, -1, 229.00, 235.00, 32.00, 17, MSpaaappp
346, 347, 344, -1, 240.00, 253.00, 33.00, 13, MSpaaapaa
347, 348, 345, -1, 225.00, 253.00, 31.00, 13, MSpaaapap
348, 349, 346, -1, 279.00, 209.00, 29.00, 15, MSpaaaapa
349, 350, 347, -1, 264.00, 217.00, 29.00, 17, MSpaaaapp
350, 351, 348, -1, 284.00, 226.00, 33.00, 17, MSpaaaaaa
351, 352, 349, -1, 268.00, 230.00, 33.00, 13, MSpaaaaap
352, 353, 350, -1, 224.00, 213.00, 21.00, 15, ABaraappppa
353, 354, 351, -1, 225.00, 212.00, 27.00, 17, ABaraapppap
354, 355, 352, -1, 238.00, 224.00, 30.00, 13, MSpaapaap
355, 356, 353, -1, 252.00, 225.00, 30.00, 13, MSpaapaaa
356, 357, 354, -1, 177.00, 263.00, 28.00, 21, Earap
357, 358, 355, -1, 267.00, 293.00, 21.00, 14, MSapppaa
358, 359, 356, -1, 255.00, 301.00, 31.00, 13, MSapppap
359, 360, 357, -1, 257.00, 277.00, 33.00, 17, MSappppa
360, 361, 358, -1, 228.00, 291.00, 32.00, 17, MSappppp
361, 362, 359, -1, 153.00, 322.00, 21.00, 13, MSappaap
362, 363, 360, -1, 253.00, 295.00, 28.00, 14, MSappaaa
364, 365, 362, -1, 264.00, 291.00, 17.00, 9, MSappapa
365, 366, 363, -1, 281.00, 262.00, 29.00, 19, ABaraapaapp
366, 367, 364, -1, 301.00, 256.00, 33.00, 19, MSapappp
367, 368, 365, -1, 286.00, 285.00, 19.00, 15, MSapapap
368, 369, 366, -1, 265.00, 304.00, 27.00, 17, MSapapaa
369, 370, 367, -1, 163.00, 268.00, 17.00, 15, MSapaapp
370, 371, 368, -1, 298.00, 280.00, 19.00, 7, MSapaapa
371, 372, 369, -1, 309.00, 258.00, 18.00, 15, MSapaaaa
372, 373, 370, -1, 299.00, 229.00, 30.00, 15, MSaaaaapa
373, 374, 371, -1, 275.00, 242.00, 31.00, 14, MSaaaaapp
374, 375, 372, -1, 318.00, 232.00, 25.00, 11, MSaaaaaa
375, 376, 373, -1, 266.00, 248.00, 33.00, 13, MSaaaapaa
376, 377, 374, -1, 252.00, 252.00, 32.00, 13, MSaaaapap
377, 378, 375, -1, 246.00, 267.00, 31.00, 11, MSaaaappa
378, 379, 376, -1, 230.00, 276.00, 29.00, 13, MSaaapapp
379, 380, 377, -1, 271.00, 265.00, 27.00, 13, MSaaapaap
380, 381, 378, -1, 215.00, 277.00, 31.00, 11, MSaaappa
381, 382, 379, -1, 215.00, 262.00, 32.00, 13, MSaaappp
382, 383, 380, -1, 185.00, 308.00, 19.00, 17, MSaapppp
383, 384, 381, -1, 217.00, 298.00, 19.00, 13, MSaapppa
384, 385, 382, -1, 233.00, 271.00, 19.00, 13, MSaapaaap
385, 386, 383, -1, 250.00, 275.00, 18.00, 13, MSaapaaaa
386, 387, 384, -1, 209.00, 279.00, 20.00, 13, MSaapappp
387, 388, 385, -1, 235.00, 288.00, 26.00, 15, MSaapappa
388, 389, 386, -1, 223.00, 280.00, 21.00, 15, MSaapapa
389, 390, 533, -1, 190.00, 284.00, 23.00, 15, Ealpa
390, 391, 387, -1, 113.00, 307.00, 25.00, 21, Eplpa
391, 392, 388, -1, 121.00, 348.00, 22.00, 15, Cappapa
392, 393, 389, -1, 109.00, 340.00, 20.00, 15, Cappapp
393, 394, 390, -1, 174.00, 340.00, 28.00, 15, Cappaaa
394, 395, 391, -1, 87.00, 336.00, 23.00, 15, Capppap
395, 396, 392, -1, 107.00, 339.00, 29.00, 15, Capppaa
396, 397, 393, -1, 88.00, 323.00, 18.00, 13, Cappppv
397, 398, 394, -1, 125.00, 347.00, 25.00, 15, Capapap
398, 399, 395, -1, 152.00, 342.00, 27.00, 15, Capapaa
399, 400, 396, -1, 140.00, 329.00, 16.00, 14, Capapp
400, 401, 397, -1, 181.00, 340.00, 23.00, 13, Capaaap
401, 402, 398, -1, 205.00, 329.00, 24.00, 17, Capaaaa
402, 403, 399, -1, 60.00, 278.00, 17.00, 13, Caappd
403, 404, 400, -1, 72.00, 305.00, 14.00, 13, Caappv
404, 405, 401, -1, 95.00, 301.00, 12.00, 13, Caapap
405, 406, 402, -1, 82.00, 343.00, 20.00, 21, Cpappd
406, 407, 403, -1, 78.00, 328.00, 14.00, 15, Cpappv
407, 408, 404, -1, 63.00, 283.00, 23.00, 14, Cpapaa
408, 409, 405, -1, 109.00, 240.00, 23.00, 15, Cppaapp
409, 410, 406, -1, 133.00, 226.00, 23.00, 17, Cppaapa
410, 411, 407, -1, 147.00, 219.00, 25.00, 15, Cppaaap
411, 412, 408, -1, 168.00, 215.00, 23.00, 15, Cppaaaa
412, 413, 409, -1, 132.00, 231.00, 28.00, 15, Cppapaa
413, 414, 410, -1, 117.00, 259.00, 15.00, 13, Cppappp
414, 415, 411, -1, 107.00, 242.00, 18.00, 15, Cppappa
415, 416, 412, -1, 126.00, 246.00, 32.00, 15, Cpppaap
416, 417, 413, -1, 155.00, 222.00, 29.00, 15, Cpppaaa
417, 418, 414, -1, 86.00, 263.00, 20.00, 17, Cpppapp
418, 419, 415, -1, 85.00, 259.00, 24.00, 17, Cpppapa
419, 420, 416, -1, 246.00, 312.00, 20.00, 15, Daapa
420, 421, 417, -1, 228.00, 314.00, 18.00, 13, Daapp
421, 422, 418, -1, 249.00, 307.00, 23.00, 15, Daaaa
422, 423, 419, -1, 233.00, 309.00, 29.00, 17, Daaap
423, 424, 420, 421, 209.00, 311.00, 31.00, 17, Dappa
424, 425, 422, -1, 175.00, 325.00, 32.00, 17, Dappp
425, 426, 423, -1, 189.00, 209.00, 17.00, 15, Dpapp
426, 427, 424, -1, 203.00, 199.00, 19.00, 13, Dpapa
427, 428, 425, -1, 204.00, 205.00, 31.00, 19, Dpaap
429, 430, 427, -1, 209.00, 197.00, 22.00, 13, Dpaaa
430, 431, 428, -1, 163.00, 232.00, 33.00, 17, Dpppp
431, 432, 429, -1, 193.00, 229.00, 33.00, 14, Dpppa
432, 433, 430, -1, 190.00, 204.00, 22.00, 15, Dppaa
433, 434, 431, -1, 169.00, 213.00, 28.00, 13, Dppap
435, 436, 433, -1, 312.00, 282.00, 26.00, 11, ABalpppappa
436, 437, 434, -1, 309.00, 294.00, 27.00, 13, ABalpppappp
437, 438, 435, -1, 286.00, 298.00, 23.00, 17, ABalpppppap
438, 439, 436, -1, 282.00, 320.00, 24.00, 15, ABalppppppa
439, 440, 437, -1, 303.00, 316.00, 23.00, 13, ABalpppppppa
440, 441, 438, -1, 345.00, 262.00, 22.00, 13, ABalppppapp
441, 442, 439, -1, 336.00, 282.00, 15.00, 13, ABalpppaaaa
442, 443, 440, -1, 324.00, 276.00, 11.00, 13, ABalpppaaap
443, 444, 441, -1, 348.00, 272.00, 18.00, 13, ABalpppaapd
444, 445, 442, -1, 348.00, 275.00, 22.00, 13, ABalpppaapv
445, 446, 443, -1, 317.00, 295.00, 16.00, 13, ABalpppapad
446, 447, 444, -1, 318.00, 293.00, 14.00, 11, ABalpppapav
447, 448, 445, -1, 349.00, 255.00, 16.00, 13, ABalaaapalr
448, 449, 446, -1, 338.00, 259.00, 14.00, 11, ABalppaaaa
449, 450, 447, -1, 337.00, 260.00, 12.00, 13, ABalppaaapp
450, 451, 448, -1, 287.00, 274.00, 12.00, 13, ABalppaappp
451, 452, 449, -1, 298.00, 247.00, 9.00, 11, ABalppaapa
452, 453, 450, -1, 299.00, 303.00, 18.00, 15, ABplpaaaaap
453, 454, 451, -1, 299.00, 263.00, 12.00, 13, ABalppapppa
454, 455, 452, -1, 317.00, 264.00, 14.00, 13, ABalppappap
455, 456, 453, -1, 324.00, 258.00, 16.00, 13, ABalppappaa
456, 457, 454, -1, 282.00, 256.00, 12.00, 13, ABalppapapa
457, 458, 455, -1, 272.00, 269.00, 11.00, 11, ABalppapapp
458, 459, 456, -1, 324.00, 251.00, 13.00, 11, ABalppapaaa
459, 460, 457, -1, 242.00, 288.00, 11.00, 15, ABalpapapap
460, 461, 458, -1, 256.00, 263.00, 11.00, 13, ABalpapapaa
461, 462, 459, -1, 202.00, 293.00, 13.00, 13, ABalpapappa
463, 464, 460, -1, 279.00, 238.00, 10.00, 13, ABalpapaapp
464, 465, 461, -1, 291.00, 231.00, 11.00, 13, ABalpapaapa
465, 466, 462, -1, 310.00, 248.00, 11.00, 15, ABalppapaap
466, 467, 463, -1, 301.00, 241.00, 12.00, 14, ABalpapaaaa
467, 468, 464, -1, 289.00, 250.00, 18.00, 13, ABalpaaaaap
468, 469, 465, -1, 262.00, 243.00, 18.00, 11, ABalpappaaa
469, 470, 466, -1, 219.00, 259.00, 18.00, 15, ABalpappapp
470, 471, 467, -1, 276.00, 273.00, 19.00, 13, ABalpapppaa
471, 472, 468, -1, 261.00, 256.00, 22.00, 15, ABalpapppap
472, 473, 469, -1, 298.00, 257.00, 21.00, 13, ABalpaaapaa
473, 474, 470, -1, 293.00, 263.00, 25.00, 11, ABalpaaapap
474, 475, 471, -1, 280.00, 247.00, 16.00, 13, ABalpaaaapp
475, 476, 472, -1, 296.00, 239.00, 15.00, 15, ABalpaaaapa
476, 477, 473, -1, 286.00, 261.00, 19.00, 17, ABalpappaap
477, 478, 474, -1, 304.00, 241.00, 17.00, 17, ABalpaaaaaa
478, 479, 475, -1, 328.00, 225.00, 15.00, 11, ABalpaapppa
479, 480, 476, -1, 326.00, 236.00, 12.00, 13, ABalpaapppp
480, 481, 477, -1, 318.00, 228.00, 16.00, 13, ABalpaappaa
481, 482, 478, -1, 311.00, 233.00, 13.00, 11, ABalpaappap
482, 483, 479, -1, 283.00, 251.00, 25.00, 13, ABalpaapapa
483, 484, 480, -1, 298.00, 244.00, 22.00, 15, ABalpaapaap
484, 485, 481, -1, 310.00, 237.00, 20.00, 15, ABalpaapaaa
486, 487, 483, -1, 142.00, 304.00, 25.00, 23, Ealpp
488, 489, 485, -1, 141.00, 276.00, 26.00, 17, Earpp
489, 490, 486, -1, 173.00, 285.00, 26.00, 21, Ealap
490, 491, 487, -1, 206.00, 276.00, 25.00, 21, Ealaa
491, 492, 488, -1, 120.00, 309.00, 28.00, 21, Eplap
492, 493, 489, -1, 99.00, 285.00, 21.00, 13, Eprpp
493, 494, 490, -1, 198.00, 333.00, 27.00, 17, Dapap
494, 495, 491, -1, 225.00, 318.00, 22.00, 17, Dapaa
495, 496, 492, -1, 224.00, 297.00, 25.00, 13, MSaapaapp
496, 497, 493, -1, 240.00, 284.00, 24.00, 13, MSaapaapa
497, 498, 494, -1, 175.00, 199.00, 31.00, 15, ABarpppapp
498, 499, 495, -1, 244.00, 302.00, 14.00, 13, ABplppaapap
499, 500, 496, -1, 243.00, 306.00, 10.00, 11, ABplppaapaa
500, 501, 497, -1, 87.00, 343.00, 27.00, 17, Cpapap
501, 502, 498, -1, 336.00, 244.00, 16.00, 13, ABalaaaalar
502, 503, 499, -1, 333.00, 238.00, 17.00, 13, ABalaaaalal
503, 504, 500, -1, 299.00, 181.00, 28.00, 11, ABalapppppp
504, 505, 501, -1, 297.00, 168.00, 28.00, 15, ABarpappaa
505, 506, 502, -1, 96.00, 270.00, 32.00, 17, Cppppaa
506, 507, 503, -1, 72.00, 284.00, 26.00, 17, Cppppap
507, 508, 504, -1, 104.00, 281.00, 15.00, 15, Cpppppv
508, 509, 505, -1, 179.00, 258.00, 24.00, 19, Earpa
510, 511, 507, -1, 107.00, 285.00, 25.00, 19, Eprpa
511, 512, 508, -1, 255.00, 236.00, 36.00, 19, ABarpaappa
512, 513, 509, -1, 249.00, 303.00, 35.00, 21, ABarppaapa
514, 515, 511, -1, 199.00, 268.00, 20.00, 15, MSaappap
515, 516, 512, -1, 161.00, 298.00, 18.00, 23, Z3
516, 517, 513, -1, 279.00, 201.00, 9.00, 13, ABalaapappa
518, 519, 515, -1, 220.00, 316.00, 14.00, 13, ABplppapaaa
519, 520, 516, -1, 333.00, 242.00, 20.00, 17, ABalaaapall
521, 522, 518, -1, 272.00, 191.00, 17.00, 15, ABprpaaaaaa
522, 523, 519, -1, 131.00, 241.00, 17.00, 15, MSpappap
523, 524, 520, -1, 210.00, 243.00, 29.00, 13, MSpaapapp
525, 526, 522, -1, 76.00, 294.00, 18.00, 15, Cpppppd
526, 527, 523, -1, 280.00, 303.00, 31.00, 13, ABplapaaaaa
528, 529, 525, -1, 269.00, 313.00, 31.00, 17, ABplapaaaap
529, 530, 526, -1, 337.00, 270.00, 15.00, 13, ABalppaaapa
530, 531, 527, -1, 265.00, 262.00, 18.00, 15, ABalpappppp
531, 532, 528, -1, 139.00, 253.00, 20.00, 23, Z2
532, 533, 529, -1, 347.00, 211.00, 19.00, 13, ABalaaaparr
533, 534, 530, -1, 346.00, 224.00, 19.00, 15, ABalaaaparl
534, 535, 531, -1, 266.00, 274.00, 23.00, 13, ABalpaaappp
535, 536, 532, -1, 280.00, 272.00, 22.00, 15, ABalpaaappa
537, 538, 534, -1, 216.00, 246.00, 14.00, 15, ABprpappapa
539, 540, 536, -1, 145.00, 336.00, 32.00, 17, Cappaap
540, 541, 537, -1, 276.00, 245.00, 14.00, 15, ABalpappapa
541, 542, 538, -1, 236.00, 253.00, 15.00, 11, ABarapapppa
543, 544, 540, -1, 208.00, 222.00, 27.00, 13, MSpapappa
544, 545, 541, -1, 208.00, 218.00, 22.00, 15, MSpapaapa
545, 546, 542, -1, 274.00, 162.00, 24.00, 13, ABpraapaapp
546, 547, 543, -1, 304.00, 181.00, 26.00, 15, ABalapppppa
547, 548, 544, -1, 293.00, 216.00, 15.00, 15, ABarapaaaaa
548, 549, 545, -1, 298.00, 260.00, 14.00, 13, ABalppapppp
549, 550, 546, -1, 340.00, 197.00, 20.00, 13, ABalaaappll
551, 552, 548, -1, 101.00, 250.00, 28.00, 17, Cppapap
552, 553, 549, -1, 242.00, 224.00, 21.00, 15, ABarapaappp
556, 557, 553, -1, 305.00, 262.00, 9.00, 17, ABalppaappa
557, 558, 554, -1, 281.00, 272.00, 25.00, 13, ABalpaapapp
558, 559, 555, -1, 127.00, 333.00, 14.00, 15, ABplpppaapa
559, 560, 556, -1, 337.00, 234.00, 33.00, 15, ABarpaaaapp
563, 564, 560, -1, 222.00, 236.00, 18.00, 15, MSpapaaaa
564, 565, 561, -1, 200.00, 198.00, 11.00, 15, ABpraapppa
565, 566, 562, -1, 195.00, 224.00, 18.00, 13, MSpapppaa
566, 567, 563, -1, 173.00, 230.00, 19.00, 15, MSpapppap
567, 568, 564, -1, 281.00, 253.00, 35.00, 17, ABarpaapap
568, 569, 565, -1, 266.00, 183.00, 20.00, 15, ABprpaapaaa
569, 570, 566, -1, 256.00, 251.00, 16.00, 13, ABalpappppa
570, 571, 567, -1, 288.00, 318.00, 19.00, 11, ABalpppppppp
571, 572, 568, -1, 107.00, 312.00, 10.00, 11, ABprpppapp
572, 573, 569, -1, 151.00, 297.00, 29.00, 19, Eplaa
573, 574, 570, -1, 81.00, 261.00, 29.00, 15, Caaapp
574, 575, 571, -1, 214.00, 204.00, 10.00, 9, ABprppaaap
575, 576, 572, -1, 227.00, 272.00, 15.00, 11, ABplpappap
576, 577, 573, -1, 122.00, 286.00, 30.00, 19, Eprap
577, 578, 574, -1, 103.00, 247.00, 33.00, 17, Caaapa
578, 579, 111, -1, 294.00, 174.00, 12.00, 11, ABalaappaa
579, 580, 576, -1, 157.00, 276.00, 31.00, 21, Epraa
580, 581, 577, -1, 122.00, 345.00, 32.00, 17, Cpaapp
581, 582, 578, -1, 308.00, 193.00, 15.00, 11, ABalaapaaal
582, 583, 579, -1, 344.00, 195.00, 26.00, 13, ABarpaaaaal
584, 585, 581, -1, 99.00, 297.00, 15.00, 17, Caapaa
585, 586, 582, -1, 202.00, 197.00, 35.00, 19, ABarpppapa
586, 587, 583, -1, 267.00, 252.00, 11.00, 14, ABalpapaaap
587, 588, 584, -1, 252.00, 295.00, 18.00, 13, MSappapp
588, 589, 585, -1, 79.00, 242.00, 19.00, 15, ABarpppppp
592, 593, 589, -1, 230.00, 203.00, 17.00, 13, MSpppapa
593, 594, 590, -1, 291.00, 276.00, 32.00, 17, MSapappa
597, 599, 593, -1, 293.00, 202.00, 32.00, 17, MSppappp
600, 602, 596, -1, 111.00, 310.00, 14.00, 13, Cappppd
602, 604, 598, -1, 234.00, 260.00, 29.00, 13, MSaaaappp
603, 605, 599, -1, 112.00, 352.00, 15.00, 13, ABplapppaap
606, 609, 602, -1, 315.00, 271.00, 30.00, 15, ABplaaaaapa
607, 611, 603, -1, 322.00, 230.00, 35.00, 17, ABplaaaapa
609, 614, 605, -1, 195.00, 240.00, 19.00, 13, MSpapapap
613, 618, 609, -1, 114.00, 302.00, 19.00, 25, Eplpp
616, 622, 612, -1, 140.00, 337.00, 21.00, 13, Capaapp
617, 623, 613, -1, 168.00, 339.00, 23.00, 13, Capaapa
620, 626, 615, -1, 276.00, 188.00, 32.00, 17, MSppappa
621, 627, 616, -1, 220.00, 298.00, 13.00, 13, ABalpapappp
624, 630, 619, -1, 217.00, 335.00, 33.00, 17, Caaaaa
626, 633, 621, -1, 233.00, 161.00, 20.00, 13, ABpraaapppp
627, 640, 622, -1, 300.00, 291.00, 21.00, 14, ABalpppppaa
629, 634, 629, -1, 191.00, 324.00, 34.00, 16, Cpaaap
630, 635, 630, -1, 239.00, 226.00, 19.33, 13, ABarapappap
631, 637, 631, -1, 128.00, 309.00, 33.00, 15, Cpaapa
632, 638, 632, -1, 229.00, 305.00, 33.00, 15, Cpaaaa
633, 639, 633, -1, 140.00, 231.00, 33.00, 15, Caaaap
634, 488, 634, -1, 196.00, 254.00, 26.20, 21, Earaa
635, 243, 635, -1, 242.00, 191.00, 15.00, 15, ABprpaapppa
636, 106, 636, -1, 318.00, 282.00, 18.00, 13, ABalapaapap
637, 641, 637, -1, 317.00, 202.00, 30.62, 13, ABalapppapp
638, 642, 639, -1, 339.00, 266.00, 20.00, 19, ABalapaappp
639, 643, 640, -1, 276.00, 183.00, 19.00, 13, ABalaapppap
643, 647, 645, -1, 296.00, 281.00, 22.50, 16, ABalppppaad
644, 648, 646, -1, 128.00, 298.00, 10.00, 12, ABplpppapap
645, 649, 647, -1, 295.00, 183.00, 14.00, 13, ABalaappapa
646, 650, 648, -1, 260.00, 272.00, 30.00, 13, MSaaapapa
647, 651, 649, -1, 258.00, 312.00, 15.50, 16, ABplppaaaap
648, 652, 650, -1, 224.00, 271.00, 12.40, 15, ABplpappaap
649, 653, 651, -1, 313.00, 243.00, 18.00, 11, ABaraaaaaaa
650, 654, 652, -1, 329.00, 258.00, 19.00, 15, ABalapaappa
651, 655, 653, -1, 324.00, 227.00, 29.00, 15, ABalapapapa
652, 656, 654, -1, 293.00, 249.00, 30.00, 13, MSaaapaaa
654, 658, 656, -1, 254.00, 197.00, 12.00, 13, ABalaapappp
655, 659, 657, -1, 310.00, 280.00, 22.92, 13, ABalppppaav
