1, 2, 1, -1, 293.00, 216.00, 26.00, 15, ABaraappaap
2, 3, 2, -1, 242.00, 217.00, 29.00, 17, ABaraappapp
3, 4, 3, -1, 280.00, 209.00, 28.00, 13, ABaraappapa
4, 5, 4, -1, 228.00, 209.00, 26.00, 17, ABaraapppaa
5, 6, 5, -1, 222.00, 230.00, 21.00, 17, ABaraappppp
6, 7, 6, -1, 254.00, 286.00, 22.00, 15, ABaraapappa
7, 8, 7, -1, 245.00, 278.00, 21.00, 13, ABaraapappp
8, 9, 8, -1, 248.00, 283.00, 28.00, 17, ABaraapapap
9, 10, 9, -1, 257.00, 281.00, 25.00, 17, ABaraapapaa
10, 11, 10, -1, 299.00, 231.00, 25.00, 15, ABaraapaaaa
11, 12, 11, -1, 294.00, 242.00, 26.00, 15, ABaraapaaap
13, 14, 13, -1, 300.00, 252.00, 27.00, 13, ABaraapaapa
14, 15, 14, -1, 305.00, 219.00, 15.00, 11, ABaraaappap
15, 16, 15, -1, 312.00, 216.00, 17.00, 13, ABaraaappaa
16, 17, 16, -1, 319.00, 210.00, 16.00, 13, ABaraaapppa
17, 18, 17, -1, 309.00, 208.00, 13.00, 11, ABaraaapppp
18, 19, 18, -1, 292.00, 216.00, 21.00, 13, ABaraaapaaa
19, 21, 19, -1, 281.00, 214.00, 24.00, 17, ABaraaapaap
20, 22, 20, -1, 242.00, 221.00, 26.00, 13, ABaraaapapp
21, 23, 21, -1, 279.00, 248.00, 21.00, 13, ABaraaaaaap
22, 24, 22, -1, 277.00, 218.00, 21.00, 11, ABaraaaaapp
23, 25, 23, -1, 296.00, 217.00, 19.00, 15, ABaraaaaapa
24, 26, 24, -1, 273.00, 239.00, 27.00, 11, ABaraaaapp
25, 27, 25, -1, 305.00, 222.00, 22.00, 15, ABaraaaapap
26, 28, 26, -1, 313.00, 222.00, 20.00, 13, ABaraaaapaa
27, 29, 27, -1, 216.00, 260.00, 19.00, 15, ABalpappapp
28, 30, 28, -1, 272.00, 245.00, 16.00, 13, ABalpappapa
29, 31, 29, -1, 254.00, 214.00, 19.00, 15, ABarapapaap
30, 32, 30, -1, 239.00, 243.00, 17.00, 15, ABarapapaaa
31, 33, 31, -1, 250.00, 208.00, 21.00, 15, ABarapappaa
32, 34, 32, -1, 267.00, 229.00, 17.00, 13, ABarapaaapp
33, 35, 33, -1, 278.00, 223.00, 18.00, 15, ABarapaaapa
34, 36, 34, -1, 267.00, 228.00, 19.00, 13, ABarapaaaap
35, 37, 35, -1, 267.00, 214.00, 21.00, 15, ABarapaapap
36, 38, 36, -1, 263.00, 206.00, 23.00, 11, ABarapaapaa
37, 39, 37, -1, 250.00, 204.00, 25.00, 15, ABarapaappa
38, 40, 38, -1, 260.00, 220.00, 13.00, 13, ABarapppapa
39, 41, 39, -1, 271.00, 218.00, 10.00, 15, ABarapppapp
40, 42, 40, -1, 299.00, 196.00, 15.00, 13, ABarapppaaa
41, 43, 41, -1, 299.00, 194.00, 11.00, 15, ABarapppaap
42, 44, 42, -1, 284.00, 195.00, 16.00, 13, ABarappppap
43, 45, 43, -1, 289.00, 184.00, 17.00, 15, ABarappppaa
44, 46, 44, -1, 268.00, 208.00, 14.00, 13, ABarapppppa
45, 47, 45, -1, 281.00, 206.00, 13.00, 13, ABarapppppp
46, 48, 46, -1, 263.00, 233.00, 11.00, 13, ABarappaaap
47, 49, 47, -1, 289.00, 214.00, 14.00, 15, ABarappaaaa
48, 50, 48, -1, 277.00, 226.00, 13.00, 14, ABarappaapa
49, 51, 49, -1, 276.00, 241.00, 11.00, 11, ABalpapaaap
50, 52, 50, -1, 228.00, 239.00, 10.00, 19, ABarappapap
51, 53, 51, -1, 251.00, 235.00, 11.00, 15, ABarappapaa
52, 54, 52, -1, 196.00, 237.00, 12.00, 15, ABarappappp
53, 55, 53, -1, 194.00, 236.00, 15.00, 13, ABprpapppap
54, 56, 54, -1, 264.00, 160.00, 29.00, 15, ABarpapppa
55, 57, 55, -1, 289.00, 166.00, 31.00, 15, ABarpappap
56, 58, 56, -1, 315.00, 194.00, 29.00, 17, ABarpapaaap
58, 60, 58, -1, 300.00, 196.00, 30.00, 13, ABarpapaapp
59, 61, 59, -1, 295.00, 226.00, 35.00, 17, ABarpapapp
60, 62, 60, -1, 337.00, 202.00, 33.00, 19, ABarpapapa
61, 63, 61, -1, 233.00, 202.00, 36.00, 21, ABarpaappp
62, 64, 62, -1, 301.00, 194.00, 35.00, 15, ABarpaapaa
63, 65, 63, -1, 351.00, 213.00, 26.00, 13, ABarpaaaaar
64, 66, 64, -1, 341.00, 212.00, 30.00, 15, ABarpaaaapa
65, 67, 65, -1, 319.00, 201.00, 33.00, 13, ABarpaaapp
66, 68, 66, -1, 343.00, 196.00, 28.00, 13, ABarpaaapaa
67, 69, 67, -1, 332.00, 178.00, 31.00, 15, ABarpaaapap
68, 70, 68, -1, 272.00, 334.00, 26.00, 15, ABarppaaap
69, 71, 69, -1, 235.00, 331.00, 28.00, 15, ABarppaapp
70, 72, 70, -1, 165.00, 359.00, 27.00, 15, ABarppappa
71, 73, 71, -1, 124.00, 364.00, 19.00, 17, ABarppappp
72, 74, 72, -1, 221.00, 347.00, 26.00, 15, ABarppapap
73, 75, 73, -1, 248.00, 340.00, 26.00, 17, ABarppapaa
74, 76, 74, -1, 115.00, 219.00, 26.00, 15, ABarpppppa
75, 77, 75, -1, 182.00, 184.00, 28.00, 13, ABarppppaa
76, 78, 76, -1, 160.00, 199.00, 30.00, 15, ABarppppap
77, 79, 77, -1, 209.00, 169.00, 29.00, 17, ABarpppaap
78, 80, 78, -1, 237.00, 189.00, 33.00, 13, ABarpppaaa
79, 81, 79, -1, 325.00, 196.00, 22.00, 9, ABalappppaa
80, 82, 80, -1, 328.00, 187.00, 25.00, 11, ABalappppap
81, 83, 81, -1, 327.00, 218.00, 24.00, 11, ABalapppaaa
82, 84, 82, -1, 320.00, 203.00, 26.00, 11, ABalapppaap
83, 86, 83, -1, 290.00, 191.00, 25.00, 13, ABalappapaa
84, 87, 84, -1, 333.00, 203.00, 25.00, 9, ABalappaaa
85, 88, 85, -1, 321.00, 185.00, 22.00, 13, ABalappappa
86, 89, 86, -1, 314.00, 174.00, 24.00, 11, ABalappappp
87, 90, 87, -1, 330.00, 253.00, 27.00, 17, ABalapapppa
88, 91, 88, -1, 336.00, 256.00, 29.00, 17, ABalapapppp
89, 92, 89, -1, 340.00, 227.00, 22.00, 13, ABalapappaa
90, 93, 90, -1, 341.00, 229.00, 26.00, 13, ABalapappap
91, 94, 91, -1, 319.00, 228.00, 32.00, 11, ABalapapaa
92, 95, 92, -1, 324.00, 235.00, 30.00, 11, ABalapapapp
93, 96, 93, -1, 323.00, 277.00, 26.00, 11, ABalapaaaap
94, 97, 94, -1, 329.00, 256.00, 25.00, 13, ABalapaaaaa
95, 98, 95, -1, 339.00, 242.00, 24.00, 13, ABalapaaapa
96, 99, 96, -1, 350.00, 256.00, 25.00, 15, ABalapaaapp
99, 102, 99, -1, 332.00, 285.00, 20.00, 11, ABalapaapap
100, 103, 100, -1, 313.00, 200.00, 20.00, 15, ABalaapaaar
101, 104, 101, -1, 269.00, 194.00, 10.00, 11, ABalaapapa
102, 105, 102, -1, 309.00, 190.00, 13.00, 13, ABalaapaapp
103, 106, 103, -1, 318.00, 188.00, 15.00, 13, ABalaapaapa
104, 107, 104, -1, 299.00, 173.00, 13.00, 11, ABalaappaa
105, 108, 105, -1, 308.00, 177.00, 19.00, 15, ABalaappppp
106, 109, 106, -1, 289.00, 185.00, 20.00, 11, ABalaappppa
107, 110, 107, -1, 278.00, 168.00, 18.00, 11, ABalaapppaa
108, 111, 108, -1, 341.00, 241.00, 13.00, 13, ABalaaaalpp
109, 112, 109, -1, 345.00, 240.00, 16.00, 13, ABalaaaalpa
110, 113, 110, -1, 328.00, 205.00, 20.00, 15, ABalaaaarrp
111, 114, 111, -1, 321.00, 195.00, 16.00, 13, ABalaaaarra
112, 115, 112, -1, 332.00, 217.00, 19.00, 11, ABalaaaarlp
113, 116, 113, -1, 339.00, 226.00, 17.00, 11, ABalaaaarla
114, 117, 114, -1, 330.00, 192.00, 18.00, 11, ABalaaapplr
115, 118, 115, -1, 304.00, 197.00, 23.00, 13, ABalaaapprr
116, 119, 116, -1, 308.00, 173.00, 17.00, 15, ABalaaapprl
117, 120, 117, -1, 333.00, 208.00, 27.00, 11, ABalappaapa
118, 121, 118, -1, 151.00, 304.00, 11.00, 13, ABplppppapa
120, 123, 120, -1, 141.00, 293.00, 12.00, 13, ABplppppapp
121, 124, 121, -1, 150.00, 303.00, 15.00, 13, ABplppppaaa
122, 125, 122, -1, 140.00, 299.00, 16.00, 13, ABplppppaap
123, 126, 123, -1, 88.00, 313.00, 13.00, 13, ABplppppppp
124, 127, 124, -1, 95.00, 309.00, 11.00, 11, ABplppppppa
125, 128, 125, -1, 134.00, 322.00, 17.00, 15, ABplpppppap
126, 129, 126, -1, 142.00, 314.00, 19.00, 15, ABplpppppaa
127, 130, 127, -1, 131.00, 310.00, 10.00, 13, ABplpppapaa
128, 131, 128, -1, 123.00, 320.00, 12.00, 13, ABplpppaapp
129, 132, 129, -1, 163.00, 311.00, 12.00, 15, ABplpppaaaa
130, 133, 130, -1, 163.00, 324.00, 14.00, 13, ABplpppaaap
131, 134, 131, -1, 167.00, 308.00, 14.00, 13, ABplppapppp
132, 135, 132, -1, 175.00, 296.00, 15.00, 11, ABplppapppa
133, 136, 133, -1, 194.00, 289.00, 16.00, 13, ABplppappap
134, 137, 134, -1, 208.00, 289.00, 16.00, 13, ABplppappaa
135, 139, 135, -1, 186.00, 296.00, 15.00, 14, ABplppapapa
136, 140, 136, -1, 180.00, 316.00, 15.00, 13, ABplppapapp
137, 141, 137, -1, 200.00, 274.00, 15.00, 11, ABplppaappa
138, 142, 138, -1, 176.00, 287.00, 12.00, 13, ABplppaappp
139, 143, 139, -1, 269.00, 299.00, 13.00, 13, ABplppaaaaa
142, 146, 142, -1, 245.00, 251.00, 12.00, 13, ABplpappaaa
143, 147, 143, -1, 204.00, 268.00, 19.00, 11, MSaappaa
144, 148, 144, -1, 128.00, 289.00, 14.00, 13, ABplpappppp
145, 149, 145, -1, 147.00, 282.00, 15.00, 11, ABplpappppa
146, 150, 146, -1, 157.00, 287.00, 13.00, 11, ABplpapppaa
147, 151, 147, -1, 147.00, 268.00, 14.00, 11, ABplpapppap
148, 152, 148, -1, 212.00, 284.00, 14.00, 13, ABplpapappa
149, 153, 149, -1, 181.00, 279.00, 15.00, 11, ABplpapappp
150, 154, 150, -1, 235.00, 292.00, 14.00, 13, ABplpapapap
151, 155, 151, -1, 239.00, 285.00, 15.00, 17, ABplpapapaa
152, 156, 152, -1, 271.00, 269.00, 13.00, 11, ABplpapaapa
153, 157, 153, -1, 262.00, 282.00, 13.00, 11, ABplpapaapp
154, 158, 154, -1, 245.00, 281.00, 12.00, 13, ABplpapaaap
155, 159, 155, -1, 254.00, 270.00, 14.00, 13, ABplpapaaaa
156, 138, 156, -1, 200.00, 307.00, 16.00, 13, ABplppapaap
157, 161, 157, -1, 223.00, 278.00, 10.00, 15, ABplpaaaapa
158, 162, 158, -1, 322.00, 275.00, 16.00, 13, ABplpaaaaaa
159, 163, 159, -1, 309.00, 281.00, 12.00, 15, ABplpaaapap
160, 164, 160, -1, 319.00, 265.00, 13.00, 11, ABplpaaapaa
161, 165, 161, -1, 304.00, 276.00, 15.00, 15, ABplpaaappa
162, 166, 162, -1, 272.00, 320.00, 20.00, 13, ABplpaappap
163, 167, 163, -1, 273.00, 310.00, 22.00, 15, ABplpaappaa
164, 168, 164, -1, 283.00, 281.00, 15.00, 15, ABplpaaappp
165, 169, 165, -1, 306.00, 283.00, 10.00, 13, ABplpaapapp
166, 170, 166, -1, 282.00, 277.00, 11.00, 17, ABplpaapppp
167, 171, 167, -1, 282.00, 306.00, 19.00, 15, ABplpaapaap
168, 172, 168, -1, 315.00, 279.00, 20.00, 13, ABplpaapaaa
169, 173, 169, -1, 347.00, 284.00, 19.00, 15, ABplpaapapa
170, 174, 170, -1, 264.00, 313.00, 11.00, 17, ABplaapppa
171, 175, 171, -1, 285.00, 258.00, 9.00, 19, ABplaappaa
173, 177, 173, -1, 241.00, 332.00, 19.00, 17, ABplaapppp
174, 178, 174, -1, 349.00, 214.00, 22.00, 13, ABplaapaaaa
175, 179, 175, -1, 355.00, 239.00, 26.00, 15, ABplaapaaap
176, 180, 176, -1, 341.00, 271.00, 23.00, 13, ABplaapaapa
177, 181, 177, -1, 332.00, 283.00, 22.00, 11, ABplaapaapp
178, 182, 178, -1, 297.00, 312.00, 27.00, 15, ABplaapappp
179, 183, 179, -1, 301.00, 287.00, 29.00, 15, ABplaapappa
180, 184, 180, -1, 279.00, 309.00, 26.00, 13, ABplaapapap
181, 185, 181, -1, 289.00, 295.00, 25.00, 13, ABplaapapaa
182, 186, 182, -1, 322.00, 251.00, 32.00, 13, ABplaaaaapp
183, 187, 183, -1, 313.00, 267.00, 28.00, 15, MSapaaap
184, 188, 184, -1, 341.00, 240.00, 30.00, 13, ABplaaaaaap
186, 190, 186, -1, 316.00, 236.00, 35.00, 15, ABplaaaapp
187, 191, 187, -1, 325.00, 292.00, 29.00, 13, ABplaaappa
188, 192, 188, -1, 309.00, 304.00, 30.00, 14, ABplaaappp
189, 193, 189, -1, 340.00, 280.00, 28.00, 17, ABplaaapap
190, 194, 190, -1, 351.00, 262.00, 27.00, 15, ABplaaapaa
191, 195, 191, -1, 143.00, 323.00, 10.00, 15, ABplappppa
192, 196, 192, -1, 96.00, 329.00, 12.00, 15, ABplappppp
193, 197, 193, -1, 124.00, 350.00, 16.00, 15, ABplapppaaa
194, 198, 194, -1, 112.00, 328.00, 13.00, 13, ABplapppapp
195, 199, 195, -1, 107.00, 332.00, 10.00, 13, ABplapppapa
196, 200, 196, -1, 203.00, 339.00, 20.00, 15, ABplappaaa
197, 201, 197, -1, 185.00, 347.00, 20.00, 15, ABplappaap
198, 202, 198, -1, 167.00, 348.00, 19.00, 15, ABplappapp
199, 203, 199, -1, 187.00, 355.00, 26.00, 15, ABplappapa
200, 204, 200, -1, 219.00, 333.00, 18.00, 15, ABplapaapp
201, 205, 201, -1, 239.00, 316.00, 12.00, 13, ABplapaapa
202, 206, 202, -1, 288.00, 296.00, 33.00, 15, ABarppaaaa
203, 207, 203, -1, 246.00, 326.00, 25.00, 13, ABplapaaapp
204, 208, 204, -1, 261.00, 324.00, 24.00, 15, ABplapaaapa
205, 209, 205, -1, 109.00, 359.00, 18.00, 13, ABplapapppa
206, 210, 206, -1, 100.00, 339.00, 15.00, 15, ABplapapppp
207, 211, 207, -1, 150.00, 356.00, 17.00, 17, ABplapapap
208, 212, 208, -1, 144.00, 343.00, 13.00, 17, ABplapappa
209, 213, 209, -1, 145.00, 369.00, 23.00, 19, ABplapapaa
210, 214, 210, -1, 237.00, 229.00, 14.00, 13, ABprpapaaaa
211, 215, 211, -1, 229.00, 217.00, 12.00, 13, ABprpapaapp
212, 216, 212, -1, 203.00, 246.00, 15.00, 13, ABprpapappa
213, 217, 213, -1, 166.00, 278.00, 14.00, 11, ABprpapappp
214, 218, 214, -1, 210.00, 225.00, 14.00, 11, ABprpapapap
215, 219, 215, -1, 220.00, 234.00, 15.00, 13, ABprpapapaa
216, 220, 216, -1, 122.00, 298.00, 16.00, 13, ABprpappppp
217, 221, 217, -1, 130.00, 283.00, 18.00, 15, ABprpappppa
218, 222, 218, -1, 243.00, 239.00, 14.00, 13, ABprpapppaa
219, 223, 219, -1, 187.00, 271.00, 16.00, 13, ABprpappapp
220, 224, 220, -1, 217.00, 256.00, 10.00, 15, ABprpappaap
221, 225, 221, -1, 261.00, 245.00, 12.00, 11, ABprpappaaa
222, 226, 222, -1, 245.00, 175.00, 17.00, 15, ABprpaaaaap
223, 227, 223, -1, 255.00, 179.00, 21.00, 13, ABpraaappaa
224, 228, 224, -1, 172.00, 251.00, 13.00, 14, ABprpaaaapp
225, 229, 225, -1, 208.00, 242.00, 10.00, 15, ABprpaaaapa
226, 230, 226, -1, 269.00, 191.00, 16.00, 15, ABprpaaappa
227, 231, 227, -1, 245.00, 220.00, 13.00, 11, ABprpapaapa
228, 232, 228, -1, 249.00, 201.00, 16.00, 15, ABprpaaappp
229, 233, 229, -1, 282.00, 186.00, 12.00, 13, ABprpaaapaa
230, 234, 230, -1, 266.00, 180.00, 14.00, 11, ABprpaaapap
231, 235, 231, -1, 226.00, 180.00, 19.00, 13, ABprpaapaap
232, 236, 232, -1, 284.00, 156.00, 20.00, 15, ABprpaapapa
233, 237, 233, -1, 253.00, 184.00, 14.00, 15, ABprpaapapp
234, 238, 234, -1, 253.00, 205.00, 11.00, 15, ABprpaapppp
235, 239, 235, -1, 211.00, 175.00, 19.00, 13, ABprpaappap
236, 240, 236, -1, 225.00, 181.00, 21.00, 13, ABprpaappaa
237, 241, 237, -1, 98.00, 259.00, 12.00, 13, ABprpppaapp
238, 242, 238, -1, 99.00, 263.00, 16.00, 13, ABprpppaapa
239, 243, 239, -1, 132.00, 236.00, 15.00, 15, ABprpppaaap
240, 244, 240, -1, 137.00, 253.00, 14.00, 13, ABprpppaaaa
241, 245, 241, -1, 113.00, 270.00, 11.00, 11, ABprpppapaa
242, 246, 242, -1, 106.00, 291.00, 10.00, 17, ABprpppapap
244, 248, 244, -1, 132.00, 257.00, 11.00, 17, ABprppppapa
245, 249, 245, -1, 130.00, 271.00, 12.00, 15, ABprppppapp
246, 250, 246, -1, 138.00, 265.00, 17.00, 13, ABprppppaaa
247, 251, 247, -1, 124.00, 271.00, 16.00, 13, ABprppppaap
248, 252, 248, -1, 91.00, 293.00, 11.00, 13, ABprppppppa
249, 253, 249, -1, 120.00, 257.00, 19.00, 15, ABprpppppaa
250, 254, 250, -1, 101.00, 260.00, 19.00, 11, ABprpppppap
251, 255, 251, -1, 210.00, 213.00, 13.00, 13, ABprppaapap
252, 256, 252, -1, 212.00, 218.00, 10.00, 11, ABprppaapaa
253, 257, 253, -1, 194.00, 261.00, 13.00, 11, ABprppaappa
254, 258, 254, -1, 169.00, 267.00, 14.00, 13, ABprppaappp
255, 259, 255, -1, 237.00, 205.00, 14.00, 13, ABprppaaaaa
256, 260, 256, -1, 220.00, 197.00, 14.00, 15, ABprppaaaap
257, 261, 257, -1, 207.00, 198.00, 11.00, 15, ABpraapppa
258, 262, 258, -1, 183.00, 224.00, 14.00, 15, ABprppapaaa
259, 263, 259, -1, 169.00, 233.00, 16.00, 15, ABprppapaap
260, 264, 260, -1, 162.00, 249.00, 16.00, 13, ABprppapapa
261, 265, 261, -1, 151.00, 241.00, 16.00, 13, ABprppapapp
262, 266, 262, -1, 159.00, 262.00, 14.00, 11, ABprppapppa
263, 267, 263, -1, 145.00, 246.00, 14.00, 13, ABprppapppp
264, 268, 264, -1, 184.00, 247.00, 17.00, 13, ABprppappaa
265, 269, 265, -1, 175.00, 257.00, 17.00, 13, ABprppappap
266, 270, 266, -1, 345.00, 195.00, 22.00, 15, ABpraapaaaa
267, 271, 267, -1, 330.00, 187.00, 27.00, 15, ABarpapaaaa
268, 272, 268, -1, 334.00, 177.00, 25.00, 15, ABpraapaaap
269, 273, 269, -1, 291.00, 169.00, 23.00, 13, ABpraapaapa
270, 274, 270, -1, 228.00, 178.00, 27.00, 13, ABpraapapap
271, 275, 271, -1, 238.00, 184.00, 26.00, 14, ABpraapapaa
272, 276, 272, -1, 238.00, 164.00, 25.00, 15, ABpraapappp
273, 277, 273, -1, 244.00, 181.00, 29.00, 13, ABpraapappa
274, 278, 274, -1, 186.00, 187.00, 19.00, 17, ABpraapppp
275, 279, 589, -1, 233.00, 190.00, 11.00, 15, ABpraappap
276, 280, 275, -1, 255.00, 189.00, 10.00, 15, ABpraappaa
277, 281, 276, -1, 300.00, 178.00, 23.00, 13, ABpraaapapa
278, 282, 277, -1, 305.00, 166.00, 21.00, 15, ABpraaapapp
279, 283, 278, -1, 266.00, 183.00, 24.00, 13, ABpraaapaad
280, 284, 279, -1, 280.00, 172.00, 23.00, 13, ABpraaapaav
281, 285, 280, -1, 243.00, 181.00, 22.00, 13, ABpraaappap
282, 286, 281, -1, 221.00, 170.00, 23.00, 13, ABpraaapppa
283, 287, 282, -1, 303.00, 159.00, 23.00, 13, ABpraaaaapd
284, 288, 283, -1, 302.00, 164.00, 18.00, 15, ABpraaaaapv
285, 289, 284, -1, 285.00, 168.00, 15.00, 15, ABpraaaaaaa
286, 290, 285, -1, 284.00, 178.00, 11.00, 13, ABpraaaaaap
287, 291, 286, -1, 267.00, 170.00, 16.00, 15, ABpraaaapav
288, 292, 287, -1, 272.00, 166.00, 14.00, 13, ABpraaaapad
289, 293, 288, -1, 257.00, 169.00, 25.00, 13, ABpraaaappa
290, 294, 289, -1, 259.00, 172.00, 27.00, 13, ABpraaaappp
291, 295, 290, -1, 121.00, 222.00, 20.00, 15, ABprappapp
292, 296, 291, -1, 137.00, 208.00, 28.00, 15, ABprappapa
293, 297, 292, -1, 141.00, 216.00, 19.00, 15, ABprappaap
294, 298, 293, -1, 158.00, 208.00, 21.00, 15, ABprappaaa
295, 299, 294, -1, 78.00, 249.00, 15.00, 13, ABprapppaap
296, 300, 295, -1, 91.00, 248.00, 16.00, 15, ABprapppaaa
297, 301, 296, -1, 90.00, 271.00, 14.00, 13, ABprapppapp
298, 302, 297, -1, 82.00, 260.00, 11.00, 11, ABprapppapa
299, 303, 298, -1, 75.00, 274.00, 12.00, 17, ABprappppp
300, 304, 299, -1, 108.00, 255.00, 10.00, 17, ABprappppa
301, 305, 300, -1, 203.00, 183.00, 25.00, 15, ABprapaaapa
302, 306, 301, -1, 189.00, 194.00, 25.00, 13, ABprapaaapp
303, 307, 302, -1, 221.00, 187.00, 31.00, 17, ABprapaaaap
304, 308, 303, -1, 248.00, 174.00, 32.00, 11, ABprapaaaaa
305, 309, 304, -1, 169.00, 201.00, 19.00, 13, ABprapaapp
306, 310, 305, -1, 195.00, 227.00, 11.00, 15, ABprapaapa
307, 311, 306, -1, 105.00, 238.00, 13.00, 15, ABprapappa
308, 312, 307, -1, 74.00, 269.00, 16.00, 15, ABprapapppp
309, 313, 308, -1, 72.00, 251.00, 19.00, 13, ABprapapppa
310, 314, 309, -1, 113.00, 226.00, 16.00, 15, ABprapapap
311, 315, 310, -1, 93.00, 231.00, 24.00, 17, ABprapapaa
313, 316, 312, -1, 255.00, 193.00, 32.00, 13, MSppppap
314, 317, 313, -1, 233.00, 197.00, 22.00, 11, MSppppaa
315, 318, 314, -1, 262.00, 207.00, 34.00, 15, MSpppppa
316, 319, 315, -1, 227.00, 221.00, 34.00, 15, MSpppppp
317, 320, 316, -1, 250.00, 196.00, 29.00, 13, MSpppaaa
318, 321, 317, -1, 127.00, 242.00, 23.00, 13, MSpppaap
320, 323, 319, -1, 221.00, 225.00, 13.00, 11, ABprpapaaap
321, 324, 320, -1, 145.00, 276.00, 19.00, 15, MSppaapp
322, 325, 321, -1, 263.00, 196.00, 20.00, 11, MSppaapa
323, 326, 322, -1, 285.00, 201.00, 20.00, 15, MSppaaaa
324, 327, 323, -1, 278.00, 191.00, 28.00, 17, MSppaaap
325, 328, 324, -1, 210.00, 196.00, 28.00, 14, MSppapaa
326, 329, 325, -1, 253.00, 189.00, 19.00, 13, MSppapap
327, 330, 326, -1, 197.00, 258.00, 20.00, 13, MSpapappp
328, 331, 327, -1, 210.00, 240.00, 22.00, 13, MSpapapaa
329, 332, 328, -1, 208.00, 238.00, 19.00, 13, MSpapaaap
330, 333, 329, -1, 192.00, 224.00, 25.00, 17, MSpapaapp
331, 334, 330, -1, 170.00, 326.00, 19.00, 13, MSpappaa
332, 335, 331, -1, 167.00, 230.00, 19.00, 13, MSpappppa
333, 336, 332, -1, 147.00, 239.00, 21.00, 13, MSpappppp
334, 337, 333, -1, 252.00, 239.00, 31.00, 15, MSpaaappa
335, 338, 334, -1, 232.00, 240.00, 33.00, 15, MSpaaappp
336, 339, 335, -1, 242.00, 257.00, 32.00, 13, MSpaaapaa
337, 340, 336, -1, 222.00, 258.00, 31.00, 13, MSpaaapap
338, 341, 337, -1, 280.00, 214.00, 31.00, 13, MSpaaaapa
339, 342, 338, -1, 262.00, 217.00, 30.00, 15, MSpaaaapp
340, 343, 339, -1, 280.00, 236.00, 33.00, 17, MSpaaaaaa
341, 344, 340, -1, 264.00, 233.00, 33.00, 13, MSpaaaaap
342, 345, 341, -1, 222.00, 210.00, 22.00, 15, ABaraappppa
343, 346, 342, -1, 222.00, 214.00, 28.00, 15, ABaraapppap
344, 347, 343, -1, 232.00, 231.00, 31.00, 11, MSpaapaap
345, 348, 344, -1, 253.00, 228.00, 30.00, 13, MSpaapaaa
346, 349, 345, -1, 179.00, 267.00, 29.00, 13, Earap
347, 350, 346, -1, 271.00, 294.00, 21.00, 11, MSapppaa
348, 351, 347, -1, 261.00, 303.00, 31.00, 15, MSapppap
349, 352, 348, -1, 264.00, 275.00, 34.00, 19, MSappppa
350, 353, 349, -1, 233.00, 285.00, 33.00, 13, MSappppp
351, 354, 350, -1, 151.00, 325.00, 22.00, 17, MSappaap
352, 355, 351, -1, 272.00, 289.00, 30.00, 17, MSappaaa
354, 357, 353, -1, 271.00, 292.00, 16.00, 9, MSappapa
355, 358, 354, -1, 273.00, 267.00, 29.00, 19, ABaraapaapp
356, 359, 355, -1, 303.00, 251.00, 33.00, 13, MSapappp
357, 360, 356, -1, 260.00, 308.00, 26.00, 13, MSapapaa
358, 361, 357, -1, 163.00, 275.00, 19.00, 15, MSapaapp
359, 362, 358, -1, 299.00, 283.00, 19.00, 11, MSapaapa
360, 363, 359, -1, 307.00, 262.00, 20.00, 13, MSapaaaa
361, 364, 360, -1, 296.00, 233.00, 30.00, 17, MSaaaaapa
362, 365, 361, -1, 271.00, 251.00, 31.00, 13, MSaaaaapp
363, 366, 362, -1, 310.00, 216.00, 25.00, 11, MSaaaaaar
364, 366, 363, -1, 317.00, 235.00, 25.00, 13, MSaaaaaal
365, 367, 364, -1, 256.00, 248.00, 34.00, 13, MSaaaapaa
366, 368, 365, -1, 256.00, 261.00, 31.00, 13, MSaaaapap
367, 369, 366, -1, 239.00, 267.00, 30.00, 11, MSaaaappa
368, 370, 367, -1, 230.00, 283.00, 30.00, 13, MSaaapapp
369, 371, 368, -1, 269.00, 265.00, 27.00, 15, MSaaapaap
370, 372, 369, -1, 214.00, 281.00, 31.00, 11, MSaaappa
371, 373, 370, -1, 214.00, 266.00, 32.00, 13, MSaaappp
372, 374, 371, -1, 187.00, 312.00, 20.00, 15, MSaapppp
373, 375, 372, -1, 231.00, 273.00, 19.00, 13, MSaapaaap
374, 376, 373, -1, 248.00, 272.00, 18.00, 13, MSaapaaaa
375, 377, 374, -1, 212.00, 279.00, 20.00, 11, MSaapappp
376, 378, 375, -1, 239.00, 295.00, 26.00, 15, MSaapappa
377, 379, 376, -1, 229.00, 271.00, 22.00, 11, MSaapapaa
378, 380, 377, -1, 223.00, 290.00, 20.00, 13, MSaapapap
379, 381, 378, -1, 112.00, 310.00, 25.00, 23, Eplpa
380, 382, 379, -1, 117.00, 350.00, 22.00, 17, Cappapa
381, 383, 380, -1, 113.00, 341.00, 19.00, 17, Cappapp
382, 384, 381, -1, 178.00, 338.00, 29.00, 15, Cappaaa
383, 385, 382, -1, 87.00, 339.00, 23.00, 15, Capppap
384, 386, 383, -1, 109.00, 341.00, 29.00, 15, Capppaa
385, 387, 384, -1, 83.00, 321.00, 17.00, 15, Cappppv
386, 388, 385, -1, 128.00, 349.00, 25.00, 15, Capapap
387, 389, 386, -1, 156.00, 343.00, 27.00, 15, Capapaa
388, 390, 387, -1, 135.00, 313.00, 13.00, 15, Capappp
389, 391, 388, -1, 149.00, 336.00, 18.00, 15, Capappa
390, 392, 389, -1, 185.00, 337.00, 23.00, 13, Capaaap
391, 393, 390, -1, 212.00, 330.00, 23.00, 15, Capaaaa
393, 395, 392, -1, 75.00, 306.00, 14.00, 13, Caappv
394, 396, 393, -1, 107.00, 293.00, 12.00, 11, Caapap
395, 397, 394, -1, 85.00, 347.00, 20.00, 17, Cpappd
396, 398, 395, -1, 78.00, 328.00, 13.00, 15, Cpappv
397, 399, 396, -1, 65.00, 285.00, 23.00, 17, Cpapaa
398, 400, 397, -1, 110.00, 242.00, 23.00, 15, Cppaapp
399, 401, 398, -1, 136.00, 228.00, 24.00, 15, Cppaapa
400, 402, 399, -1, 152.00, 220.00, 25.00, 15, Cppaaap
401, 403, 400, -1, 172.00, 216.00, 23.00, 15, Cppaaaa
402, 404, 401, -1, 134.00, 233.00, 29.00, 17, Cppapaa
403, 405, 402, -1, 116.00, 256.00, 15.00, 13, Cppappp
404, 406, 403, -1, 107.00, 243.00, 18.00, 13, Cppappa
405, 407, 404, -1, 129.00, 248.00, 33.00, 15, Cpppaap
406, 408, 405, -1, 158.00, 222.00, 29.00, 15, Cpppaaa
407, 409, 406, -1, 82.00, 265.00, 20.00, 15, Cpppapp
408, 410, 407, -1, 86.00, 261.00, 24.00, 17, Cpppapa
409, 411, 408, -1, 251.00, 307.00, 18.00, 15, Daapa
410, 412, 409, -1, 233.00, 312.00, 16.00, 17, Daapp
411, 413, 410, -1, 253.00, 308.00, 22.00, 13, Daaaa
412, 414, 411, -1, 238.00, 306.00, 30.00, 17, Daaap
413, 415, 412, -1, 222.00, 299.00, 32.00, 13, Dappaa
414, 416, 413, -1, 197.00, 314.00, 31.00, 15, Dappap
415, 417, 414, -1, 178.00, 324.00, 32.00, 17, Dappp
416, 418, 415, -1, 196.00, 210.00, 17.00, 15, Dpapp
417, 419, 416, -1, 209.00, 200.00, 18.00, 15, Dpapa
418, 420, 417, -1, 205.00, 206.00, 31.00, 19, Dpaap
420, 422, 419, -1, 209.00, 195.00, 21.00, 13, Dpaaa
421, 423, 420, -1, 162.00, 232.00, 33.00, 13, Dpppp
422, 424, 421, -1, 182.00, 233.00, 33.00, 13, Dpppap
423, 425, 422, -1, 211.00, 225.00, 34.00, 13, Dpppaa
424, 426, 423, -1, 192.00, 203.00, 22.00, 17, Dppaa
425, 427, 424, -1, 176.00, 215.00, 29.00, 13, Dppap
427, 429, -1, -1, 311.00, 285.00, 27.00, 11, ABalpppappa
428, 430, 427, -1, 313.00, 297.00, 26.00, 15, ABalpppappp
429, 431, 428, -1, 290.00, 297.00, 22.00, 15, ABalpppppap
430, 432, 429, -1, 299.00, 308.00, 23.00, 13, ABalppppppaa
431, 433, 430, -1, 278.00, 325.00, 24.00, 13, ABalppppppap
432, 434, 431, -1, 305.00, 314.00, 20.00, 13, ABalpppppppa
433, 435, 432, -1, 348.00, 257.00, 22.00, 13, ABalppppapp
434, 436, 433, -1, 341.00, 278.00, 15.00, 13, ABalpppaaaa
435, 437, 434, -1, 330.00, 269.00, 11.00, 15, ABalpppaaap
436, 438, 435, -1, 354.00, 268.00, 18.00, 13, ABalpppaapd
437, 439, 436, -1, 354.00, 263.00, 21.00, 13, ABalpppaapv
438, 440, 437, -1, 318.00, 293.00, 17.00, 13, ABalpppapad
439, 441, 438, -1, 322.00, 288.00, 14.00, 13, ABalpppapav
440, 655, 653, -1, 346.00, 257.00, 19.00, 13, ABalapaappp
441, 443, 440, -1, 342.00, 257.00, 12.00, 15, ABalppaaapp
442, 444, 441, -1, 296.00, 267.00, 12.00, 13, ABalppaappp
443, 445, 442, -1, 311.00, 239.00, 10.00, 11, ABalppaapa
444, 446, 443, -1, 297.00, 300.00, 17.00, 15, ABplpaaaaap
445, 447, 444, -1, 305.00, 260.00, 13.00, 13, ABalppapppa
446, 448, 445, -1, 319.00, 259.00, 16.00, 11, ABalppappap
447, 449, 669, -1, 325.00, 252.00, 17.00, 13, ABalppappaa
448, 450, 447, -1, 286.00, 254.00, 13.00, 14, ABalppapapa
449, 451, 448, -1, 285.00, 253.00, 11.00, 13, ABalppapapp
450, 452, 449, -1, 329.00, 245.00, 14.00, 13, ABalppapaaa
451, 453, 450, -1, 267.00, 256.00, 11.00, 13, ABalpapapaa
452, 454, 451, -1, 196.00, 287.00, 13.00, 13, ABalpapappa
453, 455, 452, -1, 291.00, 236.00, 11.00, 11, ABalpapaapp
454, 456, 453, -1, 299.00, 226.00, 13.00, 11, ABalpapaapa
455, 457, 454, -1, 316.00, 250.00, 11.00, 11, ABalppaappa
456, 458, 455, -1, 297.00, 240.00, 15.00, 15, ABalpapaaaa
457, 459, 456, -1, 282.00, 253.00, 18.00, 17, ABalpaaaaap
458, 460, 457, -1, 260.00, 244.00, 19.00, 11, ABalpappaaa
459, 461, 458, -1, 276.00, 278.00, 19.00, 15, ABalpapppaa
460, 462, 459, -1, 262.00, 259.00, 22.00, 15, ABalpapppap
461, 463, 460, -1, 297.00, 262.00, 22.00, 13, ABalpaaapaa
462, 464, 461, -1, 293.00, 267.00, 26.00, 11, ABalpaaapap
463, 465, 462, -1, 279.00, 253.00, 17.00, 15, ABalpaaaapp
464, 466, 463, -1, 290.00, 243.00, 18.00, 13, ABalpaaaapa
465, 467, 464, -1, 284.00, 266.00, 20.00, 15, ABalpappaap
466, 468, 465, -1, 302.00, 244.00, 19.00, 13, ABalpaaaaaa
467, 469, 466, -1, 326.00, 225.00, 18.00, 11, ABalpaapppa
468, 470, 467, -1, 328.00, 232.00, 14.00, 13, ABalpaapppp
469, 471, 468, -1, 313.00, 231.00, 17.00, 11, ABalpaappaa
470, 472, 664, -1, 310.00, 232.00, 15.00, 11, ABalpaappap
471, 473, 469, -1, 280.00, 256.00, 26.00, 13, ABalpaapapa
475, 477, 473, -1, 137.00, 311.00, 27.00, 21, Ealpp
476, 478, 474, -1, 197.00, 256.00, 24.00, 11, Nuc266_24_194_238
477, 479, 475, -1, 139.00, 281.00, 28.00, 21, Earpp
478, 480, 476, -1, 170.00, 295.00, 26.00, 15, Ealap
479, 481, 477, -1, 210.00, 280.00, 25.00, 17, Ealaa
480, 482, 478, -1, 115.00, 311.00, 29.00, 19, Eplap
481, 483, 479, -1, 108.00, 282.00, 20.00, 23, Eprpp
482, 484, 480, -1, 203.00, 329.00, 28.00, 15, Dapap
483, 485, 481, -1, 233.00, 316.00, 22.00, 15, Dapaa
484, 486, 482, -1, 224.00, 299.00, 24.00, 13, MSaapaapp
485, 487, 483, -1, 240.00, 295.00, 23.00, 13, MSaapaapa
486, 488, 484, -1, 179.00, 199.00, 30.00, 13, ABarpppapp
487, 489, 485, -1, 252.00, 299.00, 14.00, 13, ABplppaapap
488, 490, 486, -1, 245.00, 301.00, 10.00, 13, ABplppaapaa
489, 491, 487, -1, 336.00, 244.00, 18.00, 13, ABalaaaalar
490, 493, 488, -1, 303.00, 180.00, 28.00, 13, ABalapppppp
491, 494, 489, -1, 302.00, 166.00, 27.00, 15, ABarpappaa
492, 495, 490, -1, 97.00, 272.00, 33.00, 17, Cppppaa
493, 496, 491, -1, 74.00, 286.00, 27.00, 17, Cppppap
494, 497, 492, -1, 106.00, 278.00, 15.00, 15, Cpppppv
495, 498, 493, -1, 177.00, 261.00, 24.00, 19, Earpa
497, 500, 495, -1, 107.00, 288.00, 25.00, 19, Eprpa
498, 501, 496, -1, 257.00, 231.00, 36.00, 14, ABarpaappa
499, 502, 497, -1, 256.00, 306.00, 34.00, 17, ABarppaapa
501, 504, 499, -1, 199.00, 272.00, 20.00, 15, MSaappap
502, 505, 500, -1, 292.00, 207.00, 11.00, 13, ABalaapappa
504, 507, 502, -1, 218.00, 309.00, 12.00, 15, ABplppapaaa
505, 508, 660, -1, 329.00, 241.00, 21.00, 15, ABalaaapall
507, 510, 505, -1, 274.00, 194.00, 18.00, 13, ABprpaaaaaa
508, 511, 506, -1, 138.00, 246.00, 17.00, 13, MSpappap
509, 512, 507, -1, 207.00, 240.00, 30.00, 17, MSpaapapp
511, 514, 509, -1, 76.00, 296.00, 18.00, 15, Cpppppd
512, 515, 510, -1, 290.00, 303.00, 31.00, 13, ABplapaaaaa
514, 517, 512, -1, 277.00, 312.00, 30.00, 15, ABplapaaaap
515, 518, 513, -1, 337.00, 265.00, 15.00, 11, ABalppaaapa
516, 519, 514, -1, 262.00, 263.00, 19.00, 15, ABalpappppp
517, 520, 515, -1, 346.00, 210.00, 18.00, 13, ABalaaaparr
518, 521, 516, -1, 347.00, 224.00, 19.00, 15, ABalaaaparl
519, 522, 517, -1, 265.00, 277.00, 23.00, 13, ABalpaaappp
520, 523, 518, -1, 281.00, 277.00, 22.00, 13, ABalpaaappa
521, 524, 519, -1, 190.00, 283.00, 23.00, 19, Ealpa
522, 525, 520, -1, 226.00, 244.00, 13.00, 11, ABprpappapa
523, 526, 521, -1, 167.00, 302.00, 18.00, 25, Z3
524, 527, 522, -1, 149.00, 336.00, 32.00, 15, Cappaap
525, 528, 523, -1, 278.00, 236.00, 14.00, 13, ABarappaapp
527, 530, 525, -1, 206.00, 223.00, 27.00, 15, MSpapappa
528, 531, 526, -1, 203.00, 213.00, 23.00, 13, MSpapaapa
529, 532, 527, -1, 272.00, 161.00, 24.00, 13, ABpraapaapp
530, 533, 528, -1, 302.00, 185.00, 26.00, 13, ABalapppppa
531, 534, 529, -1, 290.00, 219.00, 17.00, 15, ABarapaaaaa
532, 535, 530, -1, 304.00, 256.00, 15.00, 15, ABalppapppp
533, 536, 531, -1, 340.00, 202.00, 19.00, 13, ABalaaappll
535, 538, 533, -1, 105.00, 250.00, 28.00, 15, Cppapap
536, 539, 534, -1, 240.00, 227.00, 22.00, 13, ABarapaappp
537, 540, 535, -1, 308.00, 283.00, 22.00, 15, ABalppppaad
540, 543, 538, -1, 280.00, 278.00, 25.00, 13, ABalpaapapp
541, 544, 539, -1, 127.00, 335.00, 14.00, 13, ABplpppaapa
542, 545, 540, -1, 341.00, 230.00, 31.00, 17, ABarpaaaapp
545, 548, 543, -1, 223.00, 231.00, 18.00, 15, MSpapaaaa
546, 549, 544, -1, 198.00, 224.00, 18.00, 13, MSpapppaa
547, 550, 545, -1, 181.00, 229.00, 19.00, 13, MSpapppap
548, 551, 546, -1, 290.00, 245.00, 35.00, 11, ABarpaapap
549, 552, 547, -1, 271.00, 180.00, 21.00, 15, ABprpaapaaa
550, 553, 548, -1, 254.00, 249.00, 17.00, 15, ABalpappppa
551, 554, 549, -1, 291.00, 315.00, 18.00, 11, ABalpppppppp
552, 555, 550, -1, 107.00, 308.00, 9.00, 11, ABprpppapp
554, 558, 552, -1, 224.00, 205.00, 10.00, 9, ABprppaaap
555, 559, -1, -1, 228.00, 253.00, 14.00, 9, ABplpappap
557, 561, 555, -1, 106.00, 246.00, 32.00, 17, Caaapa
559, 563, 557, -1, 152.00, 277.00, 32.00, 14, Epraa
560, 564, 558, -1, 129.00, 352.00, 30.00, 19, Cpaapp
561, 565, 559, -1, 306.00, 194.00, 18.00, 15, ABalaapaaal
562, 566, 560, -1, 345.00, 195.00, 25.00, 13, ABarpaaaaal
564, 568, 562, -1, 95.00, 293.00, 13.00, 9, Caapaa
565, 569, 563, -1, 208.00, 193.00, 35.00, 14, ABarpppapa
566, 570, 564, -1, 260.00, 291.00, 18.00, 15, MSappapp
567, 571, 565, -1, 82.00, 239.00, 19.00, 15, ABarpppppp
569, 573, 567, -1, 276.00, 294.00, 10.00, 19, ABplaappap
571, 575, 569, -1, 236.00, 205.00, 19.00, 11, MSpppapa
572, 576, 570, -1, 301.00, 273.00, 32.00, 19, MSapappa
573, 577, 571, -1, 119.00, 290.00, 29.00, 21, Eprap
574, 578, 572, -1, 293.00, 202.00, 33.00, 15, MSppappp
575, 579, 573, -1, 90.00, 347.00, 26.00, 15, Cpapap
576, 580, 574, -1, 112.00, 308.00, 14.00, 13, Cappppd
578, 582, 576, -1, 230.00, 256.00, 29.00, 15, MSaaaappp
579, 583, 577, -1, 116.00, 349.00, 14.00, 13, ABplapppaap
580, 584, 578, -1, 136.00, 255.00, 22.00, 21, Z2
581, 585, 579, -1, 322.00, 270.00, 30.00, 11, ABplaaaaapa
582, 586, 580, -1, 331.00, 226.00, 35.00, 19, ABplaaaapa
583, 587, 581, -1, 195.00, 240.00, 20.00, 11, MSpapapap
586, 591, 584, -1, 114.00, 306.00, 18.00, 27, Eplpp
589, 594, 587, -1, 140.00, 343.00, 21.00, 17, Capaapp
590, 595, 588, -1, 166.00, 342.00, 23.00, 13, Capaapa
592, 597, 590, -1, 279.00, 184.00, 31.00, 19, MSppappa
593, 598, 591, -1, 224.00, 293.00, 11.00, 15, ABalpapappp
595, 600, 593, -1, 219.00, 235.00, 29.00, 13, MSpaapapa
597, 602, 595, -1, 229.00, 170.00, 16.00, 13, ABpraaappppp
598, 603, 596, -1, 249.00, 159.00, 20.00, 13, ABpraaappppa
599, 604, 597, -1, 305.00, 291.00, 19.00, 11, ABalpppppaa
605, 610, 602, -1, 217.00, 255.00, 16.00, 17, ABarapapapp
607, 612, 604, -1, 207.00, 312.00, 20.00, 15, MSaapppap
608, 613, 605, -1, 221.00, 335.00, 32.00, 14, Caaaaa
609, 614, 606, -1, 61.00, 280.00, 18.00, 15, Caappd
612, 617, 609, -1, 241.00, 227.00, 18.00, 15, ABarapapppp
613, 618, 610, -1, 233.00, 250.00, 17.00, 17, ABarapapppa
614, 619, 611, -1, 229.00, 297.00, 18.00, 13, MSaapppaa
615, 620, 637, -1, 198.00, 257.00, 26.00, 15, Earaa
617, 622, 614, -1, 187.00, 251.00, 14.00, 13, ABarappappa
618, 623, 615, -1, 305.00, 238.00, 22.00, 15, ABalpaapaaa
620, 625, 617, -1, 150.00, 299.00, 31.00, 17, Eplaa
622, 628, 619, -1, 237.00, 164.00, 29.00, 15, ABarpapppp
623, 629, 620, -1, 195.00, 305.00, 13.00, 15, ABplpaaaapp
627, 633, 624, -1, 228.00, 203.00, 17.00, 17, MSpppapp
630, 638, 627, -1, 242.00, 228.00, 20.00, 13, ABarapappap
631, 636, 631, -1, 341.00, 230.00, 28.00, 15, ABplaaaaaaa
632, 637, 632, -1, 197.00, 332.00, 34.00, 17, Cpaaap
633, 557, 607, -1, 84.00, 260.00, 29.50, 16, Caaapp
634, 639, 633, -1, 292.00, 283.00, 19.00, 15, MSapapap
635, 640, 634, -1, 123.00, 305.00, 33.00, 15, Cpaapa
636, 641, 635, -1, 233.00, 308.00, 33.00, 15, Cpaaaa
637, 642, 636, -1, 141.00, 232.00, 33.00, 15, Caaaap
638, 643, 638, -1, 247.00, 201.00, 14.00, 15, ABprpaapppa
639, 1, 639, -1, 296.00, 217.00, 25.00, 13, ABaraappaaa
640, 20, 640, -1, 266.00, 215.00, 25.30, 13, ABaraaapapa
641, 644, 641, -1, 314.00, 239.00, 11.54, 13, ABalppapaap
642, 645, 642, -1, 242.00, 278.00, 10.00, 17, ABalpapapap
643, 85, 643, -1, 315.00, 213.00, 29.14, 9, ABalapppapa
644, 646, 644, -1, 318.00, 203.00, 30.24, 12, ABalapppapp
645, 647, 645, -1, 278.00, 178.00, 26.00, 11, ABalappapap
646, 648, 646, -1, 320.00, 277.00, 18.00, 13, ABalapaapaa
647, 101, 647, -1, 332.00, 257.00, 22.00, 15, ABalppppapa
648, 650, 648, -1, 272.00, 180.00, 19.00, 13, ABalaapppap
650, 492, 649, -1, 331.00, 238.00, 19.33, 15, ABalaaaalal
651, 652, 650, -1, 78.00, 293.00, 12.00, 11, ABprppppppp
653, 654, 654, -1, 351.00, 255.00, 16.00, 13, ABalaaapalr
654, 656, 655, -1, 278.00, 286.00, 12.60, 13, ABplpaapppa
656, 658, 657, -1, 125.00, 295.00, 10.00, 10, ABplpppapap
657, 659, 658, -1, 295.00, 179.00, 15.00, 13, ABalaappapa
658, 660, 659, -1, 252.00, 278.00, 30.00, 13, MSaaapapa
659, 661, 661, -1, 267.00, 316.00, 16.00, 16, ABplppaaaap
660, 662, 662, -1, 225.00, 268.00, 13.00, 15, ABplpappaap
661, 663, 663, -1, 306.00, 246.00, 20.40, 11, ABaraaaaaaa
662, 657, 665, -1, 301.00, 251.00, 24.00, 13, ABalpaapaap
663, 664, 666, -1, 325.00, 261.00, 19.00, 15, ABalapaappa
664, 665, 667, -1, 303.00, 182.00, 12.00, 11, ABalaappapp
665, 666, 668, -1, 319.00, 225.00, 29.00, 15, ABalapapapa
666, 667, 670, -1, 291.00, 252.00, 30.00, 13, MSaaapaaa
668, 669, 672, -1, 266.00, 204.00, 12.00, 13, ABalaapappp
669, 670, 673, -1, 270.00, 230.00, 15.00, 13, ABarapapapa
670, 671, 426, -1, 306.00, 282.00, 24.77, 13, ABalppppaav
