1, 1, 1, -1, 273.00, 213.00, 28.00, 11, ABaraaapaap
2, 2, 2, -1, 234.00, 216.00, 28.00, 14, ABaraaapapp
3, 3, 3, -1, 219.00, 225.00, 21.00, 19, ABaraappppp
4, 4, 4, -1, 256.00, 297.00, 22.00, 15, ABaraapappa
5, 5, 5, -1, 249.00, 283.00, 20.00, 13, ABaraapappp
6, 6, 6, -1, 258.00, 296.00, 29.00, 15, ABaraapapap
7, 7, 7, -1, 297.00, 235.00, 27.00, 17, ABaraapaaaa
8, 8, 8, -1, 294.00, 243.00, 29.00, 13, ABaraapaaap
9, 9, 9, -1, 277.00, 262.00, 32.00, 17, MSaaaaapp
10, 10, 10, -1, 300.00, 256.00, 29.00, 13, ABaraapaapa
11, 11, 11, -1, 295.00, 219.00, 22.00, 13, ABaraaappaa
12, 12, 12, -1, 308.00, 213.00, 18.00, 13, ABaraaapppa
13, 13, 13, -1, 310.00, 206.00, 19.00, 13, ABaraaapppp
14, 14, 14, -1, 280.00, 217.00, 25.00, 15, ABaraaapaaa
15, 15, 15, -1, 234.00, 222.00, 31.00, 15, ABaraappapp
16, 16, 16, -1, 286.00, 263.00, 23.00, 15, ABaraaaaaap
17, 17, 17, -1, 263.00, 219.00, 23.00, 13, ABaraaaaapp
18, 18, 18, -1, 268.00, 249.00, 28.00, 11, ABaraaaapp
19, 19, 19, -1, 293.00, 233.00, 24.00, 11, ABaraaaapaa
20, 20, 20, -1, 205.00, 261.00, 19.00, 15, ABalpappapp
21, 21, 21, -1, 264.00, 242.00, 17.00, 15, ABalpappapa
22, 22, 22, -1, 248.00, 209.00, 21.00, 15, ABarapapaap
23, 23, 23, -1, 251.00, 234.00, 15.00, 13, ABprpapppaa
24, 24, 24, -1, 243.00, 204.00, 24.00, 17, ABarapappaa
25, 25, 25, -1, 282.00, 229.00, 15.00, 15, ABarappaapa
27, 27, 27, -1, 266.00, 238.00, 19.00, 11, ABarapaaapp
28, 28, 28, -1, 263.00, 223.00, 19.00, 15, ABarapaaapa
29, 29, 29, -1, 259.00, 204.00, 25.00, 13, ABarapaapap
30, 30, 30, -1, 253.00, 231.00, 27.00, 11, ABarapaapaa
31, 31, 31, -1, 244.00, 207.00, 26.00, 15, ABarapaappa
32, 32, 32, -1, 270.00, 222.00, 11.00, 11, ABarapppapa
33, 33, 33, -1, 290.00, 211.00, 10.00, 15, ABarapppapp
34, 34, 34, -1, 291.00, 200.00, 18.00, 13, ABarapppaaa
35, 35, 35, -1, 300.00, 208.00, 14.00, 13, ABarapppaap
37, 37, 37, -1, 268.00, 176.00, 18.00, 13, ABalaapppap
38, 38, 38, -1, 276.00, 214.00, 13.00, 15, ABarapppppa
39, 39, 39, -1, 281.00, 209.00, 15.00, 13, ABarapppppp
40, 40, 40, -1, 280.00, 239.00, 10.00, 11, ABarappaaap
41, 41, 41, -1, 287.00, 213.00, 18.00, 13, ABarappaaaa
43, 43, 43, -1, 240.00, 228.00, 10.00, 19, ABarappapap
44, 44, 44, -1, 260.00, 231.00, 12.00, 13, ABarappapaa
45, 45, 45, -1, 217.00, 218.00, 11.00, 13, ABarappappp
46, 46, 46, -1, 204.00, 237.00, 12.00, 11, ABprpapappa
47, 47, 47, -1, 280.00, 160.00, 27.00, 15, ABarpapppa
49, 49, 49, -1, 320.00, 188.00, 30.00, 13, ABarpapaaap
50, 50, 50, -1, 349.00, 195.00, 25.00, 15, ABarpapapa
51, 51, 51, -1, 333.00, 192.00, 33.00, 15, ABarpaapaa
52, 52, 52, -1, 346.00, 208.00, 23.00, 15, ABarpaaaaar
53, 53, 53, -1, 344.00, 211.00, 26.00, 11, ABarpaaaapa
54, 54, 54, -1, 341.00, 194.00, 30.00, 15, ABarpaaapp
55, 55, 55, -1, 332.00, 206.00, 25.00, 13, ABarpaaapaa
56, 56, 56, -1, 333.00, 186.00, 27.00, 13, ABarpaaapap
57, 57, 57, -1, 280.00, 332.00, 23.00, 13, ABarppaaap
58, 58, 58, -1, 251.00, 329.00, 27.00, 17, ABarppaapp
59, 59, 59, -1, 171.00, 362.00, 26.00, 15, ABarppappa
60, 60, 60, -1, 122.00, 364.00, 19.00, 17, ABarppappp
61, 61, 61, -1, 230.00, 345.00, 24.00, 17, ABarppapap
62, 62, 62, -1, 257.00, 340.00, 24.00, 13, ABarppapaa
63, 63, 63, -1, 124.00, 223.00, 28.00, 15, ABarpppppa
64, 64, 64, -1, 191.00, 187.00, 28.00, 15, ABarppppaa
65, 65, 65, -1, 170.00, 206.00, 29.00, 15, ABarppppap
66, 66, 66, -1, 211.00, 171.00, 27.00, 14, ABarpppaap
67, 67, 67, -1, 310.00, 213.00, 26.00, 11, ABalappppaa
68, 68, 68, -1, 324.00, 192.00, 24.00, 11, ABalappppap
69, 69, 69, -1, 317.00, 228.00, 27.00, 11, ABalapppaaa
70, 70, -1, -1, 327.00, 209.00, 27.00, 11, ABalappaaa
71, 71, 71, -1, 312.00, 179.00, 25.00, 11, ABalappappa
72, 72, 72, -1, 333.00, 259.00, 27.00, 13, ABalapapppa
73, 73, 73, -1, 347.00, 249.00, 26.00, 13, ABalapapppp
74, 74, 74, -1, 339.00, 227.00, 26.00, 13, ABalapappap
76, 76, 76, -1, 323.00, 225.00, 36.00, 19, ABarpapapp
77, 77, 77, -1, 318.00, 287.00, 28.00, 13, ABalapaaaap
78, 78, 78, -1, 332.00, 274.00, 27.00, 13, ABalapaaaaa
79, 79, 79, -1, 320.00, 251.00, 24.00, 15, ABalaaapall
80, 80, 80, -1, 335.00, 263.00, 25.00, 13, ABalppppapa
82, 82, 693, -1, 347.00, 276.00, 21.00, 15, ABalapaapap
83, 83, 83, -1, 299.00, 200.00, 23.00, 15, ABalaapaaar
84, 84, 84, -1, 290.00, 194.00, 11.00, 11, ABalaapapa
85, 85, 85, -1, 294.00, 185.00, 19.00, 13, ABalaapaapa
87, 87, 87, -1, 276.00, 190.00, 20.00, 13, ABarappppaa
88, 88, 88, -1, 259.00, 168.00, 16.00, 13, ABalaapppaa
89, 89, 94, -1, 334.00, 234.00, 15.00, 13, ABalaaaalpp
90, 90, 685, -1, 329.00, 251.00, 17.00, 11, ABalaaaalpa
91, 91, 89, -1, 313.00, 206.00, 22.00, 13, ABalaaaarrp
92, 92, 90, -1, 307.00, 195.00, 17.00, 11, ABalaapaapp
93, 93, 91, -1, 313.00, 200.00, 16.00, 13, ABalaaaarra
94, 94, 92, -1, 319.00, 226.00, 22.00, 15, ABalaaaarlp
97, 97, 95, -1, 319.00, 192.00, 19.00, 11, ABalaaapplr
98, 98, 96, -1, 294.00, 196.00, 25.00, 15, ABalaaapprr
99, 99, 97, -1, 302.00, 171.00, 17.00, 15, ABpraaaaapv
100, 100, 98, -1, 312.00, 182.00, 16.00, 11, ABalaaapprl
101, 101, 99, -1, 324.00, 213.00, 30.00, 13, ABalappaapa
103, 103, 101, -1, 131.00, 296.00, 12.00, 15, ABplppppapp
104, 104, 102, -1, 138.00, 306.00, 15.00, 13, ABplppppaaa
105, 105, 103, -1, 131.00, 300.00, 16.00, 15, ABplppppaap
106, 106, 104, -1, 85.00, 313.00, 13.00, 13, ABplppppppp
107, 107, 105, -1, 92.00, 307.00, 12.00, 11, ABplppppppa
108, 108, 106, -1, 126.00, 337.00, 18.00, 13, ABplpppppap
109, 109, 107, -1, 132.00, 320.00, 17.00, 13, ABplpppppaa
110, 110, 108, -1, 123.00, 319.00, 10.00, 11, ABplpppapaa
111, 111, 109, -1, 121.00, 325.00, 14.00, 11, ABplpppaapp
112, 112, 110, -1, 160.00, 308.00, 11.00, 14, ABplpppaaaa
113, 113, 111, -1, 161.00, 318.00, 14.00, 15, ABplpppaaap
114, 114, 112, -1, 164.00, 305.00, 14.00, 13, ABplppapppp
115, 115, 113, -1, 174.00, 288.00, 16.00, 13, ABplppapppa
116, 116, 114, -1, 193.00, 283.00, 16.00, 13, ABplppappap
117, 117, 115, -1, 206.00, 285.00, 14.00, 13, ABplppappaa
118, 118, 116, -1, 185.00, 294.00, 14.00, 11, ABplppapapa
119, 119, 117, -1, 175.00, 306.00, 16.00, 15, ABplppapapp
120, 120, 118, -1, 170.00, 291.00, 12.00, 13, ABplppaappp
121, 121, 119, -1, 261.00, 242.00, 14.00, 11, ABplpappaaa
123, 123, 121, -1, 117.00, 290.00, 14.00, 13, ABplpappppp
124, 124, 122, -1, 137.00, 283.00, 16.00, 13, ABplpappppa
125, 125, 123, -1, 143.00, 293.00, 13.00, 13, ABplpapppaa
126, 126, 124, -1, 132.00, 266.00, 15.00, 11, ABplpapppap
127, 127, 125, -1, 226.00, 281.00, 12.00, 13, ABplpapappa
128, 128, 126, -1, 169.00, 275.00, 14.00, 11, ABplpapappp
129, 129, 127, -1, 254.00, 280.00, 14.00, 13, ABplpapapap
130, 131, 128, -1, 239.00, 281.00, 15.00, 15, ABplpapapaa
131, 132, 129, -1, 268.00, 262.00, 13.00, 11, ABplpapaapa
132, 133, 131, -1, 273.00, 271.00, 13.00, 15, ABplpapaapp
133, 134, 132, -1, 248.00, 268.00, 13.00, 15, ABplpapaaap
134, 135, 133, -1, 257.00, 266.00, 15.00, 13, ABplpapaaaa
135, 136, 134, -1, 200.00, 295.00, 16.00, 13, ABplppapaap
137, 138, 136, -1, 314.00, 279.00, 17.00, 13, ABplpaaaaaa
138, 617, 137, -1, 321.00, 262.00, 11.00, 15, ABplpaaapap
141, 142, 140, -1, 283.00, 322.00, 19.00, 15, ABplpaappap
142, 143, 141, -1, 274.00, 307.00, 18.00, 15, ABplpaappaa
144, 145, 143, -1, 285.00, 267.00, 11.00, 19, ABplpaapppp
145, 146, 144, -1, 287.00, 314.00, 17.00, 13, ABplpaapaap
146, 147, 145, -1, 311.00, 281.00, 22.00, 13, ABplpaapaaa
147, 148, 146, -1, 356.00, 266.00, 18.00, 13, ABplpaapapa
150, 151, 674, -1, 244.00, 322.00, 14.00, 13, ABplaapppp
151, 152, 149, -1, 340.00, 211.00, 19.00, 13, ABplaapaaaa
152, 153, 150, -1, 351.00, 225.00, 20.00, 13, ABplaapaaap
153, 154, 151, -1, 348.00, 260.00, 21.00, 15, ABplaapaapa
155, 156, 153, -1, 299.00, 313.00, 25.00, 17, ABplaapappp
156, 157, 154, -1, 293.00, 300.00, 26.00, 13, ABplaapappa
157, 158, 155, -1, 270.00, 314.00, 26.00, 15, ABplaapapap
158, 159, 156, -1, 273.00, 309.00, 24.00, 15, ABplaapapaa
159, 160, 157, -1, 329.00, 246.00, 30.00, 13, ABplaaaaapp
160, 161, 158, -1, 311.00, 268.00, 28.00, 13, MSapaaap
161, 162, 159, -1, 354.00, 229.00, 25.00, 11, ABarpaaaapp
163, 164, 161, -1, 339.00, 221.00, 34.00, 17, ABplaaaapp
166, 167, 164, -1, 318.00, 303.00, 27.00, 13, ABplaaappp
167, 168, 165, -1, 360.00, 262.00, 24.00, 17, ABplaaapap
168, 169, 166, -1, 357.00, 244.00, 21.00, 15, ABplaaapaa
169, 170, 167, -1, 136.00, 310.00, 9.00, 17, ABplappppa
170, 171, 168, -1, 90.00, 332.00, 12.00, 15, ABplappppp
171, 172, 169, -1, 127.00, 352.00, 15.00, 13, ABplapppaaa
172, 173, 170, -1, 107.00, 334.00, 13.00, 13, ABplapppapp
173, 174, 171, -1, 104.00, 336.00, 11.00, 11, ABplapppapa
174, 175, 172, -1, 211.00, 338.00, 20.00, 15, ABplappaaa
175, 176, 173, -1, 188.00, 342.00, 19.00, 17, ABplappaap
176, 177, 174, -1, 170.00, 349.00, 19.00, 15, ABplappapp
177, 178, 175, -1, 194.00, 353.00, 26.00, 17, ABplappapa
178, 179, 176, -1, 225.00, 330.00, 16.00, 15, ABplapaapp
179, 180, 177, -1, 241.00, 293.00, 10.00, 15, ABplapaapa
180, 181, 178, -1, 314.00, 291.00, 31.00, 13, ABarppaaaa
181, 182, 179, -1, 248.00, 328.00, 22.00, 15, ABplapaaapp
182, 183, 180, -1, 106.00, 368.00, 19.00, 11, ABplapapppa
183, 184, 181, -1, 98.00, 342.00, 15.00, 17, ABplapapppp
184, 185, 182, -1, 149.00, 356.00, 17.00, 15, ABplapapap
185, 186, 183, -1, 143.00, 343.00, 12.00, 17, ABplapappa
186, 187, 184, -1, 145.00, 370.00, 22.00, 19, ABplapapaa
187, 188, 185, -1, 241.00, 228.00, 13.00, 11, ABprpapaaaa
188, 189, 186, -1, 245.00, 213.00, 13.00, 11, ABprpapaapp
189, 190, 187, -1, 158.00, 288.00, 14.00, 14, ABprpapappp
190, 191, 188, -1, 217.00, 228.00, 14.00, 15, ABprpapapaa
192, 193, 190, -1, 112.00, 278.00, 18.00, 17, ABprpappppa
193, 194, 191, -1, 185.00, 280.00, 13.00, 11, ABprpappapp
194, 195, 192, -1, 243.00, 245.00, 12.00, 13, ABprpappaap
195, 196, 193, -1, 274.00, 236.00, 13.00, 11, ABprpappaaa
196, 197, 194, -1, 237.00, 183.00, 15.00, 15, ABprpaaaaap
197, 198, 195, -1, 249.00, 180.00, 19.00, 13, ABpraaappaa
198, 199, 196, -1, 178.00, 262.00, 13.00, 13, ABprpaaaapp
199, 200, 197, -1, 225.00, 244.00, 10.00, 17, ABprpaaaapa
200, 201, 198, -1, 269.00, 195.00, 18.00, 13, ABprpaaaaaa
201, 202, 199, -1, 258.00, 219.00, 14.00, 11, ABprpapaapa
202, 203, 200, -1, 255.00, 197.00, 15.00, 13, ABprpaaappp
203, 205, 201, -1, 272.00, 183.00, 12.00, 15, ABprpaaapap
204, 206, 202, -1, 227.00, 172.00, 17.00, 15, ABprpaapaap
205, 207, 203, -1, 306.00, 161.00, 20.00, 15, ABprpaapapa
206, 208, 204, -1, 277.00, 194.00, 10.00, 15, ABprpaapapp
207, 209, 205, -1, 263.00, 206.00, 11.00, 15, ABprpaapppp
208, 210, 206, -1, 216.00, 178.00, 19.00, 13, ABprpaappap
209, 211, 207, -1, 230.00, 183.00, 20.00, 13, ABprpaappaa
210, 212, 208, -1, 97.00, 257.00, 17.00, 15, ABprpppaapa
211, 213, 209, -1, 139.00, 247.00, 16.00, 13, ABprpppaaap
212, 214, 210, -1, 143.00, 259.00, 12.00, 15, ABprpppaaaa
213, 215, 211, -1, 104.00, 262.00, 11.00, 13, ABprpppapaa
214, 216, 212, -1, 96.00, 288.00, 10.00, 17, ABprpppapap
216, 218, 214, -1, 132.00, 257.00, 11.00, 15, ABprppppapa
217, 219, 215, -1, 125.00, 273.00, 12.00, 15, ABprppppapp
218, 220, 216, -1, 127.00, 267.00, 17.00, 15, ABprppppaaa
219, 221, 217, -1, 117.00, 272.00, 16.00, 13, ABprppppaap
221, 223, 219, -1, 118.00, 255.00, 21.00, 15, ABprpppppaa
222, 224, 220, -1, 101.00, 261.00, 19.00, 15, ABprpppppap
223, 225, 221, -1, 224.00, 199.00, 13.00, 13, ABprppaapap
224, 226, 222, -1, 212.00, 203.00, 11.00, 13, ABprppaapaa
225, 227, 223, -1, 202.00, 254.00, 13.00, 14, ABprppaappa
226, 228, 224, -1, 159.00, 269.00, 13.00, 13, ABprppaappp
227, 229, 225, -1, 229.00, 185.00, 13.00, 13, ABprppaaaaa
228, 230, 226, -1, 210.00, 187.00, 17.00, 15, ABprppaaaap
229, 231, 227, -1, 191.00, 230.00, 12.00, 13, ABprppapaaa
230, 232, 228, -1, 183.00, 255.00, 17.00, 13, ABprppapaap
231, 233, 229, -1, 171.00, 265.00, 17.00, 14, ABprppapapa
232, 234, 230, -1, 155.00, 263.00, 17.00, 13, ABprppapapp
233, 235, 231, -1, 159.00, 278.00, 16.00, 15, ABprppapppa
234, 236, 232, -1, 147.00, 263.00, 15.00, 13, ABprppapppp
235, 237, 233, -1, 187.00, 254.00, 15.00, 15, ABprppappaa
236, 238, 234, -1, 185.00, 273.00, 16.00, 13, ABprppappap
237, 239, 235, -1, 328.00, 204.00, 20.00, 13, ABpraapaaaa
238, 240, 236, -1, 324.00, 197.00, 27.00, 15, ABarpapaaaa
239, 241, 237, -1, 333.00, 189.00, 21.00, 13, ABpraapaaap
240, 242, 238, -1, 297.00, 170.00, 22.00, 13, ABpraapaapa
241, 243, 239, -1, 226.00, 186.00, 29.00, 13, ABpraapapap
242, 244, 240, -1, 224.00, 188.00, 26.00, 13, ABpraapapaa
244, 246, 242, -1, 239.00, 189.00, 27.00, 15, ABpraapappa
245, 247, 243, -1, 192.00, 188.00, 18.00, 13, ABpraapppp
246, 248, 244, -1, 297.00, 198.00, 9.00, 15, ABpraappaa
247, 249, 245, -1, 285.00, 181.00, 25.00, 15, ABpraaapapa
248, 250, 246, -1, 298.00, 174.00, 24.00, 11, ABpraaapapp
249, 251, 247, -1, 251.00, 184.00, 25.00, 13, ABpraaapaad
250, 252, 248, -1, 267.00, 171.00, 24.00, 13, ABpraaapaav
251, 253, 249, -1, 236.00, 182.00, 22.00, 15, ABpraaappap
252, 254, 250, -1, 216.00, 174.00, 24.00, 11, ABpraaapppap
253, 255, 251, -1, 314.00, 176.00, 18.00, 15, ABpraaaaapd
254, 256, 252, -1, 280.00, 168.00, 16.00, 15, ABpraaaaaaa
255, 257, 253, -1, 299.00, 187.00, 13.00, 15, ABpraaaaaap
256, 258, 254, -1, 251.00, 176.00, 15.00, 13, ABpraaaapav
257, 259, 255, -1, 287.00, 173.00, 14.00, 15, ABpraaaapad
258, 260, 256, -1, 256.00, 167.00, 24.00, 11, ABpraaaappa
259, 261, 257, -1, 256.00, 175.00, 28.00, 15, ABpraaaappp
260, 262, 258, -1, 132.00, 229.00, 20.00, 15, ABprappapp
261, 263, 259, -1, 145.00, 213.00, 29.00, 15, ABprappapa
262, 264, 260, -1, 149.00, 223.00, 22.00, 15, ABprappaap
263, 265, 261, -1, 166.00, 217.00, 22.00, 13, ABprappaaa
264, 266, 262, -1, 78.00, 243.00, 18.00, 11, ABprapppaap
265, 267, 263, -1, 88.00, 245.00, 16.00, 13, ABprapppaaa
266, 268, 264, -1, 91.00, 264.00, 14.00, 13, ABprapppapp
267, 269, 265, -1, 79.00, 256.00, 11.00, 9, ABprapppapa
268, 270, 266, -1, 76.00, 272.00, 12.00, 15, ABprappppp
269, 271, 267, -1, 120.00, 267.00, 10.00, 17, ABprappppa
270, 272, 268, -1, 206.00, 189.00, 24.00, 13, ABprapaaapa
271, 273, 269, -1, 191.00, 198.00, 25.00, 14, ABprapaaapp
272, 274, 270, -1, 233.00, 182.00, 32.00, 17, ABprapaaaap
273, 275, 271, -1, 175.00, 208.00, 19.00, 15, ABprapaapp
274, 276, 272, -1, 204.00, 220.00, 11.00, 15, ABprapaapa
275, 277, 273, -1, 110.00, 235.00, 14.00, 17, ABprapappa
276, 278, 274, -1, 75.00, 266.00, 16.00, 17, ABprapapppp
277, 280, 275, -1, 114.00, 229.00, 19.00, 15, ABprapapap
278, 281, 276, -1, 102.00, 233.00, 25.00, 15, ABprapapaa
279, 282, 277, -1, 247.00, 197.00, 32.00, 15, MSppppap
280, 283, 278, -1, 236.00, 195.00, 21.00, 14, MSppppaa
281, 284, 279, -1, 285.00, 207.00, 35.00, 19, MSpppppa
282, 285, 280, -1, 243.00, 218.00, 34.00, 17, MSpppppp
283, 286, 281, -1, 270.00, 201.00, 32.00, 13, MSpppaaa
284, 287, 282, -1, 136.00, 254.00, 26.00, 15, MSpppaap
285, 288, 283, -1, 230.00, 224.00, 12.00, 11, ABprpapaaap
286, 289, 284, -1, 135.00, 288.00, 19.00, 15, MSppaapp
287, 290, 285, -1, 254.00, 188.00, 23.00, 11, MSppaapa
288, 291, 286, -1, 272.00, 199.00, 23.00, 11, MSppaaaa
290, 293, 288, -1, 200.00, 205.00, 27.00, 15, MSppapaa
291, 294, 289, -1, 256.00, 192.00, 20.00, 13, MSppapap
292, 295, 290, -1, 195.00, 256.00, 21.00, 13, MSpapappp
293, 296, 291, -1, 209.00, 243.00, 22.00, 13, MSpapapaa
294, 297, 292, -1, 210.00, 232.00, 19.00, 15, MSpapaaap
295, 298, 293, -1, 195.00, 236.00, 24.00, 15, MSpapaapp
296, 299, 294, -1, 171.00, 322.00, 18.00, 15, MSpappaa
297, 300, 295, -1, 170.00, 245.00, 19.00, 13, MSpappppa
298, 301, 296, -1, 157.00, 248.00, 20.00, 15, MSpappppp
299, 302, 297, -1, 234.00, 254.00, 33.00, 15, MSpaaappp
300, 303, 298, -1, 244.00, 271.00, 31.00, 13, MSpaaapaa
301, 304, 299, -1, 217.00, 263.00, 32.00, 13, MSpaaapap
302, 306, 300, -1, 257.00, 227.00, 32.00, 17, MSpaaaapp
303, 307, 301, -1, 271.00, 247.00, 35.00, 19, MSpaaaaaa
304, 308, 302, -1, 249.00, 249.00, 30.00, 11, MSpaaaaap
305, 309, 303, -1, 214.00, 213.00, 24.00, 13, ABaraappppa
306, 310, 304, -1, 217.00, 218.00, 30.00, 15, ABaraapppap
307, 311, 305, -1, 234.00, 253.00, 31.00, 11, MSpaapaap
308, 312, 306, -1, 250.00, 247.00, 32.00, 13, MSpaaappa
309, 313, 307, -1, 232.00, 235.00, 31.00, 11, MSpaapaaa
310, 314, 308, -1, 279.00, 299.00, 31.00, 15, MSapppap
311, 315, 309, -1, 297.00, 264.00, 35.00, 15, MSappppa
313, 317, 311, -1, 147.00, 335.00, 19.00, 13, MSappaap
314, 318, 312, -1, 295.00, 282.00, 31.00, 15, MSappaaa
316, 320, 314, -1, 266.00, 278.00, 30.00, 17, ABaraapaapp
317, 321, 315, -1, 313.00, 244.00, 33.00, 13, MSapappp
318, 322, 316, -1, 235.00, 318.00, 26.00, 13, MSapapaa
319, 323, 317, -1, 153.00, 282.00, 20.00, 15, MSapaapp
320, 324, 668, -1, 296.00, 280.00, 20.00, 13, MSapapap
321, 325, 319, -1, 305.00, 263.00, 22.00, 11, MSapaaaa
322, 326, 320, -1, 286.00, 238.00, 33.00, 13, MSaaaaapap
323, 327, 321, -1, 297.00, 234.00, 32.00, 11, MSaaaaapaa
324, 328, 322, -1, 277.00, 256.00, 30.00, 11, MSaaapaaa
325, 329, 323, -1, 292.00, 206.00, 28.00, 15, MSaaaaaar
326, 330, 324, -1, 313.00, 247.00, 27.00, 11, MSaaaaaal
327, 331, 325, -1, 251.00, 259.00, 35.00, 13, MSaaaapaa
328, 332, 326, -1, 259.00, 265.00, 32.00, 13, MSaaaapap
329, 333, 327, -1, 233.00, 274.00, 32.00, 13, MSaaaappa
330, 334, 328, -1, 232.00, 293.00, 30.00, 13, MSaaapapp
331, 335, 329, -1, 204.00, 301.00, 30.00, 13, MSaaappa
332, 336, 330, -1, 219.00, 283.00, 33.00, 15, MSaaappp
333, 337, 331, -1, 201.00, 310.00, 18.00, 13, MSaappppa
334, 337, 332, -1, 188.00, 319.00, 18.00, 13, MSaappppp
335, 338, 333, -1, 234.00, 276.00, 18.00, 11, MSaapaaap
336, 339, 334, -1, 250.00, 272.00, 18.00, 14, MSaapaaaa
337, 340, 335, -1, 215.00, 278.00, 18.00, 11, MSaapappp
338, 341, 336, -1, 244.00, 302.00, 26.00, 15, MSaapappa
339, 342, 337, -1, 232.00, 281.00, 22.00, 13, MSaapapaa
340, 343, 338, -1, 231.00, 292.00, 18.00, 13, MSaapapap
341, 344, 339, -1, 96.00, 317.00, 25.00, 21, Eplpa
342, 345, 340, -1, 112.00, 353.00, 22.00, 14, Cappapa
343, 346, 341, -1, 102.00, 346.00, 20.00, 13, Cappapp
344, 347, 342, -1, 191.00, 332.00, 30.00, 15, Cappaaa
345, 348, 343, -1, 81.00, 341.00, 23.00, 17, Capppap
346, 349, 344, -1, 109.00, 346.00, 31.00, 13, Capppaa
347, 350, 345, -1, 125.00, 355.00, 26.00, 15, Capapap
348, 351, 346, -1, 161.00, 346.00, 30.00, 13, Capapaa
349, 352, 347, -1, 139.00, 320.00, 13.00, 15, Capappp
350, 353, 348, -1, 150.00, 338.00, 16.00, 15, Capappa
351, 354, 349, -1, 195.00, 334.00, 22.00, 15, Capaaap
352, 355, 350, -1, 216.00, 323.00, 21.00, 15, Capaaaa
354, 357, 352, -1, 68.00, 300.00, 14.00, 15, Caappv
355, 358, 353, -1, 110.00, 280.00, 9.00, 9, Caapap
356, 359, 354, -1, 90.00, 357.00, 19.00, 17, Cpappd
357, 360, 355, -1, 74.00, 325.00, 13.00, 15, Cpappv
358, 361, 356, -1, 72.00, 263.00, 24.00, 23, Cpapaa
359, 362, 357, -1, 119.00, 246.00, 25.00, 14, Cppaapp
360, 363, 358, -1, 145.00, 237.00, 25.00, 15, Cppaapa
361, 364, 359, -1, 164.00, 235.00, 23.00, 11, Cppaaap
362, 365, 360, -1, 179.00, 229.00, 21.00, 13, Cppaaaa
363, 366, 361, -1, 143.00, 247.00, 32.00, 15, Cppapaa
364, 367, 362, -1, 115.00, 254.00, 15.00, 13, Cppappp
365, 368, 363, -1, 110.00, 246.00, 19.00, 15, Cppappa
366, 369, 364, -1, 139.00, 264.00, 35.00, 17, Cpppaap
367, 370, 365, -1, 173.00, 234.00, 31.00, 13, Cpppaaa
368, 371, 366, -1, 77.00, 269.00, 21.00, 15, Cpppapp
369, 372, 367, -1, 87.00, 264.00, 27.00, 17, Cpppapa
370, 373, 368, -1, 253.00, 297.00, 15.00, 13, Daapa
371, 374, 369, -1, 237.00, 302.00, 14.00, 13, Daapp
372, 375, 370, -1, 255.00, 305.00, 19.00, 15, Daaaa
373, 376, 371, -1, 242.00, 311.00, 30.00, 13, Daaap
374, 377, 372, -1, 232.00, 297.00, 33.00, 13, Dappaa
375, 379, 373, -1, 193.00, 312.00, 33.00, 13, Dapppa
376, 380, 374, -1, 202.00, 215.00, 16.00, 15, Dpapp
377, 381, 375, -1, 215.00, 207.00, 17.00, 15, Dpapa
378, 382, 376, -1, 218.00, 209.00, 33.00, 15, Dpaap
380, 384, 378, -1, 214.00, 199.00, 20.00, 15, Dpaaa
381, 385, 379, -1, 184.00, 251.00, 33.00, 13, Dppppa
382, 386, 380, -1, 201.00, 253.00, 34.00, 13, Dpppap
383, 387, 381, -1, 224.00, 235.00, 35.00, 17, Dpppaa
384, 388, 382, -1, 197.00, 208.00, 21.00, 15, Dppaa
385, 389, 383, -1, 190.00, 225.00, 31.00, 15, Dppap
388, 392, 386, -1, 297.00, 314.00, 22.00, 13, ABalppppppaa
389, 393, 387, -1, 278.00, 322.00, 22.00, 11, ABalppppppap
390, 394, 388, -1, 308.00, 311.00, 19.00, 11, ABalpppppppa
392, 396, 390, -1, 330.00, 281.00, 15.00, 15, ABalpppaaaa
393, 397, 391, -1, 326.00, 251.00, 14.00, 13, ABalpppaaap
394, 398, 392, -1, 341.00, 268.00, 17.00, 11, ABalpppaapd
395, 399, 393, -1, 348.00, 246.00, 17.00, 13, ABalpppaapv
396, 400, 394, -1, 306.00, 294.00, 15.00, 15, ABalpppapad
397, 401, 395, -1, 331.00, 273.00, 13.00, 15, ABalpppapav
398, 402, 396, -1, 343.00, 248.00, 16.00, 13, ABalaaapalr
399, 403, 397, -1, 337.00, 255.00, 14.00, 13, ABalppaaapp
401, 405, 399, -1, 286.00, 302.00, 15.00, 17, ABplpaaaaap
402, 406, 400, -1, 291.00, 255.00, 14.00, 11, ABalppapppa
403, 407, 401, -1, 315.00, 262.00, 20.00, 15, ABalppappaa
404, 408, 402, -1, 323.00, 271.00, 21.00, 11, ABalapaappa
405, 409, 403, -1, 283.00, 254.00, 11.00, 13, ABalppapapa
406, 410, 404, -1, 307.00, 246.00, 11.00, 15, ABalppapapp
407, 411, 405, -1, 312.00, 234.00, 10.00, 17, ABplaappaa
408, 412, 406, -1, 319.00, 244.00, 19.00, 13, ABalppapaaa
409, 413, 407, -1, 273.00, 251.00, 14.00, 13, ABalpapapaa
410, 414, 408, -1, 208.00, 282.00, 10.00, 13, ABalpapappa
411, 415, 409, -1, 308.00, 221.00, 12.00, 11, ABalpapaapp
412, 416, 410, -1, 319.00, 230.00, 14.00, 15, ABalppapaap
413, 417, 411, -1, 278.00, 250.00, 19.00, 9, ABalpaaaapa
414, 418, 412, -1, 272.00, 259.00, 18.00, 13, ABalpaaaaap
415, 419, 413, -1, 251.00, 244.00, 21.00, 11, ABalpappaaa
416, 420, 414, -1, 278.00, 282.00, 21.00, 13, ABalpapppaa
417, 421, 415, -1, 255.00, 262.00, 19.00, 11, ABalpapppap
418, 422, 416, -1, 294.00, 270.00, 25.00, 13, ABalpaaapaa
419, 423, 417, -1, 292.00, 269.00, 28.00, 11, ABalpaaapap
420, 424, 418, -1, 252.00, 252.00, 17.00, 11, ABalpaaaapp
421, 425, 419, -1, 285.00, 253.00, 21.00, 15, ABalpaaaaaa
422, 426, 420, -1, 277.00, 277.00, 20.00, 21, ABalpappaap
424, 428, 422, -1, 313.00, 230.00, 20.00, 13, ABalpaapppa
425, 429, 423, -1, 323.00, 224.00, 16.00, 13, ABalpaapppp
426, 430, 424, -1, 301.00, 231.00, 21.00, 13, ABalpaappaa
427, 431, 425, -1, 277.00, 264.00, 28.00, 15, ABalpaapapa
431, 435, 429, -1, 132.00, 319.00, 28.00, 17, Ealpp
432, 436, 430, -1, 138.00, 297.00, 27.00, 15, Earpp
434, 438, 432, -1, 211.00, 285.00, 22.00, 19, Ealaad
435, 439, 433, -1, 99.00, 284.00, 21.00, 15, Eprpp
436, 440, 434, -1, 215.00, 326.00, 30.00, 17, Dapap
437, 441, 435, -1, 234.00, 314.00, 19.00, 15, Dapaa
438, 442, 436, -1, 230.00, 299.00, 23.00, 15, MSaapaapp
439, 443, 437, -1, 241.00, 303.00, 21.00, 13, MSaapaapa
440, 444, 438, -1, 192.00, 205.00, 31.00, 15, ABarpppapp
441, 445, 439, -1, 270.00, 299.00, 13.00, 11, ABplppaapap
442, 446, 440, -1, 259.00, 296.00, 10.00, 11, ABplppaapaa
443, 447, 441, -1, 326.00, 247.00, 21.00, 13, ABalaaaalar
445, 449, 443, -1, 326.00, 174.00, 22.00, 13, ABarpappaa
446, 450, 444, -1, 108.00, 285.00, 35.00, 19, Cppppaa
447, 451, 445, -1, 72.00, 290.00, 27.00, 17, Cppppap
448, 452, 446, -1, 100.00, 276.00, 14.00, 13, Cpppppv
449, 453, 447, -1, 179.00, 273.00, 25.00, 19, Earpa
450, 454, 448, -1, 304.00, 190.00, 31.00, 15, ABarpapaapp
451, 455, 449, -1, 117.00, 305.00, 30.00, 13, Eprap
454, 458, 120, -1, 194.00, 277.00, 19.00, 15, MSaappap
455, 459, 452, -1, 297.00, 229.00, 15.00, 13, ABalpapaapa
457, 461, 454, -1, 221.00, 298.00, 11.00, 15, ABplppapaaa
458, 462, 455, -1, 333.00, 242.00, 23.00, 11, ABalaaaalal
459, 463, 456, -1, 280.00, 197.00, 17.00, 11, ABarappppap
460, 464, 457, -1, 143.00, 249.00, 18.00, 17, MSpappap
461, 465, 458, -1, 207.00, 252.00, 30.00, 15, MSpaapapp
462, 466, 459, -1, 71.00, 296.00, 18.00, 15, Cpppppd
463, 467, 460, -1, 302.00, 301.00, 30.00, 15, ABplapaaaaa
464, 122, 461, -1, 202.00, 270.00, 18.00, 11, MSaappaa
465, 469, 462, -1, 291.00, 312.00, 30.00, 19, ABplapaaaap
467, 471, 464, -1, 329.00, 219.00, 19.00, 11, ABalaaaparr
468, 472, 465, -1, 339.00, 227.00, 19.00, 11, ABalaaaparl
469, 473, 466, -1, 265.00, 282.00, 23.00, 13, ABalpaaappp
470, 474, 467, -1, 279.00, 283.00, 23.00, 15, ABalpaaappa
471, 475, 468, -1, 191.00, 291.00, 23.00, 13, Ealpa
472, 476, 469, -1, 228.00, 240.00, 14.00, 15, ABprpappapa
473, 477, 470, -1, 151.00, 310.00, 18.00, 23, Z3
474, 478, 471, -1, 148.00, 341.00, 33.00, 15, Cappaap
475, 479, 472, -1, 280.00, 237.00, 18.00, 11, ABarappaapp
476, 480, 473, -1, 204.00, 228.00, 27.00, 13, MSpapappa
477, 481, 474, -1, 200.00, 224.00, 22.00, 15, MSpapaapa
478, 482, 475, -1, 279.00, 163.00, 23.00, 15, ABpraapaapp
480, 484, 477, -1, 277.00, 220.00, 22.00, 13, ABaraaaaapa
481, 485, 478, -1, 301.00, 249.00, 16.00, 13, ABalppapppp
482, 486, 479, -1, 327.00, 200.00, 18.00, 15, ABalaaappll
483, 487, 480, -1, 110.00, 261.00, 32.00, 15, Cppapap
484, 488, 666, -1, 231.00, 212.00, 22.00, 13, ABarapaappp
485, 489, 481, -1, 301.00, 293.00, 22.00, 11, ABalppppaad
486, 490, 482, -1, 249.00, 291.00, 34.00, 15, MSappppp
487, 491, 483, -1, 283.00, 285.00, 27.00, 15, ABalpaapapp
488, 492, 484, -1, 124.00, 341.00, 15.00, 13, ABplpppaapa
489, 493, 485, -1, 348.00, 216.00, 30.00, 17, ABplaaaapa
491, 495, 487, -1, 227.00, 231.00, 18.00, 13, MSpapaaaa
492, 496, 488, -1, 192.00, 227.00, 16.00, 13, MSpapppaa
493, 497, 489, -1, 182.00, 237.00, 18.00, 13, MSpapppap
494, 498, 490, -1, 308.00, 240.00, 36.00, 17, ABarpaapap
495, 499, 491, -1, 268.00, 179.00, 22.00, 13, ABprpaapaaa
496, 500, 492, -1, 304.00, 305.00, 15.00, 11, ABalpppppppp
497, 501, 493, -1, 94.00, 306.00, 10.00, 11, ABprpppapp
498, 502, 494, -1, 239.00, 204.00, 12.00, 13, ABprpaapppa
499, 503, 495, -1, 161.00, 296.00, 30.00, 21, Epraa
500, 504, 496, -1, 302.00, 183.00, 21.00, 15, ABalaappppp
501, 505, 497, -1, 340.00, 206.00, 22.00, 15, ABarpaaaaal
502, 506, 498, -1, 92.00, 292.00, 12.00, 13, ABprppppppa
503, 507, 499, -1, 214.00, 192.00, 35.00, 13, ABarpppapa
504, 508, 500, -1, 275.00, 283.00, 16.00, 15, MSappapp
505, 509, 501, -1, 91.00, 233.00, 20.00, 13, ABarpppppp
506, 510, 502, -1, 240.00, 199.00, 16.00, 11, MSpppapa
507, 511, 503, -1, 314.00, 270.00, 32.00, 15, MSapappa
508, 512, 504, -1, 304.00, 207.00, 33.00, 15, MSppappp
509, 513, 505, -1, 109.00, 310.00, 13.00, 15, Cappppd
510, 514, 506, -1, 226.00, 266.00, 28.00, 13, MSaaaappp
511, 515, 507, -1, 110.00, 359.00, 16.00, 13, ABplapppaap
512, 516, 508, -1, 135.00, 266.00, 21.00, 23, Z2
513, 517, 509, -1, 326.00, 264.00, 29.00, 11, ABplaaaaapa
514, 518, 510, -1, 196.00, 239.00, 19.00, 13, MSpapapap
515, 519, 511, -1, 107.00, 320.00, 28.00, 23, Eplap
517, 521, 513, -1, 113.00, 309.00, 19.00, 17, Eplpp
519, 523, 515, -1, 147.00, 346.00, 21.00, 17, Capaapp
520, 524, 516, -1, 175.00, 345.00, 24.00, 15, Capaapa
521, 525, 517, -1, 254.00, 186.00, 10.00, 21, ABpraappap
522, 526, 518, -1, 285.00, 187.00, 32.00, 13, MSppappa
523, 527, 519, -1, 242.00, 246.00, 18.00, 11, ABalpappppa
527, 531, 523, -1, 239.00, 167.00, 16.00, 11, ABpraaappppp
528, 532, 524, -1, 244.00, 168.00, 21.00, 11, ABpraaapppaa
529, 533, 525, -1, 298.00, 295.00, 19.00, 13, ABalpppppaa
531, 535, 527, -1, 277.00, 196.00, 28.00, 15, MSppaaap
533, 537, 529, -1, 215.00, 256.00, 18.00, 15, ABarapapapp
535, 539, 531, -1, 216.00, 309.00, 17.00, 13, MSaapppap
536, 540, 672, -1, 233.00, 335.00, 32.00, 19, Caaaaa
537, 541, 532, -1, 62.00, 273.00, 18.00, 13, Caappd
538, 542, 533, -1, 98.00, 247.00, 30.00, 15, Caaapp
539, 543, 534, -1, 261.00, 324.00, 23.00, 13, ABplapaaapa
540, 544, 535, -1, 239.00, 225.00, 20.00, 11, ABarapapppp
541, 545, 536, -1, 222.00, 297.00, 15.00, 11, MSaapppaa
542, 546, 537, -1, 197.00, 269.00, 12.00, 13, ABarappappa
543, 547, 538, -1, 297.00, 250.00, 22.00, 13, ABaraaaaaaa
544, 548, 539, -1, 171.00, 297.00, 24.00, 21, Ealap
548, 551, 543, -1, 196.00, 297.00, 12.00, 15, ABplpaaaapp
552, 555, 547, -1, 244.00, 238.00, 22.00, 15, ABarapappap
557, 560, 552, -1, 115.00, 307.00, 15.00, 15, ABprpappppp
558, 561, 553, -1, 188.00, 250.00, 26.00, 15, Earaad
559, 562, 554, -1, 278.00, 282.00, 11.00, 15, ABplpaapppa
560, 563, 555, -1, 251.00, 257.00, 11.00, 17, ABalpapapap
561, 564, 556, -1, 248.00, 283.00, 11.00, 15, ABalpapappp
562, 565, 557, -1, 99.00, 296.00, 26.00, 19, Eprpa
563, 566, 558, -1, 346.00, 281.00, 25.00, 15, ABplaaappa
564, 567, 559, -1, 313.00, 228.00, 31.00, 11, ABalapapapa
565, 568, 560, -1, 327.00, 203.00, 32.00, 11, ABalapppapp
567, 570, 562, -1, 234.00, 210.00, 17.00, 13, MSpppapp
568, 571, 563, -1, 308.00, 295.00, 23.00, 14, ABalppppaav
570, 573, 565, -1, 280.00, 222.00, 29.00, 15, ABaraappaap
571, 574, 566, -1, 293.00, 223.00, 29.00, 15, ABaraappaaa
574, 578, 569, -1, 283.00, 307.00, 22.00, 19, ABalpppppap
575, 579, 570, -1, 141.00, 362.00, 30.00, 15, Cpaapp
577, 581, 572, -1, 271.00, 286.00, 28.00, 13, MSaaapaap
578, 582, 573, -1, 248.00, 161.00, 28.00, 13, ABarpapppp
581, 585, 576, -1, 76.00, 325.00, 17.00, 13, Cappppv
583, 587, 578, -1, 120.00, 291.00, 9.00, 15, ABplpppapap
584, 588, 579, -1, 282.00, 308.00, 13.00, 13, ABplppaaaaa
585, 589, 580, -1, 305.00, 175.00, 13.00, 11, ABalaappaa
586, 667, 581, -1, 252.00, 223.00, 18.00, 11, ABarapaaaap
587, 591, 582, -1, 292.00, 221.00, 25.00, 11, ABaraaaapap
588, 592, 583, -1, 251.00, 212.00, 29.00, 15, ABaraaapapa
590, 594, 585, -1, 218.00, 242.00, 31.00, 11, MSpaapapa
591, 595, 586, -1, 301.00, 240.00, 17.00, 15, ABalpapaaaa
594, 598, 589, -1, 306.00, 167.00, 27.00, 19, ABarpappap
596, 600, 590, -1, 254.00, 181.00, 32.00, 13, ABarpppaaa
599, 603, 594, -1, 334.00, 259.00, 21.00, 13, ABalapaappp
601, 605, 596, -1, 270.00, 175.00, 31.00, 13, ABalappapap
602, 606, 597, -1, 297.00, 284.00, 10.00, 17, ABplaappap
605, 609, 600, -1, 212.00, 276.00, 13.00, 11, ABplppaappa
606, 610, 601, -1, 272.00, 291.00, 35.00, 23, ABarppaapa
607, 611, 602, -1, 232.00, 205.00, 9.00, 13, ABpraapppa
610, 614, 604, -1, 253.00, 159.00, 20.00, 19, ABpraaappppa
611, 615, 605, -1, 109.00, 366.00, 26.00, 13, Cpapap
612, 616, 606, -1, 231.00, 264.00, 11.00, 15, ABplpaaaapa
613, 685, 607, -1, 312.00, 261.00, 10.00, 17, ABplpaapapp
614, 618, 608, -1, 257.00, 285.00, 25.00, 17, ABaraapapaa
616, 620, 610, -1, 95.00, 252.00, 12.00, 13, ABprpppaapp
617, 621, 611, -1, 148.00, 303.00, 11.00, 13, ABplppppapa
618, 622, 612, -1, 193.00, 247.00, 13.00, 13, ABprpapppap
622, 626, 616, -1, 202.00, 278.00, 30.00, 13, Earaav
623, 627, 617, -1, 272.00, 185.00, 14.00, 15, ABprpaaappa
626, 630, 620, -1, 272.00, 298.00, 20.00, 11, MSapppaa
629, 633, 623, -1, 298.00, 243.00, 24.00, 13, ABalpaapaaa
634, 638, 618, -1, 249.00, 184.00, 35.00, 15, ABarpaappp
635, 639, 628, -1, 231.00, 170.00, 27.00, 17, ABpraapappp
637, 641, 691, -1, 276.00, 215.00, 30.00, 19, ABaraappapa
639, 643, 633, -1, 149.00, 315.00, 30.00, 17, Eplaa
640, 644, 634, -1, 283.00, 181.00, 22.00, 9, ABalaappppa
641, 645, 635, -1, 338.00, 257.00, 22.00, 13, ABalppppapp
644, 648, 638, -1, 211.00, 310.00, 33.00, 13, Dappap
645, 649, 639, -1, 120.00, 241.00, 33.00, 17, Caaapa
646, 650, 640, -1, 233.00, 251.00, 21.00, 11, ABarapapaaa
649, 163, 643, -1, 347.00, 240.00, 29.00, 13, ABplaaaaaap
653, 657, 646, -1, 179.00, 287.00, 31.00, 19, Earap
656, 660, 648, -1, 270.00, 180.00, 27.00, 11, ABalappapaa
657, 662, 649, -1, 271.00, 283.00, 9.00, 15, ABplaapppa
664, 664, 659, -1, 288.00, 236.00, 36.00, 21, ABarpaappa
665, 665, 664, -1, 209.00, 335.00, 34.00, 17, Cpaaap
666, 666, 665, -1, 229.00, 252.00, 18.56, 15, ABarapapppa
667, 378, 654, -1, 171.00, 325.00, 32.50, 14, Dapppp
668, 668, 667, -1, 164.00, 255.00, 33.00, 13, Dppppp
669, 305, 631, -1, 272.00, 221.00, 32.00, 16, MSpaaaapa
670, 669, 669, -1, 117.00, 299.00, 33.00, 15, Cpaapa
671, 670, 670, -1, 247.00, 310.00, 34.00, 15, Cpaaaa
672, 671, 671, -1, 153.00, 230.00, 33.00, 15, Caaaap
673, 204, 673, -1, 291.00, 197.00, 13.00, 13, ABprpaaapaa
675, 673, 655, -1, 297.00, 276.00, 14.00, 15, ABplpaaappp
676, 675, 675, -1, 290.00, 218.00, 19.00, 15, ABaraaappap
677, 676, 676, -1, 303.00, 261.00, 12.00, 12, ABalppaappp
678, 677, 677, -1, 258.00, 261.00, 22.84, 15, ABalpappppp
679, 678, 678, -1, 284.00, 177.00, 28.22, 11, ABalapppppa
680, 679, 679, -1, 311.00, 215.00, 31.00, 11, ABalapppapa
681, 680, 680, -1, 325.00, 219.00, 24.00, 12, ABalapppaap
682, 681, 681, -1, 309.00, 172.00, 23.00, 15, ABalappappp
683, 682, 682, -1, 314.00, 285.00, 18.50, 13, ABalapaapaa
684, 683, 683, -1, 347.00, 256.00, 25.00, 12, ABalapaaapp
685, 684, 684, -1, 285.00, 220.00, 13.00, 13, ABalaapappa
686, 686, 686, -1, 314.00, 269.00, 14.00, 15, ABplpaaappa
687, 687, 687, -1, 77.00, 291.00, 13.00, 13, ABprppppppp
688, 688, 688, -1, 216.00, 231.00, 12.00, 13, ABprpapapap
689, 689, 689, -1, 267.00, 219.00, 20.44, 16, ABarapaaaaa
692, 155, 694, -1, 338.00, 281.00, 21.00, 15, ABplaapaapp
693, 692, 695, -1, 303.00, 259.00, 14.00, 13, ABplpaaapaa
694, 693, 697, -1, 298.00, 230.00, 12.00, 13, ABalpapaaap
695, 694, 698, -1, 214.00, 304.00, 28.75, 13, Ealaav
696, 608, 599, 699, 327.00, 291.00, 24.00, 15, ABalpppappp
697, 695, 700, -1, 321.00, 264.00, 18.00, 13, ABalppaaapa
698, 696, 701, -1, 286.00, 181.00, 16.00, 13, ABalaappapa
699, 96, 702, -1, 332.00, 231.00, 18.00, 13, ABalaaaarla
700, 697, 703, -1, 103.00, 293.00, 14.00, 13, Caapaa
701, 698, 704, -1, 245.00, 288.00, 31.00, 13, MSaaapapa
702, 699, 705, -1, 264.00, 322.00, 16.00, 16, ABplppaaaap
703, 700, 706, -1, 220.00, 263.00, 14.00, 15, ABplpappaap
704, 701, 707, -1, 223.00, 220.00, 26.00, 13, ABaraapppaa
705, 702, 708, -1, 290.00, 251.00, 26.00, 13, ABalpaapaap
706, 703, 709, -1, 292.00, 232.00, 18.00, 13, ABalpaappap
707, 704, 710, -1, 341.00, 237.00, 21.00, 13, ABalapaaapa
708, 705, 712, -1, 302.00, 184.00, 15.00, 11, ABalaappapp
709, 706, 713, -1, 291.00, 200.00, 20.00, 13, ABalaapaaal
710, 707, 714, -1, 330.00, 230.00, 30.00, 11, ABalapapapp
711, 708, 715, -1, 299.00, 186.00, 28.00, 13, ABalapppppp
712, 709, 716, -1, 310.00, 256.00, 17.00, 13, ABalppappap
715, 712, 719, -1, 274.00, 200.00, 13.00, 13, ABalaapappp
716, 713, 720, -1, 321.00, 231.00, 24.00, 15, ABalapappaa
717, 714, 721, -1, 273.00, 230.00, 17.00, 13, ABarapapapa
