1, 1, 1, -1, 274.00, 214.00, 28.00, 11, ABaraaapaap
2, 2, 2, -1, 231.00, 210.00, 28.00, 15, ABaraaapapp
3, 3, 3, -1, 220.00, 227.00, 21.00, 14, ABaraappppp
4, 4, 4, -1, 256.00, 297.00, 22.00, 15, ABaraapappa
5, 5, 5, -1, 247.00, 282.00, 20.00, 13, ABaraapappp
6, 6, 6, -1, 258.00, 296.00, 29.00, 15, ABaraapapap
7, 7, 7, -1, 298.00, 236.00, 27.00, 17, ABaraapaaaa
8, 8, 8, -1, 294.00, 244.00, 29.00, 15, ABaraapaaap
9, 9, 9, -1, 274.00, 260.00, 32.00, 13, MSaaaaapp
10, 10, 10, -1, 297.00, 256.00, 29.00, 13, ABaraapaapa
11, 11, 11, -1, 293.00, 218.00, 21.00, 13, ABaraaappaa
12, 12, 12, -1, 309.00, 212.00, 18.00, 13, ABaraaapppa
13, 13, 13, -1, 310.00, 207.00, 20.00, 13, ABaraaapppp
14, 14, 14, -1, 279.00, 216.00, 25.00, 13, ABaraaapaaa
15, 15, 15, -1, 234.00, 221.00, 31.00, 17, ABaraappapp
16, 16, 16, -1, 285.00, 259.00, 23.00, 15, ABaraaaaaap
17, 17, 17, -1, 261.00, 218.00, 24.00, 13, ABaraaaaapp
18, 18, 18, -1, 266.00, 249.00, 27.00, 15, ABaraaaapp
19, 19, 19, -1, 292.00, 233.00, 24.00, 11, ABaraaaapaa
20, 20, 20, -1, 205.00, 261.00, 19.00, 14, ABalpappapp
21, 21, 21, -1, 263.00, 238.00, 18.00, 11, ABalpappapa
22, 22, 22, -1, 247.00, 209.00, 21.00, 15, ABarapapaap
23, 23, 23, -1, 252.00, 234.00, 15.00, 15, ABprpapppaa
24, 24, 24, -1, 241.00, 203.00, 24.00, 15, ABarapappaa
25, 25, 25, -1, 278.00, 230.00, 15.00, 15, ABarappaapa
27, 27, 27, -1, 264.00, 237.00, 20.00, 11, ABarapaaapp
28, 28, 28, -1, 260.00, 222.00, 19.00, 15, ABarapaaapa
29, 29, 29, -1, 258.00, 204.00, 25.00, 13, ABarapaapap
30, 30, 30, -1, 252.00, 229.00, 27.00, 11, ABarapaapaa
31, 31, 31, -1, 243.00, 204.00, 28.00, 15, ABarapaappa
32, 32, 32, -1, 269.00, 221.00, 11.00, 11, ABarapppapa
33, 33, 33, -1, 291.00, 211.00, 10.00, 15, ABarapppapp
34, 34, 34, -1, 293.00, 199.00, 18.00, 13, ABarapppaaa
35, 35, 35, -1, 300.00, 207.00, 14.00, 15, ABarapppaap
37, 37, 37, -1, 267.00, 176.00, 18.00, 13, ABalaapppap
38, 38, 38, -1, 275.00, 213.00, 13.00, 17, ABarapppppa
39, 39, 39, -1, 280.00, 209.00, 16.00, 15, ABarapppppp
40, 40, 40, -1, 283.00, 237.00, 10.00, 11, ABarappaaap
41, 41, 41, -1, 287.00, 212.00, 18.00, 15, ABarappaaaa
43, 43, 43, -1, 241.00, 226.00, 10.00, 19, ABarappapap
44, 44, 44, -1, 261.00, 231.00, 12.00, 13, ABarappapaa
45, 45, 45, -1, 219.00, 217.00, 11.00, 15, ABarappappp
46, 46, 46, -1, 206.00, 235.00, 12.00, 11, ABprpapappa
47, 47, 47, -1, 281.00, 160.00, 27.00, 15, ABarpapppa
49, 49, 49, -1, 320.00, 186.00, 30.00, 13, ABarpapaaap
50, 50, 50, -1, 349.00, 194.00, 25.00, 15, ABarpapapa
51, 51, 51, -1, 334.00, 193.00, 33.00, 15, ABarpaapaa
52, 52, 52, -1, 345.00, 207.00, 24.00, 15, ABarpaaaaar
53, 53, 53, -1, 341.00, 209.00, 26.00, 13, ABarpaaaapa
54, 54, 54, -1, 341.00, 193.00, 29.00, 13, ABarpaaapp
55, 55, 55, -1, 332.00, 206.00, 25.00, 13, ABarpaaapaa
56, 56, 56, -1, 332.00, 184.00, 27.00, 11, ABarpaaapap
57, 57, 57, -1, 283.00, 331.00, 23.00, 13, ABarppaaap
58, 58, 58, -1, 250.00, 329.00, 27.00, 15, ABarppaapp
59, 59, 59, -1, 170.00, 362.00, 26.00, 17, ABarppappa
60, 60, 60, -1, 122.00, 364.00, 19.00, 15, ABarppappp
61, 61, 61, -1, 231.00, 344.00, 24.00, 15, ABarppapap
62, 62, 62, -1, 258.00, 339.00, 24.00, 15, ABarppapaa
63, 63, 63, -1, 124.00, 224.00, 28.00, 15, ABarpppppa
64, 64, 64, -1, 190.00, 186.00, 28.00, 13, ABarppppaa
65, 65, 65, -1, 171.00, 206.00, 30.00, 15, ABarppppap
66, 66, 66, -1, 213.00, 170.00, 28.00, 15, ABarpppaap
67, 67, 67, -1, 309.00, 213.00, 25.00, 15, ABalappppaa
68, 68, 68, -1, 322.00, 192.00, 25.00, 11, ABalappppap
69, 69, 69, -1, 318.00, 229.00, 28.00, 11, ABalapppaaa
71, 71, 71, -1, 310.00, 179.00, 25.00, 11, ABalappappa
72, 72, 72, -1, 332.00, 262.00, 28.00, 13, ABalapapppa
73, 73, 73, -1, 346.00, 247.00, 26.00, 13, ABalapapppp
74, 74, 159, -1, 339.00, 225.00, 26.00, 13, ABalapappap
76, 76, 76, -1, 324.00, 225.00, 35.00, 17, ABarpapapp
77, 77, 77, -1, 319.00, 287.00, 28.00, 13, ABalapaaaap
78, 78, 78, -1, 330.00, 275.00, 27.00, 13, ABalapaaaaa
79, 79, 79, -1, 320.00, 249.00, 24.00, 15, ABalaaapall
80, 80, 80, -1, 332.00, 262.00, 25.00, 15, ABalppppapa
83, 83, 82, -1, 297.00, 198.00, 23.00, 15, ABalaapaaar
84, 84, 83, -1, 286.00, 196.00, 12.00, 11, ABalaapapa
85, 85, 84, -1, 294.00, 183.00, 19.00, 11, ABalaapaapa
87, 87, 86, -1, 276.00, 190.00, 20.00, 13, ABarappppaa
88, 88, 87, -1, 257.00, 169.00, 16.00, 13, ABalaapppaa
89, 91, 88, -1, 310.00, 207.00, 23.00, 15, ABalaaaarrp
90, 92, 89, -1, 305.00, 194.00, 18.00, 11, ABalaapaapp
91, 93, 90, -1, 312.00, 199.00, 17.00, 11, ABalaaaarra
92, 94, 91, -1, 319.00, 226.00, 22.00, 15, ABalaaaarlp
94, 89, 93, -1, 332.00, 234.00, 16.00, 13, ABalaaaalpp
95, 97, 94, -1, 319.00, 193.00, 19.00, 11, ABalaaapplr
96, 98, 95, -1, 292.00, 195.00, 25.00, 17, ABalaaapprr
97, 99, 96, -1, 302.00, 171.00, 17.00, 17, ABpraaaaapv
98, 100, 97, -1, 309.00, 180.00, 16.00, 15, ABalaaapprl
99, 101, 98, -1, 322.00, 213.00, 30.00, 11, ABalappaapa
101, 103, 100, -1, 130.00, 295.00, 11.00, 13, ABplppppapp
102, 104, 101, -1, 136.00, 308.00, 15.00, 13, ABplppppaaa
103, 105, 102, -1, 130.00, 301.00, 16.00, 15, ABplppppaap
104, 106, 103, -1, 84.00, 313.00, 13.00, 13, ABplppppppp
105, 107, 104, -1, 92.00, 306.00, 12.00, 13, ABplppppppa
106, 108, 105, -1, 125.00, 336.00, 19.00, 15, ABplpppppap
107, 109, 106, -1, 132.00, 320.00, 17.00, 13, ABplpppppaa
108, 110, 107, -1, 123.00, 319.00, 10.00, 13, ABplpppapaa
109, 111, 108, -1, 122.00, 325.00, 14.00, 13, ABplpppaapp
110, 112, 109, -1, 159.00, 310.00, 11.00, 15, ABplpppaaaa
111, 113, 110, -1, 160.00, 318.00, 15.00, 13, ABplpppaaap
112, 114, 111, -1, 164.00, 304.00, 15.00, 13, ABplppapppp
113, 115, 112, -1, 174.00, 288.00, 16.00, 11, ABplppapppa
114, 116, 113, -1, 193.00, 283.00, 16.00, 15, ABplppappap
115, 117, 114, -1, 207.00, 286.00, 14.00, 13, ABplppappaa
116, 118, 115, -1, 186.00, 296.00, 14.00, 13, ABplppapapa
117, 119, 116, -1, 172.00, 303.00, 16.00, 17, ABplppapapp
118, 120, 117, -1, 169.00, 292.00, 12.00, 13, ABplppaappp
119, 121, 118, -1, 261.00, 244.00, 14.00, 13, ABplpappaaa
120, 454, 119, -1, 194.00, 276.00, 20.00, 15, MSaappap
121, 123, 120, -1, 118.00, 291.00, 14.00, 13, ABplpappppp
122, 124, 121, -1, 137.00, 284.00, 16.00, 13, ABplpappppa
123, 125, 122, -1, 143.00, 294.00, 14.00, 11, ABplpapppaa
124, 126, 123, -1, 129.00, 268.00, 14.00, 13, ABplpapppap
125, 127, 124, -1, 227.00, 279.00, 12.00, 13, ABplpapappa
126, 128, 125, -1, 169.00, 274.00, 15.00, 11, ABplpapappp
127, 129, 126, -1, 254.00, 279.00, 14.00, 13, ABplpapapap
128, 130, 127, -1, 238.00, 281.00, 15.00, 15, ABplpapapaa
129, 131, 128, -1, 268.00, 263.00, 13.00, 13, ABplpapaapa
131, 132, 130, -1, 274.00, 272.00, 13.00, 13, ABplpapaapp
132, 133, 131, -1, 247.00, 268.00, 13.00, 13, ABplpapaaap
133, 134, 132, -1, 258.00, 265.00, 15.00, 15, ABplpapaaaa
134, 135, 133, -1, 201.00, 296.00, 15.00, 13, ABplppapaap
136, 137, 135, -1, 314.00, 277.00, 17.00, 13, ABplpaaaaaa
137, 138, 136, -1, 317.00, 264.00, 11.00, 21, ABplpaaapap
140, 141, 139, -1, 283.00, 320.00, 19.00, 15, ABplpaappap
141, 142, 140, -1, 274.00, 306.00, 18.00, 11, ABplpaappaa
143, 144, 142, -1, 286.00, 266.00, 11.00, 17, ABplpaapppp
144, 145, 143, -1, 289.00, 312.00, 17.00, 13, ABplpaapaap
145, 146, 144, -1, 311.00, 281.00, 22.00, 13, ABplpaapaaa
146, 147, 145, -1, 354.00, 264.00, 18.00, 15, ABplpaapapa
149, 151, 148, -1, 340.00, 209.00, 19.00, 13, ABplaapaaaa
150, 152, 149, -1, 350.00, 224.00, 21.00, 13, ABplaapaaap
151, 153, 150, -1, 346.00, 257.00, 21.00, 13, ABplaapaapa
153, 155, 152, -1, 299.00, 312.00, 25.00, 17, ABplaapappp
154, 156, 153, -1, 291.00, 299.00, 26.00, 13, ABplaapappa
155, 157, 154, -1, 270.00, 312.00, 26.00, 15, ABplaapapap
156, 158, 155, -1, 272.00, 308.00, 24.00, 13, ABplaapapaa
157, 159, 156, -1, 330.00, 245.00, 29.00, 13, ABplaaaaapp
158, 160, 157, -1, 311.00, 268.00, 28.00, 15, MSapaaap
159, 161, 158, -1, 353.00, 228.00, 25.00, 13, ABarpaaaapp
161, 163, 160, -1, 340.00, 219.00, 33.00, 15, ABplaaaapp
164, 166, 163, -1, 318.00, 303.00, 27.00, 14, ABplaaappp
165, 167, 164, -1, 360.00, 261.00, 24.00, 19, ABplaaapap
166, 168, 165, -1, 357.00, 245.00, 20.00, 15, ABplaaapaa
167, 169, 166, -1, 136.00, 312.00, 9.00, 17, ABplappppa
168, 170, 167, -1, 89.00, 332.00, 13.00, 15, ABplappppp
169, 171, 168, -1, 127.00, 352.00, 16.00, 13, ABplapppaaa
170, 172, 169, -1, 110.00, 332.00, 14.00, 13, ABplapppapp
171, 173, 170, -1, 99.00, 337.00, 12.00, 11, ABplapppapa
172, 174, 171, -1, 209.00, 336.00, 19.00, 17, ABplappaaa
173, 175, 172, -1, 187.00, 342.00, 19.00, 17, ABplappaap
174, 176, 173, -1, 169.00, 346.00, 19.00, 15, ABplappapp
175, 177, 174, -1, 194.00, 353.00, 26.00, 15, ABplappapa
176, 178, 175, -1, 226.00, 331.00, 16.00, 15, ABplapaapp
177, 179, 176, -1, 244.00, 294.00, 10.00, 15, ABplapaapa
178, 180, 177, -1, 313.00, 290.00, 31.00, 13, ABarppaaaa
179, 181, 178, -1, 250.00, 327.00, 22.00, 15, ABplapaaapp
180, 182, 179, -1, 106.00, 366.00, 19.00, 11, ABplapapppa
181, 183, 180, -1, 98.00, 342.00, 16.00, 15, ABplapapppp
182, 184, 181, -1, 149.00, 356.00, 17.00, 17, ABplapapap
183, 185, 182, -1, 143.00, 344.00, 13.00, 17, ABplapappa
184, 186, 183, -1, 146.00, 369.00, 22.00, 17, ABplapapaa
185, 187, 184, -1, 241.00, 227.00, 14.00, 13, ABprpapaaaa
186, 188, 185, -1, 244.00, 213.00, 13.00, 11, ABprpapaapp
187, 189, 186, -1, 157.00, 289.00, 14.00, 11, ABprpapappp
188, 190, 187, -1, 218.00, 228.00, 15.00, 15, ABprpapapaa
190, 192, 189, -1, 111.00, 280.00, 18.00, 17, ABprpappppa
191, 193, 190, -1, 184.00, 280.00, 13.00, 13, ABprpappapp
192, 194, 191, -1, 243.00, 244.00, 13.00, 13, ABprpappaap
193, 195, 192, -1, 273.00, 234.00, 13.00, 11, ABprpappaaa
194, 196, 193, -1, 236.00, 182.00, 15.00, 15, ABprpaaaaap
195, 197, 194, -1, 248.00, 180.00, 19.00, 11, ABpraaappaa
196, 198, 195, -1, 179.00, 261.00, 13.00, 13, ABprpaaaapp
197, 199, 196, -1, 226.00, 243.00, 10.00, 17, ABprpaaaapa
198, 200, 197, -1, 267.00, 194.00, 18.00, 13, ABprpaaaaaa
199, 201, 198, -1, 257.00, 218.00, 14.00, 11, ABprpapaapa
200, 202, 199, -1, 254.00, 197.00, 15.00, 13, ABprpaaappp
201, 203, 200, -1, 272.00, 183.00, 12.00, 15, ABprpaaapap
202, 204, 201, -1, 227.00, 173.00, 18.00, 15, ABprpaapaap
203, 205, 202, -1, 307.00, 160.00, 21.00, 15, ABprpaapapa
204, 206, 203, -1, 276.00, 194.00, 10.00, 15, ABprpaapapp
205, 207, 204, -1, 262.00, 205.00, 11.00, 15, ABprpaapppp
206, 208, 205, -1, 216.00, 176.00, 20.00, 13, ABprpaappap
207, 209, 206, -1, 230.00, 184.00, 19.00, 13, ABprpaappaa
208, 210, 207, -1, 97.00, 257.00, 17.00, 15, ABprpppaapa
209, 211, 208, -1, 139.00, 248.00, 16.00, 15, ABprpppaaap
210, 212, 209, -1, 144.00, 260.00, 12.00, 15, ABprpppaaaa
211, 213, 210, -1, 103.00, 262.00, 11.00, 11, ABprpppapaa
212, 214, 211, -1, 96.00, 287.00, 10.00, 19, ABprpppapap
214, 216, 213, -1, 132.00, 257.00, 11.00, 15, ABprppppapa
215, 217, 214, -1, 125.00, 273.00, 12.00, 15, ABprppppapp
216, 218, 215, -1, 125.00, 267.00, 17.00, 15, ABprppppaaa
217, 219, 216, -1, 115.00, 273.00, 16.00, 13, ABprppppaap
219, 221, 217, -1, 120.00, 255.00, 20.00, 15, ABprpppppaa
220, 222, 218, -1, 103.00, 261.00, 20.00, 15, ABprpppppap
221, 223, 219, -1, 225.00, 198.00, 13.00, 11, ABprppaapap
222, 224, 220, -1, 213.00, 202.00, 11.00, 11, ABprppaapaa
223, 225, 221, -1, 202.00, 253.00, 13.00, 15, ABprppaappa
224, 226, 222, -1, 157.00, 269.00, 13.00, 13, ABprppaappp
225, 227, 223, -1, 225.00, 183.00, 13.00, 15, ABprppaaaaa
226, 228, 224, -1, 209.00, 186.00, 17.00, 15, ABprppaaaap
227, 229, 225, -1, 191.00, 230.00, 12.00, 15, ABprppapaaa
228, 230, 226, -1, 182.00, 256.00, 17.00, 15, ABprppapaap
229, 231, 227, -1, 172.00, 269.00, 17.00, 13, ABprppapapa
230, 232, 228, -1, 155.00, 265.00, 17.00, 13, ABprppapapp
231, 233, 229, -1, 159.00, 278.00, 16.00, 13, ABprppapppa
232, 234, 230, -1, 144.00, 264.00, 15.00, 13, ABprppapppp
233, 235, 231, -1, 187.00, 254.00, 15.00, 13, ABprppappaa
234, 236, 232, -1, 185.00, 273.00, 16.00, 13, ABprppappap
235, 237, 233, -1, 326.00, 205.00, 21.00, 13, ABpraapaaaa
236, 238, 234, -1, 322.00, 198.00, 28.00, 15, ABarpapaaaa
237, 239, 235, -1, 332.00, 188.00, 21.00, 11, ABpraapaaap
238, 240, 236, -1, 296.00, 171.00, 22.00, 13, ABpraapaapa
239, 241, 237, -1, 227.00, 185.00, 28.00, 17, ABpraapapap
240, 242, 238, -1, 224.00, 188.00, 26.00, 13, ABpraapapaa
242, 244, 240, -1, 238.00, 188.00, 27.00, 14, ABpraapappa
243, 245, 241, -1, 190.00, 187.00, 19.00, 15, ABpraapppp
244, 246, 242, -1, 298.00, 198.00, 9.00, 17, ABpraappaa
245, 247, 243, -1, 283.00, 180.00, 25.00, 15, ABpraaapapa
246, 248, 244, -1, 295.00, 173.00, 24.00, 11, ABpraaapapp
247, 249, 245, -1, 251.00, 184.00, 25.00, 13, ABpraaapaad
248, 250, 246, -1, 266.00, 170.00, 24.00, 11, ABpraaapaav
249, 251, 247, -1, 234.00, 183.00, 22.00, 13, ABpraaappap
250, 252, 248, -1, 215.00, 174.00, 24.00, 11, ABpraaapppap
251, 253, 249, -1, 313.00, 175.00, 18.00, 15, ABpraaaaapd
252, 254, 250, -1, 278.00, 170.00, 15.00, 17, ABpraaaaaaa
253, 255, 251, -1, 298.00, 187.00, 13.00, 11, ABpraaaaaap
254, 256, 252, -1, 249.00, 176.00, 15.00, 13, ABpraaaapav
255, 257, 253, -1, 290.00, 172.00, 14.00, 15, ABpraaaapad
256, 258, 254, -1, 257.00, 165.00, 24.00, 11, ABpraaaappa
257, 259, 255, -1, 255.00, 175.00, 28.00, 13, ABpraaaappp
258, 260, 256, -1, 130.00, 229.00, 20.00, 15, ABprappapp
259, 261, 257, -1, 145.00, 213.00, 29.00, 15, ABprappapa
260, 262, 258, -1, 148.00, 223.00, 22.00, 15, ABprappaap
261, 263, 259, -1, 165.00, 217.00, 22.00, 13, ABprappaaa
262, 264, 260, -1, 78.00, 243.00, 18.00, 11, ABprapppaap
263, 265, 261, -1, 88.00, 246.00, 17.00, 13, ABprapppaaa
264, 266, 262, -1, 90.00, 264.00, 15.00, 13, ABprapppapp
265, 267, 263, -1, 80.00, 259.00, 11.00, 11, ABprapppapa
266, 268, 264, -1, 75.00, 271.00, 12.00, 15, ABprappppp
267, 269, 265, -1, 118.00, 265.00, 10.00, 17, ABprappppa
268, 270, 266, -1, 205.00, 190.00, 24.00, 13, ABprapaaapa
269, 271, 267, -1, 190.00, 198.00, 25.00, 11, ABprapaaapp
270, 272, 268, -1, 233.00, 181.00, 32.00, 19, ABprapaaaap
271, 273, 269, -1, 174.00, 206.00, 19.00, 15, ABprapaapp
272, 274, 270, -1, 207.00, 218.00, 11.00, 17, ABprapaapa
273, 275, 271, -1, 108.00, 235.00, 14.00, 15, ABprapappa
274, 276, 272, -1, 73.00, 271.00, 15.00, 13, ABprapapppp
275, 277, 273, -1, 112.00, 229.00, 19.00, 17, ABprapapap
276, 278, 274, -1, 102.00, 233.00, 26.00, 17, ABprapapaa
277, 279, 275, -1, 246.00, 196.00, 32.00, 15, MSppppap
278, 280, 276, -1, 233.00, 197.00, 21.00, 9, MSppppaa
279, 281, 277, -1, 282.00, 207.00, 35.00, 19, MSpppppa
280, 282, 278, -1, 242.00, 218.00, 35.00, 19, MSpppppp
281, 283, 279, -1, 269.00, 202.00, 32.00, 13, MSpppaaa
282, 284, 280, -1, 137.00, 252.00, 26.00, 15, MSpppaap
283, 285, 281, -1, 231.00, 227.00, 12.00, 11, ABprpapaaap
284, 286, 282, -1, 133.00, 285.00, 19.00, 13, MSppaapp
285, 287, 283, -1, 253.00, 187.00, 24.00, 11, MSppaapa
286, 288, 284, -1, 270.00, 198.00, 23.00, 11, MSppaaaa
288, 290, 286, -1, 200.00, 204.00, 28.00, 14, MSppapaa
289, 291, 287, -1, 255.00, 190.00, 21.00, 13, MSppapap
290, 292, 288, -1, 194.00, 256.00, 21.00, 15, MSpapappp
291, 293, 289, -1, 206.00, 242.00, 21.00, 15, MSpapapaa
292, 294, 290, -1, 210.00, 234.00, 19.00, 15, MSpapaaap
293, 295, 291, -1, 195.00, 236.00, 24.00, 15, MSpapaapp
294, 296, 292, -1, 171.00, 321.00, 18.00, 15, MSpappaa
295, 297, 293, -1, 172.00, 245.00, 20.00, 15, MSpappppa
296, 298, 294, -1, 155.00, 248.00, 21.00, 15, MSpappppp
297, 299, 295, -1, 234.00, 254.00, 33.00, 15, MSpaaappp
298, 300, 296, -1, 243.00, 272.00, 31.00, 13, MSpaaapaa
299, 301, 297, -1, 216.00, 262.00, 32.00, 13, MSpaaapap
300, 302, 298, -1, 259.00, 229.00, 32.00, 15, MSpaaaapp
301, 303, 299, -1, 271.00, 249.00, 35.00, 17, MSpaaaaaa
302, 304, 300, -1, 248.00, 248.00, 30.00, 11, MSpaaaaap
303, 305, 301, -1, 214.00, 212.00, 24.00, 13, ABaraappppa
304, 306, 302, -1, 216.00, 218.00, 30.00, 15, ABaraapppap
305, 307, 303, -1, 234.00, 253.00, 31.00, 11, MSpaapaap
306, 308, 304, -1, 251.00, 244.00, 33.00, 13, MSpaaappa
307, 309, 305, -1, 232.00, 236.00, 31.00, 11, MSpaapaaa
308, 310, 306, -1, 281.00, 297.00, 31.00, 15, MSapppap
309, 311, 307, -1, 294.00, 266.00, 35.00, 19, MSappppa
311, 313, 309, -1, 146.00, 336.00, 19.00, 11, MSappaap
312, 314, 310, -1, 295.00, 279.00, 31.00, 17, MSappaaa
314, 316, 312, -1, 265.00, 278.00, 30.00, 15, ABaraapaapp
315, 317, 313, -1, 313.00, 243.00, 33.00, 13, MSapappp
316, 318, 314, -1, 236.00, 318.00, 25.00, 13, MSapapaa
317, 319, 315, -1, 153.00, 280.00, 20.00, 15, MSapaapp
319, 321, 316, -1, 303.00, 262.00, 23.00, 13, MSapaaaa
320, 322, 317, -1, 286.00, 238.00, 33.00, 15, MSaaaaapap
321, 323, 318, -1, 296.00, 235.00, 32.00, 13, MSaaaaapaa
322, 324, 319, -1, 278.00, 256.00, 30.00, 9, MSaaapaaa
323, 325, 320, -1, 292.00, 206.00, 28.00, 13, MSaaaaaar
324, 326, 321, -1, 312.00, 247.00, 28.00, 11, MSaaaaaal
325, 327, 322, -1, 251.00, 259.00, 35.00, 13, MSaaaapaa
326, 328, 323, -1, 258.00, 265.00, 31.00, 11, MSaaaapap
327, 329, 324, -1, 231.00, 274.00, 31.00, 13, MSaaaappa
328, 330, 325, -1, 230.00, 293.00, 30.00, 15, MSaaapapp
329, 331, 326, -1, 203.00, 297.00, 29.00, 13, MSaaappa
330, 332, 327, -1, 218.00, 282.00, 32.00, 13, MSaaappp
331, 333, 328, -1, 204.00, 309.00, 18.00, 13, MSaappppa
332, 334, 329, -1, 185.00, 319.00, 18.00, 11, MSaappppp
333, 335, 330, -1, 232.00, 275.00, 18.00, 13, MSaapaaap
334, 336, 331, -1, 251.00, 274.00, 18.00, 14, MSaapaaaa
335, 337, 332, -1, 215.00, 281.00, 19.00, 11, MSaapappp
336, 338, 333, -1, 244.00, 302.00, 26.00, 15, MSaapappa
337, 339, 334, -1, 231.00, 280.00, 22.00, 13, MSaapapaa
338, 340, 335, -1, 230.00, 291.00, 18.00, 13, MSaapapap
339, 341, 336, -1, 97.00, 314.00, 25.00, 25, Eplpa
340, 342, 337, -1, 117.00, 352.00, 22.00, 13, Cappapa
341, 343, 338, -1, 101.00, 347.00, 20.00, 13, Cappapp
342, 344, 339, -1, 193.00, 330.00, 30.00, 15, Cappaaa
343, 345, 340, -1, 81.00, 341.00, 23.00, 17, Capppap
344, 346, 341, -1, 111.00, 346.00, 31.00, 17, Capppaa
345, 347, 342, -1, 124.00, 355.00, 26.00, 15, Capapap
346, 348, 343, -1, 163.00, 345.00, 29.00, 19, Capapaa
347, 349, 344, -1, 138.00, 320.00, 13.00, 13, Capappp
348, 350, 345, -1, 149.00, 338.00, 17.00, 17, Capappa
349, 351, 346, -1, 195.00, 334.00, 22.00, 15, Capaaap
350, 352, 347, -1, 216.00, 324.00, 21.00, 15, Capaaaa
352, 354, 349, -1, 68.00, 300.00, 14.00, 13, Caappv
353, 355, 350, -1, 106.00, 276.00, 10.00, 14, Caapap
354, 356, 351, -1, 89.00, 358.00, 20.00, 17, Cpappd
355, 357, 352, -1, 74.00, 325.00, 13.00, 15, Cpappv
356, 358, 353, -1, 72.00, 258.00, 24.00, 23, Cpapaa
357, 359, 354, -1, 120.00, 245.00, 25.00, 15, Cppaapp
358, 360, 355, -1, 145.00, 237.00, 25.00, 15, Cppaapa
359, 361, 356, -1, 163.00, 235.00, 23.00, 11, Cppaaap
360, 362, 357, -1, 179.00, 227.00, 21.00, 15, Cppaaaa
361, 363, 358, -1, 143.00, 248.00, 33.00, 15, Cppapaa
362, 364, 359, -1, 114.00, 254.00, 15.00, 15, Cppappp
363, 365, 360, -1, 110.00, 246.00, 19.00, 15, Cppappa
364, 366, 361, -1, 141.00, 264.00, 35.00, 19, Cpppaap
365, 367, 362, -1, 171.00, 233.00, 31.00, 15, Cpppaaa
366, 368, 363, -1, 77.00, 271.00, 22.00, 15, Cpppapp
367, 369, 364, -1, 86.00, 265.00, 28.00, 15, Cpppapa
368, 370, 365, -1, 255.00, 296.00, 15.00, 13, Daapa
369, 371, 366, -1, 240.00, 301.00, 14.00, 13, Daapp
370, 372, 367, -1, 254.00, 303.00, 18.00, 11, Daaaa
371, 373, 368, -1, 247.00, 310.00, 30.00, 17, Daaap
372, 374, 369, -1, 233.00, 298.00, 33.00, 13, Dappaa
373, 375, 370, -1, 193.00, 310.00, 33.00, 15, Dapppa
374, 376, 371, -1, 202.00, 216.00, 16.00, 13, Dpapp
375, 377, 372, -1, 215.00, 206.00, 17.00, 13, Dpapa
376, 378, 373, -1, 218.00, 208.00, 33.00, 15, Dpaap
378, 380, 375, -1, 214.00, 198.00, 21.00, 15, Dpaaa
379, 381, 376, -1, 184.00, 253.00, 32.00, 15, Dppppa
380, 382, 377, -1, 200.00, 251.00, 33.00, 13, Dpppap
381, 383, 378, -1, 223.00, 235.00, 35.00, 19, Dpppaa
382, 384, 379, -1, 197.00, 207.00, 21.00, 15, Dppaa
383, 385, 380, -1, 189.00, 224.00, 31.00, 15, Dppap
386, 388, 383, -1, 298.00, 314.00, 22.00, 13, ABalppppppaa
387, 389, 384, -1, 279.00, 322.00, 22.00, 11, ABalppppppap
388, 390, 385, -1, 311.00, 308.00, 20.00, 15, ABalpppppppa
390, 392, 387, -1, 328.00, 283.00, 15.00, 13, ABalpppaaaa
391, 393, 388, -1, 326.00, 251.00, 14.00, 13, ABalpppaaap
392, 394, 389, -1, 339.00, 267.00, 17.00, 11, ABalpppaapd
393, 395, 390, -1, 348.00, 246.00, 17.00, 13, ABalpppaapv
394, 396, 391, -1, 306.00, 294.00, 15.00, 13, ABalpppapad
395, 397, 392, -1, 332.00, 272.00, 13.00, 15, ABalpppapav
396, 398, 393, -1, 342.00, 247.00, 16.00, 13, ABalaaapalr
397, 399, 394, -1, 336.00, 255.00, 15.00, 15, ABalppaaapp
399, 401, 396, -1, 287.00, 301.00, 15.00, 15, ABplpaaaaap
400, 402, 397, -1, 291.00, 254.00, 14.00, 11, ABalppapppa
401, 403, 398, -1, 314.00, 264.00, 20.00, 13, ABalppappaa
402, 404, 399, -1, 319.00, 267.00, 22.00, 11, ABalapaappa
403, 405, 400, -1, 283.00, 252.00, 11.00, 15, ABalppapapa
404, 406, 401, -1, 307.00, 245.00, 11.00, 15, ABalppapapp
405, 407, 402, -1, 313.00, 233.00, 10.00, 17, ABplaappaa
406, 408, 403, -1, 319.00, 243.00, 19.00, 13, ABalppapaaa
407, 409, 404, -1, 271.00, 249.00, 13.00, 13, ABalpapapaa
408, 410, 405, -1, 208.00, 282.00, 10.00, 13, ABalpapappa
409, 411, 406, -1, 307.00, 220.00, 12.00, 11, ABalpapaapp
410, 412, 407, -1, 316.00, 232.00, 15.00, 13, ABalppapaap
411, 413, 408, -1, 276.00, 249.00, 19.00, 9, ABalpaaaapa
412, 414, 409, -1, 271.00, 259.00, 19.00, 11, ABalpaaaaap
413, 415, 410, -1, 249.00, 245.00, 21.00, 11, ABalpappaaa
414, 416, 411, -1, 278.00, 280.00, 21.00, 15, ABalpapppaa
415, 417, 412, -1, 256.00, 262.00, 19.00, 11, ABalpapppap
416, 418, 413, -1, 292.00, 268.00, 25.00, 13, ABalpaaapaa
417, 419, 414, -1, 289.00, 270.00, 28.00, 11, ABalpaaapap
418, 420, 415, -1, 253.00, 253.00, 17.00, 11, ABalpaaaapp
419, 421, 416, -1, 284.00, 253.00, 21.00, 13, ABalpaaaaaa
420, 422, 417, -1, 276.00, 274.00, 19.00, 13, ABalpappaap
422, 424, 419, -1, 313.00, 228.00, 20.00, 13, ABalpaapppa
423, 425, 420, -1, 323.00, 224.00, 16.00, 13, ABalpaapppp
424, 426, 421, -1, 301.00, 230.00, 21.00, 15, ABalpaappaa
425, 427, 422, -1, 274.00, 264.00, 28.00, 17, ABalpaapapa
429, 431, 426, -1, 134.00, 316.00, 27.00, 15, Ealpp
430, 432, 427, -1, 138.00, 295.00, 28.00, 19, Earpp
432, 434, 429, -1, 212.00, 286.00, 22.00, 15, Ealaad
433, 435, 430, -1, 101.00, 285.00, 20.00, 21, Eprpp
434, 436, 431, -1, 215.00, 326.00, 30.00, 15, Dapap
435, 437, 432, -1, 236.00, 314.00, 19.00, 15, Dapaa
436, 438, 433, -1, 230.00, 297.00, 23.00, 13, MSaapaapp
437, 439, 434, -1, 240.00, 301.00, 22.00, 13, MSaapaapa
438, 440, 435, -1, 192.00, 205.00, 31.00, 17, ABarpppapp
439, 441, 436, -1, 270.00, 305.00, 14.00, 13, ABplppaapap
440, 442, 437, -1, 263.00, 297.00, 11.00, 11, ABplppaapaa
441, 443, 438, -1, 324.00, 245.00, 21.00, 15, ABalaaaalar
443, 445, 440, -1, 325.00, 173.00, 22.00, 11, ABarpappaa
444, 446, 441, -1, 108.00, 286.00, 35.00, 21, Cppppaa
445, 447, 442, -1, 72.00, 290.00, 28.00, 17, Cppppap
446, 448, 443, -1, 100.00, 276.00, 14.00, 13, Cpppppv
447, 449, 580, -1, 180.00, 272.00, 26.00, 19, Earpa
448, 450, 444, -1, 302.00, 191.00, 31.00, 17, ABarpapaapp
449, 451, 445, -1, 116.00, 302.00, 31.00, 17, Eprap
452, 455, 448, -1, 295.00, 229.00, 16.00, 13, ABalpapaapa
454, 457, 450, -1, 223.00, 297.00, 11.00, 15, ABplppapaaa
455, 458, 451, -1, 332.00, 241.00, 23.00, 11, ABalaaaalal
456, 459, 452, -1, 280.00, 197.00, 17.00, 11, ABarappppap
457, 460, 453, -1, 143.00, 250.00, 18.00, 15, MSpappap
458, 461, 454, -1, 207.00, 252.00, 30.00, 13, MSpaapapp
459, 462, 455, -1, 70.00, 297.00, 19.00, 15, Cpppppd
460, 463, 456, -1, 302.00, 302.00, 30.00, 13, ABplapaaaaa
461, 464, 457, -1, 202.00, 270.00, 19.00, 11, MSaappaa
462, 465, 458, -1, 291.00, 312.00, 30.00, 19, ABplapaaaap
464, 467, 460, -1, 329.00, 220.00, 20.00, 11, ABalaaaparr
465, 468, 461, -1, 340.00, 225.00, 18.00, 15, ABalaaaparl
466, 469, 462, -1, 264.00, 281.00, 23.00, 15, ABalpaaappp
467, 470, 463, -1, 277.00, 283.00, 24.00, 15, ABalpaaappa
468, 471, 464, -1, 190.00, 291.00, 23.00, 13, Ealpa
469, 472, 465, -1, 227.00, 240.00, 14.00, 15, ABprpappapa
470, 473, 466, -1, 152.00, 309.00, 19.00, 23, Z3
471, 474, 467, -1, 149.00, 340.00, 33.00, 15, Cappaap
472, 475, 468, -1, 279.00, 236.00, 18.00, 13, ABarappaapp
473, 476, 469, -1, 201.00, 225.00, 27.00, 15, MSpapappa
474, 477, 470, -1, 201.00, 224.00, 23.00, 15, MSpapaapa
475, 478, 471, -1, 279.00, 162.00, 22.00, 17, ABpraapaapp
477, 480, 473, -1, 275.00, 219.00, 22.00, 11, ABaraaaaapa
478, 481, 474, -1, 300.00, 247.00, 16.00, 14, ABalppapppp
479, 482, 475, -1, 325.00, 199.00, 18.00, 11, ABalaaappll
480, 483, 476, -1, 111.00, 261.00, 32.00, 13, Cppapap
481, 485, 477, -1, 307.00, 291.00, 22.00, 11, ABalppppaad
482, 486, 478, -1, 251.00, 290.00, 34.00, 17, MSappppp
483, 487, 479, -1, 283.00, 284.00, 27.00, 13, ABalpaapapp
484, 488, 480, -1, 123.00, 341.00, 15.00, 13, ABplpppaapa
485, 489, 481, -1, 350.00, 214.00, 29.00, 17, ABplaaaapa
487, 491, 483, -1, 226.00, 230.00, 19.00, 13, MSpapaaaa
488, 492, 484, -1, 191.00, 227.00, 16.00, 13, MSpapppaa
489, 493, 485, -1, 181.00, 237.00, 18.00, 13, MSpapppap
490, 494, 486, -1, 308.00, 240.00, 36.00, 17, ABarpaapap
491, 495, 487, -1, 266.00, 178.00, 22.00, 13, ABprpaapaaa
492, 496, 488, -1, 305.00, 304.00, 16.00, 11, ABalpppppppp
493, 497, 489, -1, 94.00, 303.00, 10.00, 11, ABprpppapp
494, 498, 490, -1, 236.00, 205.00, 12.00, 13, ABprpaapppa
495, 499, 491, -1, 158.00, 292.00, 29.00, 19, Epraa
496, 500, 492, -1, 304.00, 184.00, 21.00, 11, ABalaappppp
497, 501, 493, -1, 344.00, 204.00, 22.00, 15, ABarpaaaaal
498, 502, 494, -1, 92.00, 291.00, 12.00, 13, ABprppppppa
499, 503, 495, -1, 215.00, 193.00, 35.00, 17, ABarpppapa
500, 504, 496, -1, 276.00, 282.00, 16.00, 13, MSappapp
501, 505, 497, -1, 90.00, 233.00, 20.00, 13, ABarpppppp
502, 506, 498, -1, 239.00, 198.00, 16.00, 11, MSpppapa
503, 507, 499, -1, 312.00, 273.00, 31.00, 15, MSapappa
504, 508, 500, -1, 303.00, 208.00, 33.00, 17, MSppappp
505, 509, 501, -1, 109.00, 311.00, 13.00, 15, Cappppd
506, 510, 502, -1, 225.00, 265.00, 28.00, 15, MSaaaappp
507, 511, 503, -1, 111.00, 358.00, 16.00, 11, ABplapppaap
508, 512, 504, -1, 136.00, 266.00, 21.00, 21, Z2
509, 513, 505, -1, 329.00, 262.00, 29.00, 11, ABplaaaaapa
510, 514, 506, -1, 195.00, 241.00, 19.00, 13, MSpapapap
511, 515, 507, -1, 109.00, 321.00, 29.00, 23, Eplap
513, 517, 509, -1, 108.00, 310.00, 20.00, 17, Eplpp
515, 519, 511, -1, 148.00, 345.00, 22.00, 15, Capaapp
516, 520, 512, -1, 175.00, 344.00, 24.00, 15, Capaapa
517, 521, 513, -1, 254.00, 183.00, 11.00, 19, ABpraappap
518, 522, 514, -1, 283.00, 188.00, 32.00, 15, MSppappa
519, 523, 515, -1, 244.00, 246.00, 19.00, 13, ABalpappppa
523, 527, 519, -1, 239.00, 166.00, 16.00, 13, ABpraaappppp
524, 528, 520, -1, 241.00, 168.00, 21.00, 9, ABpraaapppaa
525, 529, 521, -1, 299.00, 293.00, 19.00, 13, ABalpppppaa
527, 531, 523, -1, 276.00, 195.00, 28.00, 17, MSppaaap
529, 533, 525, -1, 215.00, 256.00, 18.00, 15, ABarapapapp
531, 535, 527, -1, 218.00, 308.00, 17.00, 15, MSaapppap
532, 537, 528, -1, 61.00, 274.00, 18.00, 13, Caappd
533, 538, 529, -1, 97.00, 246.00, 30.00, 17, Caaapp
534, 539, 530, -1, 263.00, 324.00, 23.00, 13, ABplapaaapa
535, 540, 531, -1, 239.00, 225.00, 21.00, 13, ABarapapppp
536, 541, 532, -1, 224.00, 296.00, 15.00, 13, MSaapppaa
537, 542, 533, -1, 199.00, 269.00, 13.00, 13, ABarappappa
538, 543, 534, -1, 296.00, 248.00, 22.00, 13, ABaraaaaaaa
539, 544, 535, -1, 169.00, 291.00, 24.00, 15, Ealap
543, 548, 539, -1, 196.00, 296.00, 12.00, 17, ABplpaaaapp
547, 552, 543, -1, 242.00, 238.00, 22.00, 13, ABarapappap
552, 557, 548, -1, 114.00, 307.00, 15.00, 13, ABprpappppp
553, 558, 549, -1, 188.00, 249.00, 26.00, 17, Earaad
554, 559, 550, -1, 277.00, 281.00, 11.00, 15, ABplpaapppa
555, 560, 551, -1, 252.00, 254.00, 11.00, 17, ABalpapapap
556, 561, 552, -1, 248.00, 282.00, 11.00, 15, ABalpapappp
557, 562, 553, -1, 100.00, 295.00, 26.00, 17, Eprpa
558, 563, 554, -1, 346.00, 280.00, 25.00, 15, ABplaaappa
559, 564, 555, -1, 312.00, 227.00, 31.00, 13, ABalapapapa
560, 565, 556, -1, 328.00, 200.00, 31.00, 11, ABalapppapp
562, 567, 558, -1, 232.00, 208.00, 17.00, 13, MSpppapp
563, 568, 559, -1, 308.00, 293.00, 23.00, 14, ABalppppaav
565, 570, 561, -1, 279.00, 224.00, 28.00, 15, ABaraappaap
566, 571, 562, -1, 292.00, 221.00, 28.00, 13, ABaraappaaa
569, 574, 565, -1, 284.00, 305.00, 22.00, 15, ABalpppppap
570, 575, 566, -1, 143.00, 363.00, 29.00, 21, Cpaapp
572, 577, 568, -1, 272.00, 287.00, 28.00, 13, MSaaapaap
573, 578, 570, -1, 254.00, 160.00, 28.00, 19, ABarpapppp
576, 581, 573, -1, 76.00, 322.00, 17.00, 17, Cappppv
578, 583, 694, -1, 121.00, 299.00, 10.00, 13, ABplpppapap
579, 584, 575, -1, 284.00, 306.00, 13.00, 13, ABplppaaaaa
580, 585, 576, -1, 306.00, 177.00, 13.00, 11, ABalaappaa
581, 586, 577, -1, 249.00, 221.00, 18.00, 13, ABarapaaaap
582, 587, 578, -1, 291.00, 221.00, 25.00, 11, ABaraaaapap
583, 588, 579, -1, 252.00, 211.00, 29.00, 15, ABaraaapapa
585, 590, 581, -1, 216.00, 240.00, 31.00, 13, MSpaapapa
586, 591, 582, -1, 302.00, 238.00, 17.00, 15, ABalpapaaaa
589, 594, 585, -1, 306.00, 167.00, 27.00, 21, ABarpappap
590, 596, 586, -1, 253.00, 180.00, 32.00, 13, ABarpppaaa
594, 599, 590, -1, 333.00, 257.00, 20.00, 11, ABalapaappp
596, 601, 592, -1, 267.00, 177.00, 31.00, 13, ABalappapap
597, 602, 593, -1, 298.00, 282.00, 10.00, 15, ABplaappap
599, 696, 595, -1, 320.00, 293.00, 25.00, 13, ABalpppapppp
600, 605, 596, -1, 213.00, 276.00, 13.00, 11, ABplppaappa
601, 606, 597, -1, 271.00, 291.00, 35.00, 21, ABarppaapa
602, 607, 598, -1, 233.00, 202.00, 9.00, 13, ABpraapppa
604, 610, 600, -1, 251.00, 160.00, 20.00, 15, ABpraaappppa
605, 611, 601, -1, 109.00, 367.00, 25.00, 15, Cpapap
606, 612, 602, -1, 232.00, 262.00, 11.00, 15, ABplpaaaapa
607, 613, 603, -1, 309.00, 259.00, 10.00, 15, ABplpaapapp
608, 614, 604, -1, 255.00, 283.00, 25.00, 17, ABaraapapaa
610, 616, 606, -1, 94.00, 251.00, 13.00, 13, ABprpppaapp
611, 617, 607, -1, 147.00, 303.00, 11.00, 13, ABplppppapa
612, 618, 608, -1, 193.00, 247.00, 13.00, 15, ABprpapppap
616, 622, 612, -1, 202.00, 278.00, 30.00, 15, Earaav
617, 623, 613, -1, 273.00, 186.00, 14.00, 15, ABprpaaappa
618, 634, 614, -1, 247.00, 190.00, 36.00, 21, ABarpaappp
620, 626, 616, -1, 271.00, 295.00, 20.00, 9, MSapppaa
623, 629, 619, -1, 297.00, 243.00, 24.00, 15, ABalpaapaaa
628, 635, 624, -1, 229.00, 170.00, 27.00, 17, ABpraapappp
631, 669, 627, -1, 274.00, 219.00, 32.00, 17, MSpaaaapa
633, 639, 629, -1, 146.00, 316.00, 30.00, 11, Eplaa
634, 640, 707, -1, 283.00, 182.00, 22.00, 11, ABalaappppa
635, 641, 631, -1, 335.00, 256.00, 23.00, 11, ABalppppapp
638, 644, 634, -1, 213.00, 313.00, 33.00, 17, Dappap
639, 645, 635, -1, 120.00, 242.00, 33.00, 17, Caaapa
640, 646, 636, -1, 231.00, 252.00, 21.00, 11, ABarapapaaa
643, 649, 639, -1, 346.00, 239.00, 29.00, 13, ABplaaaaaap
646, 653, 642, -1, 179.00, 288.00, 30.00, 21, Earap
648, 656, 644, -1, 269.00, 178.00, 27.00, 11, ABalappapaa
649, 657, 645, -1, 273.00, 283.00, 9.00, 17, ABplaapppa
654, 667, 650, -1, 171.00, 324.00, 33.00, 15, Dapppp
655, 675, 651, -1, 297.00, 275.00, 14.00, 15, ABplpaaappp
659, 664, 655, -1, 293.00, 237.00, 36.00, 15, ABarpaappa
664, 665, 665, -1, 209.00, 335.00, 34.00, 23, Cpaaap
665, 666, 666, -1, 229.00, 253.00, 18.67, 15, ABarapapppa
666, 484, 659, -1, 231.00, 212.00, 22.50, 13, ABarapaappp
667, 668, 667, -1, 165.00, 255.00, 33.00, 13, Dppppp
668, 320, 668, -1, 296.00, 280.00, 20.00, 13, MSapapap
669, 670, 669, -1, 118.00, 300.00, 33.00, 15, Cpaapa
670, 671, 670, -1, 247.00, 310.00, 34.00, 15, Cpaaaa
671, 672, 671, -1, 153.00, 230.00, 33.00, 15, Caaaap
672, 536, 660, -1, 232.00, 337.00, 31.50, 17, Caaaaa
673, 673, 672, -1, 292.00, 198.00, 13.00, 13, ABprpaaapaa
674, 150, 626, -1, 245.00, 323.00, 14.00, 15, ABplaapppp
675, 676, 673, -1, 290.00, 218.00, 19.00, 15, ABaraaappap
676, 677, 674, -1, 304.00, 261.00, 12.00, 12, ABalppaappp
677, 678, 675, -1, 258.00, 261.00, 22.79, 15, ABalpappppp
678, 679, 676, -1, 282.00, 176.00, 28.33, 11, ABalapppppa
679, 680, 677, -1, 311.00, 215.00, 31.00, 11, ABalapppapa
680, 681, 678, -1, 325.00, 219.00, 24.00, 12, ABalapppaap
681, 682, 679, -1, 308.00, 169.00, 23.00, 15, ABalappappp
682, 683, 663, -1, 314.00, 285.00, 18.75, 13, ABalapaapaa
683, 684, 680, -1, 347.00, 256.00, 25.00, 13, ABalapaaapp
684, 685, 681, -1, 287.00, 220.00, 13.00, 13, ABalaapappa
685, 90, 682, -1, 329.00, 252.00, 17.25, 11, ABalaaaalpa
686, 686, 683, -1, 314.00, 268.00, 14.00, 15, ABplpaaappa
687, 687, 684, -1, 77.00, 291.00, 13.00, 13, ABprppppppp
688, 688, 685, -1, 217.00, 230.00, 12.00, 13, ABprpapapap
689, 689, 686, -1, 266.00, 219.00, 20.33, 16, ABarapaaaaa
691, 637, 688, -1, 276.00, 215.00, 30.00, 18, ABaraappapa
693, 82, 689, -1, 347.00, 274.00, 21.33, 15, ABalapaapap
694, 692, 81, -1, 339.00, 279.00, 21.00, 16, ABplaapaapp
695, 693, 690, -1, 303.00, 258.00, 14.00, 13, ABplpaaapaa
697, 694, 691, -1, 298.00, 229.00, 12.00, 13, ABalpapaaap
698, 695, 692, -1, 214.00, 306.00, 28.50, 13, Ealaav
699, 696, 693, -1, 332.00, 288.00, 22.00, 15, ABalpppapppa
700, 697, 695, -1, 320.00, 265.00, 18.00, 13, ABalppaaapa
701, 698, 696, -1, 284.00, 181.00, 17.00, 13, ABalaappapa
702, 699, 697, -1, 331.00, 230.00, 18.00, 13, ABalaaaarla
703, 700, 698, -1, 100.00, 293.00, 14.00, 13, Caapaa
704, 701, 699, -1, 243.00, 287.00, 30.67, 13, MSaaapapa
705, 702, 700, -1, 266.00, 323.00, 16.00, 16, ABplppaaaap
706, 703, 701, -1, 219.00, 262.00, 14.00, 15, ABplpappaap
707, 704, 702, -1, 223.00, 221.00, 26.00, 13, ABaraapppaa
708, 705, 703, -1, 289.00, 252.00, 26.00, 13, ABalpaapaap
709, 706, 704, -1, 294.00, 231.00, 18.00, 13, ABalpaappap
710, 707, 705, -1, 340.00, 235.00, 21.00, 13, ABalapaaapa
712, 708, 708, -1, 298.00, 184.00, 15.00, 11, ABalaappapp
713, 709, 709, -1, 291.00, 200.00, 20.00, 13, ABalaapaaal
714, 710, 710, -1, 332.00, 230.00, 30.00, 11, ABalapapapp
715, 711, 711, -1, 300.00, 185.00, 28.00, 13, ABalapppppp
716, 712, 712, -1, 310.00, 255.00, 17.00, 13, ABalppappap
719, 715, 714, -1, 274.00, 199.00, 13.00, 13, ABalaapappp
720, 716, 715, -1, 320.00, 232.00, 24.00, 15, ABalapappaa
721, 717, 716, -1, 273.00, 230.00, 17.00, 13, ABarapapapa
