1, 1, 1, -1, 268.00, 189.00, 14.00, 35, ABara
2, 2, 2, -1, 239.00, 195.00, 24.00, 35, ABarp
3, 3, 3, -1, 348.00, 196.00, 19.00, 37, ABala
4, 4, 4, -1, 228.00, 305.00, 27.00, 37, ABplp
5, 5, 5, -1, 288.00, 236.00, 29.00, 33, ABpla
7, 7, 7, -1, 149.00, 265.00, 12.00, 35, ABprp
8, 8, 8, -1, 181.00, 195.00, 14.00, 35, ABpra
9, 9, 9, -1, 230.00, 282.00, 15.00, 21, MSp
10, 9, 10, -1, 264.00, 280.00, 15.00, 21, MSa
11, 10, 11, 12, 161.00, 324.00, 19.00, 25, E
12, 11, 13, -1, 142.00, 251.00, 25.00, 35, C
13, 12, 14, -1, 89.00, 304.00, 21.00, 33, P3
15, 14, 16, -1, 322.00, 267.00, 19.00, 35, ABalp
