1, 1, 1, -1, 274.00, 212.00, 27.00, 15, ABaraaapaap
2, 2, 2, -1, 234.00, 210.00, 28.00, 13, ABaraaapapp
3, 3, 3, -1, 215.00, 222.00, 21.00, 13, ABaraappppp
4, 4, 4, -1, 252.00, 294.00, 23.00, 15, ABaraapappa
5, 5, 5, -1, 249.00, 282.00, 20.00, 15, ABaraapappp
6, 6, 6, -1, 256.00, 296.00, 29.00, 15, ABaraapapap
7, 7, 7, -1, 296.00, 232.00, 28.00, 15, ABaraapaaaa
8, 8, 8, -1, 296.00, 246.00, 29.00, 15, ABaraapaaap
9, 9, 9, -1, 278.00, 269.00, 32.00, 13, MSaaaaapp
10, 10, 10, -1, 296.00, 252.00, 30.00, 17, ABaraapaapa
11, 11, 11, -1, 293.00, 220.00, 22.00, 13, ABaraaappaa
12, 12, 12, -1, 308.00, 212.00, 19.00, 13, ABaraaapppa
13, 13, 13, -1, 305.00, 203.00, 21.00, 13, ABaraaapppp
14, 14, 14, -1, 281.00, 217.00, 25.00, 13, ABaraaapaaa
15, 15, 15, -1, 231.00, 223.00, 30.00, 15, ABaraappapp
16, 16, 16, -1, 287.00, 263.00, 23.00, 13, ABaraaaaaap
17, 17, 17, -1, 265.00, 217.00, 23.00, 15, ABaraaaaapp
18, 18, 18, -1, 270.00, 254.00, 26.00, 15, ABaraaaapp
19, 19, 19, -1, 291.00, 234.00, 24.00, 11, ABaraaaapaa
20, 20, 20, -1, 206.00, 261.00, 19.00, 15, ABalpappapp
21, 21, 21, -1, 266.00, 240.00, 18.00, 15, ABalpappapa
22, 22, 22, -1, 247.00, 207.00, 21.00, 19, ABarapapaap
23, 23, 23, -1, 253.00, 241.00, 13.00, 13, ABprpappaap
24, 24, 24, -1, 242.00, 203.00, 24.00, 15, ABarapappaa
25, 25, 25, -1, 285.00, 223.00, 11.00, 11, ABalaapappa
26, 26, 26, -1, 267.00, 237.00, 20.00, 11, ABarapaaapp
27, 27, 27, -1, 262.00, 219.00, 20.00, 15, ABarapaaapa
28, 28, 28, -1, 259.00, 204.00, 26.00, 15, ABarapaapap
29, 29, 29, -1, 254.00, 226.00, 27.00, 13, ABarapaapaa
30, 30, 30, -1, 269.00, 219.00, 11.00, 13, ABarapppapa
31, 31, 31, -1, 298.00, 209.00, 11.00, 13, ABarapppapp
32, 32, 32, -1, 285.00, 200.00, 20.00, 13, ABalaapaaal
33, 33, 33, -1, 302.00, 210.00, 14.00, 13, ABarapppaap
35, 35, 34, -1, 263.00, 175.00, 18.00, 13, ABalaapppap
36, 36, 35, -1, 281.00, 212.00, 12.00, 11, ABarapppppa
37, 37, 36, -1, 281.00, 208.00, 15.00, 14, ABarapppppp
38, 38, 37, -1, 290.00, 212.00, 17.00, 13, ABarappaaaa
39, 39, 38, -1, 288.00, 228.00, 15.00, 17, ABarappaapa
40, 40, 39, -1, 245.00, 221.00, 10.00, 17, ABarappapap
41, 41, 40, -1, 263.00, 229.00, 13.00, 13, ABarappapaa
42, 42, 41, -1, 224.00, 212.00, 11.00, 15, ABarappappp
43, 43, 42, -1, 212.00, 233.00, 11.00, 13, ABprpapappa
44, 44, 43, -1, 284.00, 160.00, 26.00, 15, ABarpapppa
47, 47, 46, -1, 351.00, 194.00, 23.00, 13, ABarpapapa
48, 48, 47, -1, 339.00, 191.00, 32.00, 15, ABarpaapaa
49, 49, 48, -1, 349.00, 210.00, 23.00, 11, ABarpaaaaar
50, 50, 49, -1, 345.00, 214.00, 26.00, 11, ABarpaaaapa
51, 51, 50, -1, 345.00, 188.00, 28.00, 13, ABarpaaapp
52, 52, 51, -1, 333.00, 204.00, 26.00, 11, ABarpaaapaa
53, 53, 52, -1, 334.00, 182.00, 26.00, 13, ABarpaaapap
54, 54, 53, -1, 287.00, 327.00, 24.00, 15, ABarppaaap
55, 55, 54, -1, 256.00, 326.00, 27.00, 17, ABarppaapp
56, 56, 55, -1, 172.00, 359.00, 25.00, 15, ABarppappa
57, 57, 687, -1, 121.00, 365.00, 19.00, 13, ABarppappp
58, 58, 56, -1, 236.00, 343.00, 25.00, 17, ABarppapap
59, 59, 57, -1, 262.00, 338.00, 23.00, 15, ABarppapaa
60, 60, 58, -1, 127.00, 225.00, 28.00, 17, ABarpppppa
61, 61, 59, -1, 191.00, 186.00, 27.00, 15, ABarppppaa
62, 62, 60, -1, 174.00, 204.00, 30.00, 17, ABarppppap
63, 63, 61, -1, 215.00, 170.00, 28.00, 15, ABarpppaap
64, 64, 62, -1, 310.00, 215.00, 27.00, 11, ABalappppaa
65, 65, 63, -1, 324.00, 193.00, 25.00, 13, ABalappppap
66, 66, 64, -1, 317.00, 228.00, 28.00, 11, ABalapppaaa
68, 68, 66, -1, 304.00, 174.00, 26.00, 11, ABalappappa
72, 72, 70, -1, 333.00, 221.00, 35.00, 19, ABarpapapp
74, 74, 72, -1, 322.00, 290.00, 28.00, 11, ABalapaaaap
75, 75, 73, -1, 334.00, 276.00, 28.00, 17, ABalapaaaaa
76, 76, 74, -1, 323.00, 255.00, 25.00, 17, ABalaaapall
77, 77, 75, -1, 332.00, 289.00, 21.00, 13, ABalpppapppa
78, 78, 76, -1, 291.00, 200.00, 22.00, 15, ABalaapaaar
79, 79, 77, -1, 286.00, 194.00, 12.00, 9, ABalaapapa
80, 80, 78, -1, 291.00, 184.00, 19.00, 11, ABalaapaapa
81, 559, 79, -1, 311.00, 182.00, 14.00, 11, ABalaappaa
82, 82, 80, -1, 275.00, 185.00, 20.00, 13, ABarappppaa
83, 83, 81, -1, 255.00, 168.00, 16.00, 13, ABalaapppaa
84, 84, 82, -1, 309.00, 210.00, 24.00, 15, ABalaaaarrp
85, 85, 83, -1, 302.00, 195.00, 18.00, 11, ABalaapaapp
86, 86, 84, -1, 317.00, 199.00, 17.00, 11, ABalaaaarra
87, 87, 85, -1, 316.00, 232.00, 23.00, 15, ABalaaaarlp
88, 88, 86, -1, 333.00, 226.00, 17.00, 13, ABalaaaarla
89, 89, 87, -1, 326.00, 239.00, 18.00, 11, ABalaaaalpp
91, 91, 89, -1, 290.00, 192.00, 26.00, 13, ABalaaapprr
93, 93, 91, -1, 298.00, 172.00, 16.00, 15, ABpraaaaapv
95, 95, 93, -1, 323.00, 216.00, 32.00, 11, ABalappaapa
97, 97, 95, -1, 121.00, 296.00, 12.00, 15, ABplppppapp
98, 98, 96, -1, 131.00, 308.00, 15.00, 15, ABplppppaaa
99, 99, 97, -1, 124.00, 303.00, 16.00, 15, ABplppppaap
100, 100, 98, -1, 82.00, 310.00, 13.00, 13, ABplppppppp
101, 101, 99, -1, 92.00, 306.00, 12.00, 13, ABplppppppa
102, 102, 100, -1, 121.00, 340.00, 19.00, 15, ABplpppppap
103, 103, 101, -1, 125.00, 323.00, 17.00, 13, ABplpppppaa
104, 104, 102, -1, 118.00, 320.00, 11.00, 11, ABplpppapaa
105, 105, 103, -1, 118.00, 329.00, 14.00, 13, ABplpppaapp
106, 106, 104, -1, 154.00, 307.00, 11.00, 15, ABplpppaaaa
107, 107, 105, -1, 157.00, 315.00, 14.00, 15, ABplpppaaap
108, 108, 106, -1, 159.00, 304.00, 15.00, 11, ABplppapppp
109, 109, 107, -1, 174.00, 284.00, 15.00, 11, ABplppapppa
110, 110, 108, -1, 198.00, 282.00, 14.00, 13, ABplppappap
111, 111, 109, -1, 210.00, 285.00, 12.00, 11, ABplppappaa
112, 112, 110, -1, 188.00, 297.00, 14.00, 13, ABplppapapa
113, 113, 111, -1, 173.00, 300.00, 16.00, 13, ABplppapapp
114, 114, 112, -1, 164.00, 292.00, 13.00, 13, ABplppaappp
115, 115, 113, -1, 268.00, 240.00, 15.00, 11, ABplpappaaa
116, 116, 114, -1, 194.00, 274.00, 18.00, 13, MSaappap
117, 117, 115, -1, 112.00, 290.00, 15.00, 13, ABplpappppp
118, 118, 116, -1, 133.00, 285.00, 16.00, 13, ABplpappppa
119, 119, 117, -1, 134.00, 298.00, 13.00, 13, ABplpapppaa
120, 120, 118, -1, 124.00, 268.00, 15.00, 13, ABplpapppap
121, 121, 119, -1, 233.00, 273.00, 11.00, 13, ABplpapappa
122, 122, 120, -1, 169.00, 272.00, 13.00, 11, ABplpapappp
123, 123, 121, -1, 245.00, 274.00, 14.00, 15, ABplpapapap
124, 124, 122, -1, 235.00, 282.00, 15.00, 15, ABplpapapaa
125, 125, 123, -1, 275.00, 265.00, 13.00, 17, ABplpapaapp
127, 127, 125, -1, 267.00, 264.00, 13.00, 15, ABplpapaapa
128, 128, 126, -1, 247.00, 266.00, 13.00, 15, ABplpapaaap
129, 129, 127, -1, 257.00, 262.00, 15.00, 13, ABplpapaaaa
130, 130, 128, -1, 205.00, 292.00, 15.00, 15, ABplppapaap
132, 132, 130, -1, 316.00, 277.00, 16.00, 15, ABplpaaaaaa
133, 133, 131, -1, 313.00, 256.00, 10.00, 17, ABplpaapapp
136, 136, 134, -1, 276.00, 321.00, 19.00, 13, ABplpaappap
137, 137, 135, -1, 273.00, 307.00, 17.00, 13, ABplpaappaa
138, 139, 136, -1, 284.00, 265.00, 11.00, 19, ABplpaapppp
139, 140, 137, -1, 290.00, 314.00, 17.00, 13, ABplpaapaap
140, 141, 138, -1, 312.00, 284.00, 22.00, 11, ABplpaapaaa
141, 142, 139, -1, 352.00, 259.00, 19.00, 13, ABplpaapapa
143, 144, 141, -1, 340.00, 209.00, 20.00, 13, ABplaapaaaa
144, 145, 142, -1, 351.00, 226.00, 22.00, 11, ABplaapaaap
145, 146, 143, -1, 339.00, 259.00, 21.00, 13, ABplaapaapa
146, 147, 144, -1, 330.00, 284.00, 23.00, 15, ABplaapaapp
147, 148, 145, 146, 301.00, 310.00, 24.00, 15, ABplaapappp
148, 149, 147, -1, 285.00, 300.00, 26.00, 13, ABplaapappa
149, 150, 148, -1, 271.00, 309.00, 26.00, 13, ABplaapapap
150, 151, 149, -1, 269.00, 310.00, 23.00, 13, ABplaapapaa
151, 152, 150, -1, 331.00, 246.00, 30.00, 15, ABplaaaaapp
152, 153, 151, -1, 312.00, 267.00, 30.00, 17, MSapaaap
153, 154, 152, -1, 354.00, 237.00, 25.00, 13, ABarpaaaapp
154, 155, 153, -1, 339.00, 229.00, 27.00, 13, ABalapappap
155, 156, 154, -1, 345.00, 216.00, 32.00, 15, ABplaaaapp
158, 159, 157, -1, 324.00, 301.00, 26.00, 11, ABplaaappp
159, 160, 158, -1, 359.00, 262.00, 22.00, 15, ABplaaapap
160, 161, 159, -1, 353.00, 242.00, 19.00, 15, ABplaaapaa
161, 162, 160, -1, 131.00, 310.00, 9.00, 17, ABplappppa
162, 163, 161, -1, 86.00, 331.00, 13.00, 17, ABplappppp
163, 164, 162, -1, 124.00, 346.00, 15.00, 13, ABplapppaaa
164, 165, 163, -1, 106.00, 331.00, 14.00, 13, ABplapppapp
165, 166, 164, -1, 101.00, 341.00, 12.00, 11, ABplapppapa
166, 167, 165, -1, 215.00, 337.00, 19.00, 17, ABplappaaa
167, 168, 166, -1, 190.00, 344.00, 20.00, 15, ABplappaap
168, 169, 167, -1, 170.00, 347.00, 19.00, 15, ABplappapp
169, 170, 168, -1, 197.00, 351.00, 25.00, 15, ABplappapa
170, 171, 169, -1, 231.00, 330.00, 16.00, 15, ABplapaapp
171, 172, 170, -1, 249.00, 290.00, 10.00, 17, ABplapaapa
172, 173, 171, -1, 312.00, 291.00, 31.00, 13, ABarppaaaa
173, 174, 172, -1, 250.00, 327.00, 23.00, 13, ABplapaaapp
174, 175, 173, -1, 107.00, 368.00, 19.00, 11, ABplapapppa
175, 176, 174, -1, 146.00, 355.00, 18.00, 15, ABplapapap
176, 177, 175, -1, 138.00, 344.00, 13.00, 17, ABplapappa
177, 178, 176, -1, 143.00, 369.00, 23.00, 17, ABplapapaa
178, 179, 177, -1, 241.00, 226.00, 14.00, 15, ABprpapaaaa
179, 180, 178, -1, 251.00, 211.00, 13.00, 13, ABprpapaapp
180, 181, 179, -1, 150.00, 293.00, 14.00, 11, ABprpapappp
181, 182, 180, -1, 220.00, 228.00, 14.00, 15, ABprpapapaa
183, 184, 182, -1, 104.00, 277.00, 18.00, 17, ABprpappppa
184, 185, 183, -1, 183.00, 286.00, 12.00, 15, ABprpappapp
185, 186, 184, -1, 252.00, 239.00, 15.00, 13, ABprpapppaa
186, 187, 185, -1, 279.00, 232.00, 14.00, 11, ABprpappaaa
187, 188, 186, -1, 234.00, 182.00, 15.00, 15, ABprpaaaaap
188, 189, 187, -1, 249.00, 180.00, 19.00, 11, ABpraaappaa
189, 190, 188, -1, 186.00, 264.00, 12.00, 15, ABprpaaaapp
190, 191, 189, -1, 233.00, 237.00, 10.00, 15, ABprpaaaapa
191, 192, 190, -1, 270.00, 194.00, 18.00, 13, ABprpaaaaaa
192, 193, 191, -1, 259.00, 217.00, 15.00, 13, ABprpapaapa
193, 194, 192, -1, 256.00, 195.00, 15.00, 13, ABprpaaappp
194, 195, 193, -1, 279.00, 184.00, 12.00, 13, ABprpaaapap
195, 196, 194, -1, 223.00, 171.00, 18.00, 13, ABprpaapaap
196, 197, 195, -1, 314.00, 167.00, 20.00, 15, ABprpaapapa
197, 198, 196, -1, 285.00, 196.00, 10.00, 15, ABprpaapapp
198, 199, 197, -1, 262.00, 204.00, 11.00, 17, ABprpaapppp
199, 200, 198, -1, 218.00, 180.00, 21.00, 13, ABprpaappap
200, 201, 199, -1, 233.00, 182.00, 19.00, 13, ABprpaappaa
201, 202, 200, -1, 96.00, 255.00, 18.00, 15, ABprpppaapa
202, 203, 201, -1, 142.00, 256.00, 16.00, 13, ABprpppaaap
203, 204, 202, -1, 140.00, 261.00, 13.00, 15, ABprpppaaaa
204, 205, 203, -1, 98.00, 259.00, 11.00, 11, ABprpppapaa
206, 208, 205, -1, 126.00, 256.00, 11.00, 15, ABprppppapa
207, 209, 206, -1, 122.00, 273.00, 12.00, 17, ABprppppapp
208, 210, 207, -1, 124.00, 267.00, 18.00, 13, ABprppppaaa
209, 211, 208, -1, 114.00, 274.00, 16.00, 15, ABprppppaap
210, 212, 209, -1, 122.00, 256.00, 21.00, 15, ABprpppppaa
211, 213, 210, -1, 101.00, 260.00, 20.00, 15, ABprpppppap
212, 214, 211, -1, 220.00, 192.00, 15.00, 11, ABprppaapap
213, 215, 212, -1, 218.00, 197.00, 12.00, 11, ABprppaapaa
214, 216, 213, -1, 209.00, 249.00, 12.00, 15, ABprppaappa
215, 217, 214, -1, 154.00, 275.00, 13.00, 13, ABprppaappp
216, 218, 215, -1, 225.00, 181.00, 13.00, 13, ABprppaaaaa
217, 219, 216, -1, 207.00, 185.00, 18.00, 17, ABprppaaaap
218, 220, 217, -1, 197.00, 226.00, 11.00, 15, ABprppapaaa
219, 221, 218, -1, 185.00, 255.00, 16.00, 13, ABprppapaap
220, 222, 219, -1, 178.00, 270.00, 16.00, 11, ABprppapapa
221, 223, 220, -1, 157.00, 269.00, 17.00, 13, ABprppapapp
222, 224, 221, -1, 161.00, 284.00, 16.00, 13, ABprppapppa
223, 225, 222, -1, 143.00, 271.00, 15.00, 14, ABprppapppp
224, 226, 223, -1, 191.00, 255.00, 14.00, 15, ABprppappaa
225, 227, 224, -1, 190.00, 274.00, 16.00, 15, ABprppappap
226, 228, 225, -1, 326.00, 207.00, 21.00, 11, ABpraapaaaa
227, 229, 226, -1, 325.00, 182.00, 29.00, 11, ABarpapaaap
228, 230, 227, -1, 334.00, 190.00, 21.00, 11, ABpraapaaap
229, 231, 228, -1, 299.00, 172.00, 21.00, 11, ABpraapaapa
230, 232, 229, -1, 231.00, 186.00, 28.00, 15, ABpraapapap
231, 233, 230, -1, 222.00, 189.00, 26.00, 11, ABpraapapaa
233, 235, 232, -1, 236.00, 188.00, 26.00, 13, ABpraapappa
234, 236, 233, -1, 191.00, 190.00, 18.00, 13, ABpraapppp
235, 237, 234, -1, 310.00, 201.00, 10.00, 15, ABpraappaa
236, 238, 235, -1, 281.00, 179.00, 26.00, 17, ABpraaapapa
237, 239, 236, -1, 292.00, 179.00, 24.00, 11, ABpraaapapp
238, 240, 237, -1, 253.00, 184.00, 24.00, 13, ABpraaapaad
239, 241, 238, -1, 235.00, 181.00, 22.00, 13, ABpraaappap
240, 242, 239, -1, 219.00, 176.00, 24.00, 11, ABpraaapppap
241, 243, 240, -1, 313.00, 179.00, 18.00, 15, ABpraaaaapd
242, 244, 241, -1, 268.00, 172.00, 15.00, 17, ABpraaaaaaa
243, 245, 242, -1, 299.00, 191.00, 14.00, 13, ABpraaaaaap
244, 246, 243, -1, 247.00, 177.00, 14.00, 15, ABpraaaapav
246, 248, 245, -1, 257.00, 167.00, 23.00, 9, ABpraaaappa
247, 249, 246, -1, 256.00, 171.00, 26.00, 15, ABpraaaappp
248, 250, 247, -1, 133.00, 231.00, 22.00, 13, ABprappapp
249, 251, 248, -1, 150.00, 214.00, 29.00, 15, ABprappapa
250, 252, 249, -1, 150.00, 223.00, 23.00, 15, ABprappaap
251, 253, 250, -1, 166.00, 218.00, 23.00, 15, ABprappaaa
252, 254, 251, -1, 89.00, 245.00, 17.00, 15, ABprapppaaa
253, 255, 252, -1, 88.00, 262.00, 15.00, 14, ABprapppapp
254, 256, 253, -1, 75.00, 254.00, 14.00, 11, ABprapppapa
255, 257, 254, -1, 74.00, 269.00, 12.00, 15, ABprappppp
256, 258, 255, -1, 114.00, 267.00, 9.00, 19, ABprappppa
257, 259, 256, -1, 206.00, 190.00, 24.00, 15, ABprapaaapa
258, 260, 257, -1, 192.00, 200.00, 24.00, 15, ABprapaaapp
259, 261, 258, -1, 240.00, 180.00, 31.00, 19, ABprapaaaap
260, 262, 259, -1, 177.00, 205.00, 20.00, 17, ABprapaapp
261, 263, 260, -1, 210.00, 210.00, 11.00, 15, ABprapaapa
262, 264, 261, -1, 109.00, 236.00, 14.00, 17, ABprapappa
263, 265, 262, -1, 72.00, 267.00, 17.00, 17, ABprapapppp
264, 266, 263, -1, 112.00, 230.00, 20.00, 15, ABprapapap
265, 267, 264, -1, 105.00, 233.00, 27.00, 17, ABprapapaa
266, 268, 265, -1, 251.00, 197.00, 32.00, 13, MSppppap
267, 269, 266, -1, 233.00, 195.00, 22.00, 14, MSppppaa
268, 270, 267, -1, 293.00, 207.00, 36.00, 19, MSpppppa
269, 271, 268, -1, 247.00, 213.00, 34.00, 11, MSpppppp
270, 272, 269, -1, 280.00, 204.00, 33.00, 15, MSpppaaa
271, 273, 270, -1, 139.00, 251.00, 25.00, 13, MSpppaap
272, 274, 271, -1, 237.00, 225.00, 13.00, 13, ABprpapaaap
273, 275, 272, -1, 131.00, 283.00, 20.00, 13, MSppaapp
274, 276, 273, -1, 255.00, 188.00, 24.00, 11, MSppaapa
275, 277, 274, -1, 271.00, 197.00, 24.00, 11, MSppaaaa
278, 280, 277, -1, 256.00, 189.00, 21.00, 13, MSppapap
279, 281, 278, -1, 192.00, 253.00, 21.00, 13, MSpapappp
280, 282, 279, -1, 208.00, 246.00, 21.00, 11, MSpapapaa
281, 283, 280, -1, 212.00, 231.00, 19.00, 14, MSpapaaap
282, 284, 281, -1, 198.00, 237.00, 24.00, 15, MSpapaapp
283, 285, 282, -1, 171.00, 322.00, 18.00, 15, MSpappaa
284, 286, 283, -1, 172.00, 244.00, 18.00, 13, MSpappppa
285, 287, 284, -1, 163.00, 253.00, 19.00, 15, MSpappppp
286, 288, 285, -1, 234.00, 252.00, 33.00, 15, MSpaaappp
287, 289, 286, -1, 242.00, 274.00, 31.00, 13, MSpaaapaa
288, 290, 287, -1, 217.00, 263.00, 32.00, 13, MSpaaapap
289, 291, 288, -1, 258.00, 228.00, 33.00, 15, MSpaaaapp
290, 292, 289, -1, 269.00, 250.00, 34.00, 15, MSpaaaaaa
291, 293, 290, -1, 247.00, 250.00, 30.00, 13, MSpaaaaap
292, 294, 291, -1, 212.00, 217.00, 23.00, 13, ABaraappppa
293, 295, 292, -1, 214.00, 217.00, 29.00, 15, ABaraapppap
294, 296, 293, -1, 235.00, 255.00, 30.00, 13, MSpaapaap
295, 297, 294, -1, 248.00, 244.00, 32.00, 15, MSpaaappa
296, 298, 295, -1, 228.00, 236.00, 31.00, 11, MSpaapaaa
297, 299, 296, -1, 283.00, 297.00, 31.00, 9, MSapppap
298, 300, 297, -1, 302.00, 260.00, 34.00, 21, MSappppa
299, 301, 299, -1, 141.00, 336.00, 19.00, 13, MSappaap
300, 302, 300, -1, 296.00, 265.00, 33.00, 17, MSappaaa
301, 303, 301, -1, 265.00, 281.00, 30.00, 15, ABaraapaapp
302, 304, 302, -1, 317.00, 245.00, 32.00, 15, MSapappp
303, 305, 303, -1, 149.00, 290.00, 19.00, 17, MSapaapp
304, 306, 304, -1, 304.00, 266.00, 25.00, 11, MSapaaaa
305, 307, 305, -1, 277.00, 238.00, 32.00, 11, MSaaaaapap
306, 308, 694, -1, 293.00, 235.00, 32.00, 13, MSaaaaapaa
307, 309, 306, -1, 274.00, 254.00, 29.00, 11, MSaaapaaa
308, 310, 307, -1, 292.00, 204.00, 29.00, 13, MSaaaaaar
309, 311, 308, -1, 314.00, 246.00, 28.00, 13, MSaaaaaal
310, 312, 309, -1, 251.00, 260.00, 34.00, 15, MSaaaapaa
311, 313, 310, -1, 259.00, 270.00, 32.00, 13, MSaaaapap
312, 314, 311, -1, 231.00, 274.00, 31.00, 13, MSaaaappa
313, 315, 312, -1, 239.00, 290.00, 30.00, 13, MSaaapapa
314, 316, 313, -1, 228.00, 295.00, 29.00, 17, MSaaapapp
315, 317, 314, -1, 207.00, 299.00, 29.00, 13, MSaaappa
316, 318, 315, -1, 219.00, 285.00, 32.00, 13, MSaaappp
317, 319, 316, -1, 204.00, 309.00, 16.00, 11, MSaappppa
318, 320, 317, -1, 186.00, 318.00, 17.00, 15, MSaappppp
319, 321, 318, -1, 234.00, 274.00, 19.00, 11, MSaapaaap
320, 322, 319, -1, 251.00, 269.00, 18.00, 14, MSaapaaaa
321, 323, 320, -1, 218.00, 285.00, 19.00, 13, MSaapappp
322, 324, 321, -1, 243.00, 302.00, 26.00, 13, MSaapappa
323, 325, 322, -1, 231.00, 281.00, 22.00, 13, MSaapapaa
324, 326, 323, -1, 232.00, 288.00, 19.00, 11, MSaapapap
325, 327, 324, -1, 89.00, 310.00, 25.00, 15, Eplpa
326, 328, 325, -1, 110.00, 353.00, 23.00, 15, Cappapa
327, 329, 326, -1, 94.00, 346.00, 21.00, 13, Cappapp
328, 330, 327, -1, 198.00, 325.00, 30.00, 17, Cappaaa
329, 331, 328, -1, 80.00, 339.00, 24.00, 17, Capppap
330, 332, 329, -1, 111.00, 346.00, 31.00, 13, Capppaa
331, 333, 330, -1, 125.00, 355.00, 28.00, 13, Capapap
332, 334, 331, -1, 166.00, 345.00, 29.00, 15, Capapaa
333, 335, 332, -1, 136.00, 321.00, 13.00, 15, Capappp
334, 336, 333, -1, 148.00, 338.00, 16.00, 17, Capappa
335, 337, 334, -1, 198.00, 328.00, 20.00, 13, Capaaap
336, 338, 335, -1, 217.00, 320.00, 19.00, 13, Capaaaa
338, 340, 337, -1, 66.00, 299.00, 15.00, 13, Caappv
339, 341, 338, -1, 103.00, 281.00, 9.00, 7, Caapap
340, 342, 339, -1, 85.00, 358.00, 20.00, 11, Cpappd
341, 343, 340, -1, 69.00, 322.00, 15.00, 15, Cpappv
342, 344, 341, -1, 121.00, 245.00, 24.00, 15, Cppaapp
343, 345, 342, -1, 149.00, 241.00, 23.00, 13, Cppaapa
344, 346, 343, -1, 164.00, 236.00, 21.00, 11, Cppaaap
345, 347, 344, -1, 180.00, 228.00, 20.00, 15, Cppaaaa
346, 348, 345, -1, 152.00, 251.00, 33.00, 15, Cppapaa
347, 349, 346, -1, 113.00, 254.00, 15.00, 13, Cppappp
348, 350, 347, -1, 114.00, 247.00, 19.00, 15, Cppappa
349, 351, 348, -1, 151.00, 270.00, 35.00, 17, Cpppaap
350, 352, 349, -1, 179.00, 236.00, 32.00, 13, Cpppaaa
351, 353, 350, -1, 73.00, 271.00, 23.00, 17, Cpppapp
352, 354, 351, -1, 91.00, 269.00, 31.00, 15, Cpppapa
353, 355, 352, -1, 259.00, 292.00, 15.00, 15, Daapa
354, 356, 353, -1, 243.00, 297.00, 14.00, 15, Daapp
355, 357, 354, -1, 253.00, 306.00, 20.00, 15, Daaaa
356, 358, 355, -1, 248.00, 309.00, 31.00, 17, Daaap
357, 359, 356, -1, 238.00, 294.00, 34.00, 13, Dappaa
358, 360, 357, -1, 205.00, 214.00, 15.00, 15, Dpapp
359, 361, 358, -1, 219.00, 208.00, 17.00, 11, Dpapa
360, 362, 359, -1, 225.00, 205.00, 32.00, 17, Dpaap
361, 363, 360, -1, 216.00, 202.00, 20.00, 15, Dpaaa
362, 364, 361, -1, 190.00, 252.00, 33.00, 13, Dppppa
363, 365, 362, -1, 208.00, 248.00, 34.00, 15, Dpppap
364, 366, 363, -1, 229.00, 228.00, 35.00, 17, Dpppaa
365, 367, 364, -1, 198.00, 212.00, 21.00, 19, Dppaa
366, 368, 365, -1, 197.00, 225.00, 32.00, 17, Dppap
369, 371, 368, -1, 291.00, 314.00, 20.00, 11, ABalppppppaa
370, 372, 369, -1, 281.00, 330.00, 21.00, 11, ABalppppppap
371, 373, 370, -1, 312.00, 306.00, 19.00, 15, ABalpppppppa
373, 375, 372, -1, 324.00, 287.00, 15.00, 15, ABalpppaaaa
374, 376, 373, -1, 324.00, 254.00, 15.00, 14, ABalpppaaap
375, 377, 374, -1, 336.00, 266.00, 16.00, 15, ABalpppaapd
376, 378, 375, -1, 338.00, 248.00, 19.00, 13, ABalpppaapv
377, 379, 376, -1, 303.00, 293.00, 15.00, 13, ABalpppapad
378, 380, 377, -1, 335.00, 271.00, 14.00, 15, ABalpppapav
379, 381, 378, -1, 338.00, 247.00, 16.00, 11, ABalaaapalr
380, 382, 379, -1, 336.00, 253.00, 15.00, 15, ABalppaaapp
381, 383, 380, -1, 286.00, 299.00, 15.00, 15, ABplpaaaaap
382, 384, 381, -1, 291.00, 253.00, 13.00, 11, ABalppapppa
383, 385, 382, -1, 310.00, 273.00, 20.00, 17, ABalppappaa
384, 386, 383, -1, 315.00, 267.00, 22.00, 14, ABalapaappa
385, 387, 384, -1, 277.00, 250.00, 11.00, 13, ABalppapapa
386, 388, 385, -1, 311.00, 241.00, 11.00, 13, ABalppapapp
387, 389, 386, -1, 321.00, 228.00, 10.00, 15, ABplaappaa
388, 390, 387, -1, 312.00, 249.00, 20.00, 13, ABalppapaaa
389, 391, 388, -1, 275.00, 250.00, 14.00, 15, ABalpapapaa
390, 392, 389, -1, 213.00, 277.00, 9.00, 19, ABalpapappa
391, 393, 390, -1, 314.00, 220.00, 13.00, 11, ABalpapaapp
392, 394, 391, -1, 315.00, 231.00, 15.00, 13, ABalppapaap
393, 395, 392, -1, 279.00, 251.00, 19.00, 11, ABalpaaaapa
394, 396, 393, -1, 274.00, 260.00, 18.00, 13, ABalpaaaaap
395, 397, 394, -1, 252.00, 244.00, 21.00, 11, ABalpappaaa
396, 398, 395, -1, 283.00, 281.00, 22.00, 15, ABalpapppaa
397, 399, 396, -1, 260.00, 263.00, 19.00, 13, ABalpapppap
398, 400, 397, -1, 291.00, 271.00, 25.00, 15, ABalpaaapaa
400, 402, 399, -1, 255.00, 253.00, 17.00, 13, ABalpaaaapp
401, 403, 400, -1, 284.00, 251.00, 21.00, 15, ABalpaaaaaa
402, 404, 401, -1, 279.00, 272.00, 20.00, 15, ABalpappaap
404, 406, 403, -1, 315.00, 228.00, 21.00, 13, ABalpaapppa
405, 407, 404, -1, 326.00, 221.00, 18.00, 13, ABalpaapppp
406, 408, 405, -1, 301.00, 231.00, 22.00, 11, ABalpaappaa
411, 413, 410, -1, 134.00, 318.00, 28.00, 17, Ealpp
412, 414, 411, -1, 139.00, 294.00, 28.00, 19, Earpp
414, 416, 413, -1, 209.00, 294.00, 22.00, 17, Ealaad
415, 417, 414, -1, 101.00, 290.00, 24.00, 21, Eprpp
416, 418, 415, -1, 223.00, 317.00, 32.00, 17, Dapap
417, 419, 416, -1, 237.00, 314.00, 19.00, 15, Dapaa
418, 420, 417, -1, 229.00, 298.00, 23.00, 15, MSaapaapp
419, 421, 418, -1, 239.00, 300.00, 21.00, 13, MSaapaapa
420, 422, 419, -1, 195.00, 204.00, 30.00, 15, ABarpppapp
421, 423, 420, -1, 271.00, 303.00, 13.00, 13, ABplppaapap
422, 424, 421, -1, 269.00, 297.00, 10.00, 11, ABplppaapaa
423, 425, 422, -1, 320.00, 251.00, 24.00, 13, ABalaaaalar
424, 426, 423, -1, 287.00, 186.00, 33.00, 17, MSppappa
425, 427, 424, -1, 327.00, 177.00, 20.00, 11, ABarpappaa
426, 428, 425, -1, 114.00, 291.00, 35.00, 19, Cppppaa
427, 429, 426, -1, 73.00, 291.00, 29.00, 17, Cppppap
428, 430, 427, -1, 97.00, 274.00, 14.00, 13, Cpppppv
429, 431, 428, -1, 309.00, 187.00, 29.00, 15, ABarpapaapp
430, 432, 429, -1, 121.00, 305.00, 31.00, 17, Eprap
433, 435, 432, -1, 304.00, 225.00, 16.00, 15, ABalpapaapa
435, 437, 434, -1, 228.00, 294.00, 10.00, 17, ABplppapaaa
436, 438, 435, -1, 332.00, 245.00, 24.00, 11, ABalaaaalal
437, 439, 436, -1, 282.00, 198.00, 17.00, 13, ABarappppap
438, 440, 437, -1, 147.00, 252.00, 19.00, 13, MSpappap
439, 565, 438, -1, 217.00, 242.00, 31.00, 11, MSpaapapa
440, 442, 439, -1, 66.00, 298.00, 20.00, 15, Cpppppd
441, 443, 440, -1, 297.00, 300.00, 30.00, 11, ABplapaaaaa
442, 444, 441, -1, 206.00, 271.00, 21.00, 11, MSaappaa
443, 445, 442, -1, 290.00, 313.00, 29.00, 15, ABplapaaaap
444, 446, 443, -1, 321.00, 255.00, 18.00, 11, ABalaaaalpa
445, 447, 444, -1, 330.00, 223.00, 22.00, 11, ABalaaaparr
446, 448, 445, -1, 341.00, 228.00, 20.00, 11, ABalaaaparl
447, 449, 446, -1, 263.00, 282.00, 23.00, 11, ABalpaaappp
448, 450, 447, -1, 274.00, 283.00, 24.00, 15, ABalpaaappa
450, 452, 449, -1, 232.00, 236.00, 16.00, 13, ABprpappapa
451, 453, 450, -1, 142.00, 315.00, 18.00, 27, Z3
452, 454, 451, -1, 152.00, 339.00, 34.00, 15, Cappaap
453, 455, 452, -1, 282.00, 236.00, 19.00, 13, ABarappaapp
454, 456, 453, -1, 205.00, 223.00, 27.00, 13, MSpapappa
455, 457, 454, -1, 218.00, 236.00, 23.00, 13, MSpapaapaa
456, 458, 455, -1, 197.00, 220.00, 22.00, 13, MSpapaapap
457, 459, 456, -1, 286.00, 162.00, 22.00, 13, ABpraapaapp
458, 460, 457, -1, 275.00, 170.00, 29.00, 13, ABalapppppa
459, 461, 458, -1, 278.00, 217.00, 23.00, 11, ABaraaaaapa
460, 462, 459, -1, 299.00, 247.00, 16.00, 13, ABalppapppp
461, 463, 460, -1, 321.00, 197.00, 20.00, 11, ABalaaappll
462, 464, 461, -1, 114.00, 262.00, 34.00, 15, Cppapap
463, 465, 462, -1, 306.00, 291.00, 27.00, 15, ABalppppaad
464, 466, 463, -1, 261.00, 290.00, 34.00, 15, MSappppp
465, 467, 464, -1, 284.00, 285.00, 27.00, 13, ABalpaapapp
466, 468, 465, -1, 117.00, 344.00, 17.00, 15, ABplpppaapa
467, 469, 466, -1, 356.00, 211.00, 27.00, 19, ABplaaaapa
469, 471, 468, -1, 230.00, 233.00, 19.00, 14, MSpapaaaa
470, 472, 469, -1, 196.00, 227.00, 15.00, 13, MSpapppaa
471, 473, 470, -1, 184.00, 237.00, 17.00, 13, MSpapppap
472, 474, 686, -1, 314.00, 242.00, 34.00, 15, ABarpaapap
473, 475, 472, -1, 271.00, 174.00, 22.00, 13, ABprpaapaaa
474, 476, 473, -1, 303.00, 306.00, 15.00, 13, ABalpppppppp
475, 477, 474, -1, 102.00, 310.00, 9.00, 15, ABprpppapp
476, 478, 475, -1, 233.00, 209.00, 12.00, 13, ABprpaapppa
477, 479, 476, -1, 161.00, 299.00, 31.00, 15, Epraa
478, 480, 477, -1, 303.00, 186.00, 22.00, 11, ABalaappppp
479, 481, 478, -1, 341.00, 207.00, 22.00, 13, ABarpaaaaal
480, 482, 479, -1, 93.00, 289.00, 13.00, 13, ABprppppppa
481, 483, 480, -1, 215.00, 191.00, 34.00, 19, ABarpppapa
482, 484, 481, -1, 280.00, 281.00, 16.00, 15, MSappapp
483, 485, 482, -1, 93.00, 231.00, 21.00, 13, ABarpppppp
484, 486, 483, -1, 242.00, 198.00, 16.00, 9, MSpppapa
485, 487, 484, -1, 307.00, 281.00, 31.00, 11, MSapappa
486, 488, 485, -1, 308.00, 199.00, 32.00, 19, MSppappp
487, 489, 486, -1, 105.00, 312.00, 13.00, 13, Cappppd
488, 490, 487, -1, 224.00, 264.00, 29.00, 15, MSaaaappp
489, 491, 488, -1, 110.00, 360.00, 16.00, 11, ABplapppaap
490, 492, 489, -1, 138.00, 265.00, 22.00, 21, Z2
491, 493, 490, -1, 328.00, 262.00, 31.00, 11, ABplaaaaapa
492, 494, 491, -1, 198.00, 237.00, 20.00, 11, MSpapapap
493, 495, 492, -1, 111.00, 320.00, 30.00, 19, Eplap
495, 497, 494, -1, 100.00, 311.00, 21.00, 13, Eplpp
498, 500, 496, -1, 153.00, 344.00, 21.00, 17, Capaapp
499, 501, 497, -1, 179.00, 343.00, 23.00, 15, Capaapa
500, 502, 498, -1, 258.00, 179.00, 11.00, 17, ABpraappap
503, 505, 499, -1, 194.00, 287.00, 23.00, 19, Ealpa
505, 507, 501, -1, 239.00, 166.00, 16.00, 13, ABpraaappppp
506, 508, 502, -1, 227.00, 168.00, 22.00, 11, ABpraaapppaa
507, 509, 503, -1, 296.00, 296.00, 19.00, 13, ABalpppppaa
509, 511, 505, -1, 276.00, 194.00, 29.00, 13, MSppaaap
511, 513, 507, -1, 219.00, 261.00, 19.00, 13, ABarapapapp
513, 515, 509, -1, 220.00, 304.00, 16.00, 13, MSaapppap
514, 516, 510, -1, 62.00, 270.00, 20.00, 13, Caappd
515, 517, 511, -1, 264.00, 322.00, 23.00, 11, ABplapaaapa
516, 518, 512, -1, 245.00, 231.00, 23.00, 15, ABarapapppp
517, 519, 513, -1, 227.00, 296.00, 15.00, 13, MSaapppaa
518, 520, 514, -1, 205.00, 267.00, 12.00, 13, ABarappappa
519, 521, 515, -1, 295.00, 249.00, 23.00, 13, ABaraaaaaaa
520, 522, 516, -1, 174.00, 293.00, 25.00, 14, Ealap
524, 526, 520, -1, 197.00, 285.00, 11.00, 13, ABplpaaaapp
527, 529, 523, -1, 240.00, 233.00, 20.00, 13, ABarapappap
530, 533, 526, -1, 109.00, 306.00, 16.00, 13, ABprpappppp
531, 534, 527, -1, 184.00, 249.00, 26.00, 17, Earaad
532, 535, 528, -1, 273.00, 279.00, 11.00, 15, ABplpaapppa
533, 536, 529, -1, 257.00, 251.00, 10.00, 19, ABalpapapap
534, 537, 530, -1, 252.00, 280.00, 11.00, 17, ABalpapappp
535, 538, 531, -1, 95.00, 298.00, 28.00, 15, Eprpa
537, 540, 533, -1, 310.00, 227.00, 32.00, 15, ABalapapapa
538, 541, 534, -1, 332.00, 199.00, 30.00, 11, ABalapppapp
540, 543, 536, -1, 303.00, 225.00, 12.00, 14, ABalpapaaap
541, 544, 537, -1, 236.00, 206.00, 17.00, 13, MSpppapp
542, 545, 538, -1, 299.00, 292.00, 23.00, 11, ABalppppaav
543, 546, 539, -1, 235.00, 321.00, 25.00, 17, MSapapaa
545, 548, 541, -1, 292.00, 224.00, 29.00, 17, ABaraappaaa
548, 551, 544, -1, 278.00, 305.00, 21.00, 15, ABalpppppap
549, 552, 545, -1, 308.00, 258.00, 12.00, 13, ABalppaappp
550, 553, 546, -1, 273.00, 289.00, 28.00, 13, MSaaapaap
551, 554, 547, -1, 259.00, 161.00, 29.00, 15, ABarpapppp
553, 556, 549, -1, 73.00, 323.00, 18.00, 13, Cappppv
555, 558, 551, -1, 289.00, 301.00, 12.00, 13, ABplppaaaaa
556, 560, 552, -1, 253.00, 223.00, 20.00, 15, ABarapaaaap
557, 561, 553, -1, 280.00, 223.00, 30.00, 15, ABaraappaap
558, 562, 554, -1, 291.00, 222.00, 25.00, 11, ABaraaaapap
559, 563, 555, -1, 248.00, 210.00, 30.00, 15, ABaraaapapa
560, 564, 556, -1, 186.00, 275.00, 25.00, 19, Earpa
562, 566, 558, -1, 306.00, 239.00, 18.00, 15, ABalpapaaaa
565, 569, 561, -1, 312.00, 165.00, 25.00, 17, ABarpappap
566, 570, 562, -1, 256.00, 182.00, 33.00, 15, ABarpppaaa
569, 573, 565, -1, 327.00, 257.00, 21.00, 11, ABalapaappp
571, 575, 567, -1, 263.00, 176.00, 31.00, 11, ABalappapap
572, 576, 568, -1, 302.00, 280.00, 10.00, 15, ABplaappap
574, 578, 570, -1, 313.00, 298.00, 24.00, 15, ABalpppapppp
575, 579, 571, -1, 220.00, 275.00, 12.00, 13, ABplppaappa
576, 580, 572, -1, 270.00, 262.00, 36.00, 21, ABarppaapa
578, 583, 574, -1, 244.00, 160.00, 19.00, 19, ABpraaappppa
579, 584, 575, -1, 115.00, 369.00, 25.00, 13, Cpapap
580, 585, 576, -1, 237.00, 250.00, 12.00, 15, ABplpaaaapa
581, 586, 577, -1, 326.00, 255.00, 11.00, 17, ABplpaaapap
582, 587, 578, -1, 254.00, 282.00, 26.00, 17, ABaraapapaa
584, 589, 580, -1, 91.00, 249.00, 13.00, 13, ABprpppaapp
585, 590, 581, -1, 140.00, 304.00, 11.00, 15, ABplppppapa
586, 591, 582, -1, 197.00, 247.00, 12.00, 11, ABprpapppap
587, 592, 583, -1, 295.00, 282.00, 20.00, 11, MSapapap
592, 597, 587, -1, 250.00, 181.00, 35.00, 17, ABarpaappp
593, 598, 588, -1, 270.00, 293.00, 19.00, 11, MSapppaa
596, 601, 591, -1, 298.00, 245.00, 25.00, 13, ABalpaapaaa
601, 606, 595, -1, 233.00, 169.00, 27.00, 13, ABpraapappp
603, 608, 597, -1, 251.00, 325.00, 14.00, 19, ABplaapppp
604, 609, 598, -1, 262.00, 214.00, 31.00, 11, MSpaaaapa
606, 611, 600, -1, 151.00, 314.00, 29.00, 15, Eplaa
608, 613, 602, -1, 336.00, 260.00, 23.00, 11, ABalppppapp
609, 614, 603, -1, 244.00, 204.00, 26.00, 13, ABarapaappa
611, 616, 605, -1, 217.00, 308.00, 34.00, 15, Dappap
612, 617, 606, -1, 233.00, 253.00, 22.00, 11, ABarapapaaa
614, 619, 608, -1, 328.00, 222.00, 24.00, 11, ABalapppaap
615, 620, 609, -1, 349.00, 242.00, 29.00, 11, ABplaaaaaap
617, 622, 611, -1, 189.00, 292.00, 28.00, 13, Earap
618, 623, 612, -1, 324.00, 200.00, 28.00, 15, ABarpapaaaa
619, 624, 613, -1, 267.00, 178.00, 27.00, 11, ABalappapaa
624, 630, 618, -1, 306.00, 272.00, 13.00, 17, ABplpaaappp
625, 631, 619, -1, 271.00, 168.00, 23.00, 13, ABpraaapaav
627, 633, 621, -1, 294.00, 235.00, 36.00, 15, ABarpaappa
631, 637, 625, -1, 230.00, 214.00, 24.00, 17, ABarapaappp
632, 638, 626, -1, 234.00, 335.00, 32.00, 17, Caaaaa
634, 640, 628, -1, 309.00, 288.00, 18.00, 11, ABalapaapaa
636, 642, 630, -1, 342.00, 275.00, 21.00, 13, ABalapaapap
638, 644, 632, -1, 276.00, 213.00, 30.00, 13, ABaraappapa
639, 645, 633, -1, 92.00, 340.00, 16.00, 19, ABplapapppp
640, 646, 634, -1, 233.00, 257.00, 19.00, 15, ABarapapppa
641, 647, 635, -1, 266.00, 218.00, 21.00, 17, ABarapaaaaa
642, 648, 636, -1, 141.00, 367.00, 28.00, 11, Cpaapp
645, 698, 639, -1, 347.00, 255.00, 26.00, 13, ABalapapppp
646, 652, 640, -1, 329.00, 269.00, 25.00, 15, ABalppppapa
652, 659, 646, -1, 186.00, 216.00, 26.00, 13, MSppapaa
653, 660, 647, -1, 101.00, 247.00, 31.00, 17, Caaapp
654, 661, 648, -1, 286.00, 237.00, 10.00, 11, ABarappaaap
655, 662, 649, -1, 296.00, 198.00, 13.00, 13, ABprpaaapaa
665, 673, 658, -1, 199.00, 244.00, 29.00, 11, MSpaapapp
668, 676, 661, -1, 273.00, 192.00, 14.00, 14, ABprpaaappa
671, 679, 664, -1, 316.00, 246.00, 14.00, 13, ABplpaaapaa
674, 682, 667, -1, 197.00, 310.00, 33.00, 17, Dapppa
677, 707, 670, -1, 285.00, 177.00, 14.00, 13, ABpraaaapad
682, 706, 675, -1, 202.00, 280.00, 31.00, 17, Earaav
683, 693, 676, -1, 91.00, 287.00, 11.00, 13, ABprpppapap
685, 695, 678, -1, 290.00, 213.00, 19.00, 15, ABaraaappap
687, 685, 688, -1, 214.00, 332.00, 34.00, 19, Cpaaap
688, 686, 690, -1, 177.00, 327.00, 33.00, 15, Dapppp
689, 687, 691, -1, 168.00, 256.00, 33.00, 13, Dppppp
690, 688, 692, -1, 80.00, 253.00, 24.57, 21, Cpapaa
691, 689, 693, -1, 124.00, 242.00, 33.00, 15, Caaapa
692, 690, 695, -1, 113.00, 321.00, 33.00, 15, Cpaapa
693, 691, 696, -1, 251.00, 309.00, 34.00, 15, Cpaaaa
694, 692, 697, -1, 160.00, 231.00, 33.00, 15, Caaaap
695, 694, 683, -1, 277.00, 282.00, 9.00, 17, ABplaapppa
696, 696, 682, -1, 244.00, 248.00, 19.00, 14, ABalpappppa
697, 697, 698, -1, 260.00, 262.00, 22.32, 16, ABalpappppp
698, 699, 699, -1, 305.00, 175.00, 23.00, 15, ABalappappp
699, 651, 700, -1, 347.00, 256.00, 25.20, 15, ABalapaaapp
700, 700, 701, -1, 309.00, 262.00, 14.00, 15, ABplpaaappa
701, 701, 702, -1, 77.00, 291.00, 13.00, 13, ABprppppppp
702, 702, 703, -1, 222.00, 226.00, 12.00, 13, ABprpapapap
705, 705, 663, -1, 236.00, 200.00, 10.00, 17, ABpraapppa
706, 708, 706, -1, 216.00, 314.00, 27.25, 13, Ealaav
707, 709, 707, -1, 113.00, 301.00, 10.00, 15, ABplpppapap
708, 711, 708, -1, 278.00, 179.00, 17.00, 13, ABalaappapa
710, 713, 710, -1, 104.00, 290.00, 13.00, 13, Caapaa
711, 714, 711, -1, 258.00, 327.00, 17.00, 16, ABplppaaaap
712, 715, 712, -1, 216.00, 257.00, 15.00, 15, ABplpappaap
713, 716, 713, -1, 227.00, 221.00, 26.00, 13, ABaraapppaa
714, 710, 714, -1, 320.00, 267.00, 18.00, 13, ABalppaaapa
716, 718, 716, -1, 289.00, 251.00, 26.00, 13, ABalpaapaap
717, 719, 717, -1, 298.00, 229.00, 18.00, 13, ABalpaappap
718, 720, 718, -1, 334.00, 238.00, 22.00, 13, ABalapaaapa
719, 721, 720, -1, 285.00, 184.00, 21.00, 13, ABalaappppa
720, 722, 721, -1, 294.00, 186.00, 16.00, 11, ABalaappapp
721, 723, 723, -1, 306.00, 181.00, 17.00, 13, ABalaaapprl
722, 724, 725, -1, 329.00, 266.00, 29.00, 13, ABalapapppa
723, 90, 722, -1, 319.00, 192.00, 21.00, 13, ABalaaapplr
724, 725, 724, -1, 331.00, 231.00, 30.00, 11, ABalapapapp
725, 726, 726, -1, 294.00, 184.00, 29.00, 13, ABalapppppp
726, 727, 727, -1, 307.00, 259.00, 17.00, 13, ABalppappap
727, 728, 728, -1, 348.00, 280.00, 23.71, 14, ABplaaappa
728, 729, 729, -1, 310.00, 214.00, 31.18, 10, ABalapppapa
730, 731, 731, -1, 274.00, 198.00, 13.00, 13, ABalaapappp
731, 732, 732, -1, 322.00, 231.00, 25.33, 15, ABalapappaa
732, 733, 733, -1, 280.00, 230.00, 18.00, 13, ABarapapapa
733, 717, 398, -1, 280.00, 269.00, 28.50, 15, ABalpaapapa
