1, 1, 1, -1, 295.00, 192.00, 13.00, 31, ABaraa
2, 2, 2, -1, 243.00, 196.00, 11.00, 29, ABarap
3, 3, 3, -1, 252.00, 175.00, 26.00, 35, ABarpa
4, 4, 4, -1, 200.00, 200.00, 27.00, 29, ABarpp
5, 5, 5, -1, 318.00, 190.00, 24.00, 33, ABalap
6, 6, 6, -1, 352.00, 200.00, 17.00, 31, ABalaa
7, 7, 7, -1, 212.00, 326.00, 28.00, 27, ABplpp
8, 8, 8, -1, 259.00, 318.00, 25.00, 33, ABplpa
9, 9, 9, -1, 308.00, 222.00, 30.00, 27, ABplaa
10, 10, 10, -1, 251.00, 246.00, 29.00, 29, ABplap
12, 12, 12, -1, 156.00, 246.00, 12.00, 31, ABprpa
13, 13, 13, -1, 104.00, 260.00, 15.00, 31, ABprpp
14, 14, 14, -1, 197.00, 191.00, 17.00, 31, ABpraa
15, 15, 15, -1, 146.00, 210.00, 20.00, 31, ABprap
16, 16, 16, -1, 203.00, 259.00, 10.00, 29, MSpp
17, 17, 17, -1, 258.00, 268.00, 12.00, 31, MSpa
18, 18, 18, -1, 280.00, 309.00, 17.00, 29, MSap
19, 19, 19, -1, 306.00, 255.00, 12.00, 33, MSaa
20, 20, 20, -1, 204.00, 292.00, 18.00, 35, Ea
21, 21, 21, -1, 136.00, 306.00, 19.00, 31, Ep
22, 22, 22, -1, 162.00, 301.00, 29.00, 27, Cap
23, 23, 23, -1, 198.00, 254.00, 28.00, 27, Caa
24, 24, 24, -1, 124.00, 249.00, 30.00, 29, Cpa
25, 25, 25, -1, 81.00, 300.00, 24.00, 29, Cpp
26, 26, 26, -1, 93.00, 337.00, 18.00, 29, D
27, 27, 27, -1, 132.00, 362.00, 20.00, 27, P4
29, 29, 29, -1, 311.00, 286.00, 27.00, 31, ABalpp
30, 30, 30, -1, 348.00, 251.00, 19.00, 31, ABalpa
