1, 1, 1, -1, 272.00, 225.00, 13.00, 25, ABaraap
2, 2, 2, -1, 308.00, 183.00, 13.00, 23, ABaraaa
3, 3, 3, -1, 261.00, 171.00, 14.00, 25, ABarapa
4, 4, 4, -1, 218.00, 214.00, 11.00, 25, ABarapp
5, 5, 5, -1, 252.00, 211.00, 22.00, 25, ABarpap
6, 6, 6, -1, 271.00, 166.00, 25.00, 25, ABarpaa
7, 7, 7, -1, 224.00, 179.00, 30.00, 27, ABarppa
8, 8, 8, -1, 187.00, 206.00, 27.00, 25, ABarppp
9, 9, 9, -1, 306.00, 217.00, 22.00, 25, ABalapp
10, 10, 10, -1, 327.00, 175.00, 26.00, 25, ABalapa
11, 11, 11, -1, 332.00, 228.00, 13.00, 23, ABalaap
12, 12, 12, -1, 351.00, 194.00, 17.00, 27, ABalaaa
13, 13, 13, -1, 179.00, 346.00, 22.00, 23, ABplppp
14, 14, 14, -1, 222.00, 321.00, 31.00, 23, ABplppa
15, 15, 15, -1, 222.00, 334.00, 22.00, 25, ABplpap
16, 16, 16, -1, 270.00, 318.00, 29.00, 25, ABplpaa
17, 17, 17, -1, 294.00, 256.00, 28.00, 27, ABplaap
18, 18, 18, -1, 306.00, 198.00, 32.00, 25, ABplaaa
19, 19, 19, -1, 237.00, 276.00, 28.00, 29, ABplapp
20, 20, 20, -1, 267.00, 224.00, 30.00, 25, ABplapa
22, 22, 22, -1, 134.00, 261.00, 12.00, 23, ABprpap
23, 23, 23, -1, 145.00, 213.00, 14.00, 23, ABprpaa
24, 24, 24, -1, 98.00, 293.00, 13.00, 25, ABprppp
25, 25, 25, -1, 93.00, 243.00, 14.00, 23, ABprppa
26, 26, 26, -1, 179.00, 203.00, 14.00, 25, ABpraap
27, 27, 27, -1, 218.00, 166.00, 19.00, 25, ABpraaa
28, 28, 28, -1, 115.00, 233.00, 21.00, 27, ABprapp
29, 29, 29, -1, 158.00, 208.00, 24.00, 25, ABprapa
30, 30, 30, -1, 180.00, 249.00, 11.00, 29, MSpp
31, 31, 31, -1, 240.00, 264.00, 13.00, 31, MSpa
32, 32, 32, -1, 258.00, 313.00, 16.00, 31, MSap
33, 33, 33, -1, 295.00, 269.00, 13.00, 33, MSaa
34, 34, 34, -1, 213.00, 290.00, 22.00, 23, Eal
35, 35, 35, -1, 152.00, 306.00, 24.00, 19, Epl
36, 36, 36, -1, 166.00, 323.00, 32.00, 31, Cap
37, 37, 37, -1, 193.00, 253.00, 29.00, 27, Caa
38, 38, 38, -1, 125.00, 265.00, 29.00, 27, Cpa
39, 39, 39, -1, 84.00, 301.00, 26.00, 29, Cpp
40, 40, 40, -1, 104.00, 338.00, 19.00, 31, D
41, 41, 41, -1, 149.00, 350.00, 17.00, 27, P4
43, 43, 43, -1, 290.00, 306.00, 23.00, 27, ABalppp
44, 44, 44, -1, 339.00, 276.00, 29.00, 25, ABalppa
45, 45, 45, -1, 339.00, 276.00, 17.00, 25, ABalpap
46, 46, 46, -1, 362.00, 230.00, 24.00, 21, ABalpaa
47, 35, 47, -1, 137.00, 283.00, 18.00, 21, Epr
48, 34, 48, -1, 201.00, 268.00, 20.00, 21, Ear
