1, 1, 1, -1, 279.00, 206.00, 11.00, 25, ABaraap
2, 2, 2, -1, 307.00, 172.00, 16.00, 27, ABaraaa
3, 3, 3, -1, 251.00, 167.00, 16.00, 27, ABarapa
4, 4, 4, -1, 220.00, 207.00, 12.00, 27, ABarapp
5, 5, 5, -1, 240.00, 212.00, 21.00, 27, ABarpap
6, 6, 6, -1, 263.00, 168.00, 27.00, 27, ABarpaa
7, 7, 7, -1, 230.00, 201.00, 28.00, 27, ABarppa
8, 8, 8, -1, 184.00, 211.00, 26.00, 25, ABarppp
9, 9, 9, -1, 302.00, 217.00, 23.00, 27, ABalapp
10, 10, 10, -1, 314.00, 175.00, 27.00, 27, ABalapa
11, 11, 11, -1, 350.00, 213.00, 14.00, 25, ABalaap
12, 12, 12, -1, 349.00, 183.00, 23.00, 27, ABalaaa
13, 13, 13, -1, 186.00, 352.00, 22.00, 25, ABplppp
14, 14, 14, -1, 227.00, 328.00, 31.00, 25, ABplppa
15, 15, 15, -1, 228.00, 343.00, 19.00, 25, ABplpap
16, 16, 16, -1, 276.00, 319.00, 28.00, 25, ABplpaa
17, 17, 17, -1, 295.00, 257.00, 28.00, 27, ABplaap
18, 18, 18, -1, 297.00, 206.00, 32.00, 25, ABplaaa
19, 19, 19, -1, 241.00, 285.00, 28.00, 29, ABplapp
20, 20, 20, -1, 262.00, 229.00, 30.00, 27, ABplapa
22, 22, 22, -1, 119.00, 254.00, 12.00, 25, ABprpap
23, 23, 23, -1, 143.00, 205.00, 15.00, 25, ABprpaa
24, 24, 24, -1, 82.00, 284.00, 16.00, 25, ABprppp
25, 25, 25, -1, 95.00, 236.00, 17.00, 25, ABprppa
26, 26, 26, -1, 179.00, 200.00, 16.00, 27, ABpraap
27, 27, 27, -1, 213.00, 171.00, 23.00, 25, ABpraaa
28, 28, 28, -1, 112.00, 238.00, 23.00, 27, ABprapp
29, 29, 29, -1, 152.00, 203.00, 25.00, 27, ABprapa
30, 30, 30, -1, 171.00, 267.00, 12.00, 19, MSppp
31, 31, 31, -1, 182.00, 232.00, 12.00, 17, MSppa
32, 32, 32, -1, 224.00, 272.00, 11.00, 23, MSpap
33, 33, 33, -1, 254.00, 238.00, 13.00, 23, MSpaa
34, 34, 34, 35, 265.00, 294.00, 17.00, 21, MSap
35, 35, 36, -1, 319.00, 240.00, 13.00, 23, MSaaa
36, 36, 37, -1, 284.00, 262.00, 13.00, 21, MSaap
37, 37, 38, -1, 221.00, 309.00, 22.00, 25, Eal
38, 38, 39, -1, 166.00, 321.00, 25.00, 29, Epl
39, 39, 40, -1, 168.00, 322.00, 31.00, 29, Cap
40, 40, 41, -1, 190.00, 256.00, 29.00, 25, Caa
41, 41, 42, -1, 129.00, 274.00, 29.00, 27, Cpa
42, 42, 43, -1, 98.00, 315.00, 25.00, 29, Cpp
43, 43, 44, -1, 116.00, 361.00, 21.00, 23, Da
44, 44, 45, -1, 88.00, 325.00, 14.00, 23, Dp
45, 45, 46, -1, 140.00, 335.00, 15.00, 29, P4
47, 47, 48, -1, 303.00, 303.00, 23.00, 27, ABalppp
48, 48, 49, -1, 338.00, 269.00, 27.00, 25, ABalppa
49, 49, 50, -1, 338.00, 269.00, 18.00, 29, ABalpap
50, 50, 51, -1, 361.00, 229.00, 23.00, 25, ABalpaa
51, 51, 52, -1, 129.00, 271.00, 18.00, 29, Epr
52, 52, 53, -1, 188.00, 248.00, 20.00, 27, Ear
