1, 1, 1, -1, 274.00, 198.00, 12.00, 25, ABaraap
2, 2, 2, -1, 297.00, 171.00, 16.00, 27, ABaraaa
3, 3, 3, -1, 241.00, 167.00, 17.00, 29, ABarapa
4, 4, 4, -1, 209.00, 200.00, 11.00, 27, ABarapp
5, 5, 5, -1, 239.00, 212.00, 19.00, 27, ABarpap
6, 6, 6, -1, 256.00, 174.00, 28.00, 27, ABarpaa
7, 7, 7, -1, 229.00, 205.00, 30.00, 27, ABarppa
8, 8, 8, -1, 184.00, 217.00, 23.00, 27, ABarppp
9, 9, 9, -1, 288.00, 211.00, 23.00, 27, ABalapp
10, 10, 10, -1, 310.00, 171.00, 27.00, 29, ABalapa
11, 11, 11, -1, 328.00, 207.00, 17.00, 25, ABalaap
12, 12, 12, -1, 344.00, 182.00, 21.00, 27, ABalaaa
13, 13, 13, -1, 203.00, 346.00, 25.00, 25, ABplppp
14, 14, 14, -1, 240.00, 326.00, 30.00, 25, ABplppa
15, 15, 15, -1, 240.00, 334.00, 19.00, 27, ABplpap
16, 16, 16, -1, 288.00, 320.00, 24.00, 27, ABplpaa
17, 17, 17, -1, 301.00, 258.00, 31.00, 27, ABplaap
18, 18, 18, -1, 321.00, 210.00, 31.00, 27, ABplaaa
19, 19, 19, -1, 246.00, 293.00, 27.00, 27, ABplapp
20, 20, 20, -1, 262.00, 239.00, 30.00, 27, ABplapa
21, 21, 21, -1, 117.00, 257.00, 11.00, 27, ABprpap
22, 22, 22, -1, 122.00, 214.00, 15.00, 25, ABprpaa
23, 23, 23, -1, 96.00, 294.00, 13.00, 27, ABprppp
24, 24, 24, -1, 82.00, 254.00, 17.00, 27, ABprppa
25, 25, 25, -1, 164.00, 197.00, 16.00, 27, ABpraap
26, 26, 26, -1, 204.00, 172.00, 24.00, 27, ABpraaa
27, 27, 27, -1, 111.00, 252.00, 21.00, 27, ABprapp
28, 28, 28, -1, 141.00, 210.00, 26.00, 25, ABprapa
29, 29, 29, -1, 162.00, 282.00, 10.00, 27, MSppp
30, 30, 30, -1, 182.00, 228.00, 11.00, 25, MSppa
31, 31, 31, -1, 219.00, 276.00, 10.00, 27, MSpap
32, 32, 32, -1, 253.00, 228.00, 12.00, 25, MSpaa
33, 33, 33, -1, 243.00, 308.00, 12.00, 25, MSapp
34, 34, 34, -1, 284.00, 292.00, 15.00, 25, MSapa
35, 35, 35, -1, 313.00, 230.00, 12.00, 27, MSaaa
36, 36, 36, -1, 280.00, 265.00, 11.00, 27, MSaap
37, 37, 37, -1, 219.00, 295.00, 18.00, 29, Eal
38, 38, 38, -1, 166.00, 310.00, 22.00, 31, Epl
39, 39, 39, -1, 180.00, 322.00, 30.00, 29, Cap
40, 40, 40, 41, 202.00, 259.00, 28.00, 21, Caa
41, 41, 42, -1, 137.00, 285.00, 29.00, 19, Cpap
42, 41, 43, -1, 137.00, 248.00, 31.00, 21, Cpaa
43, 42, 44, -1, 108.00, 323.00, 27.00, 29, Cpp
44, 43, 45, -1, 151.00, 359.00, 22.00, 25, Da
45, 44, 46, -1, 108.00, 337.00, 15.00, 25, Dp
46, 45, 47, -1, 154.00, 340.00, 15.00, 27, P4
48, 47, 49, -1, 298.00, 283.00, 22.00, 29, ABalppp
49, 48, 50, -1, 347.00, 264.00, 24.00, 25, ABalppa
50, 49, 51, -1, 338.00, 263.00, 16.00, 27, ABalpap
51, 50, 52, -1, 362.00, 226.00, 21.00, 25, ABalpaa
52, 51, 53, -1, 131.00, 295.00, 18.00, 29, Epr
53, 52, 54, -1, 185.00, 257.00, 17.00, 29, Ear
