1, 1, 1, -1, 281.00, 206.00, 13.00, 25, ABaraap
2, 2, 2, -1, 294.00, 177.00, 17.00, 25, ABaraaa
3, 3, 3, -1, 238.00, 173.00, 15.00, 21, ABarapa
4, 4, 4, -1, 207.00, 208.00, 12.00, 23, ABarapp
5, 5, 5, -1, 238.00, 210.00, 20.00, 21, ABarpap
6, 6, 6, 7, 255.00, 171.00, 25.00, 21, ABarpaa
7, 7, 8, 9, 223.00, 201.00, 29.00, 23, ABarppa
8, 8, 10, -1, 182.00, 220.00, 23.00, 23, ABarppp
9, 9, 11, -1, 281.00, 215.00, 25.00, 27, ABalapp
10, 10, 12, -1, 303.00, 176.00, 25.00, 23, ABalapa
11, 11, 13, -1, 321.00, 218.00, 19.00, 25, ABalaap
12, 12, 14, -1, 341.00, 182.00, 21.00, 25, ABalaaa
13, 13, 15, 16, 206.00, 341.00, 24.00, 21, ABplppp
14, 14, 17, -1, 242.00, 326.00, 28.00, 23, ABplppa
15, 15, 18, -1, 239.00, 329.00, 19.00, 25, ABplpap
16, 16, 19, -1, 285.00, 318.00, 24.00, 25, ABplpaa
17, 17, 20, -1, 293.00, 264.00, 30.00, 21, ABplaapp
18, 18, 21, -1, 326.00, 244.00, 31.00, 19, ABplaapa
19, 19, 22, -1, 320.00, 207.00, 30.00, 19, ABplaaa
20, 20, 23, 24, 243.00, 284.00, 28.00, 23, ABplapp
21, 21, 25, -1, 278.00, 224.00, 32.00, 19, ABplapaa
22, 21, 26, -1, 252.00, 238.00, 31.00, 19, ABplapap
23, 22, 27, -1, 113.00, 262.00, 12.00, 23, ABprpap
24, 23, 28, -1, 118.00, 221.00, 15.00, 25, ABprpaa
25, 24, 29, -1, 99.00, 305.00, 15.00, 25, ABprppp
26, 25, 30, -1, 78.00, 261.00, 18.00, 25, ABprppa
27, 26, 31, -1, 164.00, 191.00, 15.00, 19, ABpraapa
28, 26, 32, -1, 162.00, 210.00, 18.00, 19, ABpraapp
29, 27, 33, -1, 198.00, 176.00, 21.00, 25, ABpraaa
30, 28, 34, 35, 105.00, 263.00, 24.00, 21, ABprapp
31, 29, 36, -1, 137.00, 214.00, 25.00, 25, ABprapa
32, 30, 37, -1, 155.00, 279.00, 10.00, 25, MSppp
33, 31, 38, -1, 178.00, 235.00, 11.00, 25, MSppa
34, 32, 39, -1, 221.00, 276.00, 11.00, 27, MSpap
35, 33, 40, -1, 252.00, 239.00, 13.00, 25, MSpaa
36, 34, 41, -1, 238.00, 308.00, 11.00, 25, MSapp
37, 35, 42, -1, 282.00, 297.00, 14.00, 27, MSapa
38, 36, 43, -1, 317.00, 232.00, 12.00, 29, MSaaa
39, 37, 44, -1, 282.00, 267.00, 11.00, 27, MSaap
40, 38, 45, -1, 221.00, 282.00, 19.00, 25, Eal
41, 39, 46, -1, 166.00, 313.00, 21.00, 29, Epl
42, 40, 47, -1, 183.00, 332.00, 29.00, 21, Cap
43, 41, 48, -1, 204.00, 241.00, 31.00, 27, Caaa
44, 42, 49, -1, 178.00, 278.00, 29.00, 21, Caap
45, 43, 50, -1, 129.00, 306.00, 31.00, 25, Cpap
46, 44, 51, -1, 138.00, 247.00, 32.00, 25, Cpaa
47, 45, 52, -1, 85.00, 309.00, 26.00, 21, Cppa
48, 46, 53, -1, 113.00, 338.00, 27.00, 21, Cppp
49, 47, 54, -1, 154.00, 357.00, 21.00, 25, Da
50, 48, 55, -1, 118.00, 338.00, 17.00, 25, Dp
51, 49, 56, -1, 161.00, 331.00, 14.00, 27, P4
53, 51, 58, 59, 306.00, 281.00, 23.00, 23, ABalppp
54, 52, 60, -1, 345.00, 262.00, 24.00, 23, ABalppa
55, 53, 61, -1, 353.00, 251.00, 15.00, 19, ABalpapa
56, 53, 62, -1, 326.00, 270.00, 15.00, 19, ABalpapp
57, 54, 63, -1, 358.00, 222.00, 21.00, 27, ABalpaa
58, 55, 64, -1, 137.00, 288.00, 19.00, 31, Epr
59, 56, 65, -1, 184.00, 259.00, 18.00, 29, Ear
