1, 1, 1, 2, 278.00, 206.00, 13.00, 19, ABaraap
2, 2, 3, -1, 294.00, 181.00, 16.00, 25, ABaraaa
3, 3, 4, 5, 245.00, 178.00, 15.00, 24, ABarapa
4, 4, 6, 7, 208.00, 207.00, 13.00, 19, ABarapp
5, 5, 8, 9, 241.00, 211.00, 19.00, 21, ABarpap
6, 6, 10, -1, 258.00, 174.00, 29.00, 19, ABarpaap
7, 6, 11, -1, 264.00, 161.00, 23.00, 17, ABarpaaa
8, 7, 12, -1, 229.00, 189.00, 30.00, 17, ABarppaa
9, 7, 13, -1, 221.00, 210.00, 29.00, 17, ABarppap
10, 8, 14, 15, 184.00, 214.00, 24.00, 23, ABarppp
11, 9, 16, -1, 282.00, 220.00, 23.00, 21, ABalapp
12, 10, 17, 18, 304.00, 171.00, 24.00, 23, ABalapa
13, 11, 19, -1, 318.00, 222.00, 20.00, 27, ABalaap
14, 12, 20, -1, 342.00, 183.00, 20.00, 27, ABalaaa
15, 13, 21, -1, 190.00, 346.00, 22.00, 19, ABplpppp
16, 13, 22, -1, 214.00, 345.00, 25.00, 19, ABplpppa
17, 14, 23, -1, 240.00, 326.00, 29.00, 21, ABplppa
18, 15, 24, 25, 244.00, 330.00, 20.00, 25, ABplpap
19, 16, 26, -1, 280.00, 320.00, 24.00, 23, ABplpaa
20, 17, 27, -1, 290.00, 261.00, 30.00, 23, ABplaapp
21, 18, 28, -1, 326.00, 244.00, 32.00, 21, ABplaapa
22, 19, 29, 30, 326.00, 207.00, 32.00, 21, ABplaaa
23, 20, 31, -1, 225.00, 289.00, 29.00, 17, ABplappp
24, 20, 32, -1, 254.00, 282.00, 31.00, 17, ABplappa
25, 21, 33, -1, 285.00, 218.00, 33.00, 17, ABplapaa
26, 22, 34, -1, 252.00, 238.00, 31.00, 19, ABplapap
27, 23, 35, 36, 113.00, 263.00, 12.00, 21, ABprpap
28, 24, 37, -1, 120.00, 219.00, 15.00, 25, ABprpaa
29, 25, 38, -1, 97.00, 300.00, 15.00, 23, ABprppp
30, 26, 39, -1, 81.00, 261.00, 17.00, 25, ABprppa
31, 27, 40, -1, 166.00, 193.00, 14.00, 17, ABpraapa
32, 28, 41, -1, 160.00, 220.00, 17.00, 19, ABpraapp
33, 29, 42, -1, 197.00, 176.00, 21.00, 25, ABpraaa
34, 30, 43, -1, 102.00, 250.00, 23.00, 19, ABprappa
35, 30, 44, -1, 104.00, 273.00, 25.00, 19, ABprappp
36, 31, 45, 46, 139.00, 207.00, 25.00, 25, ABprapa
37, 32, 47, -1, 155.00, 278.00, 10.00, 25, MSppp
38, 33, 48, -1, 181.00, 235.00, 11.00, 25, MSppa
39, 34, 49, -1, 221.00, 278.00, 11.00, 27, MSpap
40, 35, 50, -1, 253.00, 242.00, 13.00, 25, MSpaa
41, 36, 51, -1, 237.00, 311.00, 11.00, 25, MSapp
42, 37, 52, -1, 280.00, 299.00, 14.00, 27, MSapa
43, 38, 53, -1, 319.00, 236.00, 12.00, 27, MSaaa
44, 39, 54, -1, 281.00, 267.00, 12.00, 27, MSaap
45, 40, 55, -1, 220.00, 283.00, 19.00, 25, Eal
46, 41, 56, -1, 165.00, 312.00, 21.00, 29, Epl
47, 42, 57, 58, 175.00, 326.00, 30.00, 23, Cap
48, 43, 59, -1, 204.00, 239.00, 31.00, 23, Caaa
49, 44, 60, -1, 174.00, 281.00, 29.00, 23, Caap
50, 45, 61, -1, 124.00, 307.00, 33.00, 25, Cpap
51, 46, 62, -1, 139.00, 244.00, 32.00, 25, Cpaa
52, 47, 63, -1, 83.00, 307.00, 26.00, 25, Cppa
53, 48, 64, -1, 114.00, 337.00, 26.00, 23, Cppp
54, 49, 65, -1, 153.00, 358.00, 19.00, 23, Da
55, 50, 66, -1, 120.00, 336.00, 17.00, 25, Dp
56, 51, 67, -1, 161.00, 330.00, 14.00, 27, P4
58, 53, 69, -1, 290.00, 284.00, 22.00, 17, ABalpppp
59, 53, 70, -1, 316.00, 276.00, 23.00, 17, ABalpppa
60, 54, 71, 72, 346.00, 260.00, 25.00, 23, ABalppa
61, 55, 73, -1, 355.00, 254.00, 16.00, 19, ABalpapa
62, 56, 74, -1, 324.00, 276.00, 16.00, 19, ABalpapp
63, 57, 75, -1, 356.00, 226.00, 20.00, 21, ABalpaa
64, 58, 76, -1, 136.00, 284.00, 20.00, 31, Epr
65, 59, 77, -1, 185.00, 262.00, 17.00, 29, Ear
