1 22 25 -1 202 159 -19 46 "Caaaa"
2 56 63 -1 40 69 -4 50 "Eara"
3 78 4 -1 108 55 3 46 "Earp"
4 87 83 -1 36 21 5 34 "MSppapa"
5 111 101 -1 20 113 9 42 "MSaapaa"
6 104 108 109 210 49 10 38 "Dpp"
7 122 116 -1 -40 107 12 38 "ABaraapap"
8 8 185 -1 42 163 29 42 "ABplpappa"
9 15 11 -1 -74 153 -21 38 "ABplaaaaa"
10 10 13 -1 -86 67 -20 38 "ABarpaaaa"
11 9 17 -1 16 153 -20 38 "ABplaaapa"
12 14 18 -1 66 115 -20 38 "ABarppaaa"
13 11 10 -1 -52 89 -19 34 "ABarpaaap"
14 12 14 -1 -44 37 -19 38 "ABarpapaa"
15 13 12 -1 -26 135 -19 34 "ABplaaaap"
16 18 16 -1 0 43 -19 38 "ABarpapap"
17 17 22 -1 118 21 -19 38 "ABarpppaa"
18 19 15 -1 -2 201 -18 42 "ABplaapap"
19 20 20 -1 20 91 -18 38 "ABarpaapa"
20 16 21 -1 44 19 -18 38 "ABarpappa"
21 21 1 -1 192 77 -18 42 "Cpaaa"
22 23 23 -1 74 173 -17 42 "ABplaaapp"
23 24 19 -1 92 73 -17 42 "ABarpaapp"
24 25 24 -1 130 151 -17 38 "ABarppaap"
25 26 26 -1 -62 191 -16 38 "ABplaapaa"
26 27 27 -1 56 219 -16 38 "ABplapaaa"
27 28 28 -1 142 195 -16 38 "ABarppapa"
28 30 29 -1 -106 119 -15 38 "ABalapapa"
29 29 30 -1 164 27 -15 34 "ABarpppap"
30 35 2 -1 -62 31 -13 42 "ABalapppa"
31 31 36 -1 102 221 -13 34 "ABplapaap"
32 33 34 -1 248 41 -13 42 "ABarppppp"
33 34 42 -1 280 103 -13 42 "Cpaap"
34 42 32 -1 -42 147 -12 42 "ABalapapp"
35 37 31 -1 82 15 -12 38 "ABarpappp"
36 32 33 -1 162 237 -12 38 "ABplapapa"
37 43 39 -1 22 -23 -11 42 "ABpraapaa"
38 36 37 -1 202 15 -11 38 "ABarppppa"
39 40 40 -1 126 -27 -10 38 "ABprapaaa"
40 38 41 -1 196 201 -10 38 "ABarppapp"
41 41 35 -1 -106 45 -9 38 "ABalappap"
43 39 43 -1 12 27 -8 34 "ABalapppp"
44 55 49 -1 28 135 -8 46 "Eala"
45 44 45 -1 26 243 -8 34 "ABplaappa"
46 47 48 -1 -76 179 -7 38 "ABalppppa"
47 1 52 -1 -20 209 -7 42 "ABalppppp"
48 51 44 -1 76 -31 -7 38 "ABpraapap"
49 48 62 -1 276 177 -7 38 "Caaap"
50 46 55 -1 -132 113 -6 38 "ABalapaaa"
51 50 47 -1 -124 149 -6 38 "ABalapaap"
52 54 51 -1 -62 99 -6 38 "MSaaaap"
53 3 46 -1 144 135 -6 46 "Epla"
54 2 53 -1 178 -23 -6 34 "ABprapaap"
55 59 61 -1 260 1 -6 38 "ABprapapa"
56 53 54 -1 -60 -5 -5 42 "ABalaappp"
57 62 66 -1 234 93 -5 46 "Eprp"
58 49 50 -1 -134 57 -4 38 "ABalappaa"
59 57 57 -1 46 183 -4 34 "MSapapp"
60 52 3 -1 80 251 -4 42 "ABplaappp"
61 5 60 -1 232 149 -4 50 "Eplp"
62 60 56 -1 -26 41 -3 42 "MSpaaap"
63 4 59 -1 162 63 -3 50 "Epra"
64 65 64 -1 120 179 -2 34 "MSapppp"
65 58 71 -1 226 223 -2 38 "ABplapapp"
66 61 65 -1 -4 -17 -1 38 "ABpraaapa"
67 63 72 -1 -104 187 0 38 "ABalpppaa"
68 67 67 -1 -62 217 0 38 "ABalpppap"
69 6 69 -1 82 137 0 46 "Ealp"
70 64 58 -1 116 -53 0 34 "ABpraappa"
71 66 70 -1 182 245 0 38 "ABplappap"
72 82 77 -1 -4 107 1 34 "MSaaapp"
73 75 68 -1 64 -29 1 42 "ABpraaapp"
74 76 85 -1 292 43 1 38 "ABprapapp"
75 72 76 -1 -126 23 2 38 "ABalaaapp"
76 74 73 -1 -84 -7 2 38 "ABalaappa"
77 69 74 -1 132 249 2 38 "ABplappaa"
78 70 90 -1 302 163 2 34 "Caapa"
79 71 86 -1 -164 109 3 34 "ABalaaaal"
80 73 75 -1 -158 63 3 38 "ABalaaapa"
81 68 82 -1 -10 239 3 38 "ABplpaapa"
82 81 91 -1 -28 159 4 34 "MSapaap"
83 86 81 -1 -22 65 4 38 "MSpaapa"
84 83 92 -1 2 181 4 38 "MSapapa"
85 91 84 -1 164 -43 4 42 "ABpraappp"
86 80 94 -1 312 107 4 38 "Cpapa"
87 85 80 -1 -82 111 5 42 "MSaaapa"
88 84 87 -1 -80 47 5 38 "MSpaaaa"
89 94 93 -1 32 59 5 30 "MSpaapp"
90 7 95 -1 38 239 5 42 "ABplpaapp"
91 89 88 -1 70 191 5 34 "MSapppa"
92 90 78 -1 76 17 5 34 "MSppapp"
93 77 79 -1 -116 83 6 38 "MSaaaaa"
95 97 89 -1 140 19 6 34 "MSppppp"
96 79 5 -1 226 -27 6 38 "ABprappaa"
97 88 100 -1 -42 -29 7 34 "ABpraaaaa"
98 103 98 -1 108 -15 7 34 "MSppppa"
99 99 104 -1 274 1 7 38 "ABprappap"
100 93 97 -1 -6 -39 8 38 "ABpraaaap"
101 102 102 -1 38 -31 8 34 "ABprpaapa"
102 92 103 -1 152 177 8 30 "Dapa"
103 100 96 -1 -88 205 9 34 "ABalppaap"
104 101 99 -1 -78 159 9 30 "MSapaaa"
105 96 110 -1 -42 213 9 38 "ABplpaaaa"
106 112 107 -1 124 121 9 42 "Z3"
107 98 111 -1 186 239 9 38 "ABplapppa"
108 105 119 -1 -162 149 10 38 "ABalpaaaa"
109 95 113 -1 -124 195 10 34 "ABalppaaa"
110 106 105 -1 12 23 10 34 "MSppaap"
111 108 106 -1 92 -51 10 38 "ABprpaapp"
112 109 6 -1 214 165 10 34 "Dapp"
113 107 117 -1 0 243 11 38 "ABplpaaap"
114 116 112 -1 -166 79 12 38 "ABalaaaar"
115 121 114 -1 -116 23 12 34 "ABalaapaa"
116 117 115 -1 -36 11 12 34 "MSppaaa"
117 118 121 -1 34 169 12 34 "MSappaa"
118 119 125 -1 98 235 12 38 "ABplppapa"
119 113 122 -1 146 241 12 38 "ABplppapp"
120 110 138 -1 304 169 12 38 "Caapp"
121 123 118 -1 114 179 13 38 "Daa"
122 120 129 -1 228 -23 13 38 "ABprppapp"
123 130 130 -1 272 19 13 38 "ABprapppa"
124 128 131 -1 272 71 13 38 "Cpppa"
125 125 126 -1 -76 1 14 34 "ABalaapap"
126 126 133 -1 44 231 14 34 "ABplppaaa"
127 134 127 -1 58 77 14 38 "MSpapaa"
128 129 123 -1 172 97 14 38 "Z2"
129 124 142 -1 184 -19 14 34 "ABprppapa"
130 114 135 -1 228 237 14 34 "ABplapppp"
131 115 136 -1 234 201 14 38 "Cappa"
132 139 120 -1 -94 81 15 34 "ABaraaaap"
133 132 124 -1 2 71 15 38 "ABaraappp"
134 127 137 -1 266 165 15 34 "Cappp"
135 144 141 -1 -46 65 16 34 "ABaraappa"
136 135 134 -1 62 -49 16 34 "ABprpaaap"
137 148 128 -1 112 37 16 34 "MSpppap"
138 143 139 143 -138 103 17 38 "ABalpaapa"
139 138 140 -1 -100 171 17 38 "ABalpaapp"
140 153 144 -1 -68 117 17 38 "ABaraapaa"
141 133 132 -1 18 -19 17 38 "ABprpaaaa"
142 146 145 -1 54 33 17 34 "MSpppaa"
143 136 153 -1 272 115 17 34 "Cpppp"
144 145 158 -1 12 201 18 38 "ABplpapaa"
145 147 150 -1 78 157 18 30 "MSappap"
146 149 7 -1 160 39 18 42 "Dpa"
147 141 152 -1 182 231 18 38 "ABplpppap"
148 142 148 -1 -140 59 19 38 "ABaraaaaa"
149 131 161 -1 -138 153 19 34 "ABalpaaap"
150 140 156 -1 -22 213 19 38 "ABalppapp"
151 151 159 -1 72 237 19 42 "ABplppaap"
152 155 146 -1 110 -39 19 34 "ABprppaaa"
153 152 160 -1 126 243 19 38 "ABplpppaa"
154 158 147 -1 230 109 19 34 "Cppap"
155 137 154 -1 310 119 19 38 "Cpapp"
156 150 155 -1 -66 199 20 34 "ABalppapa"
157 154 149 -1 -4 131 20 34 "ABalpappp"
158 159 194 -1 62 123 20 34 "MSaapap"
159 162 151 -1 110 81 20 34 "MSpapap"
160 160 157 -1 150 -31 20 34 "ABprppaap"
161 156 162 -1 174 177 20 38 "Capaa"
162 165 168 -1 284 55 21 38 "ABprapppp"
163 166 171 -1 -44 171 22 34 "ABalpapap"
164 161 164 -1 76 -9 22 34 "ABprpapaa"
165 164 8 -1 218 61 22 38 "Cppaa"
166 163 169 -1 220 -21 22 42 "ABprpppaa"
167 169 163 -1 -94 67 23 38 "ABaraaapa"
168 170 170 -1 -54 21 23 34 "ABaraaapp"
169 167 173 -1 14 67 23 38 "ABarapapp"
170 174 174 -1 26 -11 23 38 "ABarapppp"
171 168 179 -1 116 5 23 34 "ABprpapap"
172 176 175 -1 130 193 23 38 "ABplppppa"
173 157 167 -1 230 157 23 38 "Capap"
174 173 177 -1 -86 141 24 38 "ABalpapaa"
175 177 166 -1 156 99 24 38 "MSpappp"
176 171 172 -1 -12 7 25 38 "ABarapppa"
177 180 165 -1 124 137 25 34 "MSaappp"
178 172 180 -1 258 27 25 38 "ABprpppap"
179 175 182 -1 36 213 26 38 "ABplpapap"
180 178 176 -1 196 21 26 34 "ABprppppa"
181 183 183 -1 -26 129 27 38 "ABalpappa"
182 179 181 -1 -28 75 27 38 "ABarapaap"
183 181 178 -1 98 77 27 34 "MSpappa"
184 184 189 -1 60 13 28 42 "ABarappap"
185 186 9 -1 70 121 28 30 "MSaappa"
186 188 187 -1 172 157 28 42 "ABplppppp"
187 182 188 -1 -64 83 29 38 "ABarapaaa"
188 185 184 -1 20 29 29 34 "ABarappaa"
189 190 190 -1 100 177 29 38 "ABplpappp"
190 187 186 -1 106 39 29 34 "ABprpappa"
192 191 192 -1 156 39 30 38 "ABprpappp"
193 192 197 -1 214 55 30 42 "ABprppppp"
196 189 198 -1 32 91 27 34 "ABarapapa"
