1 47 48 -1 -44 71 -22 26 "ABarpaaapa"
2 58 68 -1 34 93 -19 34 "ABarpaapap"
3 2 65 -1 170 19 -19 34 "Cpaaaa"
4 82 91 -1 214 7 -14 38 "Cpaaap"
5 88 96 -1 22 161 -12 34 "MSapappp"
6 97 98 -1 -104 161 -13 34 "ABalapappa"
7 4 101 -1 38 -31 -11 34 "ABarpapppa"
8 87 100 -1 -8 113 -12 34 "MSaaaapp"
9 103 110 -1 102 105 -8 38 "Ealap"
10 8 118 -1 204 153 -8 30 "Dappp"
11 127 139 -1 -138 45 -5 34 "ABalapppaa"
12 147 131 -1 120 251 -5 34 "ABplaapppp"
13 119 136 -1 142 -57 -6 42 "ABarppppaa"
14 146 154 -1 90 11 -4 30 "MSpppppp"
15 13 9 -1 94 57 -3 38 "Earap"
16 134 11 -1 44 69 -3 38 "Earaa"
17 151 171 -1 180 13 0 30 "Dpppp"
18 158 12 -1 176 61 -1 38 "Eprap"
19 188 209 -1 -64 119 5 34 "ABaraapaap"
20 199 24 -1 194 3 6 38 "Cpppaa"
21 197 424 -1 82 -3 5 34 "Dpaa"
22 214 225 -1 80 55 7 38 "Earpa"
23 235 27 -1 10 19 11 34 "MSppapap"
24 232 261 -1 -44 135 12 34 "ABalpaapapp"
25 32 28 -1 156 83 14 42 "Z2"
26 30 243 -1 -8 71 12 34 "ABaraapppa"
27 297 288 -1 128 143 16 54 "MSaappa"
28 252 271 -1 272 -5 11 30 "ABprapapap"
29 244 265 -1 108 5 13 34 "Dpap"
30 268 277 -1 168 17 14 30 "Cppaaa"
31 280 293 -1 -28 211 17 34 "ABalppappa"
32 288 31 -1 206 23 15 38 "Cppapa"
33 307 290 -1 242 147 17 30 "Capppp"
34 325 318 -1 78 203 20 30 "ABplpapapa"
35 311 32 -1 -76 183 20 30 "ABalpaappp"
36 301 302 -1 50 63 20 30 "MSpppaaa"
37 323 314 -1 8 -11 20 38 "ABprpaaapa"
38 49 49 -1 -30 183 -23 30 "ABplaaapaa"
39 53 50 -1 -104 155 -22 34 "ABplaapaap"
40 45 47 -1 -90 121 -22 30 "ABplaaaaaa"
41 61 55 -1 170 163 -22 34 "ABarppaapp"
42 46 56 -1 -82 87 -21 30 "ABarpaaaap"
43 48 52 -1 -38 109 -21 34 "ABplaaaapa"
44 56 57 -1 -2 127 -21 30 "ABplaaaapp"
45 50 54 -1 70 133 -21 30 "ABarppaaap"
46 55 62 -1 -6 75 -20 30 "ABarpaapaa"
47 57 53 -1 30 179 -20 34 "ABplaaappa"
48 59 63 -1 102 57 -20 38 "ABarpaappp"
49 60 59 -1 106 165 -20 34 "ABarppaaaa"
50 51 64 -1 132 103 -20 38 "ABarppaapa"
51 63 60 -1 142 197 -20 30 "ABarppapaa"
52 64 71 -1 -74 193 -19 34 "ABplaapaaa"
53 54 1 -1 -50 135 -19 34 "ABplaaaaap"
54 71 67 -1 -26 43 -19 30 "ABarpapapa"
55 62 58 -1 60 175 -19 34 "ABplaaappp"
56 66 69 -1 64 67 -19 38 "ABarpaappa"
57 52 61 -1 198 109 -19 38 "Caaaaa"
58 70 66 -1 -92 33 -18 34 "ABarpapaaa"
59 65 72 -1 -2 181 -18 30 "ABplaaapap"
60 72 73 -1 134 3 -18 34 "ABarpppapa"
61 68 74 -1 -114 75 -17 34 "ABarpaaaaa"
62 75 80 -1 12 29 -17 30 "ABarpapapp"
63 73 70 -1 180 209 -17 34 "ABarppapap"
64 76 3 -1 228 71 -17 38 "Caaaap"
65 1 79 -1 -66 65 -16 30 "ABarpaaapp"
66 3 2 -1 -24 205 -16 38 "ABplaapapp"
67 74 76 -1 -20 -3 -16 30 "ABarpappaa"
68 79 77 -1 76 7 -16 30 "ABarpppaaa"
69 81 85 -1 124 233 -16 30 "ABplapaapa"
70 69 78 -1 -106 121 -15 34 "ABalapapap"
71 44 432 -1 -50 157 -15 30 "ABalapappp"
72 77 81 -1 22 217 -15 30 "ABalppppppp"
73 78 83 -1 72 201 -15 34 "ABplapaaaa"
74 410 84 -1 104 203 -15 34 "ABplapaaap"
75 80 86 -1 238 175 -15 30 "ABarppappa"
76 84 87 -1 -128 109 -14 30 "ABalapapaa"
77 89 90 -1 150 151 -14 34 "Dappa"
78 95 82 -1 214 197 -14 30 "ABplappapa"
79 90 88 -1 -64 29 -13 34 "ABarpapaap"
80 93 97 -1 62 157 -13 30 "MSappppa"
81 5 104 -1 120 -37 -13 34 "ABarpppaap"
82 83 92 -1 266 107 -13 38 "Caaapa"
83 85 93 -1 -102 7 -12 34 "ABpraapaaa"
84 86 94 -1 -60 103 -12 34 "MSaaaapa"
85 91 107 -1 -46 207 -12 38 "ABplaapapa"
86 94 89 -1 74 -31 -12 34 "ABarpapppp"
87 96 112 -1 264 193 -12 34 "ABplapapaa"
88 98 95 -1 8 -27 -11 34 "ABarpappap"
90 99 111 -1 258 35 -11 34 "Cpaapa"
92 106 4 -1 -142 151 -10 34 "ABalapaaap"
93 100 106 -1 -112 55 -10 34 "ABalapppap"
94 101 99 -1 -34 73 -10 30 "MSpaaapa"
95 102 102 -1 80 245 -10 34 "ABplaapppa"
96 104 103 -1 116 155 -10 30 "MSappppp"
97 111 105 -1 156 243 -10 34 "ABplapaapp"
98 112 117 -1 178 -25 -10 30 "ABarpppapp"
99 107 114 -1 -78 195 -9 34 "ABalppppap"
100 108 392 -1 -44 5 -9 34 "ABalappppp"
101 110 108 -1 0 247 -9 30 "ABplaappaa"
102 113 119 -1 -150 111 -8 30 "ABalappaap"
104 109 115 -1 -26 161 -8 34 "MSapappa"
105 92 116 -1 42 251 -8 34 "ABplaappap"
106 7 5 -1 56 105 -8 38 "Ealaa"
108 129 7 -1 -116 179 -7 38 "ABalapaapp"
109 115 122 -1 2 67 -7 34 "MSpaaapp"
110 412 123 -1 138 59 -7 38 "Epraa"
111 125 124 -1 154 185 -7 30 "Dapap"
112 120 132 -1 300 75 -7 34 "Cpaapp"
113 132 141 -1 -14 -23 -6 38 "ABpraapapp"
115 117 130 -1 40 169 -6 30 "MSapppap"
116 124 8 -1 74 191 -6 38 "Daaa"
117 125 134 -1 118 193 -6 30 "Dapaa"
118 118 430 -1 140 101 -6 42 "Eplaa"
119 126 13 -1 190 103 -6 38 "Eplap"
120 138 145 -1 296 173 -6 30 "ABarppappp"
121 123 127 -1 -64 -15 -5 34 "ABpraapaap"
122 131 128 -1 -18 129 -5 34 "MSaaapap"
123 133 129 -1 -8 197 -5 30 "ABalppppppa"
124 145 143 -1 84 -29 -5 34 "ABprapaaaa"
125 139 147 -1 -92 21 -4 34 "ABalappppa"
126 130 148 -1 -58 69 -4 42 "MSpaaaap"
127 122 149 -1 -60 119 -4 38 "MSaaapaa"
128 143 142 -1 2 23 -4 30 "MSppappp"
129 6 133 -1 30 223 -4 34 "ABplpaappa"
130 144 150 -1 38 3 -4 30 "MSpppppa"
131 151 144 -1 132 5 -4 30 "Dpppa"
132 148 137 -1 212 183 -4 38 "Cappaa"
133 10 6 -1 226 229 -4 30 "ABplappapp"
134 149 156 -1 242 -11 -4 34 "ABarpppppa"
135 150 10 -1 264 215 -4 32 "ABplapapap"
136 11 138 -1 -162 139 -3 30 "ABalapaaaa"
137 142 140 -1 -58 231 -3 34 "ABalpppapp"
138 9 152 -1 -38 209 -3 34 "ABalpppppa"
140 153 146 -1 -114 71 -2 30 "MSpaaaaa"
141 12 153 -1 22 99 -2 30 "MSaaappp"
142 152 157 -1 -132 113 -1 30 "MSaaaaaa"
143 159 158 -1 -126 165 -1 34 "ABalapaapa"
144 162 159 -1 -116 211 -1 30 "ABalpppaap"
145 154 151 -1 -96 115 -1 26 "ABaraaaapp"
146 15 14 -1 -12 247 -1 30 "ABplpaapap"
147 173 168 -1 96 201 -1 34 "Daap"
148 157 155 -1 168 241 -1 34 "ABplappaaa"
150 141 162 -1 -122 3 0 34 "ABalappapp"
151 155 160 -1 -86 191 0 30 "ABalppppaa"
152 160 164 -1 -34 -11 0 34 "ABpraapapa"
154 156 165 -1 22 193 0 30 "MSapppaa"
155 17 167 -1 86 135 0 38 "Ealpa"
156 16 169 -1 100 -41 0 34 "ABprapaaap"
157 21 176 -1 -162 103 1 30 "ABalaaapar"
158 163 163 -1 -52 173 1 30 "MSapapaa"
159 164 178 -1 -12 101 1 30 "MSaaappa"
160 169 183 -1 -10 179 1 30 "MSapapap"
161 20 43 -1 126 115 1 42 "Ealpp"
165 168 19 -1 -142 35 2 34 "ABalappapa"
166 165 179 -1 0 149 2 34 "ABaraapapp"
167 170 210 -1 6 55 2 34 "MSpaapap"
168 171 173 -1 38 127 2 34 "MSaapaap"
169 172 17 -1 42 253 2 34 "ABplpaappp"
170 166 197 -1 74 167 2 30 "MSappaap"
171 191 166 -1 82 253 2 26 "ABplppaaap"
173 174 170 -1 176 -49 2 30 "ABarppppap"
174 183 175 -1 198 239 2 34 "ABplappaap"
175 176 189 -1 232 181 2 34 "Cappap"
176 177 18 -1 278 207 2 34 "ABplapappa"
178 187 181 -1 -92 75 3 34 "ABaraappaa"
179 180 192 -1 -64 -19 3 34 "ABpraaapap"
180 19 177 -1 -46 25 3 30 "MSppappa"
181 181 193 -1 -32 135 3 34 "ABaraapapa"
182 182 182 -1 -32 215 3 34 "ABplpaapaa"
183 190 184 -1 30 169 3 26 "MSappaaa"
184 192 188 -1 154 191 3 34 "Capaaa"
185 200 180 -1 200 189 3 34 "Capapa"
186 184 200 -1 216 -39 3 30 "ABprappapa"
187 201 20 -1 260 167 3 30 "Capppa"
188 203 203 -1 314 127 3 38 "Cpapaa"
189 195 22 -1 -152 59 4 34 "ABalaaappl"
190 179 204 -1 -74 221 4 34 "ABalpppapa"
191 189 194 -1 -32 51 4 30 "MSpaapaa"
192 22 431 -1 18 239 4 38 "ABplpaaapp"
193 196 196 -1 48 9 4 30 "MSppppap"
194 26 187 -1 128 -65 4 30 "ABprapaapa"
197 185 201 -1 270 -7 4 34 "ABprapapaa"
199 427 190 -1 -116 191 5 38 "ABalpppaaa"
200 429 212 -1 18 -61 5 26 "ABpraappaa"
204 202 218 -1 298 27 5 30 "ABarpppppp"
206 215 208 -1 -110 151 6 26 "MSapaaaa"
207 212 427 -1 -108 -1 6 38 "ABalaapppp"
209 25 222 -1 -56 71 6 34 "ABaraappap"
213 27 215 -1 56 -55 7 34 "ABpraappap"
214 23 413 -1 136 57 7 38 "Earpp"
215 209 21 -1 204 67 7 38 "Eprpa"
216 221 213 -1 296 177 7 34 "ABplapappp"
217 216 220 -1 -68 169 8 30 "MSapaaap"
218 217 221 -1 -66 -1 8 38 "ABpraaapaa"
221 227 217 -1 140 -7 8 34 "Dppa"
222 228 226 -1 220 223 8 30 "ABplapppaa"
223 229 207 -1 -150 159 9 26 "ABalppaaaa"
224 224 214 -1 -6 233 9 38 "ABplpaaapa"
225 218 224 -1 24 81 9 30 "ABaraapppp"
226 28 26 -1 60 87 9 34 "MSpapaap"
227 238 235 -1 230 17 9 30 "Cpppap"
228 220 25 -1 260 41 9 30 "Cppppa"
229 230 228 -1 -126 189 10 38 "ABalppaaap"
230 222 229 -1 -104 25 10 34 "ABalaapppa"
231 231 219 -1 -90 219 10 32 "ABalppaapa"
232 233 230 -1 -44 209 10 38 "ABplpaaaaa"
233 236 237 -1 24 -23 10 34 "ABprpaappa"
234 219 216 -1 60 203 10 30 "MSappap"
235 260 240 -1 128 245 10 34 "ABplppapap"
236 237 234 -1 228 85 10 42 "Eprpp"
237 239 227 -1 -160 121 11 30 "ABalaaaarl"
238 240 236 -1 -38 -31 11 34 "ABpraaaapp"
239 241 244 -1 18 189 11 30 "MSapaapp"
240 225 231 -1 42 147 11 30 "MSaapapa"
241 243 232 -1 98 193 11 30 "MSaapppa"
242 245 233 -1 174 -51 11 34 "ABprapaapp"
243 261 246 -1 182 155 11 30 "Capaap"
244 251 248 -1 238 -27 11 30 "ABprappapp"
245 253 250 -1 302 143 11 34 "Caappd"
246 248 254 -1 -130 33 12 34 "ABalaaappr"
247 249 241 -1 -120 117 12 34 "ABalpaapaa"
248 29 256 -1 -76 217 12 46 "ABalppaapp"
250 258 238 -1 62 249 12 34 "ABplppaaaa"
251 33 251 -1 316 93 12 34 "Cpappd"
252 247 253 -1 -148 67 13 30 "ABalaaaarr"
253 250 29 -1 -114 75 13 30 "ABaraaapaa"
254 256 257 -1 26 249 13 34 "ABplpaaaap"
255 259 245 -1 76 155 13 38 "MSaapapp"
256 267 239 -1 94 245 13 34 "ABplppapaa"
257 274 267 -1 144 229 13 34 "ABplppappa"
258 287 268 -1 174 237 13 34 "ABplppappp"
259 262 269 -1 214 175 13 30 "Capapp"
260 269 249 -1 278 199 13 30 "ABplappppa"
261 254 274 -1 -64 -17 14 30 "ABpraaaaap"
262 265 262 -1 -36 27 14 26 "MSppapaa"
263 255 242 -1 -36 91 14 26 "ABaraaapapa"
264 279 275 -1 -36 175 14 26 "MSapaapa"
265 433 30 -1 78 97 14 34 "MSpapapa"
266 273 266 -1 128 -51 14 34 "ABpraapppp"
267 246 247 -1 218 119 14 34 "Eplpp"
268 276 270 -1 244 205 14 34 "ABplapppap"
270 263 255 -1 -106 199 15 30 "ABalaaaalp"
271 35 273 -1 -98 131 15 30 "ABalpaapapa"
272 271 282 -1 -48 51 15 30 "MSppaaap"
273 295 276 -1 4 -47 15 30 "ABprpaapap"
274 281 285 -1 30 37 15 30 "MSppaapp"
275 257 258 -1 36 111 15 30 "MSpapaaa"
276 283 286 -1 44 -45 15 34 "ABprpaappp"
277 34 260 -1 300 61 15 30 "ABprapappp"
278 291 298 -1 -92 25 16 30 "ABalaappap"
279 292 299 -1 -92 95 16 26 "ABaraaapapp"
280 264 281 -1 -84 55 16 30 "MSppaaaa"
281 278 292 -1 -74 7 16 34 "ABpraaaaaa"
282 293 283 -1 -14 -11 16 30 "ABprpaapaa"
283 294 294 -1 -16 105 16 34 "ABarapaapp"
284 303 287 -1 86 -53 16 26 "ABprppaaap"
285 285 296 -1 110 89 16 30 "MSpapapp"
286 286 289 -1 152 173 16 30 "MSaapppp"
287 275 279 -1 210 -33 16 34 "ABprappaap"
288 289 297 -1 290 21 16 30 "ABprapappa"
289 300 284 -1 6 155 17 30 "ABalpappppa"
290 282 33 -1 42 217 17 30 "ABplpapaap"
291 302 44 -1 82 17 17 30 "MSpppapp"
292 284 295 -1 92 55 17 30 "MSpppaap"
293 304 304 -1 180 61 17 34 "Cppaap"
294 305 278 -1 206 229 17 34 "ABplpppaap"
295 308 417 -1 256 83 17 38 "Cppppp"
296 309 291 -1 -138 117 18 30 "ABaraaaaaa"
297 290 34 -1 -108 167 18 30 "ABalpaappa"
298 296 301 -1 50 153 18 30 "ABalpappppp"
299 317 306 -1 154 85 18 34 "MSpapppp"
300 298 310 -1 278 137 18 38 "Caapa"
301 310 311 -1 -128 41 19 30 "ABalaapaaa"
302 312 313 -1 -58 139 19 30 "ABalpaaapp"
303 299 305 -1 -22 145 19 30 "ABalpapppa"
304 314 300 -1 2 227 19 30 "ABalppappp"
305 316 328 -1 120 41 19 34 "MSpapppa"
306 319 303 -1 176 -31 19 34 "ABprappaaa"
307 306 308 -1 222 73 19 34 "Cppapp"
308 320 312 -1 -86 137 20 30 "ABalpaaapa"
309 321 324 -1 -48 87 20 38 "ABarapaapa"
310 322 325 -1 -42 -11 20 34 "ABpraaaapa"
311 313 326 -1 -14 53 20 30 "MSppaapa"
312 349 418 -1 -2 15 20 34 "ABprpaaaaa"
313 315 315 -1 16 83 20 30 "ABarapappa"
314 330 317 -1 44 13 20 26 "MSpppapa"
315 326 319 -1 86 107 20 30 "ABarapapppp"
316 331 320 -1 102 225 20 34 "ABplppaapa"
317 36 329 -1 168 227 20 30 "ABplpppaaa"
318 327 330 -1 248 17 20 34 "ABprapppaa"
320 332 331 -1 282 45 20 34 "ABprappppa"
321 338 332 -1 290 109 20 26 "Cpappv"
322 333 333 -1 -114 87 21 34 "ABaraaaaap"
323 324 316 -1 18 193 21 30 "ABplpapaaa"
324 343 354 -1 36 -29 21 34 "ABprpaaapp"
325 335 321 -1 134 213 21 30 "ABplppaapp"
326 341 323 -1 -58 199 22 34 "ABalppapaa"
327 329 327 -1 30 109 22 26 "ABarapapppa"
328 38 335 -1 78 -11 22 30 "ABprppaaaa"
329 37 35 -1 184 189 22 30 "ABplppppap"
330 351 336 -1 202 155 22 30 "ABplpppppa"
331 339 351 -1 -94 33 23 30 "ABalaapaap"
332 334 344 -1 50 221 23 38 "ABalpapapp"
333 350 347 -1 184 117 23 30 "ABprpapppp"
334 336 337 -1 222 197 23 34 "ABplpppapa"
335 346 339 -1 294 141 23 34 "Caappv"
336 347 340 -1 -116 151 24 38 "ABalpaaaaa"
337 367 343 368 12 147 24 30 "ABalpappap"
338 345 348 -1 218 117 24 30 "ABprpppppa"
339 352 356 -1 246 87 24 30 "ABprpppapp"
340 337 338 -1 258 39 24 34 "ABprapppap"
341 353 357 -1 280 81 24 30 "ABprappppp"
342 363 364 -1 -104 121 25 34 "ABalpaaaap"
344 342 353 -1 -44 1 25 30 "ABalaapapp"
345 355 45 -1 -36 131 25 34 "ABalpappaa"
346 365 358 -1 -24 201 25 34 "ABalppapap"
347 357 360 -1 76 139 25 30 "ABplpappap"
348 359 37 -1 88 167 25 30 "ABplpappaap"
349 368 345 -1 112 -17 25 34 "ABprppapaa"
350 369 355 -1 124 187 25 30 "ABplpapapp"
351 361 38 -1 212 3 25 34 "ABprppappp"
352 362 349 -1 264 171 25 30 "ABplpppapp"
353 354 350 -1 -98 67 26 30 "ABaraaappa"
354 348 365 -1 -70 97 26 34 "ABarapaaaa"
355 364 373 -1 -66 59 26 30 "ABaraaappp"
356 377 366 -1 -58 155 26 30 "ABalpapaaa"
357 39 341 -1 -18 27 26 34 "ABarappppa"
358 366 359 -1 -10 101 26 34 "ABarapapaa"
359 356 367 -1 -6 67 26 34 "ABarappaaa"
360 378 342 -1 22 199 26 38 "ABalpapapa"
362 358 36 -1 74 33 26 34 "ABprpapaap"
363 380 376 -1 102 69 26 34 "ABprpapapa"
364 370 346 -1 146 -17 26 30 "ABprppapap"
365 372 362 -1 154 189 26 30 "ABplppppaa"
366 360 370 -1 166 11 26 30 "ABprppappa"
367 374 41 -1 172 81 26 30 "ABprppppaa"
368 375 371 -1 232 151 26 30 "ABplpppppp"
369 383 39 -1 40 121 27 34 "ABarapapap"
370 385 377 -1 126 27 27 30 "ABprppaapa"
371 386 378 -1 138 151 27 30 "ABplpapppa"
372 371 369 -1 142 113 27 34 "ABprpapppa"
373 373 379 -1 158 45 27 30 "ABprppaapp"
374 388 363 -1 174 153 27 34 "ABplpapppp"
375 389 383 -1 194 35 27 30 "ABprpppaaa"
376 390 42 -1 204 79 27 30 "ABprppppap"
377 376 372 -1 260 129 27 34 "ABprpppppp"
378 381 374 -1 -52 37 28 30 "ABarapppaa"
379 392 375 -1 50 -9 28 34 "ABprpaaaap"
380 387 40 -1 136 77 28 30 "ABprpapapp"
381 394 384 -1 232 35 28 30 "ABprpppaap"
382 40 380 -1 -18 47 29 34 "ABarapppap"
383 395 381 -1 -14 165 29 30 "ABalpapaap"
384 382 419 -1 22 11 29 30 "ABarappppp"
385 41 387 -1 26 49 29 30 "ABarappapa"
386 42 388 -1 32 83 29 30 "ABarappaap"
387 379 382 -1 34 167 29 26 "ABplpappaaa"
388 43 389 -1 70 107 29 30 "ABprpappaa"
389 384 391 -1 114 115 29 34 "ABprpappap"
390 399 400 -1 242 77 29 38 "ABprpppapa"
391 391 385 -1 -42 107 30 34 "ABarapaaap"
392 393 390 -1 78 61 30 34 "ABarappapp"
397 114 120 -1 -100 109 -6 34 "MSaaaaap"
399 404 172 -1 -156 157 3 34 "ABalaaapal"
400 405 396 -1 -98 113 5 34 "ABaraapaaa"
401 242 398 -1 88 -49 10 34 "ABpraapppa"
402 234 397 -1 0 143 11 34 "MSaapaaa"
403 407 252 -1 -146 167 14 34 "ABalaaaala"
404 272 263 -1 40 7 16 26 "MSppppaa"
405 328 322 -1 268 179 21 34 "ABplappppp"
407 31 259 -1 130 145 12 42 "Z3"
417 211 211 -1 -136 89 7 30 "ABaraaaapa"
421 318 307 -1 152 127 19 38 "MSpappa"
422 344 334 -1 46 55 23 34 "ABprpapaaa"
432 167 16 -1 316 69 1 34 "Cpapap"
435 430 161 206 12 -27 2 36 "ABpraaappp"
436 431 434 -1 -22 -17 8 35 "ABpraaappa"
437 432 436 -1 312 127 -6 35 "Caaapp"
438 434 437 -1 221 113 0 39 "Eplpa"
439 435 438 -1 -107 4 16 29 "ABalaappaa"
