1 66 3 -1 114 103 -21 38 "ABarppaapa"
2 1 52 -1 -28 103 -21 30 "ABplaaaapa"
3 4 53 -1 24 71 -21 34 "ABarpaapap"
4 70 54 -1 168 201 -19 34 "ABarppapap"
5 74 71 -1 218 85 -17 38 "Caaaap"
6 13 70 -1 216 19 -15 38 "Cpaaap"
7 12 84 -1 -42 185 -13 38 "ABplaapapp"
8 15 81 -1 76 199 -13 38 "ABplapaaap"
9 99 101 -1 -34 139 -10 42 "MSapappa"
10 20 102 -1 8 -31 -8 54 "ABarpappap"
11 119 104 -1 74 93 -8 42 "Ealaa"
12 153 17 -1 -28 -13 -3 34 "ABpraapapp"
14 160 146 -1 192 -47 -3 30 "ABarppppap"
15 165 130 154 -32 199 -2 34 "ABalpppppa"
16 26 19 -1 176 77 1 38 "Eprap"
17 208 191 -1 212 7 2 34 "Cpppaa"
18 28 193 -1 278 1 3 34 "ABprapapaa"
19 193 183 -1 2 5 3 30 "ABpraaapppa"
20 453 185 -1 16 63 3 38 "MSpaapap"
21 32 240 -1 214 131 4 42 "Eplpa"
22 213 225 -1 -116 201 5 38 "ABalpppaaa"
23 230 26 -1 42 193 7 38 "MSapaapp"
24 221 210 -1 126 -13 6 30 "Dppaa"
25 233 223 -1 -144 55 8 34 "ABalaaappl"
26 225 25 -1 2 185 6 26 "MSapapap"
27 229 221 -1 26 99 7 34 "ABaraapppp"
28 212 220 -1 -144 25 8 30 "ABalappapa"
29 241 236 -1 110 253 9 30 "ABplppapaa"
30 37 260 -1 144 155 12 38 "Z3"
31 243 262 -1 218 83 11 42 "Eprpp"
32 38 287 -1 158 67 15 42 "Z2"
33 299 285 -1 50 105 15 30 "MSpapaaa"
34 342 332 -1 -88 29 18 34 "ABalaappap"
35 310 302 -1 -120 117 17 30 "ABaraaaaaa"
36 312 312 -1 108 103 18 42 "MSpapapp"
37 353 376 -1 174 117 20 38 "ABprpapppp"
38 370 361 -1 34 -17 21 34 "ABprpaaapp"
39 360 355 -1 74 -35 22 34 "ABprppaaaa"
40 46 354 -1 14 197 24 38 "ABalpapapa"
41 373 359 -1 -74 143 25 30 "ABalpaaaaa"
42 378 375 -1 120 183 25 34 "ABplpapapp"
43 380 404 -1 226 155 25 30 "ABplpppapap"
44 405 414 -1 244 45 29 34 "ABprpppaap"
45 439 398 -1 -20 89 29 38 "ABarappaaa"
46 50 412 -1 104 121 30 38 "ABprpappap"
47 410 402 -1 166 95 29 30 "ABprppppaa"
48 97 458 -1 -116 53 -11 30 "ABalapppap"
50 286 255 -1 -62 91 13 42 "ABaraaapapp"
51 54 1 -1 -86 123 -23 30 "ABplaaaaaa"
52 55 47 -1 -78 83 -23 34 "ABarpaaaap"
53 57 42 -1 -52 69 -23 26 "ABarpaaapa"
54 60 44 -1 68 131 -22 30 "ABarppaaap"
55 61 45 -1 90 169 -22 34 "ABarppaaaa"
56 58 43 -1 -46 189 -21 34 "ABplaaapaa"
57 63 48 -1 -14 61 -21 26 "ABarpaapaa"
58 64 49 -1 6 169 -21 34 "ABplaaappa"
59 62 46 -1 154 153 -21 30 "ABarppaapp"
60 72 57 -1 -42 39 -20 34 "ABarpapapa"
61 69 58 -1 -12 187 -20 34 "ABplaaapap"
62 59 2 -1 0 113 -20 30 "ABplaaaapp"
63 2 50 -1 36 155 -20 34 "ABplaaappp"
64 3 55 -1 -116 149 -19 34 "ABplaapaap"
65 10 5 -1 -108 99 -19 30 "ABalapapaa"
66 71 56 -1 -60 159 -19 30 "ABalapappp"
67 65 51 -1 130 189 -19 30 "ABarppapaa"
68 5 65 -1 144 25 -19 34 "Cpaaaa"
69 7 60 -1 172 69 -19 38 "Caaaaa"
70 73 61 -1 206 181 -19 34 "ABplappapa"
71 67 67 -1 -98 23 -18 38 "ABarpapaaa"
72 75 7 -1 -86 189 -18 38 "ABplaapaaa"
73 68 62 -1 -82 59 -18 34 "ABarpaaapp"
74 76 63 -1 -50 125 -18 34 "ABplaaaaap"
75 77 64 -1 6 23 -18 30 "ABarpapapp"
76 6 4 -1 86 61 -18 34 "ABarpaappp"
77 80 6 -1 104 219 -18 30 "ABplapaapa"
78 11 69 -1 118 -11 -18 34 "ABarpppapa"
80 8 59 -1 54 57 -17 30 "ABarpaappa"
81 79 68 -1 72 -3 -17 30 "ABarpppaaa"
82 78 66 -1 -132 81 -16 34 "ABarpaaaaa"
83 83 74 -1 56 169 -16 34 "ABplapaaaa"
84 81 75 -1 238 185 -16 30 "ABarppappa"
85 85 79 -1 -80 155 -15 30 "ABalapappap"
86 87 73 -1 42 -27 -15 34 "ABarpapppp"
87 82 77 -1 48 127 -15 30 "MSappppa"
88 91 78 -1 114 149 -15 30 "MSappppp"
89 86 76 -1 8 203 -14 34 "ABalppppppp"
90 93 8 -1 -12 69 -13 34 "MSpaaapa"
91 14 11 -1 64 235 -13 34 "ABplaapppa"
92 16 430 -1 154 153 -13 38 "Dappa"
93 88 82 -1 152 237 -13 38 "ABplapaapp"
94 94 83 -1 176 -23 -13 34 "ABarpppapp"
95 89 80 -1 -76 85 -12 30 "MSaaaaapp"
96 95 91 -1 244 71 -12 38 "Cpaapa"
97 107 12 -1 266 195 -12 38 "ABplapapaa"
98 109 93 -1 -128 173 -11 30 "ABalapaaap"
99 103 100 -1 -82 185 -11 38 "ABalppppap"
100 17 94 -1 -72 31 -11 38 "ABarpapaap"
101 90 88 -1 8 143 -11 30 "MSapappp"
102 127 13 -1 114 247 -11 38 "ABplaapppp"
103 106 85 -1 204 145 -11 34 "Dappp"
105 101 108 -1 -126 135 -10 26 "ABalapappaa"
106 102 109 -1 -118 13 -10 34 "ABpraapaaa"
107 112 95 -1 0 245 -10 30 "ABplaappaa"
108 100 10 -1 20 105 -10 34 "MSaaaapp"
109 18 96 -1 38 151 -10 30 "MSapppap"
111 19 98 -1 218 233 -10 34 "ABplappapp"
112 454 457 -1 302 131 -10 34 "Caaapp"
114 98 9 -1 -48 79 -9 34 "MSaaaapa"
115 138 448 -1 -2 17 -9 26 "MSppappp"
117 114 105 -1 78 155 -9 30 "Daaap"
118 122 99 -1 -150 103 -8 34 "ABalappaap"
119 116 110 -1 -122 95 -8 34 "MSaaaaapa"
120 118 116 -1 -50 181 -8 42 "ABplaapapa"
121 130 112 -1 -2 185 -8 30 "ABalppppppa"
122 21 97 -1 38 247 -8 30 "ABplaappap"
123 126 114 -1 70 -19 -8 34 "ABprapaaaa"
124 140 14 -1 134 1 -8 34 "Dpppa"
125 22 15 -1 158 105 -8 38 "Eplaa"
126 115 106 -1 156 193 -8 30 "Dapap"
127 121 124 -1 214 181 -8 38 "Cappaa"
128 123 129 -1 -148 149 -7 34 "ABalapaaaa"
129 131 118 -1 16 215 -7 42 "ABplpaappa"
130 134 121 -1 116 191 -7 30 "Dapaa"
131 120 122 -1 120 103 -7 38 "Ealap"
133 137 125 -1 -10 113 -6 34 "MSaaapap"
135 125 126 -1 52 187 -6 30 "Daaaa"
136 133 115 -1 100 5 -6 26 "MSpppppp"
137 135 123 -1 146 57 -6 38 "Epraa"
138 141 133 -1 148 -57 -6 30 "ABarppppaa"
140 128 142 -1 -104 175 -5 34 "ABalapaapp"
141 136 136 -1 -96 61 -5 34 "MSpaaaaa"
143 144 120 139 16 61 -5 34 "MSpaaapp"
145 146 127 -1 82 253 -5 30 "ABplppaaap"
146 147 128 -1 198 9 -5 38 "Dpppp"
147 148 134 -1 248 231 -5 34 "ABplapapap"
148 142 137 -1 -72 -17 -4 34 "ABpraapaap"
149 23 16 -1 -70 73 -4 30 "MSpaaaapa"
150 162 148 -1 260 157 -4 34 "Capppa"
151 149 149 -1 286 191 -4 30 "ABarppappp"
152 151 150 -1 -140 47 -3 34 "ABalapppaa"
153 158 143 -1 -94 9 -3 26 "ABalappppap"
154 155 132 -1 96 -37 -3 30 "ABprapaaap"
155 156 141 -1 158 245 -3 34 "ABplappaaa"
156 157 18 -1 248 -13 -3 26 "ABarpppppa"
157 143 144 -1 -66 215 -2 38 "ABalpppapp"
158 172 156 -1 20 101 -2 30 "MSaaappa"
159 24 151 -1 66 203 -2 38 "Daapa"
160 161 147 -1 192 111 -2 38 "Eplap"
161 163 170 -1 -116 209 -1 30 "ABalpppaap"
162 164 171 -1 -108 113 -1 34 "ABaraapaaa"
163 154 138 -1 -16 243 -1 34 "ABplpaapap"
164 173 145 -1 18 179 -1 30 "MSapppaa"
165 175 164 -1 18 -33 -1 38 "ABpraaapppp"
166 166 158 -1 46 87 -1 30 "MSaaappp"
168 176 161 -1 152 197 -1 38 "Capaaa"
169 177 165 -1 188 249 -1 34 "ABplappaap"
170 25 169 -1 304 77 -1 38 "Cpapap"
171 199 176 -1 -158 121 0 30 "ABalaaapar"
172 158 178 -1 -116 25 0 30 "ABalappppaa"
173 174 172 -1 22 249 0 38 "ABplpaappp"
174 181 186 -1 46 -1 0 30 "MSppppap"
175 196 159 -1 60 161 0 30 "MSappaaa"
176 183 37 -1 70 117 0 26 "MSaapaapp"
177 167 160 -1 110 55 0 34 "Earap"
178 178 162 -1 202 193 0 34 "Capapa"
179 27 175 -1 216 71 0 38 "Eprpa"
180 179 166 -1 224 -37 0 30 "ABprappapa"
181 198 167 -1 262 43 0 38 "Cppppa"
182 187 177 -1 -152 161 1 38 "ABalaaapal"
183 180 152 -1 -136 93 1 34 "MSaaaaaa"
184 170 195 -1 -118 169 1 30 "ABalapaapa"
185 171 153 -1 -66 155 1 34 "MSapaaap"
186 201 155 -1 -42 123 1 30 "ABaraapaapp"
187 202 181 -1 -26 77 1 30 "ABaraappapp"
188 51 163 -1 -20 167 1 30 "MSapapaa"
189 194 157 -1 28 131 1 26 "MSaapaapa"
190 182 20 -1 66 55 1 38 "Earaa"
191 206 173 -1 96 1 1 34 "Dpaap"
192 184 188 -1 102 185 1 30 "MSappaap"
194 185 174 -1 158 133 1 38 "Ealpp"
195 211 21 -1 238 179 1 30 "Cappap"
196 169 194 -1 314 135 1 34 "Cpapaa"
198 189 215 -1 -82 191 2 34 "ABalppppaa"
199 190 201 -1 -60 31 2 30 "MSppappa"
200 191 180 -1 -40 1 2 42 "ABpraapapa"
202 29 189 -1 114 213 2 30 "Daapp"
203 207 190 -1 172 -15 2 30 "Dppap"
205 197 192 -1 262 223 2 34 "ABplapappa"
206 200 179 -1 -98 67 3 34 "ABaraappaa"
207 192 423 -1 -30 209 3 38 "ABplpaapaa"
208 203 182 -1 -10 121 3 30 "ABaraapapap"
209 31 23 -1 64 241 3 34 "ABplppaaaa"
211 201 200 -1 -90 125 4 30 "ABaraapaapa"
212 220 216 -1 -72 -13 4 34 "ABpraaapap"
213 214 196 -1 -72 89 4 26 "ABaraappapa"
214 30 217 -1 -62 227 4 30 "ABalpppapa"
215 224 202 -1 -38 155 4 30 "ABaraapapaa"
216 204 184 -1 6 145 4 34 "ABaraapapp"
218 227 213 -1 286 177 4 34 "ABplapappp"
219 219 214 -1 -140 151 5 34 "ABalppaaaa"
220 34 203 -1 -18 47 5 30 "MSpaapaa"
221 226 206 -1 64 135 5 30 "MSaapapa"
223 228 234 -1 22 -21 6 34 "ABprpaappa"
224 209 219 -1 88 85 6 30 "MSpapaapp"
225 33 435 -1 108 125 6 34 "Ealpa"
226 448 436 -1 112 59 6 34 "Earpa"
230 231 237 -1 152 249 7 34 "ABplppapap"
231 232 249 -1 170 -55 7 30 "ABprapaapp"
232 223 231 -1 -100 159 8 30 "MSapaaaa"
233 235 439 -1 -88 127 8 26 "ABalpaapaap"
234 244 250 -1 232 209 8 34 "ABplapppaa"
235 452 252 -1 296 27 8 30 "ABarpppppp"
236 246 253 -1 -156 125 9 30 "ABalaaaarl"
237 234 242 -1 -136 91 9 30 "ABaraaaapa"
238 235 224 -1 -132 119 9 26 "ABalpaapaaa"
239 260 227 -1 -62 51 9 30 "MSppaaap"
240 248 228 -1 -34 99 9 30 "ABaraaapapa"
241 238 218 -1 -24 239 9 30 "ABplpaaapa"
242 250 233 -1 18 -53 9 26 "ABpraappaa"
243 242 248 -1 122 201 9 30 "MSaapppa"
244 254 238 -1 176 185 9 34 "Capaap"
245 255 239 -1 178 -3 9 34 "Cppaaa"
246 35 226 279 -100 5 10 34 "ABalaapppp"
248 237 232 -1 -36 199 10 34 "ABplpaaaaa"
249 239 244 -1 -18 -7 10 34 "ABpraaappa"
250 240 40 222 12 235 10 34 "ABplpaaapp"
251 266 246 -1 48 71 10 22 "MSpapaapa"
252 251 28 -1 54 -53 10 30 "ABpraappap"
253 36 247 -1 82 199 10 26 "MSappapp"
255 270 241 -1 248 27 10 34 "Cpppap"
256 256 251 -1 270 213 10 30 "ABplappppa"
257 271 268 -1 -152 157 11 34 "ABalaaaala"
258 247 269 -1 -124 185 11 42 "ABalppaaap"
259 272 263 -1 -58 15 11 30 "ABpraaapaa"
260 287 38 -1 -40 137 11 34 "ABalpaapapp"
261 249 245 -1 -12 -49 11 30 "ABprpaapap"
262 262 265 -1 8 75 11 30 "ABaraapppap"
263 265 229 -1 46 147 11 26 "MSaapaaap"
264 267 258 -1 56 31 11 30 "MSpppapa"
265 268 267 -1 88 -59 11 30 "ABprppaaap"
266 269 274 -1 132 -51 11 38 "ABpraapppp"
267 257 277 -1 296 151 11 38 "Caappd"
268 258 230 -1 306 107 11 34 "Cpappd"
270 259 254 -1 -102 91 12 38 "ABaraaapaa"
271 261 270 -1 -50 -27 12 38 "ABpraaaapp"
272 289 264 -1 -24 63 12 30 "ABaraapppaa"
273 263 257 -1 22 17 12 30 "MSppapap"
274 277 266 -1 84 153 12 34 "MSaapapp"
275 278 41 -1 88 101 12 30 "MSpapapa"
276 294 259 -1 130 23 12 30 "MSpppaap"
277 295 261 -1 216 23 12 38 "Cppapa"
278 281 276 -1 246 -25 12 30 "ABprappapp"
279 274 278 -1 296 59 12 34 "ABprapappp"
280 288 282 -1 -22 35 13 30 "MSppapaa"
281 291 256 -1 -2 135 13 30 "MSaapaaaa"
282 276 284 -1 50 213 13 30 "ABplpapaap"
283 279 286 -1 92 -3 13 30 "Dpapa"
284 303 297 -1 186 -41 13 34 "ABprappaaa"
285 273 275 -1 216 -33 13 30 "ABprappaap"
286 275 281 -1 -76 217 14 42 "ABalppaapp"
287 292 283 -1 16 103 14 30 "ABarapaappp"
288 264 272 -1 46 247 14 38 "ABplpaaaap"
289 41 273 -1 48 -9 14 30 "MSppppaa"
290 280 288 -1 180 243 14 34 "ABplppappp"
291 40 289 -1 220 117 14 38 "Eplpp"
292 42 299 -1 252 153 14 34 "Capppp"
293 309 300 -1 270 -7 14 34 "ABprapapap"
294 282 301 -1 -126 37 15 30 "ABalaaappr"
295 284 291 -1 -84 59 15 30 "MSppaaaa"
297 290 30 -1 -8 3 15 34 "ABprpaapaa"
298 293 293 -1 70 57 15 30 "MSpppaaa"
299 300 306 -1 138 -3 15 30 "Dpapp"
300 301 295 -1 144 235 15 30 "ABplppappa"
301 302 296 -1 150 193 15 30 "MSaapppp"
302 39 298 -1 202 179 15 38 "Capapp"
303 296 290 -1 262 83 15 34 "Cppppp"
304 297 29 -1 -142 81 16 34 "ABalaaaarr"
305 298 308 -1 -106 191 16 34 "ABalaaaalp"
306 321 317 -1 -22 97 16 30 "ABarapaappa"
307 305 39 -1 -20 177 16 26 "MSapaapa"
308 322 292 -1 20 163 16 30 "ABalpappppa"
309 314 307 -1 224 223 16 34 "ABplpppaap"
310 315 427 -1 274 185 16 30 "ABplappppp"
311 318 309 -1 -64 -13 17 30 "ABpraaaaap"
312 304 303 -1 -46 195 17 34 "ABalppappa"
313 311 318 -1 -18 221 17 30 "ABalppapppa"
314 331 328 -1 26 191 17 30 "ABplpapaaa"
315 306 329 -1 36 -45 17 34 "ABprpaappp"
316 307 310 -1 38 45 17 30 "MSppaapp"
317 324 305 -1 62 147 17 34 "ABalpappppp"
318 308 294 -1 102 229 17 30 "ABplppaapa"
319 313 313 -1 118 161 17 26 "MSaappap"
320 334 319 -1 182 31 17 30 "Cppaap"
321 43 320 -1 238 193 17 30 "ABplapppap"
322 327 315 -1 -74 139 18 30 "ABalpaaapa"
323 343 324 -1 -48 121 18 30 "ABalpaaapp"
325 328 304 -1 -4 147 18 30 "ABalpapppa"
326 323 330 -1 32 225 18 30 "ABalppapppp"
327 332 311 -1 74 21 18 34 "MSpppapp"
328 325 335 -1 82 203 18 30 "ABplpapapa"
329 335 321 -1 256 37 18 30 "ABprapppaa"
330 336 322 -1 286 13 18 30 "ABprapappa"
331 317 314 -1 304 113 18 34 "Cpappv"
332 340 323 -1 -94 95 19 30 "ABaraaaaap"
333 319 316 -1 -46 87 19 34 "ABarapaapa"
334 330 327 -1 18 83 19 38 "ABarapappa"
335 326 345 -1 122 29 19 34 "MSpapppa"
336 333 31 -1 148 159 19 30 "MSpappaa"
337 346 349 -1 182 223 19 34 "ABplpppaaa"
338 316 331 -1 268 141 19 34 "Caapa"
339 337 337 -1 300 157 19 30 "Caappv"
341 348 339 -1 -94 181 20 38 "ABalpaappp"
342 443 342 -1 0 15 20 34 "ABprpaaaaa"
343 329 326 -1 0 57 20 26 "MSppaapa"
344 349 360 -1 6 -21 20 30 "ABprpaaapa"
345 345 344 -1 92 131 20 22 "MSaappaa"
346 347 350 -1 198 159 20 34 "ABplpppppa"
347 338 338 -1 -128 57 21 34 "ABalaapaaa"
348 339 352 -1 -122 151 21 30 "ABalpaappa"
349 367 371 -1 -62 193 21 38 "ABalppapaa"
350 356 340 -1 -62 9 21 30 "ABpraaaaaa"
351 320 333 -1 -32 -5 21 26 "ABpraaaapa"
352 350 343 -1 62 233 21 34 "ABalpapapp"
353 351 346 -1 132 215 21 30 "ABplppaapp"
354 352 348 -1 154 95 21 30 "MSpappap"
355 354 336 -1 202 99 21 30 "ABprpppppa"
356 44 351 -1 212 51 21 34 "Cppapp"
357 366 357 -1 272 181 21 26 "ABplpppapp"
358 372 32 -1 -100 133 22 30 "ABalpaaaap"
360 424 334 -1 30 101 22 34 "ABarapapppa"
361 358 362 -1 46 151 22 30 "ABalpappapp"
362 361 365 -1 76 99 22 30 "ABarapapppp"
363 362 347 -1 148 59 22 34 "MSpapppp"
364 363 377 -1 210 205 22 26 "ABplpppapaa"
365 365 368 -1 260 65 22 30 "ABprapppap"
366 355 369 -1 290 41 22 30 "ABprappppa"
367 369 341 -1 -34 37 23 34 "ABarappppa"
368 52 372 -1 -16 103 23 32 "ABarapapaa"
369 359 363 -1 52 61 23 34 "ABprpapaaa"
370 374 364 -1 70 25 23 30 "ABprpapaap"
371 376 356 -1 80 149 23 26 "ABplpappap"
372 379 366 -1 166 -13 23 34 "ABprppapap"
373 364 367 -1 244 97 23 34 "ABprpppapp"
374 382 358 -1 284 121 23 34 "ABprpppppp"
375 371 370 -1 288 83 23 30 "ABprappppp"
376 384 378 -1 -98 87 24 30 "ABaraaappa"
378 377 381 -1 116 -15 24 34 "ABprppapaa"
379 45 374 -1 112 109 24 42 "ABprpapppa"
380 383 379 -1 -100 45 25 34 "ABalaapaap"
381 390 384 -1 -24 201 25 30 "ABalppapap"
382 391 386 -1 30 23 25 22 "ABarapppppp"
383 386 382 -1 154 187 25 30 "ABplppppaa"
384 387 388 -1 222 9 25 30 "ABprppappp"
386 47 373 -1 94 61 26 34 "ABprpapapa"
387 395 33 -1 186 181 26 34 "ABplppppap"
388 381 383 -1 258 149 26 38 "ABplpppppp"
389 388 390 -1 -74 59 27 34 "ABaraaappp"
390 396 391 -1 -66 101 27 34 "ABarapaaaa"
391 399 397 -1 -52 163 27 30 "ABalpapaaa"
392 389 408 -1 -22 -3 27 34 "ABalaapapp"
393 391 393 -1 2 27 27 26 "ABarapppppa"
394 392 385 -1 22 119 27 30 "ABarapapap"
395 49 428 -1 84 173 27 30 "ABplpappaap"
396 393 387 -1 120 27 27 30 "ABprppaapa"
397 401 400 -1 126 79 27 34 "ABprpapapp"
398 402 394 -1 134 139 27 30 "ABplpapppa"
399 398 395 -1 156 11 27 30 "ABprppappa"
400 394 396 -1 166 143 27 30 "ABplpapppp"
401 400 34 -1 58 -5 28 34 "ABprpaaaap"
402 411 413 -1 200 33 28 34 "ABprpppaaa"
403 403 403 -1 200 79 28 38 "ABprppppap"
404 404 405 -1 228 79 28 26 "ABprpppapaa"
405 406 406 -1 -46 41 29 34 "ABarapppaa"
406 407 409 -1 -10 55 29 34 "ABarapppap"
407 408 399 -1 50 175 29 30 "ABplpappaaa"
408 409 401 -1 154 49 29 30 "ABprppaapp"
409 412 407 -1 -42 125 30 34 "ABarapaaap"
410 413 410 -1 -4 151 30 34 "ABalpapaap"
411 414 415 -1 30 91 30 38 "ABarappaap"
412 415 35 -1 38 55 30 34 "ABarappapa"
413 48 411 -1 54 137 30 42 "ABprpappaa"
414 416 416 -1 80 31 30 38 "ABarappapp"
415 105 89 -1 102 -39 -9 38 "ABarpppaap"
416 419 421 -1 -80 113 -5 30 "MSaaapaaa"
418 217 209 -1 136 -49 8 30 "ABprapaapa"
419 252 235 -1 64 9 9 34 "Dpaaa"
421 344 325 -1 -34 143 18 30 "ABalpappaa"
424 53 207 -1 84 -53 7 38 "ABpraapppa"
426 108 107 -1 298 73 -10 38 "Cpaapp"
427 111 87 -1 -42 125 -9 26 "MSaaapaap"
429 124 113 -1 28 -31 -7 30 "ABarpapppa"
431 152 117 -1 -56 31 -3 26 "MSpaaaapp"
433 195 187 -1 46 203 2 30 "MSappapa"
437 283 280 -1 -86 23 14 30 "ABalaapppa"
438 385 380 -1 0 151 25 34 "ABalpappapa"
447 210 198 -1 148 55 4 38 "Earpp"
448 449 453 -1 -67 4 -10 36 "ABalappppp"
449 450 454 -1 -95 115 -15 36 "ABalapapap"
450 285 455 -1 -83 135 13 30 "ABalpaapapa"
451 92 456 -1 -36 -5 -12 30 "ABarpappaa"
452 132 431 -1 24 12 -8 30 "MSpppppa"
453 84 72 -1 266 116 -16 34 "Caaapa"
454 188 459 -1 -121 4 2 36 "ABalappapp"
455 404 460 -1 246 105 26 28 "ABprpppapap"
456 455 461 -1 -98 8 20 28 "ABalaappaa"
