1 54 1 -1 24 173 -21 42 "ABplaaappp"
2 82 58 -1 76 185 -20 34 "ABarppaaaa"
3 95 82 -1 158 197 -18 30 "ABarppapap"
4 94 4 -1 96 -1 -17 34 "ABarpppapa"
5 111 93 -1 106 143 -16 30 "MSappppp"
6 113 6 -1 152 149 -15 38 "Dappa"
7 128 113 -1 -28 155 -11 34 "MSapappa"
8 132 118 -1 80 159 -12 30 "Daaap"
9 124 127 -1 272 191 -11 34 "ABplapapaa"
10 8 147 -1 116 249 -8 30 "ABplaapppp"
11 161 151 -1 -148 111 -9 42 "ABalappaap"
12 156 154 -1 48 -7 -8 38 "ABprapaaaa"
13 7 13 -1 154 67 -7 42 "Epraa"
14 9 17 -1 168 111 -6 38 "Eplaa"
15 11 161 -1 164 237 -6 42 "ABplappaaa"
16 176 170 -1 38 67 -4 30 "MSpaaappp"
17 179 18 -1 276 149 -5 34 "Capppa"
18 146 156 -1 -146 35 -4 34 "ABpraapaaa"
19 216 164 -1 -40 127 -3 34 "ABaraapaapp"
21 213 24 -1 -76 121 0 42 "ABaraapaaap"
22 26 221 -1 168 55 2 38 "Earpp"
23 229 220 -1 178 141 0 38 "Ealpp"
24 15 207 -1 276 5 -2 34 "ABprapapaa"
26 240 238 -1 12 -31 4 34 "ABpraaapppp"
27 23 241 -1 284 181 5 34 "ABplapappp"
28 21 255 -1 16 141 6 38 "ABaraapapp"
29 257 235 -1 76 207 4 26 "MSappapp"
30 267 39 -1 152 183 6 30 "MSappaap"
31 236 231 -1 -164 49 6 26 "ABalappappa"
32 245 28 -1 -90 51 5 30 "MSppaaap"
33 32 281 -1 46 223 6 38 "ABplppaaaa"
34 28 35 -1 110 127 6 38 "Ealpa"
35 293 284 -1 122 -49 9 38 "ABpraapppp"
36 61 268 -1 20 59 7 26 "ABaraapppap"
38 289 304 -1 -150 143 10 30 "ABalaaaarl"
39 282 275 -1 -86 93 11 26 "ABaraaapaap"
40 295 272 -1 304 113 11 34 "Cpappd"
41 331 43 -1 -42 81 13 34 "ABarapaapa"
42 504 523 -1 302 145 13 30 "Caappd"
43 502 325 -1 -106 201 15 38 "ABalppaaap"
44 350 334 -1 200 193 16 34 "Capapp"
45 512 388 -1 110 27 19 46 "MSpapppa"
46 41 50 -1 -108 181 21 38 "ABalaaaalp"
47 372 380 -1 10 67 18 34 "ABarapappa"
48 393 403 -1 -8 17 22 30 "ABprpaaaaap"
49 400 421 -1 216 51 21 34 "Cppapp"
50 46 414 -1 76 -7 21 30 "ABprppaaaap"
51 407 408 -1 260 63 22 42 "ABprapppap"
52 416 441 -1 -36 197 23 26 "ABalppapaap"
53 431 415 -1 136 157 24 26 "ABplpapappp"
54 51 425 -1 -36 117 26 32 "ABarapaaap"
55 541 462 -1 192 17 28 38 "ABprppappp"
56 464 475 -1 194 161 29 30 "ABplppppapp"
57 482 496 -1 58 123 31 34 "ABprpappaap"
58 475 497 -1 88 83 31 26 "ABprpappapa"
59 549 94 -1 118 57 -16 38 "Caaaaa"
60 55 73 -1 6 187 -18 34 "ABplaaappa"
62 527 32 -1 222 131 6 42 "Eplpa"
63 228 219 -1 164 -19 2 38 "Dppap"
64 394 392 -1 22 195 20 34 "ABplpapaaa"
66 75 69 -1 -96 91 -22 30 "ABarpaaaap"
67 77 70 -1 -62 163 -22 22 "ABalapapppp"
68 78 67 -1 -38 103 -22 34 "ABplaaaapa"
69 81 74 -1 46 143 -22 30 "ABarppaaap"
70 76 84 -1 -94 137 -21 38 "ABplaaaaaa"
71 72 78 -1 -64 89 -21 30 "ABarpaaapa"
72 83 77 -1 -58 51 -21 30 "ABarpapapa"
73 92 85 -1 -52 133 -21 30 "ABplaaaaapp"
74 84 71 -1 -46 181 -21 30 "ABplaaapaa"
75 73 72 -1 -28 67 -21 30 "ABarpaapaa"
76 79 79 -1 -4 121 -21 30 "ABplaaaapp"
77 87 81 -1 138 159 -21 30 "ABarppaapp"
78 74 88 -1 -98 55 -20 34 "ABarpaaapp"
79 97 580 -1 40 49 -20 34 "ABarpaappa"
80 93 86 -1 92 87 -20 34 "ABarppaapa"
81 88 76 -1 202 177 -20 34 "ABplappapa"
82 89 92 -1 -126 109 -19 22 "ABalapapaa"
83 1 89 -1 -14 29 -19 34 "ABarpapapp"
84 80 64 -1 14 67 -19 38 "ABarpaapap"
85 85 80 -1 114 193 -19 34 "ABarppapaa"
86 96 95 -1 188 27 -19 30 "Cpaaap"
87 2 102 -1 -138 147 -17 34 "ABplaapaap"
88 98 530 -1 -16 213 -17 38 "ABplaaapap"
89 100 91 -1 236 187 -17 30 "ABarppappa"
90 104 8 -1 -134 77 -16 30 "ABarpaaaaa"
91 101 87 -1 -120 183 -16 30 "ABplaapaaaa"
92 90 83 -1 -100 155 -16 26 "ABalapapppa"
93 91 96 -1 -76 189 -16 30 "ABplaapaaap"
94 102 98 -1 44 171 -16 42 "ABplapaaaa"
95 110 99 -1 88 221 -16 30 "ABplapaaapp"
96 515 5 -1 212 59 -16 30 "Caaaap"
97 103 7 -1 228 93 -16 34 "Cpaapa"
98 107 97 -1 -48 177 -15 30 "ABplaapappa"
99 4 2 -1 -36 213 -14 34 "ABplaapappp"
100 105 100 -1 48 -3 -14 30 "ABarpppaaa"
101 109 101 -1 52 125 -14 30 "MSappppa"
103 112 9 -1 146 237 -14 34 "ABplapaapp"
104 115 105 -1 -94 209 -13 30 "ABalppppapp"
105 118 108 -1 -74 103 -13 26 "MSaaaaapp"
106 119 10 -1 -62 73 -13 30 "MSaaaapaa"
107 127 109 -1 -40 121 -13 26 "MSaaapaap"
108 120 110 -1 204 139 -13 30 "Dappp"
109 106 111 -1 -112 31 -12 34 "ABarpapaaa"
110 121 104 -1 -100 161 -12 30 "ABalapappap"
111 487 106 -1 -98 59 -12 22 "ABalapppapp"
112 122 112 -1 -90 139 -12 30 "ABplaaaaapa"
113 116 107 -1 -82 3 -12 22 "ABalapppppp"
114 117 120 -1 -74 31 -12 30 "ABarpapaapp"
115 129 103 -1 -26 85 -12 26 "MSaaaapap"
116 131 114 -1 -8 105 -12 26 "MSaaaappa"
117 130 115 -1 4 141 -12 30 "MSapappp"
118 125 129 -1 -126 181 -11 34 "ABalapaaap"
119 126 121 -1 -62 -9 -11 30 "ABarpappaa"
120 123 122 -1 10 71 -11 34 "MSpaaapa"
121 138 138 -1 18 -27 -11 34 "ABarpapppp"
122 131 123 -1 32 111 -11 26 "MSaaaappp"
123 133 124 -1 78 -39 -11 34 "ABarpppaap"
124 140 125 -1 84 243 -11 34 "ABplapaapa"
125 134 126 -1 144 -29 -11 30 "ABarpppapp"
126 141 11 -1 214 177 -11 38 "Cappaa"
129 5 130 -1 -24 23 -10 34 "MSppappp"
130 137 132 -1 4 217 -10 34 "ABalppppppp"
131 56 134 -1 64 197 -10 30 "ABplapaaapa"
132 145 12 -1 222 237 -10 30 "ABplappapp"
133 142 137 -1 -72 221 -9 34 "ABalpppappp"
135 151 143 -1 8 183 -9 30 "ABalppppppa"
136 139 117 -1 38 149 -9 30 "MSapppap"
137 144 135 -1 156 193 -9 30 "Dapap"
138 147 508 -1 -104 93 -8 34 "MSaaaaapa"
139 149 141 -1 -64 55 -8 30 "MSpaaaaa"
140 152 144 -1 14 23 -8 30 "MSpppppa"
141 153 145 -1 84 7 -8 26 "MSpppppp"
142 158 14 -1 118 7 -8 30 "Dpppa"
144 572 140 -1 -76 189 -7 30 "ABalpppappa"
145 150 148 -1 -32 55 -7 30 "MSpaaaapp"
146 143 139 -1 38 209 -7 26 "ABplpaappap"
148 59 59 -1 -94 173 -6 26 "ABalppppapa"
149 173 152 -1 -40 177 -6 32 "ABplaapapa"
150 166 160 -1 -4 -31 -6 34 "ABarpapppa"
151 167 153 -1 34 135 -6 30 "MSaaapapp"
152 169 19 -1 92 111 -6 38 "Ealaa"
153 157 149 -1 114 193 -6 34 "Dapaa"
154 160 150 -1 214 -39 -6 30 "ABprappapa"
155 170 155 -1 -146 71 -5 26 "ABalapppaap"
156 163 158 -1 -98 45 -5 26 "ABarpapaapa"
158 172 512 -1 -62 79 -5 34 "MSpaaaapa"
159 155 165 -1 -32 -31 -5 30 "ABarpappap"
160 165 167 -1 -20 109 -5 26 "MSaaapapa"
161 181 169 -1 30 251 -5 30 "ABplaappap"
162 521 534 -1 86 61 -5 38 "Earaa"
163 523 535 -1 130 109 -5 30 "Ealap"
164 192 173 -1 210 1 -5 30 "Cpppaa"
166 522 20 -1 -132 161 -4 34 "ABalapaaaa"
167 174 159 -1 -36 235 -4 30 "ABplpaapapa"
168 187 166 -1 -26 -5 -4 30 "ABpraapappp"
169 180 174 -1 -4 249 -4 26 "ABplaappaa"
170 175 168 -1 -2 77 -4 30 "MSpaaappa"
171 182 175 -1 106 -29 -4 26 "ABprapaaapa"
172 183 195 -1 128 -55 -4 30 "ABarppppaa"
173 191 162 -1 168 1 -4 26 "Dpppp"
174 178 177 -1 174 -49 -4 30 "ABarppppap"
175 211 205 -1 248 -21 -4 26 "ABarpppppa"
177 60 186 -1 -18 201 -3 26 "ABalpppppap"
178 168 171 -1 56 177 -3 30 "Daaaa"
179 193 172 -1 216 195 -3 34 "Capapa"
181 10 182 -1 -130 107 -2 34 "MSaaaaaa"
183 524 23 -1 2 209 -2 30 "ABplpaappaa"
184 188 192 -1 74 211 -2 30 "Daapa"
185 189 193 -1 92 175 -2 30 "MSappaaa"
188 511 196 -1 210 117 -2 34 "Eplap"
189 194 179 -1 246 231 -2 30 "ABplapapap"
190 195 206 -1 268 39 -2 34 "Cppppa"
191 203 511 -1 300 111 -2 38 "Cpapap"
192 185 183 -1 -114 -3 -1 30 "ABpraapaapa"
193 204 208 -1 -102 85 -1 30 "ABaraappaa"
194 214 213 -1 -80 159 -1 34 "MSapaaap"
195 197 184 -1 -70 197 -1 30 "ABalppppaav"
196 215 200 -1 -42 185 -1 26 "ABalpppppaa"
197 546 185 -1 -18 147 -1 30 "ABaraapapaa"
199 218 188 -1 -4 45 -1 34 "MSpaapaa"
200 220 189 -1 4 123 -1 30 "ABaraapapap"
201 219 190 -1 6 3 -1 30 "ABpraaapppa"
202 199 202 -1 32 185 -1 26 "MSapppaa"
203 207 191 -1 48 101 -1 30 "MSaaappa"
204 209 203 -1 62 -27 -1 26 "ABprapaaapp"
205 17 194 -1 122 61 -1 38 "Earap"
206 190 176 -1 154 199 -1 38 "Capaaa"
207 196 198 -1 -124 21 0 26 "ABalappppap"
208 205 199 -1 -62 29 0 30 "MSppappa"
209 221 60 -1 32 17 0 30 "MSppppap"
210 208 217 -1 68 43 0 26 "MSpppapa"
211 223 218 -1 70 259 0 26 "ABplppaaap"
212 224 204 -1 88 3 0 26 "Dpaap"
214 202 197 -1 250 177 0 30 "Cappap"
215 226 209 -1 -60 -27 1 30 "ABpraapappa"
216 217 214 -1 -36 67 1 38 "ABaraappapp"
217 238 232 -1 -28 249 1 26 "ABplpaapapp"
218 494 228 -1 10 83 1 26 "MSpaapapa"
219 222 216 -1 42 145 1 26 "MSaapaapa"
220 19 61 -1 72 129 1 26 "MSaapaapp"
222 244 26 -1 -148 139 2 30 "ABalaaapar"
223 233 212 -1 -104 217 2 30 "ABalpppaap"
224 234 225 -1 -70 83 2 26 "ABaraappapa"
225 237 226 -1 -48 235 2 26 "ABalpppapav"
226 239 187 -1 -10 171 2 26 "MSapapaa"
227 18 249 -1 24 247 2 30 "ABplpaapppp"
228 249 513 -1 106 223 2 30 "Daapp"
229 232 242 -1 -118 119 3 30 "ABaraapaaaa"
230 235 233 -1 -4 251 3 30 "ABplpaapppa"
233 243 29 -1 -156 101 4 26 "ABalapppaaa"
234 24 223 -1 -132 53 4 34 "ABalappppaa"
235 231 30 -1 -124 5 4 34 "ABalappappp"
237 495 243 -1 -94 7 4 38 "ABpraaapap"
238 246 576 -1 -50 3 4 30 "ABpraapapaa"
241 252 244 -1 -82 189 5 26 "ABalppppaad"
242 269 540 -1 -56 137 5 30 "ABalpaapapa"
243 253 27 -1 -44 203 5 30 "ABplpaapaa"
245 266 257 -1 74 145 5 30 "MSaapapa"
247 242 237 -1 306 111 5 34 "Cpapaa"
248 264 34 -1 -36 79 6 30 "ABaraaapapa"
249 265 514 -1 -24 143 6 34 "ABalpaapapp"
250 254 245 -1 -12 1 6 26 "ABpraaappap"
251 263 248 -1 24 5 6 26 "ABprpaappap"
252 33 37 -1 58 9 6 30 "Dpaaa"
253 497 600 -1 82 73 6 30 "MSpapaapp"
254 25 240 -1 136 255 6 26 "ABplppapaap"
255 20 251 -1 226 79 6 38 "Eprpa"
256 30 40 -1 222 7 6 38 "Cppapa"
257 250 273 596 -136 179 7 34 "ABalaaapal"
258 268 267 -1 -84 131 7 30 "ABalpaapaap"
260 273 280 -1 12 231 7 34 "ABplpaaappp"
262 27 264 -1 100 265 7 30 "ABplppapaaa"
263 274 38 -1 120 -5 7 30 "Dppaa"
264 29 260 -1 186 201 7 34 "Capaap"
265 262 252 -1 240 237 7 34 "ABplapappa"
266 281 544 -1 -100 217 8 30 "ABalpppaaa"
267 283 262 -1 -76 217 8 30 "ABalpppapad"
269 271 279 -1 -12 29 8 30 "MSppapaa"
270 275 258 -1 122 205 8 30 "MSaapppa"
271 287 285 -1 156 -51 8 30 "ABprapaapp"
272 34 36 -1 172 -9 8 38 "Cppaaa"
273 31 265 -1 250 205 8 30 "ABplapppaa"
274 294 287 -1 296 21 8 30 "ABarpppppp"
275 528 266 -1 -136 59 9 42 "ABalappapa"
276 277 288 -1 -118 15 9 30 "ABalaappppp"
277 278 274 -1 -122 171 9 34 "ABalppaaaa"
278 280 290 -1 -110 129 9 26 "ABalpaapaaa"
279 284 277 -1 -22 217 9 26 "ABplpaaaaap"
280 272 278 -1 -14 59 9 30 "ABaraapppaa"
282 285 269 -1 36 91 9 38 "ABaraapppp"
283 303 282 -1 62 29 9 30 "MSpppaaa"
284 290 276 -1 -88 11 10 30 "ABpraaaappa"
285 299 291 -1 -66 -19 10 30 "ABpraaaappp"
286 298 292 -1 -62 77 10 26 "ABaraaapapp"
287 270 518 -1 -50 21 10 26 "ABpraaappaa"
288 36 297 -1 -36 241 10 42 "ABplpaaapa"
290 286 319 -1 92 -45 10 30 "ABprapaapa"
291 292 283 -1 114 63 10 38 "Earpa"
292 304 286 -1 162 243 10 38 "ABplppapap"
293 307 305 -1 -132 115 11 30 "ABaraaaapa"
294 306 306 -1 -132 45 11 34 "ABalaappppa"
296 279 289 -1 -110 97 11 30 "ABaraaapaaa"
298 308 307 -1 -66 177 11 30 "MSapaaaa"
299 37 293 -1 -30 -31 11 30 "ABprpaapapa"
300 301 299 -1 -4 -3 11 26 "ABprpaappaa"
301 310 300 -1 6 197 11 26 "MSapaapa"
302 291 294 -1 12 93 11 34 "ABarapaappp"
303 314 295 -1 60 67 11 26 "MSpapaapa"
304 324 312 -1 86 225 11 30 "ABplppaapa"
305 325 595 -1 174 25 11 30 "MSpppaap"
306 305 323 -1 212 -37 11 30 "ABprappaap"
307 296 315 -1 -148 81 12 34 "ABalaaappl"
308 297 296 -1 -74 33 12 30 "ABpraaapaa"
309 319 316 -1 -58 207 12 26 "ABplpaaaaaa"
310 330 308 -1 -54 143 12 38 "ABalpaaapa"
311 309 298 -1 -24 125 12 34 "ABalpaaapp"
312 66 583 -1 2 237 12 30 "ABplpaaappa"
313 311 301 -1 34 171 12 30 "MSaapaaap"
314 312 309 -1 36 1 12 30 "MSppppaa"
315 313 310 -1 40 139 12 26 "MSaapappa"
316 321 311 -1 58 257 12 26 "ABplpaaaapa"
317 315 330 -1 88 253 12 30 "ABplpaaaapp"
318 40 547 -1 154 145 12 34 "Z3"
319 328 314 -1 264 157 12 34 "Capppp"
320 337 317 -1 -20 7 13 26 "ABprpaapaap"
321 505 327 -1 -10 75 13 34 "ABarapaappa"
322 333 328 -1 44 221 13 30 "ABplpapaapp"
323 322 329 -1 80 -3 13 30 "Dpapa"
324 323 320 -1 90 85 13 34 "MSpapapa"
325 334 321 -1 94 145 13 26 "MSaapappp"
326 348 332 -1 138 185 13 26 "MSaapppp"
327 316 44 -1 160 61 13 38 "Z2"
328 326 324 -1 212 131 13 38 "Eplpp"
329 317 45 -1 240 -27 13 30 "ABprappapp"
330 335 313 -1 122 235 14 30 "ABplppappa"
331 349 343 -1 164 227 14 38 "ABplppappp"
332 38 333 -1 178 -37 14 34 "ABprappaaa"
333 318 335 -1 252 223 14 34 "ABplappppa"
334 327 46 -1 262 -9 14 30 "ABprapapap"
335 39 336 -1 292 55 14 34 "ABprapappp"
336 336 348 -1 -104 39 15 34 "ABalaapppa"
337 329 349 -1 -90 127 15 30 "ABaraaaaaa"
338 332 318 -1 -8 163 15 34 "ABalpapppa"
339 320 340 -1 12 -41 15 30 "ABpraappaa"
340 333 361 -1 14 217 15 30 "ABplpapaapa"
342 35 322 -1 206 87 15 38 "Eprpp"
343 339 49 -1 246 191 15 34 "ABplapppap"
344 340 47 -1 266 89 15 38 "Cppppp"
345 341 347 -1 -140 167 16 34 "ABalaaaala"
346 342 350 -1 -98 -1 16 34 "ABpraaaaap"
347 343 338 -1 -82 99 16 34 "ABaraaaaap"
349 37 360 -1 -18 -29 16 30 "ABprpaapapp"
350 354 353 -1 22 99 16 26 "MSpapaaaa"
351 345 382 -1 26 35 16 26 "MSppaapa"
352 346 354 -1 50 89 16 30 "MSpapaaap"
353 355 370 -1 58 27 16 26 "MSpppapp"
354 357 355 -1 120 -3 16 30 "Dpapp"
355 347 364 -1 122 101 16 26 "MSpapappp"
357 368 344 -1 200 23 16 38 "Cppaap"
358 351 366 -1 256 33 16 30 "ABprapppaa"
359 358 346 -1 286 189 16 30 "ABplappppp"
360 361 369 -1 -134 55 17 26 "ABalaaappr"
361 352 337 -1 -136 111 17 30 "ABalaaaarr"
362 362 358 -1 -68 145 17 30 "ABalpaaaap"
363 353 357 -1 -68 189 17 26 "ABalppappaa"
364 365 352 -1 -36 129 17 26 "ABalpappaaa"
365 356 342 -1 72 105 17 26 "MSpapappa"
366 377 373 -1 100 207 17 30 "ABplpapapap"
367 378 387 -1 104 143 17 30 "MSaappap"
368 43 365 -1 206 161 17 34 "ABplpppppa"
369 359 367 -1 300 155 17 30 "Caappv"
370 369 376 -1 -116 145 18 26 "ABalpaapppa"
371 364 339 402 -56 -3 18 34 "ABpraaaapa"
372 337 351 -1 -46 35 18 30 "ABprpaapaaa"
373 370 379 -1 -36 197 18 26 "ABalppappap"
374 63 378 -1 -42 227 18 38 "ABalppaapp"
375 371 598 -1 -28 151 18 30 "ABalpappaap"
376 385 363 -1 14 243 18 30 "ABalppapppp"
377 374 383 -1 32 147 18 34 "ABalpappppp"
380 375 386 -1 78 57 18 30 "MSppaapp"
381 379 374 -1 162 171 18 26 "MSpappaa"
382 44 548 -1 274 7 18 34 "ABprapappa"
383 360 368 -1 310 113 18 30 "Cpappv"
384 390 401 -1 -82 45 19 26 "ABarappppaa"
385 392 391 599 -22 95 19 30 "ABarapapaa"
386 373 381 -1 14 -31 19 38 "ABprpaapppp"
387 396 406 -1 58 203 19 30 "ABplpapapaa"
388 45 385 -1 72 233 19 34 "ABalpapapp"
389 376 372 -1 80 139 19 26 "MSaappaa"
390 404 51 -1 124 211 19 34 "ABplppaapp"
391 398 375 -1 186 227 19 26 "ABplpppaaap"
393 382 389 -1 -144 87 20 34 "ABalaapaaa"
395 383 400 -1 -110 19 20 26 "ABalaappaa"
396 391 53 -1 -62 107 20 34 "ABarapaaaa"
397 386 393 -1 34 1 20 30 "ABprppaaaaa"
398 397 417 -1 152 95 20 26 "MSpappap"
399 399 397 -1 218 97 20 34 "ABprpppppa"
400 389 407 -1 248 207 20 30 "ABplpppaapp"
403 402 526 -1 -50 159 21 30 "ABalpaaaaa"
404 405 395 -1 152 205 21 26 "ABplpppaaaa"
405 387 419 -1 180 105 21 30 "ABprpappppa"
407 388 396 -1 206 221 21 26 "ABplpppaapa"
409 408 422 -1 272 181 21 30 "ABplpppapp"
410 562 409 -1 -106 85 22 26 "ABaraaapppa"
411 401 411 -1 -76 193 22 26 "ABalppapaaa"
412 403 390 -1 -50 31 22 26 "ABprpaaaaaa"
415 428 404 -1 44 151 22 30 "ABalpappapp"
416 395 405 -1 44 107 22 30 "ABarapapppp"
418 409 423 -1 288 151 22 26 "ABplppppppp"
419 48 410 -1 -96 111 23 30 "ABaraaappa"
420 411 54 -1 -76 5 23 34 "ABpraaaaaa"
421 412 432 -1 -26 -7 23 32 "ABprpaaapa"
422 532 52 -1 4 107 23 34 "ABarapapppa"
424 65 554 -1 98 19 23 34 "ABprppaapa"
425 414 437 -1 150 -17 23 30 "ABprppapaap"
426 47 418 -1 184 -5 23 34 "ABprppapap"
427 410 424 -1 290 75 23 30 "ABprappppp"
428 49 62 -1 -90 141 24 30 "ABalpaappa"
429 417 426 -1 20 227 24 30 "ABalppapapp"
430 418 443 458 36 63 24 26 "ABprpapaaa"
432 419 435 -1 78 87 24 30 "ABprpapppaa"
433 421 448 -1 116 -31 24 30 "ABprppapaaa"
434 422 428 -1 122 103 24 34 "ABprpapppap"
435 430 450 -1 122 143 24 30 "ABplpapppaa"
436 432 439 -1 220 191 24 26 "ABplpppapaa"
437 424 63 -1 274 25 24 34 "ABprappppa"
438 425 399 463 282 113 24 30 "ABprpppppp"
439 426 440 -1 -92 169 25 30 "ABalpaapppp"
440 415 442 -1 -34 51 25 26 "ABarappppap"
441 435 465 -1 -14 207 25 26 "ABalppapapa"
442 447 445 -1 52 209 25 30 "ABalpapapap"
443 429 427 -1 74 53 25 30 "ABprpapapaa"
444 438 446 -1 78 141 25 30 "ABplpappaap"
445 440 451 -1 140 191 25 30 "ABplppppaaa"
446 450 438 -1 164 173 25 26 "ABplppppaap"
447 451 452 461 176 133 25 26 "ABplpapppp"
448 442 429 -1 190 201 25 30 "ABplppppapa"
450 444 433 -1 -20 179 26 26 "ABalpapaaap"
451 445 456 -1 -6 39 26 26 "ABarapppppa"
452 427 434 -1 8 155 26 30 "ABalpappapa"
453 437 467 -1 28 -13 26 30 "ABprpaaappp"
454 439 459 -1 100 55 26 26 "ABprpapapap"
455 448 449 -1 120 61 26 26 "ABprpapappa"
456 453 55 -1 216 153 26 30 "ABplpppapap"
457 434 453 -1 246 169 26 26 "ABplppppppa"
458 64 56 -1 -108 67 27 34 "ABalaapaap"
459 443 455 -1 -56 161 27 30 "ABalpapaaaa"
460 446 479 -1 0 67 27 22 "ABarapppapp"
461 436 466 -1 0 113 27 26 "ABarapapapa"
462 457 472 -1 16 197 27 30 "ABalpapapaa"
463 50 444 -1 40 21 27 30 "ABprpapaap"
464 441 460 -1 146 15 27 34 "ABprppappa"
465 462 471 -1 166 83 27 26 "ABprppppaaa"
466 463 474 -1 192 103 27 30 "ABprppppaap"
469 466 454 477 -68 59 28 34 "ABarapppaa"
470 456 494 -1 -4 -1 28 30 "ABprpaaappa"
471 458 468 -1 30 125 28 26 "ABarapapapp"
472 459 482 -1 42 167 28 30 "ABplpappaaa"
473 449 469 -1 152 51 28 30 "ABprppaapp"
474 461 470 -1 154 105 28 26 "ABplpapppap"
475 452 487 -1 190 51 28 22 "ABprpppaaaa"
476 471 490 -1 244 51 28 30 "ABprpppaap"
477 454 476 -1 -72 89 29 26 "ABaraaapppp"
478 455 65 66 -40 23 29 26 "ABalaapapp"
479 478 493 -1 -30 93 29 34 "ABarappaaa"
480 472 478 -1 -20 145 29 38 "ABalpapaap"
481 468 483 -1 94 -11 29 26 "ABprpaaaapp"
482 53 484 -1 106 125 29 30 "ABprpappapp"
483 469 485 -1 116 13 29 30 "ABarappappp"
484 460 486 -1 128 85 29 26 "ABprpapappp"
485 470 489 -1 236 83 29 26 "ABprpppapaa"
487 467 492 -1 -38 61 30 26 "ABarapppapa"
488 473 480 -1 16 21 30 26 "ABarapppppp"
489 479 495 -1 18 95 30 34 "ABarappaap"
490 474 501 -1 62 -1 30 30 "ABprpaaaapa"
491 477 498 -1 198 79 30 26 "ABprppppapa"
492 452 488 -1 210 45 30 26 "ABprpppaaap"
493 484 499 -1 218 115 30 30 "ABprppppapp"
494 465 57 -1 244 125 30 34 "ABprpppapap"
495 480 481 -1 20 161 31 30 "ABprpappaaa"
496 483 503 -1 72 29 31 26 "ABarappappa"
503 489 589 -1 -110 17 -7 26 "ABalapppppa"
505 162 157 -1 -114 211 -5 26 "ABalapaappp"
506 12 564 -1 198 83 -5 26 "Eprap"
511 16 211 -1 -124 171 2 30 "ABalapaappa"
514 499 515 -1 10 195 5 34 "MSapapap"
515 559 570 -1 -102 187 7 30 "ABalapaapa"
517 500 331 -1 82 177 13 30 "MSapaapp"
519 573 524 -1 42 -41 15 34 "ABpraappap"
520 62 362 -1 20 17 17 32 "MSppapap"
522 413 394 -1 94 179 21 34 "ABplpappap"
523 384 413 -1 -12 215 22 30 "ABalppapppa"
524 406 416 -1 156 51 22 34 "MSpapppp"
525 423 420 -1 216 159 23 26 "ABprpappppp"
538 186 22 -1 -76 -15 -3 30 "ABpraapaapp"
542 227 227 -1 -52 5 1 38 "ABpraapapap"
548 420 436 -1 104 185 24 26 "ABplpapappa"
551 481 502 -1 52 67 31 30 "ABarappapap"
560 563 431 -1 -108 25 23 34 "ABalaappap"
561 3 3 -1 62 69 -17 38 "ABarpaappp"
565 492 509 -1 50 95 -4 30 "MSaaappp"
566 288 271 -1 258 29 9 30 "Cpppap"
571 555 136 -1 287 102 -10 33 "Caaapp"
572 556 585 -1 261 76 -16 36 "Caaapa"
573 557 586 -1 262 129 20 36 "Caapa"
574 558 587 -1 283 96 -14 36 "Cpaapp"
575 560 588 -1 -137 64 -11 28 "ABalapppapa"
576 561 119 -1 -135 112 -12 28 "ABalapapapa"
577 564 590 -1 -130 142 -6 28 "ABalapappaa"
579 566 506 -1 -89 115 -17 24 "ABalapapapp"
580 567 500 -1 16 53 30 28 "ABarappapaa"
581 568 591 -1 -68 127 0 27 "ABaraapaapa"
582 210 163 -1 191 243 -3 32 "ABplappaap"
583 569 592 -1 281 207 -4 34 "ABarppappp"
584 570 142 -1 -57 125 -8 26 "MSaaapaaa"
585 302 593 -1 12 139 11 30 "MSaapaaaa"
586 363 594 -1 -63 62 19 30 "MSppaaaa"
587 571 528 -1 39 71 1 29 "MSpaapapp"
588 99 90 -1 155 46 -18 35 "Cpaaaa"
589 507 597 -1 -2 157 19 31 "ABalpappppa"
590 6 16 -1 62 248 -7 36 "ABplaapppa"
591 574 522 -1 58 -43 10 36 "ABpraapppa"
592 366 412 -1 -9 -33 20 32 "ABprpaapppa"
