1 87 62 -1 12 61 -21 38 "ABarpaappa"
2 86 1 -1 -14 73 -21 34 "ABarpaapap"
3 88 68 -1 16 207 -19 38 "ABplaaappp"
4 7 72 -1 70 11 -19 38 "ABarpppapa"
5 99 100 -1 -82 173 -15 30 "ABalapapppp"
6 111 91 -1 -112 195 -16 34 "ABplaapaaaa"
7 13 5 -1 154 65 -7 42 "Epraa"
8 169 7 -1 308 107 -8 38 "Cpapap"
9 16 14 -1 96 115 -4 42 "Ealaa"
11 178 159 -1 216 241 -6 34 "ABplappapp"
12 624 18 -1 130 113 -3 38 "Ealap"
13 190 191 -1 -56 245 -3 34 "ABplpaapapa"
14 191 13 -1 -28 141 -3 34 "ABaraapaapp"
17 22 20 -1 266 173 -2 42 "Cappap"
18 209 183 -1 178 -15 -3 30 "Cpppaaa"
19 28 211 -1 222 5 -1 38 "Cppapa"
20 71 21 -1 -116 117 -1 38 "MSaaaaaa"
21 235 221 -1 266 -11 -2 38 "ABprapapaa"
22 231 226 -1 8 -19 1 38 "ABpraaapppa"
23 223 219 -1 180 49 0 38 "Earpp"
24 239 243 -1 84 127 2 34 "MSaapaapp"
25 249 25 -1 304 133 2 34 "Cpapaa"
26 36 28 -1 228 125 8 38 "Eplpa"
27 33 27 -1 222 77 7 46 "Eprpa"
28 265 30 -1 96 205 4 34 "Daapp"
29 41 278 -1 156 -19 6 34 "Cppaaa"
30 310 31 -1 126 115 8 38 "Ealpa"
32 296 308 -1 -42 155 9 34 "ABalpaaapa"
33 50 328 -1 -14 69 11 38 "ABarapaappa"
34 311 48 -1 174 151 9 38 "Z3"
35 302 597 -1 226 199 10 38 "Capapp"
36 566 587 -1 -102 133 13 30 "ABaraaaaaaa"
37 350 35 -1 -6 211 12 38 "ABplpaaappa"
39 337 322 -1 -166 93 12 26 "ABalaaapplr"
40 49 327 -1 -44 81 12 34 "ABarapaapa"
41 52 33 -1 200 93 13 42 "Eprpp"
42 336 32 -1 312 91 12 38 "Caappd"
43 55 364 -1 -24 137 17 26 "ABalpappaap"
44 389 359 -1 294 67 16 30 "ABprapapppp"
45 404 414 -1 -70 77 19 30 "MSppaaaa"
47 433 401 -1 -38 35 19 30 "ABprpaaaaap"
48 56 454 -1 -6 235 20 38 "ABalppaappp"
50 445 457 -1 46 17 22 26 "ABprppaaaap"
51 61 43 -1 258 135 26 42 "ABprpppapap"
54 527 555 -1 198 79 29 26 "ABprppppapa"
57 283 301 -1 -132 207 7 30 "ABalaaapalr"
58 34 258 -1 -14 189 5 34 "MSapapap"
59 318 600 -1 192 17 9 26 "MSpppaap"
60 314 304 -1 -104 7 10 38 "ABpraaaappa"
61 360 351 -1 -66 169 13 30 "MSapaaaa"
62 421 443 -1 22 39 20 34 "ABprppaaaaa"
64 383 50 -1 2 35 15 30 "MSppapap"
68 83 55 -1 -86 95 -22 26 "ABarpaaapa"
69 1 59 -1 -88 67 -21 34 "ABarpapapa"
70 85 61 -1 -40 111 -21 34 "ABplaaaapp"
71 89 56 -1 16 167 -21 26 "ABarppaaap"
72 94 71 -1 58 213 -21 34 "ABarppaaaa"
73 90 63 -1 64 85 -21 38 "ABarppaapa"
74 91 79 -1 94 209 -21 30 "ABarppapaa"
75 103 45 -1 180 201 -21 34 "ABplappapa"
76 100 65 -1 -70 191 -20 30 "ABplaaapaa"
77 84 60 -1 -60 63 -20 26 "ABarpaapaa"
78 3 67 -1 -16 213 -20 38 "ABplaaappa"
79 92 2 -1 156 91 -20 38 "Cpaaap"
80 98 64 -1 -92 111 -19 26 "ABarpaaaapp"
81 2 44 -1 -60 105 -19 30 "ABplaaaapa"
82 93 78 -1 -40 27 -19 38 "ABarpapapp"
83 635 70 -1 44 171 -19 34 "ABplapaaaap"
84 5 73 -1 102 95 -19 34 "Caaaaa"
85 95 663 -1 128 43 -19 38 "Cpaaaa"
86 102 81 -1 142 219 -19 30 "ABarppapap"
87 104 82 -1 220 201 -19 30 "ABarppappa"
88 105 90 -1 -134 149 -18 30 "ABplaapaapp"
89 96 83 -1 -122 101 -18 30 "ABarpaaaapa"
90 97 92 -1 -106 139 -18 34 "ABplaaaaaa"
91 107 3 -1 -70 141 -18 30 "ABplaaaaapp"
92 113 66 -1 -32 167 -18 30 "MSapappa"
93 106 69 -1 36 129 -18 30 "MSappppa"
94 114 87 -1 34 199 -17 30 "ABplapaaaaa"
95 109 88 -1 78 143 -17 30 "MSappppp"
96 101 85 -1 114 187 -17 30 "ABarppaapp"
97 67 80 -1 128 147 -17 38 "Dappa"
98 6 74 -1 184 133 -17 34 "Dappp"
99 8 93 -1 -18 135 -16 34 "MSapappp"
100 108 86 -1 14 5 -16 30 "ABarpppaaa"
101 115 84 -1 36 27 -16 34 "ABarpaappp"
102 110 89 -1 220 81 -16 34 "Cpaapa"
103 112 96 -1 -118 75 -15 26 "ABarpaaappa"
104 112 97 -1 -96 59 -15 26 "ABarpaaappp"
105 117 98 -1 -32 85 -15 30 "MSaaaapaa"
106 583 560 -1 -18 205 -15 30 "ABplaapappp"
107 122 94 -1 264 195 -15 34 "ABplapapaa"
109 126 101 -1 -50 187 -14 34 "ABplaapappa"
110 119 112 -1 154 183 -14 30 "Dapap"
111 120 104 -1 190 177 -14 30 "Cappaaa"
112 121 113 -1 236 141 -14 30 "Cappaap"
113 130 115 -1 -112 165 -13 26 "ABalapapppa"
114 125 106 -1 -80 203 -13 34 "ABplaapaaap"
116 118 108 -1 32 149 -13 30 "MSapppap"
117 134 95 127 -144 93 -12 34 "ABarpaaaaa"
118 129 114 -1 -126 191 -12 34 "ABalapaaapp"
119 124 105 -1 -124 125 -12 22 "ABalapapaa"
120 127 4 -1 -28 237 -12 34 "ABplaaapap"
121 9 102 -1 -2 81 -12 30 "MSaaaapap"
122 131 107 -1 10 107 -12 26 "MSaaaappa"
123 69 109 -1 70 99 -12 34 "MSaaappp"
124 132 110 -1 80 171 -12 30 "Daaap"
126 135 135 -1 -134 151 -11 26 "ABalapappap"
127 136 116 -1 -50 33 -11 30 "MSppappp"
128 11 117 -1 -46 103 -11 30 "MSaaaaapp"
129 139 118 -1 -20 129 -11 30 "MSaaapaap"
130 140 125 -1 -2 29 -11 34 "MSpppppa"
131 10 103 -1 36 79 -11 30 "MSpaaapa"
132 137 119 -1 60 203 -11 34 "ABplapaaapa"
133 133 120 -1 82 227 -11 34 "ABplapaaapp"
134 145 141 -1 -162 135 -10 30 "ABplaapaapa"
135 68 123 -1 -122 37 -10 34 "ABarpapaaa"
136 149 139 -1 10 179 -10 30 "MSapapaa"
137 141 132 -1 24 215 -10 30 "ABalppppppa"
138 142 9 -1 42 115 -10 30 "MSaaaappp"
139 12 111 -1 104 9 -10 30 "Dpppa"
140 153 6 -1 154 -5 -10 38 "Dpppp"
141 143 122 -1 210 177 -10 26 "Capapaa"
142 162 150 -1 -152 31 -9 30 "ABpraapaaap"
143 164 136 -1 -96 1 -9 30 "ABarpappaa"
144 147 124 -1 -48 69 -9 34 "MSpaaaaa"
145 15 138 -1 2 -31 -9 34 "ABarpapppp"
146 159 140 -1 28 -9 -9 30 "ABprapaaaaa"
147 160 8 -1 62 21 -9 30 "MSpppppp"
149 154 134 -1 212 11 -9 30 "Cpppaap"
150 14 149 -1 278 141 -9 34 "Capppa"
151 580 128 -1 -116 115 -8 30 "ABalapapapa"
152 156 129 -1 -106 199 -8 30 "ABalppppapp"
153 157 178 -1 -86 35 -8 30 "ABarpapaapp"
154 158 144 -1 -80 103 -8 30 "MSaaaaapa"
155 148 147 -1 -14 199 -8 30 "ABplaapapap"
156 631 170 -1 26 149 -8 30 "ABaraapapap"
158 155 162 -1 -162 69 -7 26 "ABpraapaaaa"
160 642 667 -1 -144 105 -7 34 "ABalappaap"
161 163 609 -1 -126 73 -7 22 "ABalapppapa"
162 165 167 -1 -68 205 -7 30 "ABalpppappp"
163 167 11 -1 -38 -23 -7 34 "ABarpapppa"
164 166 145 -1 -42 181 -7 26 "ABplaapapaa"
165 193 151 -1 2 83 -7 30 "MSpaaappa"
166 172 152 -1 4 119 -7 26 "MSaaapapa"
167 173 148 -1 52 -47 -7 30 "ABarpppaap"
169 152 12 -1 110 -35 -7 30 "ABarpppapp"
170 161 155 -1 130 247 -7 34 "ABplapaapp"
171 186 156 -1 140 203 -7 26 "Capaaaa"
172 143 160 -1 244 181 -7 26 "Capapap"
173 180 176 -1 -154 183 -6 30 "ABalapaaapa"
175 168 153 -1 6 239 -6 30 "ABalppppppp"
176 174 172 -1 46 227 -6 30 "ABplpaappap"
178 186 158 -1 184 201 -6 26 "Capaaap"
179 179 161 -1 280 211 -6 34 "ABarppappp"
180 188 189 -1 -140 149 -5 26 "ABalapappaa"
181 181 177 -1 -120 163 -5 34 "ABalapaaaa"
182 632 180 -1 4 159 -5 30 "ABaraapapaa"
183 175 173 -1 54 191 -5 30 "Daaaa"
184 196 154 -1 74 169 -5 30 "MSappaaa"
185 176 174 -1 106 207 -5 30 "Dapaa"
187 18 157 -1 184 -47 -5 34 "ABprappapa"
189 189 137 -1 -48 25 -4 34 "MSppappa"
190 183 146 -1 -20 61 -4 34 "MSpaaaapp"
191 199 17 -1 6 7 -4 30 "MSppppap"
192 20 171 -1 46 63 -4 34 "MSpaaappp"
193 185 612 -1 88 53 -4 26 "Earaa"
194 187 184 -1 262 41 -4 30 "Cppppa"
195 212 185 -1 -112 193 -3 34 "ABalapaappp"
196 198 -1 -1 -100 23 -3 22 "ABalapppppp"
197 557 566 -1 -52 73 -3 34 "MSpaaaapa"
198 192 567 -1 -12 207 -3 34 "ABalpppppap"
199 184 564 -1 50 119 -3 22 "MSaaapapp"
200 221 187 -1 138 -17 -3 30 "Dppap"
201 233 175 -1 154 233 -3 34 "ABplappaaa"
202 586 652 -1 166 107 -3 30 "Eplaa"
203 21 188 -1 210 73 -3 34 "Eprap"
205 214 190 -1 -60 -25 -2 30 "ABarpappap"
206 25 202 -1 -50 201 -2 26 "ABalppppaav"
207 215 203 -1 -38 -5 -2 30 "ABpraapappp"
208 206 205 -1 6 217 -2 38 "ABplpaappaa"
209 216 193 204 14 53 -2 30 "MSpaapaa"
210 207 206 -1 22 -33 -2 26 "ABprapaaaap"
211 217 192 -1 22 25 -2 30 "MSpppaaa"
212 195 208 -1 58 5 -2 22 "Dpaap"
213 200 186 -1 76 27 -2 26 "MSpppapa"
214 23 218 -1 92 -59 -2 26 "ABarppppaa"
215 224 212 -1 218 -33 -2 30 "ABarpppppa"
216 234 213 -1 248 237 -2 30 "ABplapapap"
217 211 197 -1 296 199 -2 26 "ABplapapppa"
218 24 657 -1 -148 85 -1 26 "ABalapppaap"
219 588 565 -1 -142 45 -1 30 "ABalappppap"
220 226 214 -1 -98 -3 -1 30 "ABpraapaapp"
221 227 164 239 -96 219 -1 38 "ABalpppaap"
222 205 215 -1 -86 157 -1 30 "MSapaaap"
223 230 216 -1 -68 11 -1 26 "ABpraapappa"
225 26 22 -1 -24 195 -1 26 "ABalpppppaa"
226 30 47 -1 48 155 -1 30 "MSaapaapa"
227 241 227 -1 136 -55 -1 30 "ABarppppap"
228 31 195 -1 218 203 -1 34 "Capaap"
229 236 228 -1 -164 127 0 30 "ABalaaaparl"
230 225 198 -1 -134 13 0 30 "ABpraapaapa"
231 204 200 -1 -88 119 0 30 "ABaraapaaap"
232 213 201 -1 -62 129 0 34 "ABaraapaapa"
233 218 217 -1 60 -25 0 30 "ABprapaaapp"
234 240 19 -1 128 61 0 42 "Earap"
235 202 220 -1 186 233 0 34 "ABplappaap"
236 258 254 -1 -146 163 1 30 "ABalaaaparr"
237 243 238 -1 -116 181 1 30 "ABalapaappa"
238 37 231 -1 -78 201 1 26 "ABalapaapap"
240 72 615 -1 -58 183 1 26 "ABalppppaad"
241 636 240 -1 -34 223 1 26 "ABplpaapaap"
242 237 225 -1 -24 53 1 34 "ABaraappapp"
243 246 233 -1 -18 153 1 30 "ABalpaapapp"
244 252 23 -1 18 87 1 30 "MSpaapapa"
245 629 242 -1 26 201 1 34 "MSapppaa"
247 242 570 -1 198 83 1 22 "Eplap"
248 634 26 -1 -152 75 2 30 "ABalappppaa"
250 229 222 -1 -80 83 2 30 "ABaraappaap"
251 245 232 -1 -32 9 2 30 "ABpraapapap"
252 253 241 -1 18 167 2 30 "ABaraapappa"
253 247 234 -1 90 -35 2 26 "ABprapaaapa"
254 248 24 -1 198 173 2 30 "MSappaap"
256 251 229 -1 -102 89 3 26 "ABaraappaaa"
258 656 245 -1 -32 247 3 30 "ABplpaapapp"
259 35 248 -1 62 209 3 30 "Daapa"
260 255 250 -1 126 203 3 30 "MSaapppa"
261 256 616 -1 -168 107 4 30 "ABalaaappll"
263 271 617 -1 -56 137 4 38 "ABalpaapapa"
265 262 246 -1 20 129 4 30 "ABaraapappp"
268 263 247 -1 60 151 4 30 "MSaapappa"
269 268 262 -1 264 203 4 34 "ABplapppaa"
271 270 255 -1 -104 113 5 34 "ABaraapaaaa"
272 260 257 -1 -62 25 5 30 "ABpraapapaa"
273 285 244 -1 -56 189 5 30 "ABplpaapaaa"
274 281 29 -1 50 -3 5 34 "Dpaaa"
277 266 261 -1 160 195 5 26 "MSaapppp"
278 290 300 -1 246 235 5 30 "ABplapappa"
279 38 253 -1 296 61 5 34 "Cpappd"
281 275 266 -1 -132 57 6 26 "ABalappapa"
282 294 267 -1 -118 -7 6 26 "ABpraaapapp"
283 284 268 -1 -94 51 6 30 "MSppaaap"
284 259 275 -1 -88 135 6 30 "ABalpaapaap"
285 40 282 -1 -16 131 6 34 "ABalpaaapp"
286 286 271 -1 44 99 6 30 "ABaraappppp"
287 267 252 -1 250 19 6 30 "Cpppapa"
288 282 264 -1 296 175 6 30 "ABplapapppp"
289 291 265 -1 -164 63 7 30 "ABalappappa"
290 292 273 -1 -144 139 7 26 "ABalaaaarlp"
291 277 578 -1 -98 217 7 26 "ABalpppaaaa"
292 626 293 -1 2 249 7 26 "ABplpaapppa"
293 279 277 -1 12 -9 7 30 "ABprpaappap"
294 309 294 -1 28 245 7 30 "ABplaappap"
295 45 270 -1 34 51 7 30 "ABaraapppap"
296 287 259 -1 80 51 7 30 "MSpapaapp"
297 299 272 -1 88 157 7 30 "MSaapapa"
299 300 260 -1 120 71 7 38 "Earpa"
300 303 49 -1 -154 113 8 26 "ABalaaaarrp"
301 37 653 -1 -100 183 8 26 "ABalapaapaa"
303 39 291 -1 -14 -31 8 30 "ABpraaapppp"
304 43 285 -1 104 -7 8 34 "Dppaa"
305 312 296 -1 192 219 8 30 "ABplppapapp"
307 313 287 -1 284 7 8 30 "ABarpppppp"
309 293 303 -1 -124 171 9 26 "ABalaaaala"
310 315 279 -1 -80 89 9 26 "ABaraaapaap"
311 295 280 -1 -62 233 9 30 "ABalpppapav"
312 316 289 -1 -48 117 9 22 "ABalpappaaa"
313 297 290 -1 -20 183 9 22 "MSapaapa"
315 306 292 -1 2 159 9 30 "ABalpapppa"
316 44 284 -1 4 53 9 34 "ABaraapppaa"
317 308 311 -1 16 101 9 34 "ABarapaappp"
318 46 318 -1 58 153 9 30 "MSaapaaap"
319 320 302 -1 -126 121 10 30 "ABaraaaapa"
320 305 309 -1 -38 207 10 26 "ABplpaaaaap"
321 298 312 -1 34 165 10 26 "MSaapaaaa"
322 332 319 -1 122 227 10 26 "ABplppapaaa"
323 333 315 -1 160 231 10 26 "ABplppapapa"
325 319 298 -1 212 171 10 30 "ABplpppppaa"
326 335 320 -1 264 185 10 26 "ABplapppapa"
328 75 323 -1 -154 165 11 26 "ABalaaaarla"
329 339 648 -1 -130 59 11 26 "ABalaappppa"
331 323 325 -1 -82 11 11 30 "ABpraaapaad"
332 324 337 -1 -72 137 11 22 "ABaraaaaaap"
333 326 307 -1 -46 15 11 34 "ABpraaappaa"
334 340 338 -1 -28 245 11 30 "ABplpaaapap"
335 329 341 -1 52 219 11 26 "ABplppaaaap"
336 330 317 -1 58 51 11 30 "MSpapaapa"
337 331 313 -1 66 191 11 26 "MSappapp"
340 344 314 -1 138 209 11 26 "ABplppapaap"
341 346 333 -1 268 57 11 30 "Cpppapp"
342 347 334 -1 294 27 11 26 "ABprapapppa"
343 322 324 -1 -100 93 12 26 "ABaraaapaaa"
344 341 340 -1 24 -3 12 30 "MSppppaa"
345 353 329 -1 62 3 12 30 "Dpapa"
347 357 335 -1 -162 67 13 30 "ABalaaapprl"
348 348 362 -1 -118 203 13 30 "ABalppaaapa"
350 364 355 -1 92 1 13 26 "Dpapp"
351 600 331 -1 168 51 13 38 "Z2"
352 366 51 -1 190 -27 13 30 "ABprappaap"
353 51 332 -1 214 7 13 34 "Cppaap"
355 369 361 -1 -140 139 14 30 "ABalpaapppa"
356 370 347 -1 -138 91 14 26 "ABalaapaaa"
357 358 348 -1 -104 35 14 26 "ABalaapppaa"
358 349 350 -1 -90 181 14 30 "ABalppappaa"
359 372 336 -1 -78 45 14 30 "ABpraaapaav"
360 373 363 -1 -68 -15 14 30 "ABprpaapapa"
361 563 352 -1 -36 11 14 30 "ABprpaapaap"
362 351 339 -1 -14 -7 14 30 "ABprpaappaa"
363 361 392 -1 16 231 14 26 "ABplpaapppp"
364 342 353 -1 28 203 14 26 "ABplppaaaaa"
365 352 354 -1 42 69 14 26 "ABaraappppa"
367 386 356 -1 96 77 14 34 "MSpapapa"
368 365 379 -1 104 219 14 34 "ABplppaapap"
369 375 343 -1 108 103 14 26 "MSpapappp"
370 76 357 -1 120 19 14 34 "MSpapppa"
371 343 344 -1 130 -39 14 34 "ABprapaapp"
373 378 345 -1 188 185 14 26 "MSpappaa"
374 54 373 -1 224 -27 14 30 "ABprappapp"
375 367 374 -1 256 221 14 30 "ABplappppa"
376 48 358 -1 266 147 14 30 "Capppp"
377 355 383 -1 296 183 14 34 "ABplappppp"
378 356 360 -1 312 131 14 34 "Cpappv"
380 371 349 -1 -102 59 15 26 "ABalaapppap"
381 359 674 -1 -74 215 15 26 "ABalpppaaap"
382 354 368 -1 74 73 15 26 "MSpapappa"
383 601 369 -1 84 129 15 30 "MSaappaa"
384 363 330 -1 90 -41 15 34 "ABpraapppp"
385 396 370 -1 94 175 15 26 "ABplpapapap"
386 387 371 -1 114 189 15 26 "ABplppappaa"
387 399 381 -1 176 211 15 34 "ABplppappp"
388 53 346 -1 218 129 15 26 "Eplpp"
389 379 382 -1 254 -17 15 30 "ABprapapap"
390 368 376 -1 268 93 15 34 "Cppppp"
391 382 390 -1 -60 47 16 30 "ABprpaapaaa"
392 393 378 -1 -52 139 16 26 "ABalpaaaapp"
393 78 400 -1 -48 219 16 30 "ABplpaaapaa"
394 565 365 -1 12 149 16 34 "ABalpappppp"
395 602 671 -1 54 133 16 34 "ABalpappapp"
396 374 366 -1 54 35 16 30 "MSpppapp"
397 385 367 -1 58 91 16 26 "MSpapaaap"
398 397 380 -1 106 133 16 26 "MSaappap"
399 398 394 -1 142 211 16 26 "ABplppappap"
400 377 396 -1 154 -17 16 34 "ABprappaaa"
402 567 585 -1 262 181 16 26 "ABplapppapp"
403 380 375 -1 270 29 16 34 "ABprapppaa"
404 381 385 -1 -158 117 17 30 "ABalaaaarra"
405 644 666 -1 -128 43 17 26 "ABalaappapa"
406 392 387 -1 -90 105 17 22 "ABaraaaaapa"
407 418 404 -1 -14 103 17 26 "ABarapapaap"
408 395 406 -1 66 203 17 22 "ABplppaapaa"
409 424 397 -1 192 47 17 26 "MSpappap"
411 388 409 -1 228 65 17 30 "ABprpppppaa"
412 415 377 -1 -150 55 18 30 "ABalaaapprr"
413 400 399 -1 -120 119 18 34 "ABaraaappaa"
414 401 413 -1 -110 181 18 30 "ABalaaaalpp"
415 391 386 -1 -104 13 18 30 "ABpraaaaap"
416 402 424 -1 -88 209 18 26 "ABalppaaapp"
417 403 388 -1 -84 147 18 26 "ABalpaaaapa"
418 405 415 -1 -58 185 18 26 "ABalppappap"
419 406 402 -1 -36 -17 18 26 "ABprpaapapp"
420 408 391 -1 2 71 18 38 "ABarapappa"
421 569 590 -1 40 73 18 26 "MSpapaaaa"
422 411 420 -1 114 221 18 34 "ABplpaaaapp"
423 412 395 -1 148 157 18 34 "MSapaapp"
424 413 408 -1 216 157 18 26 "ABplpppppap"
425 417 417 -1 -32 81 19 30 "ABarapapaaa"
426 407 403 -1 -30 201 19 30 "ABalppapppa"
427 570 418 -1 -16 -7 19 30 "ABprpaapppa"
428 422 405 -1 28 103 19 26 "ABarapapppp"
429 409 419 -1 34 211 19 26 "ABplpapaapp"
430 434 428 -1 42 183 19 26 "ABplpapaaap"
431 446 429 -1 76 179 19 26 "ABplpapapaa"
432 435 407 -1 154 37 19 34 "MSpapppp"
433 425 434 -1 204 215 19 26 "ABplpppaaap"
435 416 425 -1 -58 11 20 26 "ABpraaaapav"
436 444 426 -1 -54 153 20 38 "ABalpaaaaa"
438 459 447 -1 112 161 20 26 "ABplpapappa"
440 437 433 -1 194 13 20 26 "ABprppapapp"
441 426 421 -1 206 133 20 30 "ABprpappppp"
442 428 410 -1 260 203 20 26 "ABplpppaapp"
443 440 437 -1 266 5 20 34 "ABprapappa"
444 441 449 -1 298 115 20 30 "ABprppppppp"
445 451 450 -1 294 155 20 38 "ABplppppppp"
446 479 465 -1 -130 75 21 34 "ABalaapaap"
448 432 423 -1 -94 69 21 30 "ABarappppaa"
449 442 451 -1 -90 37 21 26 "ABpraaaaaaa"
450 443 452 -1 -62 -9 21 30 "ABpraaaapad"
452 447 459 -1 92 27 21 26 "ABprppaapap"
453 469 446 -1 90 59 21 26 "ABprpapapap"
454 460 430 -1 112 103 21 30 "ABprpapppap"
455 461 463 -1 148 195 21 30 "ABplppaappp"
456 423 431 -1 150 79 21 30 "MSppaapp"
457 436 432 -1 172 123 21 30 "ABprpappppa"
459 438 435 -1 224 99 21 26 "ABprpppppap"
460 476 53 -1 262 71 21 26 "ABprapppapp"
461 430 422 -1 -122 105 22 30 "ABaraaapppa"
462 452 440 -1 -114 135 22 26 "ABalpaappaa"
463 464 441 -1 -104 165 22 26 "ABalpaapppp"
464 465 466 -1 -88 189 22 30 "ABalppapaaa"
465 453 442 -1 -78 119 22 26 "ABarapaaaaa"
466 456 456 -1 8 181 22 26 "ABplpapaaaa"
467 457 444 -1 52 131 22 34 "ABarapapapp"
468 458 458 -1 80 -13 22 30 "ABprapaapa"
469 468 472 -1 86 93 22 26 "ABprpapppaa"
470 449 460 -1 112 3 22 26 "ABprppapaaa"
471 472 462 -1 124 41 22 30 "ABprppappaa"
472 471 461 -1 124 187 22 26 "ABplppaappa"
473 474 476 -1 174 193 22 30 "ABplpppaaaa"
474 462 477 -1 178 159 22 26 "ABplppppaap"
475 450 37 -1 226 39 22 30 "Cppapp"
476 439 448 -1 236 187 22 26 "ABplpppaapa"
477 571 453 -1 -56 45 23 30 "ABprpaaaaaa"
478 77 455 -1 8 7 23 22 "ABprpaapppp"
481 475 492 -1 204 185 23 26 "ABplppppapa"
482 477 632 -1 270 51 23 26 "ABprapppapa"
483 491 493 -1 282 161 23 30 "ABplppppppa"
484 480 678 -1 -98 111 24 26 "ABaraaappap"
485 482 494 -1 -64 11 24 26 "ABpraaaaaap"
486 59 469 -1 -22 31 24 26 "ABprpaaappa"
487 573 484 -1 -14 157 24 34 "ABalpappapa"
488 454 496 -1 -2 -15 24 26 "ABpraappaa"
489 485 471 -1 14 107 24 34 "ABarapapppa"
492 467 485 -1 62 43 24 22 "ABprppaapaa"
493 488 669 -1 90 209 24 30 "ABalpapappa"
494 490 474 -1 120 147 24 34 "ABplpapappp"
495 495 40 -1 142 133 24 26 "ABplpapppaa"
496 473 475 -1 144 13 24 30 "ABprppapaap"
497 505 41 -1 164 163 24 30 "ABplppppaaa"
498 496 490 -1 164 125 24 26 "ABplpappppa"
499 507 478 -1 200 135 24 26 "ABplpappppp"
500 499 501 -1 232 185 24 30 "ABplpppapaa"
501 478 464 -1 294 81 24 30 "ABprappppp"
502 481 481 -1 -86 147 25 22 "ABalpaappap"
503 79 468 -1 -46 117 25 30 "ABarapaaap"
504 492 504 -1 -30 -3 25 26 "ABprpaaapap"
505 484 495 -1 -2 25 25 26 "ABprpaaappp"
506 494 506 -1 18 133 25 26 "ABarapapapa"
507 503 497 -1 32 163 25 26 "ABplpappaaa"
508 470 499 -1 108 79 25 26 "ABprpapappa"
509 515 489 -1 132 97 25 26 "ABprpapappp"
510 497 491 -1 176 93 25 26 "ABprppppaaa"
511 60 52 -1 198 99 25 30 "ABprppppaap"
512 498 42 -1 230 145 25 30 "ABplpppapap"
513 500 502 -1 260 27 25 34 "ABprappppa"
514 508 512 -1 278 109 25 30 "ABprppppppa"
515 501 483 -1 -58 163 26 26 "ABalpapaaaa"
516 493 532 -1 10 213 26 34 "ABalppapapp"
518 489 487 -1 102 43 26 30 "ABarappappp"
519 506 500 -1 186 29 26 30 "ABprppappp"
521 510 530 -1 -56 187 27 30 "ABalppapaap"
522 522 517 -1 -24 191 27 26 "ABalppapapa"
523 523 518 -1 -20 89 27 26 "ABarappaaap"
524 62 520 -1 -14 171 27 30 "ABalpapaaap"
525 652 508 -1 22 75 27 26 "ABprpapaaaa"
526 502 533 -1 30 185 27 34 "ABalpapapaa"
527 504 509 -1 38 37 27 26 "ABprpapaapp"
528 63 522 -1 114 139 27 30 "ABprpappapp"
529 514 488 -1 128 71 27 26 "ABprppaappa"
530 525 523 -1 150 41 27 26 "ABprppappap"
531 517 524 -1 158 7 27 30 "ABprppapapa"
532 64 527 -1 208 159 27 30 "ABplppppapp"
533 519 513 -1 -102 75 28 26 "ABarapppaaa"
535 521 536 -1 -54 15 28 30 "ABprpaaapaa"
536 520 531 -1 -52 95 28 30 "ABarappaaaa"
538 511 505 -1 -32 59 28 26 "ABarapppppa"
539 512 519 -1 -4 67 28 26 "ABarapppppp"
541 526 511 -1 152 71 28 26 "ABprppaappp"
542 516 525 -1 156 103 28 26 "ABplpapppap"
543 528 534 -1 214 109 28 26 "ABprppppapp"
544 529 528 -1 242 71 28 26 "ABprpppaapa"
545 518 544 -1 266 55 28 30 "ABprpppaapp"
546 509 529 -1 -84 103 29 30 "ABaraaapppp"
547 537 537 -1 -44 139 29 30 "ABalpapaapa"
548 531 546 -1 -24 27 29 26 "ABalaapappp"
549 532 539 -1 -16 119 29 22 "ABarappaapa"
550 524 552 -1 100 15 29 30 "ABprpaaaapp"
551 535 542 -1 206 49 29 26 "ABprpppaaap"
552 530 535 -1 -66 71 30 30 "ABarapppaap"
553 545 557 -1 -36 67 30 30 "ABarapppapa"
554 533 547 -1 -4 147 30 26 "ABalpapaapp"
555 546 595 -1 6 77 30 26 "ABarapppapp"
556 538 635 -1 26 167 30 38 "ABprpappaaa"
557 540 549 -1 26 105 30 26 "ABarappaapp"
558 534 559 -1 48 133 30 30 "ABprpappaap"
559 541 551 -1 80 43 30 30 "ABprpaaaapa"
560 542 553 -1 120 29 30 30 "ABarappappa"
561 543 554 -1 176 67 30 26 "ABprpppaaaa"
562 544 556 -1 238 95 30 30 "ABprpppapaa"
563 65 545 -1 -72 45 31 30 "ABalaapappa"
564 539 558 -1 24 55 31 34 "ABarappapaa"
565 66 550 -1 56 71 31 38 "ABarappapap"
566 547 541 -1 82 111 31 30 "ABprpappapa"
570 552 99 -1 -94 113 -12 26 "ABalapapapp"
571 146 130 -1 -94 65 -10 22 "ABalapppapp"
578 325 326 -1 -62 191 10 30 "ABplpaaaaaa"
579 74 582 -1 92 143 11 30 "MSaapappp"
581 81 676 -1 -48 103 16 34 "ABarapaaaap"
583 568 384 -1 302 135 17 38 "Caappv"
584 659 36 -1 46 -31 19 34 "ABpraapppa"
585 414 591 -1 288 191 19 26 "ABplpppapp"
586 621 38 -1 -18 141 20 34 "ABalpappppa"
587 483 482 -1 -68 65 24 30 "ABarappppap"
588 57 54 -1 58 189 25 30 "ABalpapapap"
590 42 577 -1 -94 5 6 38 "ABpraaaappp"
603 254 249 -1 78 253 3 34 "ABplapaapa"
607 276 274 -1 -124 27 6 34 "ABpraaapapa"
610 304 305 -1 -96 141 9 26 "ABalpaapaaa"
612 390 398 -1 -132 171 17 26 "ABalaaaalpa"
619 486 507 -1 20 55 24 26 "ABprpapaapa"
625 559 572 -1 -6 31 6 26 "MSppapaa"
627 572 467 -1 -30 203 24 30 "ABalppaappa"
629 576 181 -1 96 257 -6 30 "ABplaapppp"
632 19 16 -1 198 129 -4 38 "Ealpp"
636 272 276 -1 -22 79 5 34 "ABaraaapapa"
638 554 199 -1 -122 37 -3 26 "ABalapppppa"
644 630 654 -1 77 146 25 40 "ABplpappaap"
645 307 655 -1 7 215 9 30 "ABplpaaappp"
646 633 656 -1 -51 123 -9 26 "MSaaapaaa"
647 58 503 -1 -103 41 26 34 "ABalaappapp"
648 244 658 -1 -60 78 1 30 "ABaraappapa"
649 637 660 -1 199 34 -19 40 "Caaaap"
650 638 661 -1 250 23 -13 39 "Caaapa"
651 639 662 -1 296 46 -8 34 "Caaapp"
652 640 664 -1 263 121 -19 34 "Cpaapp"
653 641 574 -1 -152 189 6 30 "ABalaaapall"
654 429 665 -1 255 135 19 30 "Caapaa"
655 643 685 -1 266 115 21 28 "Caapap"
656 645 668 -1 -147 112 2 26 "ABalapppaaa"
657 646 593 -1 97 193 21 26 "ABalpapappp"
658 647 670 -1 82 225 20 26 "ABplpaaaapa"
659 648 672 -1 -109 189 -7 30 "ABalppppapa"
660 649 673 -1 -62 235 12 30 "ABalpppapad"
661 650 675 -1 -62 109 14 24 "ABaraaaaapp"
662 651 677 -1 -58 66 8 32 "ABaraaapapp"
663 653 679 -1 56 76 25 29 "ABprpapaaap"
664 654 680 -1 -158 33 4 26 "ABalappappp"
665 655 579 -1 56 254 6 36 "ABplaapppa"
666 657 427 -1 11 195 19 32 "ABplpapaapa"
667 455 681 -1 -3 209 22 31 "ABalppapppp"
668 596 316 -1 -129 24 10 32 "ABalaappppp"
669 658 281 -1 -24 4 7 28 "ABpraaappap"
670 660 39 -1 26 -16 22 31 "ABpraappap"
671 661 682 -1 75 67 26 30 "ABprpapapaa"
672 238 683 -1 57 75 0 30 "MSpaapapp"
673 420 684 -1 19 55 19 29 "MSppaapa"
