1 2 1 -1 -26 73 -16 70 "ABpla"
2 4 2 -1 106 199 -13 66 "ABplp"
4 6 4 -1 146 69 -9 54 "Ca"
5 7 5 -1 226 73 -7 58 "Cp"
6 1 7 -1 -76 181 -3 66 "ABalp"
7 5 6 -1 66 -25 -1 70 "ABarp"
8 8 10 -1 306 113 5 66 "P3"
9 9 9 -1 -130 61 6 66 "ABala"
10 10 8 -1 264 187 6 58 "Ep"
11 11 11 -1 140 209 15 58 "Ea"
12 12 13 -1 4 175 16 62 "MSa"
13 13 12 -1 178 -25 16 70 "ABpra"
14 14 14 -1 126 119 21 62 "MSp"
15 15 15 -1 234 95 22 62 "ABprp"
16 16 16 -1 -12 39 24 66 "ABara"
