1 3 4 -1 -78 133 -15 62 "ABplaa"
2 4 5 -1 26 125 -11 62 "ABplap"
4 8 1 -1 108 15 -8 62 "ABarpp"
5 6 7 -1 -18 223 -6 58 "ABalpp"
6 7 9 -1 74 239 -6 58 "ABplpa"
7 9 11 -1 114 111 -6 42 "Caa"
8 11 8 15 258 95 -6 54 "Cp"
9 9 10 -1 156 143 -5 46 "Cap"
10 10 13 -1 0 9 -4 66 "ABarpa"
11 12 14 -1 164 247 -4 58 "ABplpp"
12 13 12 -1 -86 51 -2 58 "ABalap"
13 14 18 -1 214 -15 3 62 "ABprap"
14 15 17 -1 312 169 4 58 "D"
15 16 16 -1 -156 117 6 58 "ABalaa"
16 17 19 -1 -92 193 11 62 "ABalpa"
17 18 20 -1 222 167 13 66 "Ep"
18 29 3 -1 114 -21 17 66 "ABpraa"
19 2 2 -1 122 159 18 66 "Ea"
20 19 21 -1 292 61 18 58 "ABprpp"
21 20 22 -1 -74 49 19 62 "ABaraa"
22 22 23 -1 32 105 21 54 "MSpa"
23 21 24 -1 52 223 21 54 "MSap"
25 24 28 -1 26 13 23 58 "ABarap"
26 23 26 -1 278 175 23 54 "P4"
27 26 29 -1 210 43 24 58 "ABprpa"
28 27 27 -1 -48 131 25 54 "MSaa"
29 25 30 -1 152 85 26 50 "MSpp"
