1 5 10 -1 52 241 -13 42 "ABplppaa"
2 13 21 -1 230 43 -11 50 "Cpaa"
3 24 25 -1 2 3 -6 46 "ABarpaap"
4 35 35 -1 172 171 -1 58 "Epl"
5 41 32 -1 214 257 1 42 "ABplpppp"
6 47 45 -1 88 157 4 58 "Eal"
7 53 2 -1 106 81 8 54 "Ear"
8 64 65 -1 90 -33 15 58 "ABpraapa"
10 3 6 -1 218 151 -19 46 "Caap"
11 1 4 -1 -108 139 -16 46 "ABplaapa"
12 2 3 -1 -14 59 -16 42 "ABplapaa"
13 4 5 -1 44 105 -16 42 "ABplapap"
14 11 8 -1 -58 59 -14 46 "ABplaaap"
15 7 15 -1 -54 195 -14 46 "ABalppap"
16 8 7 -1 -16 139 -14 46 "ABplaapp"
17 10 9 -1 50 17 -14 42 "ABarppaa"
18 6 11 -1 122 115 -13 46 "Caaa"
19 15 14 -1 276 123 -13 46 "Cpap"
20 16 17 -1 40 161 -12 46 "ABplappa"
21 12 18 -1 124 241 -12 42 "ABplppap"
22 9 19 -1 10 227 -11 46 "ABplpaap"
23 19 16 -1 118 189 -11 42 "ABplappp"
24 17 12 -1 182 227 -11 46 "Capa"
25 14 13 -1 256 199 -11 46 "Capp"
27 22 24 -1 -126 193 -9 42 "ABalppaa"
28 18 23 -1 -124 105 -9 38 "ABplaaaa"
29 21 20 -1 94 69 -8 42 "ABarppap"
30 23 26 -1 184 -9 -6 46 "ABprapap"
31 26 29 -1 130 31 -5 42 "ABarpppa"
32 33 31 -1 -136 51 -3 42 "ABalapaa"
33 30 38 -1 140 267 -3 42 "ABplpppa"
34 25 33 -1 298 167 -3 42 "Cppp"
35 27 28 -1 -66 13 -2 42 "ABalapap"
36 28 37 -1 -48 171 -2 42 "ABalpppa"
37 29 36 -1 -54 237 -1 46 "ABplpaaa"
38 32 27 -1 120 -33 -1 38 "ABprapaa"
39 39 39 -1 8 87 0 46 "ABalappp"
40 31 34 -1 82 261 0 46 "ABplpapp"
41 36 42 -1 190 75 0 46 "ABarpppp"
42 38 46 -1 -126 165 1 46 "ABalpaap"
43 34 40 -1 2 253 1 42 "ABplpapa"
44 40 44 -1 18 195 3 46 "ABalpppp"
45 49 1 -1 256 223 3 46 "Da"
46 42 43 -1 -68 65 4 42 "ABalappa"
47 44 41 -1 76 -27 5 42 "ABpraaap"
48 37 48 -1 306 69 5 42 "Cppa"
49 45 50 -1 230 -11 6 42 "ABprappa"
50 43 47 -1 72 31 7 42 "ABarpapp"
51 51 49 -1 -134 63 8 42 "ABalaaap"
52 48 51 -1 166 -9 8 50 "ABpraapp"
53 46 55 -1 250 67 8 42 "ABprappp"
55 50 61 -1 -112 203 9 42 "ABalpapa"
56 52 52 -1 -106 103 10 38 "ABalaapa"
57 59 58 -1 -6 37 10 42 "ABarpapa"
58 54 54 -1 202 127 10 54 "Epr"
59 60 57 -1 -44 -3 11 38 "ABarpaaa"
60 56 53 -1 -36 105 11 42 "ABalaapp"
61 58 62 -1 300 149 11 50 "Dp"
62 55 56 -1 -170 115 12 42 "ABalaaaa"
63 63 59 -1 82 225 12 34 "MSapap"
64 67 60 -1 170 241 12 38 "MSappp"
65 57 67 -1 284 29 12 42 "ABprppap"
66 61 63 -1 -38 215 14 46 "ABalpapp"
67 67 66 -1 118 235 14 34 "MSappa"
68 62 64 -1 16 207 15 34 "MSapaa"
69 68 70 -1 -120 145 16 42 "MSaaaa"
70 69 69 -1 -62 45 16 42 "ABaraaap"
71 66 68 -1 8 -19 16 42 "ABpraaaa"
73 65 74 -1 194 -29 17 46 "ABprpaap"
74 72 71 -1 10 89 18 38 "MSpaaa"
75 70 72 -1 76 111 19 38 "MSpaap"
76 80 73 -1 174 211 22 42 "Z3"
77 73 80 -1 244 -7 22 42 "ABprppaa"
78 74 75 -1 272 171 22 46 "Z2"
79 71 78 -1 304 117 22 46 "ABprpppp"
80 75 76 -1 -124 89 23 38 "ABaraaaa"
81 78 83 -1 8 169 23 42 "MSaapa"
82 83 92 -1 232 55 23 42 "ABprpapp"
83 77 81 -1 288 49 23 42 "ABprpppa"
84 76 82 -1 -46 171 24 38 "MSaaap"
85 85 77 -1 88 189 24 42 "MSaapp"
86 79 85 90 156 83 24 38 "MSppa"
87 82 87 91 214 121 24 42 "MSppp"
88 84 79 -1 56 1 25 42 "ABarappa"
89 86 89 -1 94 135 25 38 "MSpapa"
90 81 86 -1 166 163 25 34 "MSpapp"
91 87 84 -1 100 47 26 42 "ABarappp"
92 89 88 -1 110 -5 26 42 "ABprpaaa"
93 90 94 -1 -80 107 27 42 "ABaraapa"
94 91 95 -1 -58 47 27 42 "ABarapaa"
95 92 93 -1 170 15 27 42 "ABprpapa"
96 88 97 -1 0 117 28 46 "ABaraapp"
97 93 96 -1 22 37 28 42 "ABarapap"
99 95 30 -1 -176 103 -4 54 "ABalpaaa"
