1 50 59 -1 254 215 1 42 "Capp"
2 66 70 -1 232 171 6 42 "Eplp"
3 3 72 -1 256 109 7 42 "Eprp"
4 6 100 -1 186 -41 14 42 "ABprppaa"
5 15 1 -1 166 103 -19 46 "Cpaaa"
6 9 9 -1 -66 55 -18 42 "ABarpaaa"
7 10 8 -1 -14 83 -18 34 "ABarpaapa"
8 11 10 11 -98 161 -16 42 "ABplaaaa"
9 12 14 -1 -18 145 -16 42 "ABplaaap"
10 13 23 -1 20 199 -16 42 "ABplapaa"
11 20 17 -1 78 195 -16 38 "ABplapapa"
12 19 13 -1 158 185 -16 42 "Caaaa"
13 16 16 -1 52 1 -15 34 "ABarpappa"
14 17 12 -1 58 77 -15 38 "ABarpaapp"
15 14 24 -1 132 233 -15 34 "ABplapapp"
16 18 15 -1 56 137 -14 42 "ABarppaa"
17 25 18 -1 192 13 -14 34 "ABprapapa"
18 27 2 -1 134 3 -13 38 "ABprapaa"
19 21 25 -1 246 47 -13 34 "ABprapapp"
20 26 20 33 276 179 -13 42 "Caap"
21 31 21 22 -64 109 -12 42 "ABalapap"
22 28 27 -1 -30 211 -12 38 "ABplaapap"
23 23 29 -1 18 33 -12 30 "ABarpapap"
24 22 26 -1 -118 99 -11 42 "ABalapaa"
25 23 28 -1 -24 13 -11 30 "ABarpapaa"
26 24 32 -1 96 39 -11 38 "ABarpappp"
27 33 30 -1 224 203 -11 42 "Caaap"
28 29 19 -1 266 105 -11 42 "Cpaap"
30 28 35 -1 -82 203 -9 34 "ABplaapaa"
31 32 34 -1 134 73 -8 42 "ABarpppa"
32 36 39 -1 122 151 -7 46 "ABarppap"
33 30 36 -1 -64 55 -6 38 "ABalappa"
34 40 46 -1 48 219 -6 38 "ABplaappp"
35 42 38 -1 198 75 -6 42 "ABarpppp"
36 37 40 -1 308 99 -6 38 "Cpapa"
37 41 37 -1 120 -35 -5 38 "ABpraappa"
38 35 43 -1 -158 133 -4 46 "ABalpaaa"
39 48 45 47 60 -5 -4 42 "ABpraaap"
40 49 42 51 102 239 -4 38 "ABplappa"
41 38 54 -1 -108 43 -3 46 "ABalaaap"
42 39 41 -1 -28 183 -3 34 "ABplaappa"
43 43 44 50 10 79 -2 38 "ABalappp"
44 53 56 -1 -30 241 -1 38 "ABplpaapa"
45 45 52 -1 172 3 -1 38 "ABpraappp"
46 56 48 53 236 1 -1 42 "ABprappa"
47 51 64 -1 284 57 -1 42 "ABprappp"
48 46 49 -1 -152 53 0 46 "ABalaaaa"
49 44 55 61 -88 153 0 42 "ABalpppa"
50 52 62 -1 -38 129 0 34 "ABalppppa"
51 54 57 -1 -30 19 0 42 "ABalaapp"
52 58 60 -1 312 185 0 42 "Cpapp"
53 47 63 -1 4 -25 1 42 "ABpraaaa"
54 57 58 -1 20 165 1 38 "ABalppppp"
55 61 67 -1 174 223 1 38 "ABplappp"
56 2 66 -1 120 -39 2 38 "ABpraapap"
57 1 75 -1 60 63 3 46 "Eara"
58 55 68 -1 134 69 3 46 "Earp"
59 60 69 -1 152 145 3 46 "Epla"
60 63 71 -1 -140 191 4 42 "ABalppaa"
61 59 76 -1 -84 11 4 42 "ABalaapa"
62 4 73 -1 -76 219 5 34 "ABplpaaaa"
63 64 3 -1 58 127 5 42 "Eala"
64 67 78 -1 26 251 7 34 "ABplpaapp"
65 73 84 -1 180 59 7 42 "Epra"
66 62 74 -1 -170 103 8 34 "ABalpaapa"
67 68 86 -1 -128 145 8 34 "ABalpaapp"
68 71 79 -1 66 -45 8 38 "ABpraapaa"
69 69 4 -1 80 225 8 46 "ABplppap"
70 70 82 -1 24 -5 9 34 "ABarapppa"
71 74 85 -1 214 249 9 46 "Capa"
72 4 81 -1 -20 223 10 34 "ABplpaaap"
73 70 83 -1 86 15 10 34 "ABarapppp"
74 76 87 -1 112 139 10 42 "Ealp"
75 86 5 -1 286 163 10 46 "Cppp"
76 72 96 -1 -90 89 11 42 "MSaaaa"
77 84 80 -1 -20 155 11 42 "MSapaa"
78 85 97 -1 38 183 11 42 "MSapap"
79 77 89 -1 132 187 11 38 "MSappp"
80 82 88 -1 -110 171 12 30 "ABalppapa"
81 81 90 94 272 15 12 38 "ABprpppa"
82 5 95 -1 316 93 12 46 "Cppa"
83 87 91 -1 -144 65 13 38 "ABaraaaa"
84 75 6 -1 -28 57 13 46 "MSpaaa"
85 78 101 -1 -102 31 14 38 "ABaraaapa"
86 80 102 -1 126 37 14 38 "MSppap"
87 79 92 106 136 249 14 42 "ABplpppa"
88 83 107 -1 -42 5 15 38 "ABaraaapp"
89 7 108 -1 26 69 15 38 "MSpaap"
90 90 98 99 130 -31 15 42 "ABprpaap"
91 88 93 -1 230 -13 15 38 "ABprppap"
92 95 103 -1 -40 121 16 42 "MSaaap"
93 91 104 -1 -26 217 16 34 "ABplpapaa"
94 93 105 -1 68 51 16 38 "MSppaa"
95 89 110 -1 62 251 17 42 "ABplppaa"
96 99 109 -1 -142 103 18 30 "ABalpapaa"
97 82 112 -1 -62 189 18 34 "ABalppapp"
98 101 113 -1 196 51 18 38 "MSpppp"
99 96 118 -1 86 167 19 38 "MSappa"
100 94 111 -1 254 185 19 42 "Dap"
101 100 119 -1 144 133 20 42 "Z3"
102 97 115 -1 204 221 20 34 "ABplppppp"
103 105 120 128 288 63 20 42 "ABprpppp"
104 99 122 -1 -112 145 21 34 "ABalpapap"
105 92 114 -1 20 -5 21 38 "ABarappa"
106 91 116 -1 24 225 21 34 "ABplpapap"
107 106 117 -1 78 -19 21 38 "ABprpaaa"
108 98 7 -1 208 117 21 42 "Z2"
109 104 121 -1 288 141 21 42 "Dpp"
110 107 124 -1 -108 77 22 34 "ABaraapaa"
111 103 125 -1 146 61 22 42 "MSpppa"
112 97 132 -1 150 225 22 30 "ABplppppa"
113 110 123 -1 240 23 23 34 "ABprpappp"
114 8 129 -1 -54 33 24 46 "ABarapaa"
115 113 126 130 140 -3 24 42 "ABprpapa"
116 120 127 -1 232 73 24 38 "Dpa"
117 112 137 -1 -14 167 25 38 "ABalpappp"
118 109 139 -1 56 193 25 34 "ABplpappa"
119 102 131 -1 112 221 25 38 "ABplpappp"
120 110 135 -1 188 5 25 34 "ABprpappa"
121 108 142 -1 -80 157 26 34 "ABalpappa"
122 111 133 -1 -32 73 26 34 "ABaraappa"
123 118 138 -1 30 85 26 34 "ABaraappp"
124 117 134 -1 54 37 26 34 "ABarapapp"
125 114 141 -1 178 173 26 42 "Daa"
126 107 136 -1 -60 95 27 30 "ABaraapap"
127 116 144 -1 22 135 27 46 "MSaapa"
128 119 145 -1 112 157 27 42 "MSaapp"
129 115 143 -1 -6 19 28 34 "ABarapapa"
130 121 140 -1 86 89 28 42 "MSpapa"
131 122 146 -1 166 93 30 42 "MSpapp"
