1 13 3 -1 162 205 -16 42 "Caaaa"
2 38 52 53 190 79 -6 38 "ABarpppp"
3 49 9 -1 -156 65 1 46 "ABalaaaa"
4 75 10 -1 48 53 4 46 "Eara"
5 68 75 -1 128 65 3 46 "Earp"
6 3 74 -1 56 131 6 42 "Eala"
7 70 81 -1 222 161 3 46 "Eplp"
8 108 17 -1 26 85 17 38 "MSpaap"
9 113 126 -1 186 41 19 42 "MSpppp"
11 14 20 -1 -32 171 -19 30 "ABplaaapa"
12 9 23 -1 -58 77 -18 38 "ABarpaaa"
13 23 25 35 30 213 -18 38 "ABplapaa"
14 1 1 -1 176 111 -18 42 "Cpaaa"
15 20 21 -1 264 157 -18 30 "Caapa"
16 8 31 -1 -10 79 -17 34 "ABarpaapa"
17 12 2 -1 62 81 -17 42 "ABarpaapp"
18 21 22 -1 -90 119 -16 34 "ABalapapa"
19 16 44 -1 42 -1 -16 38 "ABarpappa"
20 11 29 -1 -62 183 -15 34 "ABplaaaap"
21 14 34 -1 26 161 -15 30 "ABplaaapp"
22 15 24 26 70 147 -15 38 "ABarppaa"
23 2 27 -1 124 3 -15 30 "ABprapaaa"
24 19 4 -1 266 107 -15 38 "Cpaap"
25 22 30 -1 -30 129 -14 34 "ABalapapp"
26 28 37 -1 -42 15 -13 38 "ABarpapaa"
27 29 39 -1 16 29 -13 34 "ABarpapap"
28 17 32 -1 86 205 -13 38 "ABplapapa"
29 2 38 -1 156 25 -13 34 "ABprapaap"
30 18 36 -1 200 9 -13 34 "ABprapapa"
31 25 46 -1 248 51 -13 38 "ABprapapp"
32 10 49 -1 -124 177 -12 34 "ABplaaaaa"
33 27 43 -1 -30 223 -12 42 "ABplaapap"
34 32 5 -1 86 37 -12 38 "ABarpappp"
35 34 28 -1 108 71 -12 34 "ABarpppaa"
36 34 33 -1 144 89 -12 30 "ABarpppap"
37 30 41 -1 224 203 -12 42 "Caaap"
38 26 42 -1 -120 133 -11 38 "ABalapaa"
39 24 45 -1 136 251 -11 38 "ABplapapp"
40 36 48 -1 -76 69 -10 42 "ABalappa"
41 39 40 51 124 157 -10 38 "ABarppap"
43 33 54 -1 276 189 -8 34 "Caapp"
44 40 6 -1 306 93 -8 38 "Cpapa"
45 35 55 -1 -90 215 -6 38 "ABplaapaa"
46 41 57 -1 -26 193 -5 34 "ABplaappa"
47 47 60 -1 80 -3 -5 30 "ABpraaapp"
48 37 50 -1 126 -37 -5 38 "ABpraappa"
49 43 67 -1 -156 141 -4 42 "ABalpaaa"
50 44 58 -1 28 93 -4 34 "ABalapppp"
51 45 63 -1 24 -19 -3 34 "ABpraaapa"
52 42 7 -1 80 257 -3 34 "ABplappaa"
53 53 66 -1 262 11 -3 38 "ABprappap"
54 62 59 -1 -46 139 -2 34 "ABalppppa"
55 50 62 -1 -34 95 -2 34 "ABalapppa"
56 57 56 69 -30 31 -2 38 "ABalaapp"
57 48 70 -1 206 -27 -2 34 "ABprappaa"
58 63 72 -1 -22 -17 -1 42 "ABpraaaa"
59 58 73 -1 16 165 -1 38 "ABalppppp"
60 46 64 -1 48 221 -1 38 "ABplaappp"
61 60 82 -1 318 171 -1 34 "Cpapp"
62 54 61 -1 -108 61 0 38 "ABalaaap"
63 55 71 -1 -64 183 0 30 "ABalpppap"
64 56 68 -1 -36 241 0 38 "ABplpaapa"
65 52 8 -1 170 5 0 38 "ABpraappp"
66 61 78 -1 -110 139 1 30 "ABalpppaa"
67 51 65 -1 144 259 1 34 "ABplappap"
68 67 77 -1 198 223 1 30 "ABplapppp"
69 59 83 -1 250 211 1 46 "Capp"
70 64 11 -1 282 63 1 42 "ABprappp"
71 71 12 -1 -128 193 2 42 "ABalppaa"
72 66 80 -1 116 -37 2 38 "ABpraapap"
73 69 13 -1 152 141 3 42 "Epla"
75 67 76 -1 174 225 4 34 "ABplapppa"
76 76 86 -1 -90 17 5 42 "ABalaapa"
77 79 79 -1 40 -35 5 42 "ABpraapaa"
78 74 90 -1 -182 123 6 38 "ABalpaapa"
79 73 96 -1 -82 223 8 34 "ABplpaaaa"
80 78 87 -1 32 255 8 38 "ABplpaapp"
81 82 97 -1 6 3 9 34 "ABarapppa"
82 83 92 -1 72 11 9 34 "ABarapppp"
83 72 14 -1 238 105 9 46 "Eprp"
84 90 104 -1 298 47 9 30 "ABprpppap"
85 80 99 -1 -18 155 10 38 "MSapaa"
86 4 88 93 94 225 10 38 "ABplppap"
87 84 101 -1 174 57 10 42 "Epra"
88 93 89 94 226 -7 10 38 "ABprppap"
89 5 95 -1 280 147 10 42 "Cppp"
90 96 15 -1 -90 103 11 42 "MSaaaa"
91 81 91 -1 -14 223 11 34 "ABplpaaap"
92 87 85 -1 108 135 11 42 "Ealp"
93 89 98 -1 130 183 11 38 "MSappp"
94 86 108 -1 -130 153 12 34 "ABalpaapp"
95 97 100 -1 44 175 12 42 "MSapap"
96 102 112 -1 108 29 12 38 "MSppap"
97 85 16 -1 226 239 12 46 "Capa"
98 91 105 120 -148 75 13 34 "ABaraaaa"
99 101 113 -1 -118 39 13 38 "ABaraaapa"
100 88 109 -1 -98 171 13 34 "ABalppapa"
101 6 102 -1 -30 61 13 42 "MSpaaa"
102 105 110 -1 52 49 13 38 "MSppaa"
103 94 107 -1 268 -3 13 30 "ABprpppaa"
104 95 18 -1 318 101 13 46 "Cppa"
105 98 111 -1 90 -41 14 34 "ABprpaapa"
106 92 103 -1 178 245 14 34 "ABplpppap"
107 99 114 -1 138 -21 15 30 "ABprpaapp"
108 103 122 -1 -26 121 16 42 "MSaaap"
109 117 117 -1 38 -31 16 30 "ABprpaaaa"
110 100 115 -1 180 -37 16 42 "ABprppaa"
111 109 128 -1 -152 113 17 34 "ABalpapaa"
112 107 121 -1 -60 5 17 34 "ABaraaapp"
113 112 116 -1 -42 199 17 34 "ABalppapp"
114 114 124 -1 -24 -7 17 30 "ABarappaa"
115 111 129 -1 248 179 17 42 "Dap"
116 104 123 -1 -16 231 18 34 "ABplpapaa"
117 110 118 -1 64 249 18 42 "ABplppaa"
118 106 119 -1 124 253 18 30 "ABplpppaa"
119 114 130 -1 28 7 19 30 "ABarappap"
120 118 125 -1 86 163 19 38 "MSappa"
121 125 131 -1 140 49 21 38 "MSpppa"
122 7 132 -1 202 107 21 42 "Z2"
123 123 127 -1 240 27 21 34 "ABprpappp"
124 121 135 -1 278 135 21 38 "Dpp"
125 120 140 -1 296 91 21 30 "ABprppppp"
126 129 134 -1 -92 61 22 34 "ABarapaaa"
127 117 138 -1 84 -15 22 30 "ABprpaaap"
128 119 19 -1 138 135 22 38 "Z3"
129 115 139 -1 214 219 22 34 "ABplppppp"
130 128 136 -1 284 31 22 30 "ABprppppa"
131 122 141 -1 -98 149 23 34 "ABalpapap"
132 116 137 -1 30 217 23 38 "ABplpapap"
133 124 143 -1 -116 91 24 34 "ABaraapaa"
134 127 133 -1 240 71 24 38 "Dpa"
135 136 149 -1 -60 117 25 34 "ABaraapap"
136 144 144 -1 24 141 25 42 "MSaapa"
137 140 146 -1 86 87 25 42 "MSpapa"
138 132 142 -1 154 219 25 30 "ABplppppa"
139 135 148 -1 202 -3 25 38 "ABprpappa"
140 142 152 -1 -72 171 26 38 "ABalpappa"
141 133 157 -1 -34 87 26 34 "ABaraappa"
142 139 158 -1 58 187 26 38 "ABplpappa"
143 130 150 -1 108 5 26 34 "ABprpapaa"
144 131 155 -1 118 211 26 34 "ABplpappp"
145 126 147 -1 162 5 26 30 "ABprpapap"
146 141 151 -1 178 167 26 38 "Daa"
147 129 156 -1 -42 41 27 30 "ABarapaap"
148 143 153 -1 -12 15 27 38 "ABarapapa"
149 138 145 -1 28 85 27 38 "ABaraappp"
150 134 154 -1 60 31 27 38 "ABarapapp"
151 137 160 -1 -14 181 28 38 "ABalpappp"
152 145 159 -1 114 151 29 42 "MSaapp"
153 146 161 -1 160 87 29 42 "MSpapp"
