1 14 17 -1 188 119 -18 46 "Cpaaa"
2 17 22 -1 56 73 -17 38 "ABarpaapp"
3 1 24 -1 164 203 -16 42 "Caaaa"
4 24 1 -1 274 99 -14 42 "Cpaap"
5 34 35 -1 74 25 -13 38 "ABarpappp"
6 44 2 -1 312 95 -6 42 "Cpapa"
7 52 57 -1 74 263 -5 42 "ABplappaa"
8 65 4 -1 166 3 0 38 "ABpraappp"
9 3 84 -1 -158 73 2 46 "ABalaaaa"
10 4 3 -1 46 51 3 46 "Eara"
11 70 79 89 274 57 3 42 "ABprappp"
12 71 85 -1 -128 191 5 42 "ABalppaa"
13 73 78 -1 154 131 4 42 "Epla"
14 83 10 -1 232 105 10 46 "Eprp"
15 90 101 -1 -88 99 11 42 "MSaaaa"
16 97 11 -1 230 235 13 50 "Capa"
17 8 114 -1 28 83 17 38 "MSpaap"
18 104 12 -1 318 97 15 46 "Cppa"
19 128 132 -1 130 133 21 42 "Z3"
20 11 16 -1 -42 179 -20 34 "ABplaaapa"
21 15 18 -1 272 149 -20 34 "Caapa"
22 18 13 -1 -92 133 -19 34 "ABalapapa"
23 12 14 15 -60 75 -19 38 "ABarpaaa"
24 22 23 -1 96 135 -18 30 "ABarppaap"
25 13 20 -1 4 203 -17 30 "ABplapaaa"
26 22 21 -1 38 119 -17 30 "ABarppaaa"
27 23 31 -1 118 -3 -17 34 "ABprapaaa"
28 35 28 -1 100 55 -16 34 "ABarpppaa"
29 20 27 -1 -68 179 -15 42 "ABplaaaap"
30 25 32 -1 -34 137 -15 34 "ABalapapp"
31 16 19 -1 -12 75 -15 38 "ABarpaapa"
32 28 30 -1 80 197 -15 42 "ABplapapa"
33 36 26 -1 146 89 -15 30 "ABarpppap"
34 21 34 -1 20 155 -14 38 "ABplaaapp"
35 13 29 -1 50 227 -14 34 "ABplapaap"
36 30 40 -1 198 7 -14 34 "ABprapapa"
37 26 25 -1 -54 19 -13 42 "ABarpapaa"
38 29 39 -1 160 33 -13 30 "ABprapaap"
39 27 33 -1 12 25 -12 38 "ABarpapap"
40 41 36 -1 108 155 -12 30 "ABarppapa"
41 37 43 -1 234 205 -12 38 "Caaap"
42 38 37 50 -106 123 -11 42 "ABalapaa"
43 33 42 -1 -32 225 -11 38 "ABplaapap"
44 19 46 -1 32 -17 -11 38 "ABarpappa"
45 39 38 -1 134 239 -11 38 "ABplapapp"
46 31 44 -1 254 41 -11 38 "ABprapapp"
48 40 45 -1 -90 69 -10 42 "ABalappa"
49 32 49 -1 -134 177 -9 38 "ABplaaaaa"
50 48 58 -1 130 -39 -8 38 "ABpraappa"
51 41 47 -1 148 163 -7 34 "ABarppapp"
52 2 48 -1 168 61 -7 30 "ABarppppa"
53 2 53 -1 222 87 -6 34 "ABarppppp"
54 43 54 -1 278 195 -6 38 "Caapp"
55 45 55 -1 -94 211 -4 38 "ABplaapaa"
56 56 59 -1 -66 21 -4 30 "ABalaappa"
57 46 56 -1 -32 191 -4 34 "ABplaappa"
58 50 51 -1 26 95 -4 34 "ABalapppp"
59 54 61 -1 -50 141 -3 34 "ABalppppa"
60 47 67 -1 86 -7 -3 34 "ABpraaapp"
61 62 60 76 -114 63 -2 38 "ABalaaap"
62 55 62 -1 -40 95 -2 38 "ABalapppa"
63 51 66 -1 16 -15 -2 38 "ABpraaapa"
64 60 52 -1 48 217 -2 38 "ABplaappp"
65 67 73 -1 140 265 -2 38 "ABplappap"
66 53 68 -1 260 17 -2 34 "ABprappap"
67 49 70 75 -156 133 -1 38 "ABalpaaa"
68 64 71 -1 -42 239 -1 38 "ABplpaapa"
69 56 63 -1 -18 45 -1 30 "ABalaappp"
70 57 83 -1 204 -31 -1 34 "ABprappaa"
71 63 64 -1 -64 177 0 34 "ABalpppap"
72 58 81 -1 -26 -15 0 38 "ABpraaaa"
73 59 65 -1 12 161 0 38 "ABalppppp"
74 6 77 -1 54 131 0 46 "Eala"
75 5 82 -1 124 63 1 42 "Earp"
76 75 72 -1 154 223 1 30 "ABplapppa"
77 68 74 -1 214 225 1 30 "ABplapppp"
78 66 80 -1 -112 135 2 34 "ABalpppaa"
79 77 91 -1 38 -41 3 42 "ABpraapaa"
80 72 7 -1 120 -43 3 34 "ABpraapap"
81 7 5 -1 222 159 3 46 "Eplp"
82 61 69 -1 322 173 3 38 "Cpapp"
83 69 6 -1 256 201 5 46 "Capp"
85 92 88 -1 104 133 6 38 "Ealp"
86 76 94 -1 -94 15 7 42 "ABalaapa"
87 80 86 -1 30 253 7 38 "ABplpaapp"
88 86 90 -1 114 237 7 30 "ABplppapp"
89 88 96 -1 240 -21 7 30 "ABprppapp"
90 78 100 -1 -182 115 8 38 "ABalpaapa"
91 91 98 -1 -14 225 8 38 "ABplpaaap"
92 82 109 -1 76 5 8 34 "ABarapppp"
93 86 92 -1 84 215 8 34 "ABplppapa"
94 88 95 -1 190 9 8 30 "ABprppapa"
95 89 93 -1 276 141 9 30 "Cppp"
96 79 97 -1 -82 219 10 34 "ABplpaaaa"
97 81 103 -1 2 3 10 38 "ABarapppa"
98 93 8 -1 124 179 10 38 "MSappp"
99 85 102 -1 -22 153 11 38 "MSapaa"
100 95 99 -1 40 175 11 42 "MSapap"
101 87 9 -1 166 71 11 42 "Epra"
102 101 107 -1 -30 59 12 42 "MSpaaa"
103 106 111 -1 178 243 12 34 "ABplpppap"
104 84 112 -1 300 47 12 34 "ABprpppap"
105 98 104 -1 -140 67 13 34 "ABaraaaaa"
107 103 106 -1 268 -7 13 30 "ABprpppaa"
108 94 115 -1 -132 157 14 38 "ABalpaapp"
109 100 113 -1 -98 175 14 38 "ABalppapa"
110 102 108 -1 54 47 14 34 "MSppaa"
111 105 116 -1 88 -41 14 34 "ABprpaapa"
112 96 105 -1 106 39 14 42 "MSppap"
113 99 123 -1 -112 31 15 38 "ABaraaapa"
114 107 126 -1 136 -23 15 34 "ABprpaapp"
115 110 121 -1 188 -33 15 46 "ABprppaa"
116 113 117 -1 -32 199 16 38 "ABalppapp"
117 109 125 -1 32 -35 16 34 "ABprpaaaa"
118 117 110 -1 58 251 16 38 "ABplppaa"
119 118 119 -1 120 257 16 34 "ABplpppaa"
120 98 130 -1 -140 83 17 34 "ABaraaaap"
121 112 131 -1 -56 1 17 34 "ABaraaapp"
122 108 128 -1 -24 115 17 46 "MSaaap"
123 116 124 -1 -16 235 17 38 "ABplpapaa"
124 114 127 -1 -24 -9 18 30 "ABarappaa"
125 120 118 -1 76 169 18 38 "MSappa"
126 9 120 -1 176 33 18 38 "MSpppp"
127 123 122 -1 236 23 18 34 "ABprpappp"
128 111 133 -1 -146 119 19 34 "ABalpapaa"
129 115 129 -1 248 173 19 42 "Dap"
130 119 134 -1 34 5 20 30 "ABarappap"
131 121 140 -1 132 49 21 38 "MSpppa"
132 122 135 -1 192 101 21 38 "Z2"
133 134 136 -1 232 69 21 38 "Dpa"
134 126 142 -1 -90 61 22 34 "ABarapaaa"
135 124 141 -1 268 133 22 38 "Dpp"
136 130 137 -1 280 27 22 34 "ABprppppa"
137 132 143 -1 30 223 23 42 "ABplpapap"
138 127 147 -1 80 -17 23 34 "ABprpaaap"
139 129 149 -1 208 215 23 34 "ABplppppp"
140 125 145 -1 288 85 23 34 "ABprppppp"
141 131 146 -1 -92 151 24 38 "ABalpapap"
142 138 148 -1 146 217 24 34 "ABplppppa"
143 133 150 -1 -114 95 25 38 "ABaraapaa"
144 136 138 139 28 143 25 38 "MSaapa"
145 149 154 -1 30 79 25 38 "ABaraappp"
146 137 155 -1 86 91 25 42 "MSpapa"
147 145 162 -1 162 5 25 34 "ABprpapap"
148 139 157 -1 208 3 25 38 "ABprpappa"
149 135 163 -1 -56 119 26 34 "ABaraapap"
150 143 156 -1 108 7 26 34 "ABprpapaa"
151 146 144 -1 170 169 26 38 "Daa"
152 140 152 -1 -68 169 27 38 "ABalpappa"
153 148 153 -1 -10 3 27 38 "ABarapapa"
154 150 160 -1 66 33 27 38 "ABarapapp"
155 144 151 -1 114 219 27 34 "ABplpappp"
156 147 164 -1 -34 39 28 34 "ABarapaap"
157 141 158 -1 -32 83 28 34 "ABaraappa"
158 142 159 -1 56 189 28 42 "ABplpappa"
159 152 161 -1 108 157 28 38 "MSaapp"
160 151 165 -1 -12 171 29 38 "ABalpappp"
161 153 166 -1 154 89 29 46 "MSpapp"
