1 14 19 -1 182 185 -17 42 "Caaaa"
2 30 31 -1 296 153 -15 38 "Caapa"
3 41 1 -1 224 71 -13 38 "ABarppppp"
4 67 4 -1 34 129 -1 46 "Eala"
5 74 3 -1 146 135 0 46 "Epla"
6 96 83 -1 74 177 5 30 "MSapapp"
7 5 94 -1 166 67 4 46 "Epra"
8 100 89 -1 -124 195 6 34 "ABalppaaa"
9 94 95 -1 -94 55 7 34 "MSpaaaa"
10 6 106 -1 112 179 7 38 "MSappp"
11 127 126 -1 188 99 15 42 "Z2"
12 177 176 -1 160 85 27 46 "MSpapp"
13 10 11 -1 -44 91 -21 38 "ABarpaaap"
14 12 16 -1 -58 177 -20 38 "ABplaaaap"
15 11 13 -1 -18 167 -20 34 "ABplaaapa"
16 15 10 -1 -104 77 -19 38 "ABarpaaaa"
17 26 26 -1 -86 127 -19 38 "ABalapapa"
18 23 24 -1 82 213 -19 38 "ABplapaap"
19 18 25 -1 90 27 -19 38 "ABarpppaa"
20 19 15 -1 -66 33 -18 38 "ABarpapaa"
21 16 12 -1 -6 35 -18 38 "ABarpapap"
22 13 17 -1 -2 99 -18 42 "ABarpaapa"
23 20 20 -1 24 213 -18 38 "ABplapaaa"
24 17 21 -1 40 123 -18 34 "ABarppaaa"
25 24 18 -1 104 131 -18 38 "ABarppaap"
26 22 27 -1 68 83 -17 38 "ABarpaapp"
27 25 14 -1 156 93 -17 38 "Cpaaa"
28 21 23 -1 48 167 -16 34 "ABplaaapp"
29 27 28 -1 134 49 -15 42 "ABarpppap"
30 28 30 -1 270 95 -15 38 "Cpaap"
31 29 22 -1 48 37 -14 38 "ABarpappp"
32 33 29 -1 162 -5 -14 34 "ABprapaap"
33 34 41 -1 -24 215 -13 38 "ABplaapap"
34 31 32 -1 22 -3 -13 38 "ABarpappa"
35 38 34 -1 -116 187 -12 38 "ABplaaaaa"
36 32 35 -1 102 -17 -12 34 "ABprapaaa"
37 35 37 -1 118 209 -12 38 "ABplapapa"
38 47 48 -1 180 239 -12 38 "ABplapapp"
39 43 33 -1 -128 53 -11 38 "ABalappaa"
40 44 39 -1 -108 147 -11 38 "ABalapaap"
41 40 40 -1 -32 137 -11 38 "ABalapapp"
42 36 36 -1 122 157 -11 38 "ABarppapa"
43 46 47 -1 168 45 -11 38 "ABarppppa"
44 39 42 -1 256 183 -11 42 "Caaap"
46 50 43 -1 -74 217 -10 38 "ABplaapaa"
47 45 44 -1 -36 55 -10 38 "ABalapppa"
48 48 49 -1 210 -1 -10 38 "ABprapapa"
49 52 46 -1 14 53 -9 38 "ABalapppp"
50 55 54 -1 -114 103 -8 34 "ABalapaaa"
51 61 2 -1 70 233 -8 38 "ABplaappp"
52 49 45 -1 -78 73 -7 34 "ABalappap"
53 51 50 -1 6 227 -7 38 "ABplaappa"
54 57 52 -1 112 255 -7 38 "ABplappaa"
55 59 53 -1 176 197 -7 34 "ABarppapp"
56 54 57 -1 -152 119 -6 34 "ABalaaaal"
57 60 55 -1 -46 173 -6 38 "ABalppppa"
58 56 56 -1 -36 3 -5 38 "ABalaappp"
59 65 59 -1 308 87 -5 38 "Cpapa"
60 66 63 -1 -88 13 -4 34 "ABalaappa"
61 58 51 -1 136 -41 -4 34 "ABpraappa"
62 64 61 -1 278 33 -4 38 "ABprapapp"
63 62 58 -1 42 -37 -3 38 "ABpraapaa"
64 68 60 -1 166 253 -3 42 "ABplappap"
65 78 65 -1 -96 153 -2 34 "ABalpppaa"
66 79 66 -1 -52 111 -2 38 "MSaaaap"
67 83 71 -1 202 -33 -2 38 "ABprappaa"
68 75 69 -1 290 189 -2 34 "Caapp"
69 72 70 -1 -162 75 -1 38 "ABalaaapa"
70 73 62 -1 -120 47 -1 38 "ABalaaapp"
71 1 67 -1 12 177 -1 42 "ABalppppp"
72 2 193 -1 38 75 -1 46 "Eara"
73 82 68 -1 98 -45 -1 38 "ABpraapap"
75 70 5 -1 234 95 -1 46 "Eprp"
76 86 76 -1 256 -11 -1 38 "ABprappap"
77 77 72 -1 -144 163 0 34 "ABalpaaap"
78 85 73 -1 -62 211 0 42 "ABalpppap"
79 80 74 -1 -12 241 0 38 "ABplpaapa"
80 88 82 -1 -12 43 0 38 "MSpaaap"
81 81 78 -1 16 -11 0 34 "ABpraaapa"
82 63 75 -1 88 1 0 42 "ABpraaapp"
83 71 81 -1 316 149 0 34 "Cpapp"
84 76 77 -1 -178 131 1 34 "ABalpaaaa"
85 3 6 -1 116 59 1 46 "Earp"
86 84 80 -1 254 225 1 38 "Cappa"
87 89 92 -1 214 255 2 34 "ABplapppp"
88 87 85 -1 -18 -25 3 38 "ABpraaaap"
90 90 79 -1 228 159 3 34 "Eplp"
91 92 91 -1 176 225 4 34 "ABplapppa"
92 95 93 -1 -68 -1 5 34 "ABpraaaaa"
93 91 90 -1 50 237 5 38 "ABplpaapp"
94 4 84 -1 96 125 5 46 "Ealp"
95 93 88 -1 164 -33 5 42 "ABpraappp"
96 97 96 -1 280 13 5 38 "ABprapppa"
97 99 97 -1 -138 51 8 34 "ABalaapaa"
98 98 7 -1 -120 101 8 34 "MSaaaaa"
99 111 103 -1 6 249 8 38 "ABplpaaap"
100 105 114 -1 308 81 8 38 "Cpppa"
101 110 99 -1 -168 89 9 38 "ABalaaaar"
102 106 109 -1 -100 11 9 34 "ABalaapap"
103 107 98 -1 -72 163 9 34 "MSapaaa"
104 102 101 -1 -14 157 9 30 "MSapaap"
105 103 102 -1 10 189 9 30 "MSapapa"
106 104 104 -1 76 -33 9 38 "ABprpaapa"
107 115 111 -1 142 257 9 38 "ABplppapp"
108 101 100 -1 -50 229 10 38 "ABplpaaaa"
109 117 117 -1 -26 75 10 34 "MSpaapa"
110 121 119 -1 8 111 10 34 "MSaaapp"
111 114 105 -1 96 49 10 34 "MSppapp"
112 118 112 -1 228 159 10 42 "Dap"
113 189 115 -1 312 153 10 38 "Cpppp"
114 123 116 -1 -66 113 11 38 "MSaaapa"
115 112 118 121 6 27 11 38 "MSppaa"
116 113 120 -1 22 -43 11 38 "ABprpaaaa"
117 114 123 -1 46 33 11 30 "MSppapa"
118 108 107 -1 100 225 11 34 "ABplppapa"
119 122 127 -1 198 5 11 34 "ABprppapa"
120 119 128 -1 258 99 11 42 "Dpp"
121 109 113 -1 292 179 11 38 "Cappp"
122 116 110 -1 -88 215 12 34 "ABalppaap"
123 124 122 -1 30 81 12 30 "MSpaapp"
124 129 108 -1 228 -27 12 38 "ABprppapp"
125 134 124 -1 116 -15 13 38 "ABprpaapp"
126 128 132 -1 182 255 13 38 "ABplpppap"
127 131 133 -1 302 51 13 34 "ABprapppp"
128 120 129 -1 -156 139 14 38 "ABalpaapa"
129 126 131 -1 48 219 14 38 "ABplppaaa"
130 136 125 -1 154 19 14 42 "MSpppp"
131 8 143 -1 220 53 14 38 "Dpa"
132 130 138 -1 268 205 14 38 "Capap"
133 138 134 -1 -154 77 15 38 "ABaraaaaa"
134 132 130 -1 -108 165 15 38 "ABalpaapp"
135 125 139 -1 48 -13 15 34 "ABarapppp"
136 135 137 -1 130 135 15 42 "Z3"
137 137 142 -1 198 219 15 38 "Capaa"
138 149 136 -1 -56 193 16 34 "ABalppapa"
139 139 147 -1 -10 197 16 38 "ABalppapp"
140 140 135 -1 70 159 16 38 "MSappa"
141 148 141 -1 166 173 16 38 "Daa"
142 133 148 -1 -10 -15 17 38 "ABarapppa"
143 143 157 -1 88 255 17 34 "ABplppaap"
144 141 152 -1 -112 47 18 42 "ABaraaapa"
145 147 149 -1 20 121 18 38 "MSaapaa"
146 142 140 -1 86 -35 18 34 "ABprpaaap"
147 151 150 -1 128 249 18 34 "ABplpppaa"
148 144 144 -1 250 -15 18 38 "ABprpppaa"
149 146 146 -1 -58 27 19 38 "ABaraaapp"
150 150 153 -1 100 43 19 38 "MSpppa"
151 154 151 -1 142 -33 19 34 "ABprppaaa"
152 145 145 -1 292 139 19 38 "Cppap"
153 161 156 -1 22 73 20 34 "ABaraappp"
154 152 154 -1 194 -23 20 38 "ABprppaap"
155 153 155 -1 288 27 20 38 "ABprpppap"
156 159 158 -1 -114 93 21 34 "ABaraaaap"
157 160 161 -1 -36 81 21 38 "ABaraappa"
158 157 162 -1 8 235 21 34 "ABplpapaa"
159 156 164 -1 -32 7 22 34 "ABarappaa"
160 155 159 -1 -124 137 23 38 "ABalpapaa"
161 164 165 -1 64 85 23 34 "MSpapaa"
162 165 166 -1 90 -3 23 34 "ABprpapaa"
163 162 167 -1 114 109 23 38 "MSpapap"
164 170 175 -1 148 209 23 34 "ABplppppa"
165 163 170 -1 272 79 23 34 "Cppaa"
166 172 160 -1 -86 115 24 34 "ABaraapaa"
167 166 163 -1 -72 171 24 38 "ABalpapap"
168 158 172 -1 42 1 24 34 "ABarappap"
169 169 174 -1 144 157 24 30 "MSaappp"
170 171 168 -1 240 21 24 38 "ABprppppa"
171 173 169 -1 -40 115 25 34 "ABaraapap"
172 167 171 -1 14 197 25 34 "ABplpapap"
173 9 182 -1 56 193 25 38 "ABplpappa"
174 168 173 -1 102 207 25 34 "ABplpappp"
175 182 178 -1 194 17 25 34 "ABprpappp"
176 174 179 -1 212 191 25 42 "ABplppppp"
177 175 177 -1 -86 67 26 34 "ABarapaaa"
178 176 180 -1 8 127 26 38 "ABalpappp"
179 179 181 -1 42 43 27 38 "ABarapapp"
180 186 183 -1 58 143 27 34 "MSaapap"
181 183 188 -1 220 77 27 38 "ABprppppp"
182 184 186 -1 -36 157 28 38 "ABalpappa"
183 178 187 -1 -22 59 28 38 "ABarapaap"
184 187 185 -1 158 31 28 38 "ABprpappa"
185 185 189 -1 -4 15 29 38 "ABarapapa"
186 180 190 -1 90 147 29 30 "MSaappa"
187 181 184 -1 122 13 29 34 "ABprpapap"
