1 9 13 -1 10 159 -19 38 "ABplaaapa"
2 18 2 -1 178 85 -18 46 "Cpaaa"
3 21 20 -1 30 17 -15 34 "ABarpappa"
4 31 39 -1 166 -11 -9 38 "ABprapaap"
5 58 57 -1 140 135 -3 46 "Epla"
6 64 63 -1 182 249 -4 38 "ABplappap"
7 194 71 -1 32 77 0 46 "Eara"
8 73 6 -1 230 143 0 46 "Eplp"
9 2 7 -1 86 137 5 46 "Ealp"
10 77 83 -1 166 -45 3 42 "ABpraappp"
11 78 85 -1 102 59 5 46 "Earp"
12 6 10 -1 -44 61 -21 38 "ABarpapaa"
13 1 12 -1 12 97 -20 42 "ABarpaapa"
14 15 1 -1 196 159 -20 46 "Caaaa"
15 4 16 -1 -38 107 -19 34 "ABarpaaap"
16 7 11 -1 -28 159 -19 38 "ABplaaaap"
17 10 17 -1 46 215 -19 38 "ABplapaaa"
18 11 22 -1 58 121 -19 34 "ABarppaaa"
19 5 14 -1 -90 77 -18 38 "ABarpaaaa"
20 16 15 -1 -82 179 -18 38 "ABplaaaaa"
21 8 19 -1 6 43 -18 38 "ABarpapap"
22 17 18 -1 106 27 -18 38 "ABarpppaa"
23 12 21 -1 150 41 -18 38 "ABarpppap"
24 13 23 -1 64 167 -17 38 "ABplaaapp"
25 19 25 -1 -82 135 -16 34 "ABalapapa"
26 14 24 -1 74 79 -16 42 "ABarpaapp"
27 29 26 -1 -48 209 -14 38 "ABplaapaa"
28 20 27 -1 4 205 -14 38 "ABplaapap"
29 22 30 -1 70 25 -14 38 "ABarpappp"
30 23 28 -1 114 135 -14 34 "ABarppaap"
31 27 32 -1 128 179 -14 34 "ABarppapa"
32 28 31 -1 -56 47 -13 42 "ABalapppa"
33 26 3 -1 94 215 -13 38 "ABplapaap"
34 30 29 -1 142 227 -13 38 "ABplapapa"
35 25 4 -1 270 95 -13 42 "Cpaap"
36 24 34 -1 114 -17 -12 34 "ABprapaaa"
37 32 41 -1 192 197 -12 38 "ABarppapp"
38 34 35 -1 -132 69 -10 34 "ABalappaa"
39 39 37 -1 -32 145 -10 38 "ABalapapp"
40 36 33 -1 228 51 -10 38 "ABarppppp"
42 37 45 -1 28 239 -9 34 "ABplaappa"
43 38 40 -1 170 39 -9 38 "ABarppppa"
44 35 36 -1 222 -3 -9 38 "ABprapapa"
45 43 43 -1 -100 149 -8 42 "ABalapaap"
46 44 46 -1 -94 73 -8 38 "ABalappap"
47 40 44 -1 28 -19 -8 42 "ABpraapaa"
48 45 50 -1 -56 1 -7 38 "ABalaappp"
49 47 51 -1 78 -39 -7 38 "ABpraapap"
50 41 56 -1 222 223 -7 38 "ABplapapp"
51 48 49 -1 266 169 -7 38 "Caaap"
52 42 52 -1 308 167 -7 34 "Caapa"
53 46 48 -1 2 45 -6 38 "ABalapppp"
54 51 42 -1 -128 127 -5 34 "ABalapaaa"
55 54 54 -1 78 247 -5 42 "ABplaappp"
56 50 47 -1 -50 175 -4 38 "ABalppppa"
57 52 53 -1 4 197 -4 42 "ABalppppp"
58 53 5 -1 28 133 -4 46 "Eala"
59 59 55 -1 128 241 -4 42 "ABplappaa"
60 55 60 -1 -136 35 -3 34 "ABalaaapp"
61 56 61 -1 -92 9 -2 34 "ABalaappa"
62 62 58 -1 -62 107 -2 38 "MSaaaap"
63 63 69 -1 -32 45 -2 38 "MSpaaap"
64 68 62 -1 12 5 -2 38 "ABpraaapa"
65 49 59 -1 124 -41 -2 34 "ABpraappa"
66 60 64 -1 226 89 -2 46 "Eprp"
67 67 68 -1 -96 175 -1 38 "ABalpppaa"
68 74 73 -1 -56 217 -1 38 "ABalpppap"
69 71 72 -1 76 -13 -1 42 "ABpraaapp"
70 66 66 -1 -168 73 0 38 "ABalaaapa"
71 75 77 -1 -20 -27 0 38 "ABpraaaap"
72 76 70 -1 -6 239 0 38 "ABplpaapa"
73 70 74 -1 54 177 0 34 "MSapapp"
74 79 75 -1 220 -25 0 38 "ABprappaa"
75 69 76 -1 280 41 0 38 "ABprapapp"
76 65 65 -1 306 105 0 38 "Cpapa"
77 61 67 -1 -162 121 1 38 "ABalaaaal"
78 80 80 -1 266 1 1 34 "ABprappap"
79 72 78 -1 156 69 2 46 "Epra"
80 83 81 -1 -130 87 4 34 "MSaaaaa"
81 85 86 -1 40 -43 4 38 "ABprpaapa"
82 88 89 -1 -118 193 5 34 "ABalppaaa"
83 84 8 -1 -96 53 5 38 "MSpaaaa"
84 81 90 -1 -56 -17 5 38 "ABpraaaaa"
85 86 84 -1 44 251 5 38 "ABplpaapp"
86 90 82 -1 132 177 5 30 "MSapppp"
87 87 87 -1 182 241 6 42 "ABplapppa"
88 82 88 -1 296 179 6 38 "Caapp"
89 92 97 -1 -166 137 7 42 "ABalpaaaa"
90 104 91 -1 -10 157 7 34 "MSapaap"
91 93 93 -1 12 191 7 38 "MSapapa"
92 106 95 -1 94 17 7 30 "MSppapp"
93 99 99 -1 46 31 8 30 "MSppapa"
94 89 94 -1 76 191 8 30 "MSapppa"
95 100 112 -1 230 243 8 34 "ABplapppp"
96 91 113 -1 244 203 8 38 "Cappa"
97 96 100 -1 -138 33 9 34 "ABalaapaa"
98 102 101 -1 -90 213 9 34 "ABalppaap"
99 110 102 -1 -80 109 9 38 "MSaaapa"
100 97 103 -1 -72 161 9 34 "MSapaaa"
101 103 105 -1 -42 65 9 38 "MSpaapa"
102 98 92 -1 -2 111 9 30 "MSaaapp"
103 116 98 -1 8 247 9 38 "ABplpaaap"
104 105 106 -1 26 63 9 30 "MSpaapp"
105 113 107 -1 92 -49 9 34 "ABprpaapp"
106 107 96 -1 186 169 9 42 "Dap"
107 109 108 -1 -174 81 10 34 "ABalaaaar"
108 111 104 -1 -38 225 10 38 "ABplpaaaa"
109 117 110 -1 108 231 10 38 "ABplppapa"
110 119 111 -1 154 251 10 38 "ABplppapp"
111 118 122 -1 154 19 10 30 "MSppppp"
112 108 114 -1 284 17 10 38 "ABprapppa"
113 101 121 -1 -104 5 11 38 "ABalaapap"
114 114 115 -1 -36 15 11 38 "MSppaaa"
115 115 126 -1 0 -33 11 38 "ABprpaaaa"
116 112 116 -1 12 35 11 34 "MSppaap"
117 118 109 -1 112 -23 11 30 "MSppppa"
118 120 118 -1 192 -9 11 38 "ABprppapa"
119 121 119 -1 232 -25 11 38 "ABprppapp"
120 94 125 -1 316 139 11 38 "Cpapp"
121 95 128 -1 -152 163 12 38 "ABalpaaap"
122 122 120 -1 288 81 12 38 "Cpppa"
123 128 123 -1 232 69 13 42 "Dpp"
124 123 124 -1 270 131 13 38 "Cpppp"
125 126 130 -1 60 -45 14 34 "ABprpaaap"
126 3 138 -1 120 121 14 38 "Z3"
127 127 141 -1 176 95 14 42 "Z2"
128 129 137 -1 32 161 15 34 "MSappaa"
129 125 129 -1 52 235 15 38 "ABplppaaa"
130 130 132 -1 188 241 15 34 "ABplpppap"
131 131 127 -1 272 179 15 38 "Cappp"
132 133 134 -1 -150 67 16 38 "ABaraaaaa"
133 124 135 -1 -112 171 16 34 "ABalpaapp"
134 142 140 -1 54 83 16 38 "MSpapaa"
135 148 139 -1 -56 67 17 34 "ABaraappa"
136 136 136 -1 6 125 17 34 "MSaapaa"
137 137 163 -1 28 -15 17 38 "ABarapppp"
138 143 152 -1 88 159 17 30 "MSappap"
139 138 131 -1 132 171 17 38 "Daa"
140 145 157 -1 184 41 17 38 "Dpa"
141 132 142 -1 296 47 17 34 "ABprapppp"
142 139 143 -1 -144 123 18 42 "ABalpaapa"
143 134 144 -1 -66 201 18 38 "ABalppapa"
144 150 145 -1 10 223 18 38 "ABplpapaa"
145 151 9 -1 58 31 18 38 "MSpppaa"
146 144 146 -1 124 -43 18 34 "ABprppaaa"
147 153 147 -1 126 251 18 34 "ABplpppaa"
148 155 161 -1 -96 109 19 38 "ABaraapaa"
149 135 148 -1 -24 205 19 38 "ABalppapp"
150 141 149 -1 -14 3 19 38 "ABarapppa"
151 156 151 -1 82 231 19 34 "ABplppaap"
152 152 153 -1 122 39 19 34 "MSpppap"
153 154 154 -1 172 -33 19 34 "ABprppaap"
154 147 155 -1 228 -23 19 38 "ABprpppaa"
155 149 150 -1 0 79 20 38 "ABaraappp"
156 146 158 -1 194 201 20 42 "Capaa"
157 157 159 -1 264 15 20 34 "ABprpppap"
158 140 160 -1 -110 45 21 38 "ABaraaapa"
159 158 162 -1 -60 163 21 38 "ABalpapap"
160 159 165 -1 -66 11 22 38 "ABaraaapp"
161 160 156 -1 -50 109 22 34 "ABaraapap"
162 161 166 -1 114 87 22 38 "MSpapap"
163 163 164 -1 248 177 22 42 "Capap"
164 172 168 -1 30 57 23 38 "ABarapapp"
165 165 169 -1 68 -25 23 38 "ABprpapaa"
166 170 170 -1 102 -3 23 34 "ABprpapap"
167 167 171 -1 238 71 23 38 "Cppaa"
168 164 167 -1 260 127 23 42 "Cppap"
169 168 172 -1 -116 89 24 34 "ABaraaaap"
170 173 173 -1 140 205 24 34 "ABplppppa"
171 166 174 -1 208 15 24 38 "ABprppppa"
172 171 175 -1 -100 147 25 34 "ABalpapaa"
173 183 178 -1 60 119 25 38 "MSaapap"
174 175 179 -1 -40 65 26 34 "ABarapaap"
175 176 176 -1 12 133 26 42 "ABalpappp"
176 177 177 -1 16 201 26 38 "ABplpapap"
177 178 186 -1 54 179 26 38 "ABplpappa"
178 179 183 -1 132 141 26 38 "MSaappp"
179 169 185 -1 -26 5 27 38 "ABarappaa"
180 174 181 -1 34 3 27 34 "ABarappap"
181 184 182 -1 102 189 27 34 "ABplpappp"
182 180 189 -1 -82 75 28 34 "ABarapaaa"
183 182 180 -1 -4 41 28 38 "ABarapapa"
184 185 187 -1 118 21 28 38 "ABprpappa"
185 186 188 -1 162 19 28 38 "ABprpappp"
186 187 191 -1 176 173 28 38 "ABplppppp"
187 188 192 -1 218 51 28 42 "ABprppppp"
188 181 184 -1 -40 147 29 42 "ABalpappa"
189 190 190 -1 102 69 29 34 "MSpappa"
190 189 193 -1 76 135 30 34 "MSaappa"
192 162 195 -1 172 93 25 38 "MSpappp"
