2 11 9 -1 -74 143 -22 38 "ABplaaaaa"
3 10 8 -1 -86 65 -21 38 "ABarpaaaa"
4 12 6 -1 -48 83 -21 38 "ABarpaaap"
5 14 7 -1 18 147 -21 34 "ABplaaapa"
6 22 20 -1 74 173 -20 42 "ABplaaapp"
7 15 12 -1 74 115 -20 38 "ABarppaaa"
8 18 10 -1 0 203 -19 42 "ABplaapap"
9 19 14 -1 8 39 -19 34 "ABarpapap"
10 20 19 -1 46 15 -19 38 "ABarpappa"
11 30 23 -1 -52 191 -18 38 "ABplaapaa"
12 16 18 -1 -40 33 -18 38 "ABarpapaa"
13 17 13 -1 -22 131 -18 38 "ABplaaaap"
14 13 25 -1 0 85 -18 38 "ABarpaapa"
15 23 15 -1 98 71 -17 38 "ABarpaapp"
16 24 16 -1 130 7 -17 38 "ABarpppaa"
17 25 21 -1 148 141 -17 38 "ABarppaap"
18 26 24 -1 166 185 -17 38 "ABarppapa"
19 27 22 -1 176 25 -17 38 "ABarpppap"
20 21 17 -1 216 61 -17 42 "Cpaaa"
21 29 11 -1 76 209 -16 38 "ABplapaaa"
22 34 26 -1 132 221 -15 38 "ABplapaap"
23 28 27 -1 216 137 -15 38 "Caaaa"
24 32 28 -1 -100 115 -14 38 "ABalapapa"
25 31 31 -1 82 11 -13 38 "ABarpappp"
26 39 29 -1 188 229 -13 38 "ABplapapa"
27 41 32 -1 220 189 -13 38 "ABarppapp"
28 33 33 -1 -68 25 -12 42 "ABalapppa"
29 40 35 -1 204 -7 -12 38 "ABarppppa"
30 35 38 -1 6 -23 -11 46 "ABpraapaa"
31 36 36 -1 -110 35 -10 38 "ABalappap"
32 1 43 -1 -40 153 -10 42 "ABalapapp"
33 46 39 -1 18 207 -10 30 "ABalpppppp"
34 37 34 -1 32 245 -10 38 "ABplaappa"
35 43 40 -1 66 -35 -10 38 "ABpraapap"
36 38 41 -1 130 -23 -10 42 "ABprapaaa"
38 42 47 -1 256 25 -9 38 "ABarppppp"
39 47 48 -1 -128 71 -8 38 "ABalappaa"
40 48 49 -1 -118 153 -8 38 "ABalapaap"
41 50 37 -1 -38 215 -8 30 "ABalpppppa"
42 45 45 -1 10 25 -8 38 "ABalapppp"
43 3 30 66 276 81 -8 42 "Cpaap"
44 49 44 -1 -58 101 -7 42 "MSaaaap"
45 54 46 -1 92 243 -7 38 "ABplaappp"
46 61 54 -1 146 127 -7 46 "Epla"
47 56 1 -1 -68 -11 -6 38 "ABalaappp"
48 2 50 -1 34 125 -6 46 "Eala"
49 57 53 -1 128 181 -6 34 "MSapppp"
50 52 62 -1 -32 39 -5 38 "MSpaaap"
51 53 59 -1 50 185 -5 38 "MSapapp"
52 5 2 -1 160 49 -5 46 "Epra"
53 55 56 -1 186 -25 -5 38 "ABprapaap"
54 59 51 -1 -132 127 -4 42 "ABalapaaa"
55 51 52 -1 -72 175 -4 34 "ABalppppa"
56 60 58 -1 38 63 -4 46 "Eara"
57 65 60 -1 90 145 -4 42 "Ealp"
58 64 65 -1 220 135 -4 46 "Eplp"
59 58 55 -1 286 155 -4 42 "Caaap"
60 62 63 -1 -16 -23 -3 42 "ABpraaapa"
61 70 61 -1 242 217 -3 38 "ABplapapp"
62 63 68 -1 98 -55 -2 38 "ABpraappa"
63 72 57 -1 -108 193 -1 34 "ABalpppaa"
64 76 67 -1 -8 237 -1 42 "ABplpaapa"
65 73 64 -1 194 237 -1 34 "ABplappap"
66 4 71 -1 228 79 -1 46 "Eprp"
67 68 69 -1 -62 217 0 34 "ABalpppap"
68 77 70 -1 -8 181 0 34 "MSapapa"
69 8 78 -1 102 57 0 46 "Earp"
70 67 73 -1 -166 83 1 38 "ABalaaapa"
71 71 74 -1 -130 27 1 38 "ABalaaapp"
72 69 76 -1 40 -33 1 38 "ABpraaapp"
73 78 88 -1 64 13 1 34 "MSppapp"
74 6 72 -1 148 247 1 38 "ABplappaa"
75 66 80 -1 266 -3 1 34 "ABprapapa"
76 85 81 -1 -124 91 2 34 "MSaaaaa"
77 74 84 -1 -86 -5 2 38 "ABalaappa"
78 75 75 -1 -8 105 2 34 "MSaaapp"
79 81 77 -1 76 191 2 34 "MSapppa"
80 82 79 -1 132 11 2 34 "MSppppp"
81 83 90 -1 148 -43 2 30 "ABpraappp"
82 79 83 -1 -82 111 3 38 "MSaaapa"
83 80 86 -1 -32 67 3 38 "MSpaapa"
84 7 3 -1 52 241 3 38 "ABplpaapp"
85 88 93 -1 -12 -37 5 38 "ABpraaaap"
86 87 87 -1 30 59 5 30 "MSpaapp"
87 90 115 -1 296 37 5 38 "ABprapapp"
88 84 96 -1 -156 123 6 38 "ABalaaaal"
89 86 82 -1 -92 53 6 34 "MSpaaaa"
90 91 92 -1 -34 163 6 34 "MSapaap"
91 96 4 -1 108 187 6 30 "Daaa"
92 93 91 -1 154 173 6 34 "Dapa"
93 104 85 -1 -122 191 7 38 "ABalppaaa"
94 99 100 -1 -44 -29 7 34 "ABpraaaaa"
95 106 98 -1 -30 209 7 38 "ABplpaaaa"
96 95 106 -1 14 127 7 38 "MSaapaa"
97 89 94 -1 26 17 7 34 "MSppapa"
98 113 101 -1 36 173 7 34 "MSappaa"
99 92 95 -1 98 -9 7 30 "MSppppa"
100 102 122 -1 314 95 7 42 "Cpapa"
101 105 105 -1 -36 113 8 38 "ABaraapap"
102 118 108 -1 104 241 8 38 "ABplppapa"
103 100 103 -1 218 155 8 38 "Dapp"
104 94 113 -1 222 -41 8 38 "ABprappaa"
105 103 104 -1 -166 67 9 38 "ABalaaaar"
106 97 97 -1 -84 205 9 34 "ABalppaap"
107 98 99 -1 -80 153 9 34 "MSapaaa"
108 121 107 -1 10 239 9 38 "ABplpaaap"
109 9 117 -1 86 -53 9 38 "ABprpaapp"
110 114 109 -1 118 119 9 42 "Z3"
111 119 111 -1 152 235 9 34 "ABplppapp"
112 109 102 -1 200 231 9 34 "ABplapppa"
113 111 120 -1 266 -9 9 38 "ABprappap"
114 101 121 -1 298 151 9 34 "Caapa"
115 107 126 -1 36 -35 10 38 "ABprpaapa"
116 108 118 -1 172 81 10 42 "Z2"
117 115 112 -1 188 21 10 34 "Dppa"
118 117 124 -1 -48 9 11 34 "MSppaaa"
119 112 125 -1 -6 17 11 30 "MSppaap"
120 125 116 -1 52 85 11 42 "MSpapaa"
121 110 119 -1 238 61 11 34 "Dppp"
122 127 110 150 150 23 12 34 "Dpa"
123 116 127 -1 -116 15 13 34 "ABalaapaa"
124 126 130 -1 94 31 13 34 "MSpppap"
125 128 123 -1 240 225 13 34 "ABplapppp"
126 122 131 -1 -152 131 14 38 "ABalpaaaa"
127 123 129 -1 -100 81 14 30 "ABaraaaap"
128 120 128 143 -4 67 14 34 "ABaraappp"
129 124 135 -1 50 239 14 34 "ABplppaaa"
130 142 136 -1 86 169 14 30 "MSappap"
131 131 114 -1 232 189 14 38 "Cappa"
132 132 147 -1 -152 81 15 30 "ABalpaapaa"
133 129 134 -1 -64 57 15 38 "ABaraappa"
134 130 138 -1 144 169 15 34 "Daap"
135 144 139 -1 258 155 15 34 "Cappp"
136 137 161 -1 272 67 15 38 "Cpppa"
137 138 148 -1 -142 49 16 38 "ABaraaaaa"
138 133 132 -1 -104 175 16 42 "ABalpaapp"
139 134 133 -1 -80 -7 16 34 "ABalaapap"
140 150 141 -1 -60 197 16 38 "ABalppapa"
141 135 144 -1 44 33 16 34 "MSpppaa"
142 146 149 -1 84 231 16 34 "ABplppaap"
143 152 159 -1 106 79 16 34 "MSpapap"
144 136 145 -1 258 9 16 38 "ABprapppa"
145 140 154 -1 10 -25 17 38 "ABprpaaaa"
146 153 137 -1 136 241 17 42 "ABplpppaa"
147 143 153 -1 216 -29 17 38 "ABprppapp"
148 148 160 -1 262 111 17 34 "Cpppp"
149 149 146 -1 296 165 17 38 "Caapp"
150 145 142 -1 -16 199 18 38 "ABalppapp"
151 139 162 -1 -14 113 18 30 "ABalpapppa"
152 158 5 -1 28 201 18 38 "ABplpapaa"
153 163 155 -1 36 137 18 34 "ABalpapppp"
154 141 156 -1 56 -49 18 34 "ABprpaaap"
155 164 157 -1 80 127 18 30 "MSaapap"
156 151 158 -1 100 -35 18 34 "ABprppaaa"
157 154 152 -1 194 229 18 38 "ABplpppap"
158 162 165 -1 -126 155 19 38 "ABalpaaap"
159 156 168 -1 -102 119 19 30 "ABalpaapap"
160 157 140 -1 -60 99 19 38 "ABaraapaa"
161 147 151 -1 168 -37 19 34 "ABprppapa"
162 160 163 -1 176 173 19 38 "Capaa"
163 161 164 -1 218 101 19 38 "Cppap"
164 171 171 -1 114 197 20 38 "ABplppppa"
165 159 173 -1 130 -43 20 38 "ABprppaap"
166 172 176 -1 214 151 20 38 "Capap"
167 166 166 -1 300 113 20 38 "Cpapp"
168 155 167 -1 -124 61 21 34 "ABaraaapaa"
169 167 169 -1 52 77 21 34 "ABarapappp"
170 165 174 -1 146 97 21 38 "MSpappp"
171 173 177 -1 282 35 21 34 "ABprapppp"
172 175 187 -1 -10 21 22 34 "ABarapppa"
173 167 179 -1 -4 67 22 30 "ABarapappa"
174 168 170 -1 74 -1 22 34 "ABprpapaa"
175 170 172 -1 118 137 22 34 "MSaappp"
176 169 175 -1 194 59 22 34 "Cppaa"
177 177 180 -1 208 -13 23 38 "ABprpppaa"
178 182 178 -1 -76 147 24 34 "ABalpapaa"
179 178 181 -1 -36 171 24 38 "ABalpapap"
180 184 183 -1 56 219 24 38 "ABplpapap"
181 183 186 -1 -46 11 25 38 "ABaraaapp"
182 186 195 -1 0 129 25 30 "ABalpappap"
183 176 182 -1 24 -7 25 38 "ABarapppp"
184 187 189 -1 78 125 25 34 "MSaappa"
185 180 184 -1 114 1 25 34 "ABprpapap"
186 181 190 -1 178 15 25 34 "ABprppppa"
187 174 192 -1 -70 49 26 30 "ABaraaapap"
188 186 185 -1 -42 127 26 26 "ABalpappaa"
189 185 196 -1 94 85 26 30 "MSpappa"
190 188 191 -1 244 33 26 38 "ABprpppap"
191 179 194 -1 -24 73 27 42 "ABarapaap"
192 195 199 -1 20 45 27 34 "ABarappaa"
193 190 188 193 48 165 27 34 "ABplpappa"
194 194 198 -1 -56 93 28 38 "ABarapaaa"
195 189 200 -1 28 99 28 42 "ABarapapa"
196 191 201 -1 102 45 28 38 "ABprpappa"
197 196 203 -1 58 7 29 42 "ABarappap"
198 197 204 -1 102 177 29 42 "ABplpappp"
199 192 202 -1 148 51 29 38 "ABprpappp"
200 193 197 -1 164 169 29 42 "ABplppppp"
201 198 205 -1 198 53 29 38 "ABprppppp"
