1 14 23 -1 -22 117 -20 38 "ABplaaaap"
2 28 32 -1 210 197 -17 42 "ABplapapa"
3 1 2 -1 28 123 -7 46 "Eala"
4 73 77 -1 38 183 -1 38 "MSapapp"
5 126 152 -1 50 91 13 38 "MSpapaa"
6 8 7 -1 -82 65 -21 38 "ABarpaaaa"
7 10 10 -1 -48 77 -20 34 "ABarpaaap"
8 11 11 -1 14 141 -20 34 "ABplaaapa"
9 9 9 -1 -74 135 -19 34 "ABplaaaaa"
10 23 25 -1 70 203 -19 42 "ABplapaaa"
11 18 14 -1 80 111 -19 38 "ABarppaaa"
12 25 8 -1 118 9 -19 38 "ABarpppaa"
13 13 22 -1 -48 25 -18 42 "ABarpapaa"
14 15 24 -1 2 41 -18 34 "ABarpapap"
15 16 15 -1 28 7 -18 38 "ABarpappa"
16 24 17 -1 144 135 -18 38 "ABarppaap"
17 20 19 -1 208 47 -18 38 "Cpaaa"
18 22 16 -1 36 81 -17 30 "ABarpaapap"
19 31 26 -1 76 61 -17 30 "ABarpaappa"
20 31 27 -1 128 67 -17 30 "ABarpaappp"
21 26 28 -1 136 213 -17 42 "ABplapaap"
22 27 30 -1 172 13 -17 42 "ABarpppap"
23 29 20 -1 -112 113 -16 42 "ABalapapa"
24 12 21 -1 -74 181 -16 38 "ABplaapaa"
25 21 12 -1 -24 191 -16 38 "ABplaapap"
26 17 13 -1 66 157 -16 38 "ABplaaapp"
27 19 29 -1 168 173 -16 34 "ABarppapa"
28 32 18 -1 188 115 -16 30 "Caaaaa"
29 33 1 -1 274 63 -16 34 "Cpaapa"
30 30 34 -1 -18 77 -15 30 "ABarpaapaa"
31 32 31 -1 242 123 -15 30 "Caaaap"
32 35 33 -1 56 -1 -14 30 "ABarpapppa"
34 37 39 -1 10 231 -13 34 "ABplaappa"
35 58 235 -1 292 127 -13 34 "Caaapa"
36 42 52 -1 234 165 -12 38 "ABarppapp"
37 53 37 -1 -130 157 -11 38 "ABalapaap"
38 68 41 -1 256 209 -11 34 "ABplapappa"
40 40 47 -1 -142 71 -10 34 "ABalappaa"
41 44 48 -1 -138 119 -10 38 "ABalapaaa"
42 34 49 -1 -132 29 -10 42 "ABalappap"
43 36 35 -1 -82 37 -10 38 "ABalapppa"
44 47 55 -1 14 193 -10 34 "ABalpppppp"
45 41 40 -1 56 233 -10 30 "ABplaapppa"
46 51 45 -1 126 235 -10 30 "ABplaapppp"
47 48 43 -1 -52 183 -9 30 "ABalppppap"
48 45 6 -1 -36 209 -9 30 "ABalpppppa"
49 49 38 50 -32 141 -9 38 "ABalapapp"
50 38 51 -1 108 -3 -9 30 "ABarpapppp"
51 39 46 -1 208 -15 -9 34 "ABarppppa"
52 46 44 -1 -20 -17 -8 38 "ABpraapaa"
53 52 56 -1 128 -45 -8 38 "ABprapaaa"
54 56 53 -1 254 17 -8 42 "ABarppppp"
55 54 54 -1 -68 97 -7 42 "MSaaaap"
56 2 57 -1 -2 25 -7 38 "ABalapppp"
57 55 59 -1 120 181 -7 34 "MSapppp"
58 59 64 -1 -82 -5 -6 34 "ABalaappp"
59 48 60 -1 -94 157 -5 30 "ABalppppaa"
60 50 58 -1 28 -27 -5 34 "ABpraapap"
61 64 62 -1 206 227 -5 38 "ABplappap"
62 57 63 -1 -116 193 -4 38 "ABalpppaa"
63 62 3 -1 140 109 -4 50 "Epla"
64 63 66 -1 164 33 -4 46 "Epra"
65 60 72 -1 184 -37 -4 42 "ABprapaap"
66 70 69 -1 -32 49 -3 42 "MSpaaap"
67 61 61 -1 38 55 -3 50 "Eara"
68 67 70 -1 86 145 -3 46 "Ealp"
69 79 4 -1 208 123 -3 46 "Eplp"
70 69 67 -1 -172 81 -2 38 "ABalaaapa"
71 66 65 -1 86 -57 -2 38 "ABpraappa"
72 81 73 -1 224 71 -2 46 "Eprp"
73 68 80 -1 260 195 -2 34 "ABplapappp"
74 76 68 -1 -130 93 -1 38 "MSaaaaa"
75 78 71 -1 90 253 -1 34 "ABplpaappp"
76 74 74 -1 296 91 -1 34 "Cpaapp"
77 75 82 -1 -144 23 0 38 "ABalaaapp"
78 65 78 -1 -62 213 0 38 "ABalpppap"
79 71 84 -1 -32 -15 0 38 "ABpraaapa"
80 72 88 -1 -10 225 0 38 "ABplpaapa"
81 213 234 -1 158 245 0 38 "ABplappaa"
82 89 83 -1 -86 111 1 42 "MSaaapa"
83 77 85 -1 -20 177 1 34 "MSapapa"
84 90 75 -1 -16 109 1 34 "MSaaapp"
85 84 76 -1 36 245 1 30 "ABplpaappa"
86 86 86 -1 76 201 1 34 "MSapppa"
87 80 79 -1 122 -1 1 38 "MSppppp"
88 82 81 -1 274 -5 1 38 "ABprapapa"
89 58 97 -1 286 147 1 30 "Caaapp"
90 91 89 -1 6 -31 2 30 "ABpraaappa"
91 85 90 -1 58 -47 2 30 "ABpraaappp"
92 99 92 -1 112 187 2 30 "Daaa"
93 83 106 -1 -100 49 3 38 "MSpaaaa"
94 3 96 -1 50 3 3 34 "MSppapp"
95 93 100 -1 126 -57 3 30 "ABpraapppa"
96 100 87 -1 156 183 3 34 "Dapa"
97 101 94 -1 -166 127 4 38 "ABalaaaal"
98 88 95 -1 -144 177 4 38 "ABalppaaa"
99 98 99 -1 32 51 4 30 "MSpaapp"
100 103 101 -1 -178 73 5 38 "ABalaaaar"
101 95 102 -1 -106 197 5 34 "ABalppaap"
102 92 105 -1 -100 -5 5 38 "ABalaappa"
103 96 104 -1 -26 65 5 42 "MSpaapa"
104 87 91 -1 98 45 5 46 "Earp"
105 116 112 -1 154 239 6 42 "ABplppapp"
106 118 108 -1 204 237 6 34 "ABplapppa"
107 104 103 -1 -90 151 7 34 "MSapaaa"
108 109 115 -1 -60 215 7 30 "ABplpaaaaa"
109 108 119 -1 -36 165 7 38 "MSapaap"
110 105 116 -1 14 15 7 30 "MSppapa"
111 107 109 -1 206 149 7 38 "Dapp"
112 4 118 -1 240 187 7 38 "Cappa"
113 102 110 -1 -58 -27 8 34 "ABpraaaaa"
114 111 120 -1 30 179 8 34 "MSappaa"
115 120 5 -1 164 77 8 42 "Z2"
116 106 113 -1 182 -41 8 34 "ABpraapppp"
117 97 125 -1 -24 -37 9 38 "ABpraaaap"
118 131 98 -1 -18 119 9 30 "ABaraapapp"
119 5 117 -1 14 129 9 34 "MSaapaa"
120 112 121 -1 88 -9 9 34 "MSppppa"
121 113 111 -1 100 245 9 38 "ABplppapa"
122 114 122 -1 110 125 9 42 "Z3"
123 109 137 -1 -14 225 10 30 "ABplpaaaap"
124 110 107 144 18 233 10 30 "ABplpaaap"
125 115 127 -1 130 7 10 34 "Dpaa"
126 141 148 -1 244 221 10 34 "ABplapppp"
127 122 133 -1 260 -15 10 38 "ABprappap"
128 119 114 141 286 35 10 38 "ABprapapp"
129 131 130 -1 -60 119 11 30 "ABaraapapa"
130 132 132 -1 22 -37 11 38 "ABprpaapa"
131 125 126 -1 20 67 11 30 "ABaraapppp"
132 133 138 -1 58 245 11 34 "ABplppaaa"
133 117 128 -1 172 15 11 34 "Dppa"
134 127 123 -1 222 53 11 38 "Dppp"
135 124 124 -1 312 97 11 42 "Cpapa"
136 128 129 -1 -120 71 12 34 "ABaraaaap"
137 129 136 -1 -64 65 12 30 "ABaraappap"
138 130 131 -1 -60 19 12 34 "MSppaaa"
139 140 140 -1 140 173 12 34 "Daap"
140 135 149 -1 -164 125 13 34 "ABalpaaaa"
141 136 134 -1 -160 45 13 38 "ABaraaaaa"
142 123 166 -1 292 149 13 34 "Caapa"
143 137 142 -1 -126 161 14 42 "ABalpaapp"
144 138 154 -1 -114 5 14 38 "ABalaapaa"
145 6 135 167 -82 191 14 34 "ABalppapa"
146 134 145 -1 82 -47 14 38 "ABprpaapp"
147 144 139 -1 80 179 14 30 "MSappap"
148 121 147 -1 216 -39 14 38 "ABprappaa"
149 146 153 -1 -170 83 15 30 "ABalpaapaa"
150 147 143 -1 -102 97 15 30 "ABaraapaaa"
151 142 150 -1 -30 69 15 34 "ABaraapppa"
152 139 155 -1 -12 29 15 30 "MSppaap"
153 148 156 -1 88 31 15 34 "MSpppap"
154 151 146 -1 146 241 15 42 "ABplpppaa"
155 154 161 -1 -46 197 16 30 "ABalppappa"
156 143 151 -1 32 41 16 42 "MSpppaa"
157 157 170 -1 72 141 16 30 "MSaapap"
158 150 163 -1 86 243 16 42 "ABplppaap"
159 145 158 -1 102 77 16 38 "MSpapap"
160 149 157 -1 -108 39 17 30 "ABaraappaa"
161 147 176 -1 -68 109 17 30 "ABaraapaap"
162 152 165 -1 250 151 17 34 "Cappp"
163 7 160 -1 256 65 17 38 "Cpppa"
164 155 162 -1 0 -11 18 38 "ABprpaaaa"
165 172 178 -1 32 145 18 38 "ABalpapppp"
166 164 185 -1 40 -39 18 38 "ABprpaaap"
167 156 179 -1 42 203 18 42 "ABplpapaa"
168 158 172 -1 150 -29 18 38 "ABprppapa"
169 159 231 -1 156 41 18 38 "Dpap"
170 160 159 -1 174 175 18 38 "Capaa"
171 176 164 -1 196 229 18 38 "ABplpppap"
172 165 173 -1 208 107 18 38 "Cppap"
173 167 174 -1 250 11 18 38 "ABprapppa"
174 161 175 -1 254 109 18 38 "Cpppp"
175 162 183 -1 280 181 18 38 "Caapp"
176 168 187 -1 -146 53 19 34 "ABaraaapaa"
177 153 168 -1 -62 -13 19 38 "ABalaapap"
178 171 169 -1 -30 123 19 30 "ABalpapppa"
179 181 181 -1 186 75 19 38 "Cppaa"
180 163 189 -1 2 215 20 34 "ABalppappp"
181 175 171 -1 118 153 20 34 "MSaappp"
182 180 180 -1 140 103 20 38 "MSpappp"
183 166 182 -1 212 157 20 38 "Capap"
184 169 184 -1 -130 149 21 38 "ABalpaaap"
185 187 188 -1 -56 35 21 34 "ABaraaapp"
186 183 193 -1 -42 171 21 42 "ABalpapap"
187 178 177 -1 2 67 21 34 "ABarapappa"
188 173 186 -1 76 1 21 34 "ABprpapaa"
189 179 194 -1 98 -41 21 34 "ABprppaaa"
190 170 192 -1 -116 113 22 34 "ABalpaapap"
191 186 199 -1 -80 145 22 38 "ABalpapaa"
192 174 195 196 124 211 22 38 "ABplppppa"
193 177 191 -1 202 -25 22 42 "ABprppapp"
194 185 197 -1 284 41 22 38 "ABprapppp"
195 190 200 -1 -42 83 23 34 "ABarapaap"
196 184 203 -1 58 89 23 38 "ABarapappp"
197 195 201 -1 80 145 23 34 "MSaappa"
198 182 207 -1 288 117 23 38 "Cpapp"
199 192 209 -1 -2 93 24 30 "ABarapapaa"
200 191 190 -1 38 9 24 30 "ABarappppp"
201 188 202 -1 86 173 24 30 "ABplpappap"
202 196 205 -1 100 113 24 30 "MSpappa"
203 193 210 -1 112 21 24 34 "ABprpapap"
204 203 220 -1 242 43 24 34 "ABprpppap"
205 198 198 -1 -88 53 25 34 "ABaraaapap"
206 194 204 -1 64 209 25 38 "ABplpapap"
207 189 211 -1 136 -21 25 42 "ABprppaap"
208 205 208 -1 -16 31 26 38 "ABarapppa"
209 199 212 -1 -8 137 26 30 "ABalpappap"
210 200 217 -1 26 167 26 38 "ABplpappaa"
211 201 213 214 98 69 26 38 "ABprpappa"
212 206 206 -1 174 177 26 42 "ABplppppp"
213 197 215 -1 208 3 26 34 "ABprpppaa"
214 204 222 -1 -54 129 27 30 "ABalpappaa"
215 202 219 -1 166 19 27 34 "ABprppppa"
216 207 221 -1 -76 93 28 34 "ABarapaaa"
217 208 216 -1 18 61 28 34 "ABarappaa"
218 192 227 -1 42 111 28 30 "ABarapapap"
219 209 223 -1 56 31 28 38 "ABarappap"
220 210 224 -1 122 171 28 38 "ABplpappp"
221 211 218 -1 148 65 28 42 "ABprpappp"
222 212 225 -1 202 67 28 38 "ABprppppp"
223 191 226 -1 6 -3 29 30 "ABarappppa"
