1 72 65 -1 94 57 -20 38 "ABarpaappp"
2 91 74 -1 -118 75 -17 34 "ABarpaaaaa"
3 83 69 -1 -74 59 -17 30 "ABarpaaapp"
5 99 77 -1 -38 203 -15 42 "ABplaapapp"
6 97 91 -1 56 -25 -14 42 "ABarpapppp"
7 5 4 -1 80 201 -13 34 "ABplapaaap"
8 116 103 -1 204 145 -10 34 "Dappp"
9 101 6 -1 8 149 -12 30 "MSapappp"
10 8 11 -1 40 247 -10 30 "ABplaappap"
11 114 107 -1 -112 13 -9 38 "ABpraapaaa"
12 412 95 -1 -80 185 -9 38 "ABalppppap"
13 126 117 -1 34 161 -8 30 "MSapppap"
14 7 112 -1 218 231 -8 34 "ABplappapp"
15 9 121 -1 -152 107 -7 30 "ABalappaap"
16 142 18 -1 138 3 -7 34 "Dpppa"
17 143 145 -1 152 -51 -5 38 "ABarppppaa"
18 140 128 -1 -10 119 -4 38 "MSaaapap"
19 159 150 -1 100 -37 -3 34 "ABprapaaap"
20 50 133 -1 -104 179 -4 38 "ABalapaapp"
21 15 15 -1 148 99 -6 34 "Eplaa"
22 152 131 -1 -138 43 -2 34 "ABalapppaa"
23 17 16 -1 -48 107 -3 34 "MSaaapaa"
24 16 159 -1 104 57 -1 38 "Earap"
25 19 169 -1 60 51 0 42 "Earaa"
26 167 161 -1 186 245 0 34 "ABplappaap"
27 182 176 -1 116 205 2 30 "Daapp"
28 184 184 -1 226 -39 2 34 "ABprappapa"
29 198 173 -1 -70 163 4 30 "MSapaaap"
30 201 450 -1 14 57 2 38 "MSpaapap"
31 204 175 -1 90 179 3 30 "MSappaap"
32 443 227 -1 212 127 5 38 "Eplpa"
33 185 185 -1 232 183 3 34 "Cappap"
34 202 192 -1 16 135 4 22 "MSaapaapa"
35 26 202 -1 -68 117 5 34 "ABaraapaap"
36 199 48 -1 -32 165 4 26 "MSapapaa"
37 219 212 -1 0 183 5 26 "MSapapap"
38 173 207 -1 102 123 4 42 "Ealpa"
39 214 209 -1 264 43 5 38 "Cppppa"
40 210 24 -1 -20 241 6 30 "ABplpaaapa"
42 227 229 -1 34 101 6 30 "ABaraapppp"
43 249 246 -1 38 195 9 34 "MSapaapp"
44 245 242 -1 -120 119 10 30 "ABalpaapaa"
45 253 237 -1 118 193 11 34 "MSaapppa"
46 28 248 -1 140 155 12 42 "Z3"
47 273 30 -1 132 -51 13 38 "ABpraapppp"
48 275 277 -1 -100 195 14 38 "ABalaaaalp"
49 300 296 -1 140 1 15 30 "Dpapp"
50 354 364 -1 84 101 24 34 "ABarapapppp"
51 40 381 -1 122 187 24 34 "ABplpapapp"
52 356 366 -1 178 185 24 30 "ABplppppap"
53 362 37 -1 216 183 24 34 "ABplpppapa"
54 351 353 -1 -32 147 24 38 "ABalpappaa"
55 381 378 -1 20 203 27 42 "ABalpapapa"
56 367 379 -1 74 35 26 38 "ABprpapaap"
57 392 390 -1 -52 167 27 30 "ABalpapaaa"
58 389 385 -1 154 189 27 34 "ABplppppaa"
59 41 393 -1 172 149 28 34 "ABplpapppp"
60 399 43 -1 108 123 30 42 "ABprpappap"
61 150 136 -1 56 199 -4 38 "Daaaa"
62 237 46 -1 -98 7 8 38 "ABalaapppp"
63 269 264 -1 22 25 12 26 "MSppapap"
64 286 287 -1 78 -1 13 42 "Dpapa"
65 377 380 -1 84 149 28 38 "ABplpappap"
66 360 355 -1 38 -15 23 38 "ABprpaaapp"
68 54 421 -1 -78 117 -22 30 "ABplaaaaaa"
69 61 49 -1 -74 81 -22 34 "ABarpaaaap"
70 55 52 -1 -44 61 -22 26 "ABarpaaapa"
72 70 51 -1 -104 145 -21 34 "ABplaapaap"
73 57 50 -1 -44 181 -21 30 "ABplaaapaa"
74 62 59 -1 4 113 -21 34 "ABplaaaapp"
75 59 56 -1 68 129 -21 30 "ABarppaaap"
76 60 58 -1 160 155 -21 34 "ABarppaapp"
77 69 63 -1 168 207 -21 34 "ABarppapap"
78 58 53 -1 -26 105 -20 30 "ABplaaaapa"
79 63 60 -1 8 169 -20 34 "ABplaaappa"
80 64 55 -1 38 157 -20 34 "ABplaaappp"
81 65 61 -1 96 163 -20 30 "ABarppaaaa"
82 66 57 -1 122 99 -20 34 "ABarppaapa"
83 67 62 -1 134 191 -20 30 "ABarppapaa"
84 71 54 -1 -8 65 -19 26 "ABarpaapaa"
85 75 2 -1 30 69 -19 34 "ABarpaapap"
86 76 66 -1 182 77 -19 38 "Caaaaa"
87 440 67 -1 -92 25 -18 38 "ABarpapaaa"
88 85 76 -1 -48 129 -18 34 "ABplaaaaap"
89 74 64 -1 -14 183 -18 34 "ABplaaapap"
90 87 78 -1 10 27 -18 30 "ABarpapapp"
91 79 71 -1 60 67 -18 34 "ABarpaappa"
92 77 73 -1 206 185 -18 30 "ABplappapa"
93 84 75 -1 -64 163 -17 26 "ABalapappp"
94 86 70 -1 -32 41 -17 30 "ABarpapapa"
95 88 3 -1 106 221 -17 30 "ABplapaapa"
96 89 72 -1 124 -1 -17 38 "ABarpppapa"
97 73 68 -1 -84 191 -16 38 "ABplaapaaa"
98 93 81 -1 60 175 -16 34 "ABplapaaaa"
100 94 83 -1 78 1 -16 30 "ABarpppaaa"
101 92 82 -1 240 177 -16 30 "ABarppappa"
102 1 86 -1 10 209 -15 34 "ABalppppppp"
103 90 80 -1 222 83 -15 34 "Caaaap"
104 105 85 -1 270 111 -15 34 "Caaapa"
105 49 84 -1 220 17 -14 34 "Cpaaap"
106 106 99 -1 -106 151 -13 34 "ABalapappa"
107 96 92 -1 50 135 -13 30 "MSappppa"
108 102 97 -1 112 157 -13 34 "MSappppp"
109 98 5 -1 150 155 -13 38 "Dappa"
111 405 88 -1 -108 51 -12 34 "ABalapppap"
112 107 89 -1 -72 91 -12 30 "MSaaaaapp"
113 2 100 -1 -58 31 -12 38 "ABarpapaap"
115 110 101 -1 -12 71 -12 38 "MSpaaapa"
116 3 93 -1 70 237 -12 32 "ABplaapppa"
117 103 94 -1 148 233 -12 34 "ABplapaapp"
118 104 102 -1 180 -23 -12 34 "ABarpppapp"
119 108 7 -1 -46 79 -11 34 "MSaaaapa"
120 6 10 -1 14 107 -11 34 "MSaaaapp"
123 111 96 -1 0 245 -10 34 "ABplaappaa"
124 4 98 -1 258 53 -10 34 "Cpaapa"
125 117 104 -1 264 193 -10 34 "ABplapapaa"
126 124 9 -1 -52 183 -9 38 "ABplaapapa"
127 120 109 -1 -2 -27 -9 34 "ABarpappap"
130 12 12 -1 66 95 -8 38 "Ealaa"
131 132 14 -1 80 157 -8 30 "Daaap"
132 13 110 -1 114 245 -8 38 "ABplaapppp"
133 127 111 -1 158 191 -8 30 "Dapap"
134 144 127 -1 -148 141 -7 34 "ABalapaaaa"
135 128 13 -1 -128 155 -7 38 "ABalapaaap"
136 123 113 -1 -124 99 -7 30 "MSaaaaapa"
139 119 108 -1 -38 147 -7 34 "MSapappa"
140 129 115 -1 -10 189 -7 30 "ABalppppppa"
141 121 116 -1 26 -33 -7 30 "ABarpapppa"
142 131 124 -1 76 -23 -7 34 "ABprapaaaa"
143 133 119 -1 108 103 -7 34 "Ealap"
144 136 120 -1 212 177 -7 34 "Cappaa"
145 10 105 -1 304 75 -7 32 "Cpaapp"
146 130 135 -1 16 215 -6 38 "ABplpaappa"
147 141 125 -1 114 187 -6 34 "Dapaa"
148 134 126 -1 146 57 -6 38 "Epraa"
149 137 139 -1 246 225 -6 34 "ABplapapap"
151 14 134 -1 -4 21 -5 30 "MSppappp"
152 149 129 -1 30 9 -5 30 "MSpppppa"
154 135 146 -1 164 243 -5 34 "ABplappaaa"
155 145 132 -1 -102 59 -4 34 "MSpaaaaa"
156 157 141 -1 -62 -21 -4 38 "ABpraapaap"
157 139 425 -1 -66 225 -4 30 "ABalpppapp"
158 148 17 -1 18 61 -4 42 "MSpaaapp"
159 153 144 -1 80 249 -4 30 "ABplppaaap"
160 151 137 -1 102 5 -4 30 "MSpppppp"
161 154 147 -1 198 11 -4 34 "Dpppp"
162 155 153 -1 290 191 -4 30 "ABarppappp"
163 156 140 -1 -78 73 -3 26 "MSpaaaapa"
164 18 148 -1 -38 199 -3 38 "ABalpppppa"
165 146 142 -1 -24 55 -3 26 "MSpaaaapp"
166 147 143 -1 -20 243 -3 34 "ABplpaapap"
168 21 151 -1 190 107 -3 34 "Eplap"
169 163 152 -1 250 -11 -3 34 "ABarpppppa"
170 160 158 -1 -90 15 -2 34 "ABalappppa"
171 158 149 -1 -18 -19 -2 34 "ABpraapapp"
172 161 166 -1 10 181 -2 30 "MSapppaa"
173 168 157 -1 194 -51 -2 30 "ABarppppap"
175 164 154 -1 -116 211 -1 30 "ABalpppaap"
177 165 174 -1 24 -35 -1 30 "ABpraaapppp"
180 175 162 -1 196 189 -1 34 "Capapa"
181 195 181 -1 68 129 0 30 "MSaapaapp"
182 169 179 -1 264 225 0 30 "ABplapappa"
183 177 187 -1 -156 155 1 34 "ABalaaapal"
184 170 164 -1 -134 93 1 32 "MSaaaaaa"
185 188 171 -1 -122 171 1 30 "ABalapaapa"
186 171 165 -1 -104 107 1 34 "ABaraapaaa"
187 178 172 -1 -84 195 1 34 "ABalppppaa"
188 172 191 -1 -4 149 1 34 "ABaraapapp"
189 179 167 -1 8 99 1 26 "MSaaappa"
190 180 168 -1 32 99 1 30 "MSaaappp"
191 166 177 -1 148 131 1 38 "Ealpp"
192 23 170 -1 260 159 1 30 "Capppa"
193 176 19 -1 312 75 1 34 "Cpapap"
194 186 163 -1 314 135 1 34 "Cpapaa"
195 189 21 -1 -114 -1 2 38 "ABalappapp"
196 191 180 -1 -38 -1 2 42 "ABpraapapa"
197 194 195 -1 50 -3 2 30 "MSppppap"
198 181 196 -1 98 1 2 30 "Dpaap"
199 183 178 -1 152 195 2 34 "Capaaa"
200 20 160 -1 176 71 2 38 "Eprap"
201 196 208 -1 216 69 2 38 "Eprpa"
202 187 186 -1 -162 109 3 34 "ABalaaapar"
203 190 22 -1 -54 27 3 30 "MSppappa"
204 192 190 -1 -18 125 3 30 "ABaraapapap"
205 193 193 -1 42 167 3 30 "MSappaaa"
206 203 194 -1 42 203 3 26 "MSappapa"
207 222 23 -1 170 -13 3 30 "Dppap"
209 208 188 -1 -70 223 4 30 "ABalpppapa"
211 51 203 -1 -50 75 4 38 "ABaraappap"
212 209 189 -1 -36 207 4 34 "ABplpaapaa"
213 212 213 -1 84 -51 4 34 "ABpraapppa"
214 205 216 -1 116 -63 4 30 "ABprapaapa"
215 25 182 -1 214 3 4 38 "Cpppaa"
216 197 201 -1 -92 65 5 38 "ABaraappaa"
217 27 206 -1 64 241 5 34 "ABplppaaaa"
218 229 226 -1 146 53 5 38 "Earpp"
219 224 210 -1 276 -1 5 30 "ABprapapaa"
220 223 199 -1 -138 21 6 30 "ABalappapa"
221 226 200 -1 -106 147 6 26 "MSapaaaa"
223 220 204 -1 2 5 6 30 "ABpraaapppa"
224 233 28 -1 104 63 6 38 "Earpa"
225 215 218 -1 -144 149 7 32 "ABalppaaaa"
226 207 211 -1 -114 195 7 42 "ABalpppaaa"
227 217 223 -1 -64 -21 7 34 "ABpraaapap"
228 218 221 -1 -18 55 7 34 "MSpaapaa"
229 228 231 -1 126 -11 7 30 "Dppaa"
230 235 27 -1 294 185 7 34 "ABplapappp"
231 225 219 -1 -144 53 8 30 "ABalaaappl"
232 230 234 -1 -134 87 8 30 "ABaraaaapa"
233 250 258 -1 58 -55 8 34 "ABpraappap"
234 234 232 -1 142 249 8 34 "ABplppapap"
235 236 233 -1 298 31 8 30 "ABarpppppp"
236 231 228 -1 -48 151 9 30 "ABaraapapaa"
237 238 244 -1 -36 203 9 34 "ABplpaaaaa"
238 240 29 -1 22 -19 9 34 "ABprpaappa"
239 232 225 -1 52 145 9 30 "MSaapapa"
240 52 214 257 64 79 9 30 "MSpapaap"
241 252 230 -1 102 249 9 34 "ABplppapaa"
242 241 238 -1 172 -53 9 30 "ABprapaapp"
243 242 240 -1 232 211 9 34 "ABplapppaa"
244 244 243 -1 -122 185 10 42 "ABalppaaap"
245 248 255 -1 10 83 10 34 "ABaraapppap"
246 239 256 -1 18 -53 10 30 "ABpraappaa"
247 260 236 -1 82 201 10 30 "MSappapp"
249 262 262 -1 222 85 10 46 "Eprpp"
250 256 249 -1 244 23 10 34 "Cpppap"
251 263 250 -1 272 211 10 30 "ABplappppa"
252 257 241 -1 314 107 10 34 "Cpappd"
253 243 251 -1 -156 125 11 34 "ABalaaaarl"
254 264 252 -1 -152 159 11 34 "ABalaaaala"
255 246 235 -1 -90 219 11 30 "ABalppaapa"
257 258 253 -1 -60 9 11 30 "ABpraaapaa"
258 259 254 -1 -32 103 11 26 "ABaraaapapa"
259 247 245 -1 -20 -11 11 38 "ABpraaappa"
260 270 265 -1 34 253 11 38 "ABplpaaaap"
261 255 239 -1 176 181 11 34 "Capaap"
262 268 247 -1 22 147 12 30 "MSaapaaap"
263 254 261 -1 182 1 12 34 "Cppaaa"
264 29 263 -1 300 155 12 34 "Caappd"
265 265 278 -1 -94 25 13 34 "ABalaapppa"
266 294 279 -1 -90 135 13 30 "ABalpaapapa"
267 268 284 -1 6 141 13 26 "MSaapaaaa"
268 271 259 -1 54 33 13 26 "MSpppapa"
269 276 272 -1 76 159 13 38 "MSaapapp"
270 272 266 -1 90 -57 13 30 "ABprppaaap"
271 274 273 -1 180 239 13 30 "ABplppappp"
272 261 267 -1 210 121 13 38 "Eplpp"
273 279 289 -1 248 -23 13 30 "ABprappapp"
275 293 268 -1 -106 89 14 30 "ABaraaapaa"
276 30 291 -1 -88 59 14 30 "MSppaaaa"
277 266 269 -1 -70 219 14 38 "ABalppaapp"
278 282 283 -1 -24 33 14 26 "MSppapaa"
279 283 292 -1 -20 69 14 26 "ABaraapppaa"
280 302 285 -1 12 97 14 30 "ABarapaappp"
281 31 286 -1 44 225 14 34 "ABplpapaap"
282 277 31 -1 164 75 14 38 "Z2"
283 278 274 -1 212 179 14 34 "Capapp"
284 280 275 -1 298 65 14 34 "ABprapappp"
285 281 290 -1 -144 75 15 30 "ABalaaaarr"
286 292 276 -1 -126 37 15 30 "ABalaaappr"
287 33 280 -1 -50 47 15 30 "MSppaaap"
288 267 270 -1 -38 -31 15 30 "ABpraaaapp"
289 32 271 -1 0 -47 15 30 "ABprpaapap"
290 297 303 -1 2 223 15 38 "ABalppappp"
291 284 294 -1 42 -1 15 22 "MSppppaa"
292 287 297 -1 142 239 15 30 "ABplppappa"
293 288 299 -1 214 23 15 34 "Cppapa"
294 289 288 -1 216 -33 15 34 "ABprappaap"
296 420 281 -1 -46 141 16 30 "ABalpaapapp"
297 295 282 -1 -36 203 16 34 "ABalppappa"
298 296 302 -1 -30 177 16 26 "MSapaapa"
299 298 295 -1 88 95 16 34 "MSpapapa"
300 299 33 -1 122 31 16 30 "MSpppaap"
301 301 310 -1 146 187 16 26 "MSaapppp"
302 304 300 -1 244 197 16 34 "ABplapppap"
303 290 32 -1 250 153 16 30 "Capppp"
304 407 314 -1 270 187 16 34 "ABplappppp"
305 291 301 -1 272 -3 16 30 "ABprapapap"
306 306 312 -1 -128 123 17 30 "ABaraaaaaa"
307 308 47 -1 -72 93 17 30 "ABaraaapapp"
308 324 341 -1 -6 143 17 34 "ABalpapppa"
309 309 293 -1 -6 -1 17 34 "ABprpaapaa"
310 303 304 -1 36 51 17 30 "MSppaapp"
311 316 313 -1 44 -41 17 30 "ABprpaappp"
312 285 305 -1 48 113 17 38 "MSpapaaa"
313 317 327 -1 58 155 17 34 "ABalpappppp"
314 35 308 -1 96 233 17 34 "ABplppaapa"
315 320 34 -1 116 103 17 34 "MSpapapp"
316 311 298 -1 184 -35 17 34 "ABprappaaa"
317 313 319 -1 218 223 17 30 "ABplpppaap"
318 305 311 -1 260 91 17 38 "Cppppp"
319 314 333 -1 276 141 17 34 "Caapa"
320 307 316 -1 -68 -7 18 34 "ABpraaaaap"
321 310 306 -1 70 55 18 30 "MSpppaaa"
322 318 307 -1 76 205 18 34 "ABplpapapa"
323 322 320 -1 306 119 18 30 "Cpappv"
325 302 324 -1 -20 103 19 26 "ABarapaappa"
326 326 326 -1 24 199 19 34 "ABplpapaaa"
327 34 318 -1 72 19 19 30 "MSpppapp"
328 319 328 -1 106 147 19 34 "MSaappa"
329 321 443 -1 146 155 19 30 "MSpappaa"
330 329 335 -1 304 155 19 30 "Caappv"
331 330 336 -1 -116 155 20 30 "ABalpaappa"
332 38 321 -1 -90 187 20 34 "ABalpaappp"
333 331 322 -1 -84 35 20 30 "ABalaappap"
334 334 340 -1 -34 -1 20 30 "ABpraaaapa"
335 335 347 -1 -2 65 20 26 "MSppaapa"
336 325 325 -1 16 169 20 26 "ABalpappppa"
337 338 348 -1 24 87 20 30 "ABarapappa"
338 36 349 -1 136 219 20 30 "ABplppaapp"
339 327 345 -1 158 101 20 26 "MSpappap"
340 37 329 -1 176 223 20 30 "ABplpppaaa"
341 312 330 -1 180 43 20 30 "Cppaap"
342 339 331 -1 202 153 20 30 "ABplpppppa"
343 340 36 -1 218 61 20 34 "Cppapp"
344 341 35 -1 258 39 20 30 "ABprapppaa"
345 342 334 -1 290 21 20 30 "ABprapappa"
346 344 346 -1 -126 53 21 34 "ABalaapaaa"
347 332 323 -1 -82 135 21 34 "ABalpaaapa"
348 346 352 -1 -62 199 21 34 "ABalppapaa"
349 323 338 -1 -46 141 21 34 "ABalpaaapp"
350 333 339 -1 -46 91 21 34 "ABarapaapa"
351 352 343 -1 48 237 21 34 "ABalpapapp"
352 345 337 -1 -96 95 22 34 "ABaraaaaap"
353 337 342 -1 12 -17 22 34 "ABprpaaapa"
354 347 361 -1 32 115 22 30 "ABarapapppa"
355 355 357 -1 128 29 22 34 "MSpapppa"
356 348 358 -1 144 71 22 34 "MSpapppp"
357 349 350 -1 180 119 22 30 "ABprpapppp"
358 357 332 -1 210 111 22 34 "ABprpppppa"
360 358 359 -1 276 179 22 30 "ABplpppapp"
361 343 360 -1 296 55 22 30 "ABprappppa"
362 39 351 -1 -66 9 23 34 "ABpraaaaaa"
363 359 372 -1 -26 37 23 26 "ABarappppa"
364 336 354 -1 6 17 23 34 "ABprpaaaaa"
365 361 363 -1 48 61 23 30 "ABprpapaaa"
366 353 356 -1 76 -27 23 34 "ABprppaaaa"
367 350 368 -1 262 71 23 30 "ABprapppap"
368 365 382 -1 -14 107 24 30 "ABarapapaa"
369 366 362 -1 50 147 24 30 "ABalpappapp"
370 368 374 -1 116 -21 24 34 "ABprppapaa"
371 369 365 -1 122 111 24 30 "ABprpapppa"
372 378 375 -1 158 -25 24 30 "ABprppapap"
373 370 367 -1 244 101 24 30 "ABprpppapp"
374 373 369 -1 288 93 24 30 "ABprappppp"
375 42 38 -1 -114 123 25 30 "ABalpaaaap"
376 374 39 -1 -94 39 25 30 "ABalaapaap"
377 364 377 -1 -24 205 25 34 "ABalppapap"
378 371 387 -1 250 151 25 34 "ABplpppppp"
380 375 371 -1 -82 145 26 30 "ABalpaaaaa"
381 45 406 -1 20 25 26 30 "ABarappppp"
382 382 384 -1 100 61 26 34 "ABprpapapa"
383 390 392 -1 164 13 26 34 "ABprppappa"
384 372 388 -1 280 131 26 34 "ABprpppppp"
385 384 370 -1 -104 83 27 30 "ABaraaappa"
386 379 376 -1 -74 57 27 30 "ABaraaappp"
389 53 396 -1 0 79 27 30 "ABarappaaa"
390 376 383 -1 2 145 27 26 "ABalpappapa"
391 398 411 -1 56 -5 27 46 "ABprpaaaap"
392 388 400 -1 126 27 27 30 "ABprppaapa"
393 400 401 -1 130 77 27 34 "ABprpapapp"
395 383 386 -1 226 19 27 30 "ABprppappp"
396 385 389 -1 -62 101 28 34 "ABarapaaaa"
397 386 405 -1 -28 1 28 38 "ABalaapapp"
398 387 397 -1 32 119 28 38 "ABarapapap"
399 393 398 -1 48 183 28 26 "ABplpappaaa"
400 395 391 -1 138 145 28 34 "ABplpapppa"
401 44 407 -1 -42 49 29 30 "ABarapppaa"
402 397 44 -1 -8 163 29 34 "ABalpapaap"
403 402 408 -1 -6 51 29 30 "ABarapppap"
404 394 399 -1 88 183 29 34 "ABplpappaap"
405 47 41 -1 160 51 29 30 "ABprppaapp"
406 43 402 -1 170 97 29 34 "ABprppppaa"
407 391 403 -1 198 85 29 38 "ABprppppap"
408 48 42 -1 202 41 29 30 "ABprpppaaa"
409 396 394 -1 246 55 29 34 "ABprpppaap"
410 46 409 -1 38 55 30 30 "ABarappapa"
411 439 412 -1 80 45 30 38 "ABarappapp"
412 401 404 -1 -40 121 31 34 "ABarapaaap"
413 403 410 -1 38 93 31 34 "ABarappaap"
414 410 417 -1 58 147 31 32 "ABprpappaa"
418 409 418 -1 236 101 30 38 "ABprpppapa"
419 22 20 -1 24 251 1 34 "ABplpaappp"
422 80 1 -1 152 23 -18 38 "Cpaaaa"
425 109 8 -1 114 -43 -12 34 "ABarpppaap"
428 162 155 -1 62 203 -2 30 "Daapa"
433 251 260 -1 72 -5 10 30 "Dpaaa"
442 200 25 -1 7 230 5 32 "ABplpaaapp"
443 81 445 -1 -118 103 -17 30 "ABalapapaa"
445 100 90 -1 -30 -4 -13 30 "ABarpappaa"
446 11 447 -1 -60 11 -9 41 "ABalappppp"
447 95 448 -1 -99 113 -15 38 "ABalapapap"
449 442 451 -1 308 128 -8 36 "Caaapp"
450 444 452 -1 -101 9 20 28 "ABalaappaa"
