1 53 2 -1 -24 107 -20 34 "ABplaaaapa"
2 55 63 -1 40 157 -22 34 "ABplaaappp"
3 51 64 -1 -112 149 -20 34 "ABplaapaap"
4 2 3 -1 26 69 -20 34 "ABarpaapap"
5 1 68 -1 148 19 -19 38 "Cpaaaa"
6 65 76 -1 90 61 -19 38 "ABarpaappp"
7 66 69 -1 172 77 -19 38 "Caaaaa"
8 71 80 -1 58 61 -18 34 "ABarpaappa"
10 445 65 -1 -110 101 -17 30 "ABalapapaa"
11 72 78 -1 120 -5 -16 38 "ABarpppapa"
12 77 7 -1 -32 195 -13 42 "ABplaapapp"
13 84 6 -1 216 19 -15 38 "Cpaaap"
14 93 91 -1 64 235 -14 30 "ABplaapppa"
15 4 8 -1 80 201 -13 38 "ABplapaaap"
16 5 92 -1 154 157 -14 38 "Dappa"
17 100 100 -1 -64 31 -9 38 "ABarpapaap"
18 117 109 -1 36 157 -10 30 "MSapppap"
19 112 111 -1 218 235 -9 34 "ABplappapp"
20 109 10 -1 -2 -29 -8 34 "ABarpappap"
21 11 122 -1 42 249 -9 34 "ABplaappap"
22 15 125 -1 158 105 -7 38 "Eplaa"
23 140 149 -1 -72 73 -3 30 "MSpaaaapa"
24 155 159 -1 68 201 -3 38 "Daapa"
25 19 170 -1 308 75 -1 38 "Cpapap"
26 160 16 -1 176 75 1 38 "Eprap"
27 208 179 -1 216 71 2 42 "Eprpa"
28 210 18 -1 280 1 2 34 "ABprapapaa"
29 176 202 -1 120 209 3 34 "Daapp"
30 188 214 -1 -64 227 4 30 "ABalpppapa"
31 206 209 -1 68 243 5 34 "ABplppaaaa"
32 227 21 -1 214 131 4 38 "Eplpa"
33 207 225 -1 106 129 4 38 "Ealpa"
34 221 220 -1 -14 55 6 30 "MSpaapaa"
35 46 246 -1 -96 5 10 38 "ABalaapppp"
36 236 253 -1 80 201 11 26 "MSappapp"
37 248 30 -1 142 157 12 42 "Z3"
38 31 32 -1 158 71 14 38 "Z2"
39 274 302 -1 210 179 13 34 "Capapp"
40 267 291 -1 214 117 13 38 "Eplpp"
41 294 289 -1 48 -5 15 30 "MSppppaa"
42 32 292 -1 252 153 15 34 "Capppp"
43 300 321 -1 242 193 17 30 "ABplapppap"
44 36 356 -1 218 59 21 30 "Cppapp"
45 365 379 -1 116 109 23 38 "ABprpapppa"
46 378 40 -1 20 205 25 42 "ABalpapapa"
47 384 386 -1 100 63 28 30 "ABprpapapa"
48 417 413 -1 56 139 29 46 "ABprpappaa"
49 399 395 -1 84 175 29 34 "ABplpappaap"
50 43 46 -1 108 117 29 42 "ABprpappap"
51 48 188 -1 -24 162 2 28 "MSapapaa"
52 382 368 -1 -12 89 26 50 "ABarapapaa"
53 213 424 -1 84 -53 7 38 "ABpraapppa"
54 421 51 -1 -80 123 -23 34 "ABplaaaaaa"
55 49 52 -1 -74 83 -22 30 "ABarpaaaap"
57 52 53 -1 -48 67 -22 26 "ABarpaaapa"
58 50 56 -1 -42 183 -22 30 "ABplaaapaa"
59 59 62 -1 4 111 -22 34 "ABplaaaapp"
60 56 54 -1 68 133 -22 30 "ABarppaaap"
61 61 55 -1 94 171 -22 34 "ABarppaaaa"
62 58 59 -1 158 159 -22 34 "ABarppaapp"
63 54 57 -1 -12 61 -21 30 "ABarpaapaa"
64 60 58 -1 10 173 -21 34 "ABplaaappa"
65 62 67 -1 132 195 -21 30 "ABarppapaa"
66 57 1 -1 114 101 -20 38 "ABarppaapa"
67 67 71 -1 -86 29 -19 38 "ABarpapaaa"
68 69 73 -1 -78 59 -19 30 "ABarpaaapp"
69 64 61 -1 -8 193 -19 34 "ABplaaapap"
70 63 4 -1 170 205 -19 30 "ABarppapap"
71 75 66 -1 -56 157 -18 26 "ABalapappp"
72 70 60 -1 -36 41 -18 30 "ABarpapapa"
73 73 70 -1 208 187 -18 34 "ABplappapa"
74 80 5 -1 220 87 -18 38 "Caaaap"
75 68 72 -1 -78 189 -17 34 "ABplaapaaa"
76 76 74 -1 -46 127 -17 34 "ABplaaaaap"
77 78 75 -1 8 23 -17 34 "ABarpapapp"
78 74 82 -1 -128 79 -16 34 "ABarpaaaaa"
79 83 81 -1 72 -1 -16 30 "ABarpppaaa"
80 3 77 -1 106 223 -16 30 "ABplapaapa"
81 82 84 -1 240 185 -16 30 "ABarppappa"
82 92 87 -1 48 129 -15 30 "MSappppa"
83 81 83 -1 58 173 -15 34 "ABplapaaaa"
84 85 453 -1 260 117 -15 34 "Caaapa"
85 99 85 -1 -82 155 -14 26 "ABalapappap"
86 86 89 -1 14 211 -14 34 "ABalppppppp"
87 91 86 -1 44 -27 -14 34 "ABarpapppp"
88 94 93 -1 150 241 -14 34 "ABplapaapp"
89 89 95 -1 -76 89 -13 30 "MSaaaaapp"
90 6 101 -1 6 147 -13 30 "MSapappp"
91 97 88 -1 114 157 -13 30 "MSappppp"
92 90 451 -1 -32 -5 -12 30 "ABarpappaa"
93 101 90 -1 -10 75 -12 34 "MSpaaapa"
94 102 94 -1 178 -23 -12 30 "ABarpppapp"
95 98 96 -1 244 67 -12 38 "Cpaapa"
97 88 48 -1 -112 59 -11 34 "ABalapppap"
98 7 114 -1 -46 81 -11 34 "MSaaaapa"
99 108 9 -1 -38 149 -11 30 "MSapappa"
100 10 108 -1 18 109 -11 34 "MSaaaapp"
101 99 105 -1 -124 139 -10 26 "ABalapappaa"
102 107 106 -1 -116 15 -10 38 "ABpraapaaa"
103 95 99 -1 -80 187 -10 34 "ABalppppap"
105 8 415 -1 108 -43 -10 38 "ABarpppaap"
106 103 103 -1 208 145 -10 34 "Dappp"
107 104 97 -1 264 195 -10 34 "ABplapapaa"
108 105 426 -1 298 73 -10 38 "Cpaapp"
109 13 98 -1 -136 175 -9 30 "ABalapaaap"
111 16 427 -1 -42 125 -9 26 "MSaaapaap"
112 96 107 -1 2 249 -9 30 "ABplaappaa"
114 14 117 -1 76 153 -9 30 "Daaap"
115 111 126 -1 158 191 -9 30 "Dapap"
116 113 119 -1 -124 99 -8 34 "MSaaaaapa"
118 9 120 -1 -48 185 -8 38 "ABplaapapa"
119 12 11 -1 72 93 -8 38 "Ealaa"
120 119 131 -1 116 103 -8 34 "Ealap"
121 120 127 -1 208 183 -8 38 "Cappaa"
122 121 118 -1 -154 103 -7 34 "ABalappaap"
123 127 128 -1 -146 147 -7 34 "ABalapaaaa"
124 116 429 -1 28 -31 -7 30 "ABarpapppa"
125 136 135 -1 48 191 -7 26 "Daaaa"
126 124 123 -1 74 -17 -7 38 "ABprapaaaa"
127 110 102 -1 116 243 -7 34 "ABplaapppp"
128 133 140 -1 -102 181 -6 38 "ABalapaapp"
130 115 121 -1 -4 185 -6 30 "ABalppppppa"
131 135 129 -1 14 219 -6 38 "ABplpaappa"
132 129 452 -1 26 13 -6 30 "MSpppppa"
133 137 136 -1 102 7 -6 30 "MSpppppp"
134 125 130 -1 116 189 -6 34 "Dapaa"
135 126 137 -1 148 57 -6 38 "Epraa"
136 132 141 -1 -100 63 -5 30 "MSpaaaaa"
137 128 133 -1 -12 123 -5 34 "MSaaapap"
138 134 115 -1 -2 21 -5 30 "MSppappp"
140 18 124 -1 134 3 -5 30 "Dpppa"
141 145 138 -1 150 -51 -5 30 "ABarppppaa"
142 141 148 -1 -72 -17 -4 34 "ABpraapaap"
143 425 157 -1 -62 223 -4 34 "ABalpppapp"
144 17 143 -1 12 67 -4 38 "MSpaaapp"
146 144 145 -1 82 251 -4 30 "ABplppaaap"
147 147 146 -1 198 11 -4 38 "Dpppp"
148 139 147 -1 250 231 -4 34 "ABplapapap"
149 153 151 -1 290 191 -4 30 "ABarppappp"
151 131 152 -1 -140 45 -3 38 "ABalapppaa"
152 142 431 -1 -56 31 -3 26 "MSpaaaapp"
153 149 12 -1 -26 -9 -3 34 "ABpraapapp"
154 143 163 -1 -16 245 -3 34 "ABplpaapap"
155 150 154 -1 98 -35 -3 34 "ABprapaaap"
156 146 155 -1 158 247 -3 34 "ABplappaaa"
157 152 156 -1 250 -9 -3 34 "ABarpppppa"
158 158 153 172 -98 17 -2 26 "ABalappppa"
160 157 14 -1 194 -47 -2 30 "ABarppppap"
161 151 160 -1 194 113 -2 38 "Eplap"
162 170 150 -1 260 161 -2 34 "Capppa"
163 154 161 -1 -108 215 -1 30 "ABalpppaap"
164 165 162 -1 -104 113 -1 34 "ABaraapaaa"
165 148 15 -1 -32 201 -1 34 "ABalpppppa"
166 168 166 -1 40 99 -1 30 "MSaaappp"
167 159 177 -1 108 57 -1 34 "Earap"
169 163 196 -1 320 133 -1 34 "Cpapaa"
170 171 184 -1 -112 175 0 30 "ABalapaapa"
171 173 185 -1 -66 159 0 30 "MSapaaap"
172 167 158 -1 12 101 0 26 "MSaaappa"
173 166 164 -1 16 179 0 26 "MSapppaa"
174 20 173 -1 18 253 0 42 "ABplpaappp"
175 174 165 -1 20 -31 0 34 "ABpraaapppp"
176 178 168 -1 156 199 0 34 "Capaaa"
177 161 169 -1 188 249 0 34 "ABplappaap"
178 162 178 -1 204 191 0 34 "Capapa"
179 184 180 -1 228 -33 0 30 "ABprappapa"
180 164 183 -1 -134 97 1 38 "MSaaaaaa"
181 195 174 -1 50 1 1 30 "MSppppap"
182 169 190 -1 62 57 1 42 "Earaa"
183 181 176 -1 74 123 1 26 "MSaapaapp"
184 175 192 -1 96 181 1 30 "MSappaap"
185 177 194 -1 150 127 1 38 "Ealpp"
187 187 182 -1 -146 161 2 34 "ABalaaapal"
188 21 454 -1 -120 5 2 38 "ABalappapp"
189 172 198 -1 -78 197 2 34 "ABalppppaa"
190 22 199 -1 -56 31 2 34 "MSppappa"
191 180 200 -1 -40 1 2 46 "ABpraapapa"
192 189 207 -1 -30 209 2 38 "ABplpaapaa"
193 204 19 -1 4 11 2 30 "ABpraaapppa"
194 192 189 -1 22 129 2 22 "MSaapaapa"
195 194 433 -1 46 203 2 30 "MSappapa"
196 193 175 -1 52 167 2 30 "MSappaaa"
197 179 205 -1 264 227 2 38 "ABplapappa"
198 209 181 -1 264 43 2 34 "Cppppa"
199 186 171 -1 -156 119 3 30 "ABalaaapar"
200 201 206 -1 -92 67 3 34 "ABaraappaa"
201 202 186 211 -70 125 3 30 "ABaraapaap"
202 203 187 -1 -30 79 3 30 "ABaraappapp"
203 190 208 -1 -18 123 3 30 "ABaraapapap"
204 191 216 -1 0 145 3 34 "ABaraapapp"
206 196 191 -1 98 5 3 30 "Dpaap"
207 23 203 -1 172 -15 3 30 "Dppap"
208 182 17 -1 214 9 3 34 "Cpppaa"
209 214 224 -1 88 87 4 26 "MSpapaapp"
210 226 447 -1 148 55 4 38 "Earpp"
211 185 195 -1 240 181 4 30 "Cappap"
212 199 28 -1 -140 25 5 34 "ABalappapa"
213 211 22 -1 -112 201 5 38 "ABalpppaaa"
214 203 213 -1 -68 81 5 26 "ABaraappapa"
217 216 418 -1 114 -59 5 30 "ABprapaapa"
219 218 219 -1 -144 159 6 34 "ABalppaaaa"
220 223 212 -1 -68 -19 6 38 "ABpraaapap"
221 231 24 -1 126 -9 6 30 "Dppaa"
223 200 232 -1 -98 161 7 26 "MSapaaaa"
224 228 215 -1 -40 155 7 30 "ABaraapapaa"
225 212 26 -1 0 181 7 30 "MSapapap"
226 225 221 -1 60 135 7 30 "MSaapapa"
227 27 218 -1 292 181 7 34 "ABplapappp"
228 29 223 -1 24 -17 8 34 "ABprpaappa"
229 229 27 -1 30 101 8 34 "ABaraapppp"
230 246 23 -1 38 193 8 34 "MSapaapp"
231 232 230 -1 152 249 8 34 "ABplppapap"
232 238 231 -1 172 -55 8 34 "ABprapaapp"
233 219 25 -1 -140 53 9 34 "ABalaaappl"
234 234 237 -1 -136 95 9 30 "ABaraaaapa"
235 242 233 238 -112 125 9 30 "ABalpaapaa"
236 235 -1 -1 -90 223 9 26 "ABalppaapa"
237 244 248 -1 -32 201 9 34 "ABplpaaaaa"
238 24 241 -1 -26 241 9 30 "ABplpaaapa"
239 245 249 -1 -18 -3 9 34 "ABpraaappa"
240 25 250 -1 10 237 9 34 "ABplpaaapp"
241 230 29 -1 106 253 9 30 "ABplppapaa"
242 237 243 -1 124 199 9 34 "MSaapppa"
243 262 31 -1 222 85 9 42 "Eprpp"
244 240 234 -1 228 213 9 30 "ABplapppaa"
246 251 236 -1 -152 129 10 34 "ABalaaaarl"
247 243 258 -1 -118 189 10 38 "ABalppaaap"
248 254 240 -1 -32 105 10 30 "ABaraaapapa"
249 271 261 -1 -10 -45 10 34 "ABprpaapap"
250 256 242 -1 18 -53 10 30 "ABpraappaa"
251 258 252 -1 54 -53 10 30 "ABpraappap"
252 260 419 -1 66 5 10 34 "Dpaaa"
254 239 244 -1 178 181 10 34 "Capaap"
255 261 245 -1 182 -1 10 34 "Cppaaa"
256 250 256 -1 270 213 10 30 "ABplappppa"
257 263 267 -1 300 151 10 38 "Caappd"
258 241 268 -1 314 105 10 34 "Cpappd"
259 268 270 -1 -100 87 11 30 "ABaraaapaa"
260 280 239 -1 -56 51 11 30 "MSppaaap"
261 270 271 -1 -44 -25 11 34 "ABpraaaapp"
262 255 262 -1 8 79 11 30 "ABaraapppap"
263 264 273 -1 24 19 11 30 "MSppapap"
264 265 288 -1 42 251 11 34 "ABplpaaaap"
265 247 263 -1 42 149 11 26 "MSaapaaap"
266 257 251 -1 46 71 11 26 "MSpapaapa"
267 259 264 -1 58 37 11 26 "MSpppapa"
268 266 265 -1 90 -57 11 26 "ABprppaaap"
269 30 266 -1 132 -47 11 38 "ABpraapppp"
270 249 255 -1 246 25 11 34 "Cpppap"
271 252 257 -1 -148 167 12 30 "ABalaaaala"
272 253 259 -1 -56 13 12 30 "ABpraaapaa"
273 288 285 -1 218 -31 12 30 "ABprappaap"
274 275 279 -1 296 59 12 34 "ABprapappp"
275 269 286 -1 -74 219 13 42 "ABalppaapp"
276 286 282 -1 50 219 13 30 "ABplpapaap"
277 272 274 -1 78 153 13 34 "MSaapapp"
278 295 275 -1 88 101 13 30 "MSpapapa"
279 287 283 -1 94 1 13 30 "Dpapa"
280 273 290 -1 182 243 13 30 "ABplppappp"
281 289 278 -1 246 -23 13 30 "ABprappapp"
282 276 294 -1 -122 37 14 34 "ABalaaappr"
283 278 437 -1 -86 23 14 30 "ABalaapppa"
284 291 295 -1 -84 59 14 26 "MSppaaaa"
285 279 450 -1 -86 137 14 30 "ABalpaapapa"
286 47 50 -1 -66 93 14 30 "ABaraaapapp"
287 281 260 -1 -42 137 14 30 "ABalpaapapp"
288 283 280 -1 -22 35 14 26 "MSppapaa"
289 292 272 -1 -22 67 14 26 "ABaraapppaa"
290 293 297 -1 -6 -1 14 34 "ABprpaapaa"
291 284 281 -1 -2 131 14 26 "MSaapaaaa"
292 285 287 -1 18 99 14 34 "ABarapaappp"
293 306 298 -1 76 57 14 26 "MSpppaaa"
294 33 276 -1 132 29 14 30 "MSpppaap"
295 299 277 -1 216 23 14 34 "Cppapa"
296 311 303 -1 268 85 14 30 "Cppppp"
297 290 304 -1 -140 81 15 34 "ABalaaaarr"
298 277 305 -1 -102 197 15 34 "ABalaaaalp"
299 305 33 -1 52 113 15 30 "MSpapaaa"
300 296 299 -1 144 -1 15 30 "Dpapp"
301 297 300 -1 144 237 15 30 "ABplppappa"
302 310 301 -1 148 193 15 26 "MSaapppp"
303 298 284 -1 186 -39 15 34 "ABprappaaa"
304 282 312 -1 -44 197 16 34 "ABalppappa"
305 302 307 -1 -22 177 16 26 "MSapaapa"
306 313 315 -1 36 -41 16 34 "ABprpaappp"
307 304 316 -1 40 45 16 30 "MSppaapp"
308 308 318 -1 102 229 16 30 "ABplppaapa"
309 301 293 -1 272 -1 16 34 "ABprapapap"
310 312 35 -1 -124 121 17 30 "ABaraaaaaa"
311 303 313 -1 -20 217 17 26 "ABalppapppa"
312 34 36 -1 112 105 17 38 "MSpapapp"
313 328 319 -1 118 165 17 30 "MSaappap"
314 319 309 -1 224 223 17 34 "ABplpppaap"
315 314 310 -1 274 185 17 30 "ABplappppp"
316 333 338 -1 276 139 17 34 "Caapa"
317 320 331 -1 308 117 17 30 "Cpappv"
318 316 311 -1 -64 -13 18 30 "ABpraaaaap"
319 339 333 -1 -46 93 18 38 "ABarapaapa"
320 340 351 -1 -30 -9 18 34 "ABpraaaapa"
321 324 306 -1 -20 99 18 30 "ABarapaappa"
322 325 308 -1 18 169 18 30 "ABalpappppa"
323 303 326 -1 26 227 18 30 "ABalppapppp"
324 327 317 -1 58 149 18 34 "ABalpappppp"
325 307 328 -1 80 203 18 30 "ABplpapapa"
326 357 335 -1 126 31 18 34 "MSpapppa"
327 323 322 -1 -80 137 19 34 "ABalpaaapa"
328 341 325 -1 -2 149 19 34 "ABalpapppa"
329 347 343 -1 2 61 19 26 "MSppaapa"
330 348 334 -1 20 83 19 34 "ABarapappa"
331 326 314 -1 26 195 19 30 "ABplpapaaa"
332 318 327 -1 76 25 19 30 "MSpppapp"
333 443 336 -1 150 157 19 30 "MSpappaa"
334 330 320 -1 184 39 19 34 "Cppaap"
335 35 329 -1 256 39 19 30 "ABprapppaa"
336 334 330 -1 284 19 19 30 "ABprapappa"
337 335 339 -1 306 157 19 26 "Caappv"
338 346 347 -1 -126 55 20 30 "ABalaapaaa"
339 336 348 -1 -122 155 20 30 "ABalpaappa"
340 337 332 -1 -98 95 20 30 "ABaraaaaap"
342 322 34 -1 -82 33 20 38 "ABalaappap"
343 338 323 -1 -52 129 20 30 "ABalpaaapp"
344 353 421 -1 -34 145 20 30 "ABalpappaa"
345 328 345 -1 94 137 20 26 "MSaappaa"
346 329 337 -1 182 221 20 30 "ABplpppaaa"
347 331 346 -1 196 159 20 34 "ABplpppppa"
348 321 341 -1 -92 183 21 34 "ABalpaappp"
349 342 344 -1 12 -19 21 30 "ABprpaaapa"
350 343 352 -1 62 237 21 34 "ABalpapapp"
351 349 353 -1 134 217 21 34 "ABplppaapp"
352 345 354 -1 158 93 21 30 "MSpappap"
353 350 37 -1 178 119 21 34 "ABprpapppp"
354 332 355 -1 208 107 21 30 "ABprpppppa"
355 360 366 -1 294 47 21 30 "ABprappppa"
356 351 350 -1 -58 9 22 30 "ABpraaaaaa"
358 362 361 -1 48 149 22 30 "ABalpappapp"
359 363 369 -1 56 63 22 30 "ABprpapaaa"
360 356 39 -1 76 -29 22 34 "ABprppaaaa"
361 364 362 -1 82 103 22 34 "ABarapapppp"
362 358 363 -1 150 63 22 32 "MSpapppp"
363 37 364 -1 216 205 22 26 "ABplpppapaa"
364 367 373 -1 244 105 22 30 "ABprpppapp"
365 368 365 -1 262 73 22 30 "ABprapppap"
366 359 357 -1 274 179 22 30 "ABplpppapp"
367 352 349 -1 -60 191 23 34 "ABalppapaa"
369 372 367 -1 -26 35 23 34 "ABarappppa"
370 355 38 -1 38 -19 23 38 "ABprpaaapp"
371 369 375 -1 290 89 23 30 "ABprappppp"
372 38 358 -1 -106 127 24 30 "ABalpaaaap"
373 371 41 -1 -76 147 24 30 "ABalpaaaaa"
374 379 370 -1 72 29 24 34 "ABprpapaap"
376 380 371 -1 86 151 24 26 "ABplpappap"
377 374 378 -1 122 -21 24 34 "ABprppapaa"
378 381 42 -1 122 187 24 30 "ABplpapapp"
379 375 372 -1 170 -17 24 34 "ABprppapap"
380 37 43 -1 224 159 24 26 "ABplpppapap"
381 387 388 -1 260 149 24 34 "ABplpppppp"
382 388 374 -1 288 129 24 34 "ABprpppppp"
383 39 380 -1 -96 41 25 30 "ABalaapaap"
384 370 376 -1 -96 83 25 30 "ABaraaappa"
385 383 438 -1 0 151 25 34 "ABalpappapa"
386 385 383 -1 156 189 25 34 "ABplppppaa"
387 386 384 -1 222 13 25 30 "ABprppappp"
388 376 389 -1 -72 59 26 34 "ABaraaappp"
389 405 392 -1 -20 -5 26 32 "ABalaapapp"
390 377 381 -1 -20 197 26 30 "ABalppapap"
391 406 382 393 22 23 26 34 "ABarappppp"
392 397 394 -1 26 119 26 38 "ABarapapap"
393 400 396 -1 124 25 26 30 "ABprppaapa"
394 393 400 -1 170 145 26 30 "ABplpapppp"
395 366 387 -1 186 185 26 30 "ABplppppap"
396 389 390 -1 -66 105 27 34 "ABarapaaaa"
398 392 399 -1 160 13 27 30 "ABprppappa"
399 390 391 -1 -50 163 28 30 "ABalpapaaa"
400 411 401 -1 62 -3 28 38 "ABprpaaaap"
401 401 397 -1 130 81 28 34 "ABprpapapp"
402 391 398 -1 136 143 28 30 "ABplpapppa"
403 403 403 -1 200 85 28 34 "ABprppppap"
404 418 404 455 240 101 28 30 "ABprpppapa"
405 394 44 -1 248 55 28 34 "ABprpppaap"
406 407 405 -1 -42 45 29 30 "ABarapppaa"
407 408 406 -1 -2 49 29 30 "ABarapppap"
408 398 407 -1 46 177 29 30 "ABplpappaaa"
409 41 408 -1 160 53 29 30 "ABprppaapp"
410 402 47 -1 170 99 29 30 "ABprppppaa"
411 42 402 -1 204 41 29 34 "ABprpppaaa"
412 404 409 -1 -44 119 30 34 "ABarapaaap"
413 44 410 -1 -8 153 30 34 "ABalpapaap"
414 410 411 -1 34 93 30 38 "ABarappaap"
415 409 412 -1 40 55 30 30 "ABarappapa"
416 412 414 -1 80 37 30 38 "ABarappapp"
419 16 416 -1 -76 121 -5 34 "MSaaapaaa"
424 361 360 -1 30 107 21 34 "ABarapapppa"
439 396 45 -1 -4 77 28 38 "ABarappaaa"
443 354 342 -1 2 13 22 38 "ABprpaaaaa"
448 28 226 -1 112 57 7 38 "Earpa"
449 447 448 -1 -64 7 -10 37 "ABalappppp"
450 448 449 -1 -92 115 -15 36 "ABalapapap"
452 233 235 -1 298 27 8 30 "ABarpppppp"
453 450 20 -1 15 61 2 38 "MSpaapap"
454 451 112 -1 304 130 -10 35 "Caaapp"
455 452 456 -1 -99 9 20 28 "ABalaappaa"
