1 3 4 7 48 169 4 54 "ABpl"
2 9 13 14 194 3 14 66 "ABpr"
3 1 1 -1 222 109 -11 70 "C"
5 4 6 -1 80 19 -4 50 "ABarp"
6 5 8 -1 -98 71 1 50 "ABala"
7 4 10 -1 48 1 5 50 "ABara"
8 5 11 -1 -90 91 12 50 "ABalp"
9 6 9 -1 292 171 12 62 "P3"
11 7 2 -1 198 169 22 74 "E"
12 10 3 -1 46 87 26 74 "MS"
