1 75 66 -1 -46 69 -20 30 "ABarpaapaa"
2 78 65 -1 -50 101 -20 30 "ABplaaaapa"
3 83 69 -1 74 95 -20 34 "ABarppaapa"
4 86 70 -1 -102 101 -20 30 "ABarpaaaap"
5 92 85 -1 26 199 -20 42 "ABplaaappp"
6 90 4 -1 -106 57 -17 38 "ABarpaaapp"
7 109 94 -1 46 43 -15 38 "ABarpaappp"
8 110 95 -1 102 71 -16 34 "Caaaaa"
9 111 7 -1 136 145 -14 38 "Dappa"
10 103 90 -1 220 79 -16 34 "Cpaapa"
11 5 8 98 218 155 -14 38 "Cappaa"
12 149 150 -1 252 41 -11 38 "Caaapa"
13 150 124 -1 -110 41 -10 34 "ABarpapaaa"
14 174 159 -1 192 -45 -8 38 "ABprappapa"
15 551 12 -1 152 63 -6 38 "Epraa"
16 176 15 -1 272 141 -7 38 "Capppa"
17 187 16 -1 96 113 -5 42 "Ealaa"
18 17 25 -1 130 105 -1 38 "Ealap"
19 203 223 -1 -50 -33 -2 30 "ABarpappap"
22 529 547 -1 266 171 1 38 "Cappap"
23 639 58 -1 128 63 2 42 "Earap"
24 225 620 -1 180 53 2 42 "Earpp"
25 249 196 -1 32 23 2 30 "MSpppaaa"
26 280 272 -1 -126 21 6 34 "ABpraaapapa"
27 283 32 -1 82 59 6 38 "MSpapaapp"
28 268 268 -1 126 201 6 30 "MSaapppa"
29 29 29 -1 224 117 6 42 "Eplpa"
30 27 288 -1 -66 185 7 34 "ABplpaapaaa"
31 32 27 -1 218 75 5 42 "Eprpa"
32 274 279 -1 -8 -37 6 34 "ABpraaapppp"
33 28 269 -1 182 169 6 30 "MSappaap"
34 31 285 -1 162 -19 7 38 "Cppaaa"
35 34 33 -1 116 119 9 38 "Ealpa"
36 579 300 -1 256 35 10 42 "Cpppap"
37 317 314 -1 -140 145 11 30 "ABalaaaarl"
38 308 304 -1 -46 9 10 30 "ABpraaappaa"
39 38 35 -1 -44 75 14 38 "ABarapaapa"
40 41 38 -1 170 41 13 42 "Z2"
41 339 335 -1 200 -39 13 30 "ABprappaap"
42 340 337 -1 232 -33 13 30 "ABprappapp"
43 36 326 375 -154 109 14 42 "ABalaaaarr"
44 360 324 -1 156 139 13 38 "Z3"
47 583 568 -1 296 147 17 34 "Caappv"
48 392 392 -1 -124 173 19 34 "ABalaaaalp"
49 427 629 -1 252 173 20 22 "ABplapppapp"
50 431 444 -1 -50 151 23 30 "ABalpaaaaa"
51 516 537 -1 10 149 29 34 "ABprpappaaa"
52 487 508 -1 192 15 28 34 "ABprppappp"
53 63 56 -1 250 125 29 34 "ABprpppapap"
54 64 51 -1 54 57 30 38 "ABarappapap"
55 74 1 -1 -72 95 -21 30 "ABarpaaapa"
56 206 210 -1 -6 209 -1 42 "ABplpaappaa"
57 22 19 -1 188 127 0 42 "Ealpp"
60 550 413 -1 -26 -19 20 38 "ABprpaapppa"
61 447 469 -1 -130 75 25 42 "ABalaapaap"
62 543 561 -1 -58 67 22 30 "MSppaaaa"
63 76 64 -1 -80 63 -21 30 "ABarpapapa"
64 87 73 -1 -60 185 -20 30 "ABplaaapaa"
65 79 67 -1 -28 121 -20 34 "ABplaaaapp"
66 80 74 -1 -4 201 -20 38 "ABplaaappa"
67 82 72 -1 52 165 -20 30 "ABplapaaaap"
68 88 84 -1 -28 37 -19 34 "ABarpapapp"
69 1 2 -1 -2 81 -19 34 "ABarpaapap"
70 81 71 -1 30 153 -19 30 "ABarppaaap"
71 93 75 -1 68 205 -19 38 "ABarppaaaa"
72 94 76 -1 104 201 -19 34 "ABarppapaa"
73 95 77 -1 124 171 -19 34 "ABarppaapp"
74 84 78 -1 150 205 -19 34 "ABarppapap"
75 85 79 -1 190 185 -19 34 "ABplappapa"
76 77 82 -1 -74 167 -18 22 "ABalapapppp"
77 2 68 -1 22 59 -18 34 "ABarpaappa"
78 4 3 -1 74 -1 -18 38 "ABarpppapa"
79 3 86 -1 132 51 -18 34 "Cpaaaa"
80 91 81 -1 -96 137 -17 34 "ABplaaaaaa"
81 102 88 -1 94 139 -17 30 "MSappppp"
82 96 89 -1 160 71 -17 34 "Cpaaap"
83 104 91 -1 228 195 -17 26 "ABarppappa"
84 97 99 -1 -138 89 -16 38 "ABarpaaaaa"
85 89 97 -1 -126 117 -16 22 "ABalapapaa"
86 105 80 -1 -126 153 -16 30 "ABplaapaapp"
87 98 92 -1 -114 185 -16 30 "ABplaapaaaa"
89 107 93 -1 26 3 -16 30 "ABarpppaaa"
90 101 87 -1 52 125 -16 30 "MSappppa"
91 117 5 -1 182 125 -16 34 "Dappp"
92 99 83 -1 -64 137 -15 30 "ABplaaaaapp"
93 106 570 -1 -100 163 -14 18 "ABalapapppa"
94 118 100 -1 -92 113 -13 26 "ABalapapapp"
95 108 104 -1 -80 195 -13 34 "ABplaapaaap"
96 115 107 -1 -10 141 -13 34 "MSapappp"
97 116 615 -1 30 181 -13 30 "ABplapaaaaa"
98 138 114 -1 34 151 -13 22 "MSapppap"
99 112 101 -1 -46 81 -12 30 "MSaaaapaa"
100 114 627 -1 -24 231 -12 34 "ABplaaapap"
101 128 6 -1 -18 165 -12 30 "MSapappa"
102 129 106 -1 -10 83 -12 30 "MSaaaapap"
105 133 111 -1 162 183 -12 34 "Dapap"
106 6 103 -1 268 189 -12 30 "ABplapapaa"
107 122 123 -1 -150 127 -11 26 "ABplaapaapa"
108 134 116 -1 -120 159 -11 30 "ABalapappap"
109 593 117 -1 -96 65 -11 22 "ABalapppapp"
110 124 118 -1 -80 145 -11 30 "ABplaaaaapa"
111 125 112 -1 -62 101 -11 34 "MSaaaaapp"
112 126 126 -1 -52 183 -11 30 "ABplaapappa"
113 121 108 -1 2 103 -11 26 "MSaaaappa"
114 120 109 -1 30 79 -11 34 "MSpaaapa"
115 130 9 -1 78 167 -11 34 "Daaap"
116 123 544 -1 -122 191 -10 26 "ABalapaaapp"
117 626 144 -1 -116 107 -10 34 "ABalapapapa"
118 7 125 -1 -104 215 -10 26 "ABalppppapp"
119 136 119 -1 -40 23 -10 30 "MSppappp"
120 127 137 -1 -26 123 -10 26 "MSaaapaap"
121 137 130 -1 34 121 -10 30 "MSaaaappp"
122 147 131 -1 60 199 -10 30 "ABplapaaapa"
123 131 132 -1 88 223 -10 30 "ABplapaaapp"
124 148 115 -1 104 11 -10 34 "Dpppa"
125 142 136 -1 -76 33 -9 30 "ABarpapaapp"
126 151 128 -1 10 -31 -9 42 "ABarpapppp"
127 145 129 -1 16 199 -9 30 "ABalppppppa"
128 153 133 -1 118 -35 -9 30 "ABarpppapp"
129 132 134 -1 138 239 -9 34 "ABplapaapp"
131 154 142 -1 -156 65 -8 30 "ABpraapaaaa"
133 140 143 -1 -136 23 -8 26 "ABpraapaaap"
134 561 151 -1 -124 73 -8 22 "ABalapppapa"
135 159 573 -1 -84 -9 -8 30 "ABarpappaa"
136 143 618 -1 -44 59 -8 38 "MSpaaaaa"
137 8 155 -1 -26 -17 -8 30 "ABarpapppa"
138 144 138 -1 8 25 -8 34 "MSpppppa"
139 595 574 -1 36 -1 -8 30 "ABprapaaaaa"
140 152 167 -1 64 -45 -8 34 "ABarpppaap"
141 10 11 -1 66 19 -8 34 "MSpppppp"
142 12 148 -1 154 -5 -8 34 "Dpppp"
143 168 622 -1 288 63 -8 30 "Caaapp"
144 157 146 -1 -86 95 -7 30 "MSaaaaapa"
147 161 157 -1 -24 207 -7 30 "ABplaapapap"
148 9 13 -1 8 233 -7 30 "ABalppppppp"
149 162 166 -1 44 213 -7 30 "ABplpaappap"
152 638 139 -1 64 97 -7 26 "MSaaappp"
154 165 169 -1 116 199 -7 30 "Dapaa"
155 175 141 -1 216 9 -7 30 "Cpppaap"
156 166 160 -1 220 235 -7 38 "ABplappapp"
157 167 149 -1 224 183 -7 38 "Capapa"
158 18 14 -1 170 105 -6 34 "Eplaa"
160 183 177 -1 -136 145 -5 30 "ABalapappaa"
162 170 172 -1 -54 177 -5 30 "ABplaapapaa"
163 171 165 -1 -18 59 -5 30 "MSpaaaapp"
164 172 545 -1 -2 115 -5 26 "MSaaapapa"
165 66 173 -1 -2 175 -5 30 "MSapapaa"
166 190 179 -1 6 77 -5 34 "MSpaaappa"
167 179 17 -1 30 -35 -5 30 "ABprapaaaap"
168 173 628 -1 78 247 -5 30 "ABplapaapa"
169 182 170 -1 296 109 -5 34 "Cpapap"
170 155 176 -1 -154 177 -4 26 "ABalapaaapa"
171 185 606 -1 -114 23 -4 26 "ABalapppppa"
172 202 178 -1 -48 73 -4 30 "MSpaaaapa"
173 524 546 -1 40 127 -4 26 "MSaaapapp"
174 180 186 -1 46 63 -4 34 "MSpaaappp"
175 14 174 -1 52 179 -4 30 "Daaaa"
176 195 181 -1 66 37 -4 22 "MSpppapa"
177 16 577 -1 88 65 -4 34 "Earaa"
178 13 189 -1 208 79 -4 38 "Eprap"
179 15 162 -1 280 205 -4 30 "ABarppappp"
180 192 205 -1 -130 31 -3 30 "ABalappppap"
181 184 578 -1 -118 197 -3 30 "ABalapaappp"
182 186 184 -1 -44 239 -3 30 "ABplpaapapa"
183 19 182 -1 266 33 -3 30 "Cppppa"
184 526 63 -1 -150 79 -2 26 "ABalapppaap"
185 193 191 -1 -120 111 -2 38 "MSaaaaaa"
186 528 183 -1 -52 27 -2 30 "MSppappa"
187 204 207 -1 -30 -9 -2 30 "ABpraapappp"
188 208 185 -1 12 13 -2 26 "MSppppap"
189 194 180 -1 20 141 -2 34 "ABaraapapap"
190 209 198 -1 68 5 -2 30 "Dpaap"
192 608 202 -1 112 245 -2 30 "ABplaapppp"
193 197 175 -1 160 193 -2 38 "Capaaa"
194 198 188 -1 188 233 -2 34 "ABplappaap"
195 215 214 -1 228 -35 -2 30 "ABarpppppa"
196 191 204 -1 250 229 -2 30 "ABplapapap"
197 200 217 -1 -158 23 -1 22 "ABalappappp"
198 217 218 -1 -132 3 -1 26 "ABpraapaapa"
199 189 190 -1 -126 161 -1 30 "ABalapaaaa"
200 205 195 -1 -4 149 -1 30 "ABaraapapaa"
201 207 209 -1 6 -13 -1 30 "ABpraaapppa"
203 196 197 -1 66 -29 -1 34 "ABprapaaapp"
205 224 212 -1 140 -23 -1 30 "Dppap"
206 23 233 -1 270 -9 -1 34 "ABprapapaa"
207 199 216 -1 292 189 -1 26 "ABplapapppa"
208 228 219 -1 -98 -9 0 30 "ABpraapaapp"
209 219 220 -1 -88 49 0 26 "ABarpapaapa"
210 20 192 -1 -86 115 0 26 "ABaraapaaap"
211 563 229 -1 -74 81 0 26 "ABaraappaap"
212 230 221 -1 -68 -5 0 30 "ABpraapappa"
213 631 222 -1 -66 123 0 34 "ABaraapaapa"
214 231 230 -1 -34 187 0 30 "ABalpppppaa"
215 221 20 -1 -30 131 0 34 "ABaraapaapp"
216 222 231 -1 10 57 0 30 "MSpaapaa"
217 210 201 -1 106 -63 0 30 "ABarppppaa"
219 213 225 -1 148 -59 0 30 "ABarppppap"
220 644 226 -1 154 229 0 34 "ABplappaaa"
221 226 213 -1 184 -19 0 30 "Cpppaaa"
223 245 234 -1 -160 141 1 34 "ABalaaapar"
224 21 228 -1 -154 109 1 22 "ABalapppaaa"
225 220 206 -1 -88 155 1 30 "MSapaaap"
226 25 238 -1 18 89 1 26 "MSpaapapa"
227 241 232 -1 34 193 1 26 "MSapppaa"
228 233 224 -1 52 151 1 30 "MSaapaapa"
229 244 240 -1 80 133 1 30 "MSaapaapp"
230 234 199 -1 86 173 1 30 "MSappaaa"
231 227 244 -1 -110 93 2 26 "ABaraappaaa"
232 218 235 -1 -98 213 2 38 "ABalpppaap"
233 248 237 -1 -20 51 2 34 "ABaraappapp"
234 242 250 -1 54 247 2 38 "ABplaapppa"
235 243 239 -1 64 209 2 30 "Daapa"
236 235 251 -1 88 -37 2 26 "ABprapaaapa"
237 253 243 -1 -112 117 3 34 "ABaraapaaaa"
238 246 254 -1 -70 21 3 30 "ABpraapapaa"
239 256 255 -1 -58 73 3 34 "ABaraappapa"
240 238 256 -1 -38 -7 3 26 "ABpraapapap"
241 247 236 -1 -38 219 3 30 "ABplpaapaap"
242 632 247 -1 -8 247 3 30 "ABplaappaa"
243 568 252 -1 204 201 3 34 "Capaap"
244 270 242 -1 222 3 3 34 "Cppapa"
246 271 271 -1 -140 49 4 34 "ABalappapa"
248 533 266 -1 0 195 4 30 "MSapapap"
249 240 249 -1 26 249 4 30 "ABplaappap"
250 279 261 -1 294 119 4 34 "Cpapaa"
251 259 262 -1 294 73 4 38 "Cpappd"
252 272 274 -1 -102 -11 5 34 "ABpraaapapp"
253 239 265 -1 -34 243 5 26 "ABplpaapapp"
254 264 278 -1 -20 3 5 26 "ABpraaappap"
255 275 267 -1 14 -9 5 26 "ABprpaappap"
256 266 248 -1 14 163 5 26 "ABaraapappa"
258 281 258 -1 48 -1 5 34 "Dpaaa"
259 570 581 -1 110 -11 5 30 "Dppaa"
262 260 287 -1 -168 47 6 26 "ABalappappa"
263 262 276 -1 -88 131 6 34 "ABalpaapaap"
264 263 283 -1 -22 81 6 30 "ABaraaapapa"
265 276 257 -1 28 121 6 26 "ABaraapappp"
266 267 260 -1 100 209 6 26 "Daapp"
267 30 292 -1 -160 87 7 38 "ABalaaappl"
269 254 275 -1 -100 189 7 30 "ABalapaapa"
270 289 555 -1 -64 231 7 26 "ABalpppapad"
271 257 277 -1 -56 123 7 30 "ABalpaapapa"
272 265 290 -1 -8 241 7 34 "ABplpaapppa"
273 290 284 -1 40 101 7 26 "ABaraappppp"
274 277 270 -1 248 229 7 30 "ABplapappa"
275 278 30 -1 262 197 7 30 "ABplapppaa"
276 261 281 -1 -136 203 8 30 "ABalaaapalr"
277 288 294 -1 -84 -11 8 30 "ABpraaaappp"
278 287 282 -1 -82 85 8 26 "ABaraaapaap"
279 300 297 -1 28 59 8 30 "ABaraapppap"
280 291 280 -1 62 141 8 34 "MSaapappa"
281 284 311 -1 120 61 8 38 "Earpa"
282 305 286 -1 296 169 8 30 "ABplapapppp"
283 296 289 -1 -44 151 9 30 "ABalpaaapa"
284 298 306 -1 -14 183 9 26 "MSapaapa"
285 310 296 -1 -4 51 9 26 "ABaraapppaa"
287 292 310 -1 90 153 9 30 "MSaapapa"
290 304 554 -1 288 3 9 26 "ABarpppppp"
291 535 315 -1 -130 25 10 30 "ABalaappppp"
292 37 293 -1 -134 55 10 26 "ABalaappppa"
293 318 316 -1 -124 117 10 30 "ABaraaaapa"
295 319 317 -1 -104 89 10 30 "ABaraaapaaa"
296 295 302 -1 -102 5 10 26 "ABpraaaappa"
297 286 303 -1 -102 131 10 26 "ABalpaapaaa"
298 297 305 -1 -32 203 10 30 "ABplpaaaaap"
299 320 332 -1 -20 -5 10 30 "ABprpaappaa"
300 33 295 -1 -16 125 10 34 "ABalpaaapp"
301 299 307 -1 2 215 10 34 "ABplpaaappp"
302 301 308 -1 56 223 10 30 "ABplppaaaap"
303 312 309 -1 68 189 10 26 "MSappapp"
304 329 312 -1 154 185 10 26 "MSaapppp"
305 302 299 -1 184 217 10 30 "ABplppapapp"
306 315 291 -1 198 11 10 30 "MSpppaap"
307 306 301 -1 -136 175 11 34 "ABalaaaala"
308 309 34 -1 -18 27 11 30 "MSppapaa"
309 321 318 -1 16 93 11 30 "ABarapaappp"
311 322 319 -1 24 -3 11 30 "MSppppaa"
313 302 59 -1 148 223 11 26 "ABplppapapa"
314 354 339 -1 284 29 11 30 "ABprapapppa"
315 331 329 -1 -70 137 12 22 "ABaraaaaaap"
316 42 331 -1 -12 79 12 30 "ABarapaappa"
317 334 346 -1 0 159 12 34 "ABalpapppa"
318 635 320 -1 26 159 12 26 "MSaapaaaa"
319 326 334 -1 60 61 12 30 "MSpapaapa"
320 313 321 -1 66 1 12 30 "Dpapa"
321 40 322 -1 106 243 12 26 "ABplppapaaa"
323 328 358 -1 138 -47 12 30 "ABprapaapp"
324 338 313 -1 194 167 12 30 "ABplpppppaa"
326 352 336 -1 218 195 12 34 "Capapp"
327 345 353 -1 -148 69 13 30 "ABalaaapprl"
328 35 328 -1 -90 213 13 38 "ABalpppaaa"
329 307 342 -1 -82 25 13 34 "ABpraaapaa"
330 332 343 -1 -74 167 13 34 "MSapaaaa"
331 333 330 -1 -60 -27 13 30 "ABprpaapapa"
332 538 344 -1 -56 193 13 30 "ABplpaaaaaa"
333 323 362 -1 -40 235 13 30 "ABplpaaapa"
334 311 347 -1 22 235 13 26 "ABplpaapppp"
335 335 333 -1 26 203 13 26 "ABplppaaaaa"
336 580 40 -1 46 -47 13 34 "ABpraapppa"
337 39 36 -1 96 -49 13 34 "ABpraapppp"
339 341 338 -1 250 185 13 26 "ABplapppapa"
340 343 351 -1 262 151 13 34 "Capppp"
341 346 341 -1 -118 191 14 30 "ABalppaaapa"
342 348 345 -1 -40 109 14 22 "ABalpappaaa"
343 347 354 -1 -36 3 14 34 "ABprpaapaap"
345 358 556 -1 92 139 14 34 "MSaapappp"
346 350 349 -1 102 -7 14 30 "Dpapp"
347 43 44 -1 214 129 14 42 "Eplpp"
348 363 359 -1 256 -19 14 30 "ABprapapap"
349 342 366 -1 256 219 14 34 "ABplappppa"
350 353 41 -1 266 81 14 34 "Cppppp"
351 364 39 -1 -116 27 15 26 "ABalaapppaa"
352 355 360 -1 -102 57 15 26 "ABalaapppap"
353 331 361 -1 -100 129 15 26 "ABaraaaaaaa"
354 375 377 -1 -80 175 15 30 "ABalppappaa"
355 349 355 -1 36 71 15 26 "ABaraappppa"
356 336 348 -1 54 149 15 26 "MSaapaaap"
357 357 363 -1 76 207 15 26 "ABplppaapa"
358 370 371 -1 106 209 15 22 "ABplppappaa"
359 351 37 -1 202 87 15 22 "Eprpp"
360 372 42 -1 288 185 15 34 "ABplappppp"
361 354 367 -1 300 59 15 26 "ABprapapppp"
362 374 376 -1 -106 5 16 34 "ABpraaaaap"
363 646 368 -1 -38 -25 16 26 "ABprpaapapp"
364 377 370 -1 2 25 16 30 "MSppapap"
365 368 384 -1 96 67 16 30 "MSpapapa"
366 540 557 -1 120 19 16 34 "MSpapppa"
367 361 365 -1 164 -31 16 30 "ABprappaaa"
368 371 373 -1 172 213 16 34 "ABplppappp"
369 381 387 -1 264 29 16 38 "ABprapppaa"
370 385 45 -1 -80 205 17 26 "ABalppaaapp"
371 365 43 -1 -72 105 17 30 "ABaraaaaap"
372 376 378 -1 -56 41 17 26 "ABprpaapaaa"
373 378 381 -1 12 197 17 30 "ABplpapaapa"
374 380 356 -1 48 35 17 26 "MSpppapp"
375 367 383 -1 72 235 17 26 "ABplpaaaapa"
376 359 364 -1 114 95 17 26 "MSpapappp"
377 382 374 -1 314 119 17 30 "Cpappv"
378 383 388 -1 -132 139 18 30 "ABalpaapppa"
379 373 393 -1 -114 113 18 26 "ABaraaappaa"
380 44 380 -1 22 141 18 34 "ABalpappppp"
381 379 382 -1 40 215 18 22 "ABplpapaapp"
382 49 60 -1 56 85 18 34 "MSpapaaap"
383 396 402 -1 76 127 18 30 "MSaappaa"
384 50 588 -1 80 85 18 26 "MSpapappa"
385 387 404 -1 102 233 18 30 "ABplpaaaapp"
386 388 405 -1 106 127 18 30 "MSaappap"
387 369 385 -1 130 167 18 30 "MSapaapp"
388 389 386 -1 176 175 18 26 "MSpappaa"
390 391 410 -1 -156 91 19 34 "ABalaapaaa"
391 69 391 -1 -134 55 19 26 "ABalaaapprr"
392 384 394 -1 -82 137 19 26 "ABalpaaaapa"
393 401 395 -1 -70 -17 19 26 "ABpraaaapad"
394 581 397 -1 -40 75 19 38 "ABarapapaaa"
395 394 398 -1 -12 101 19 26 "ABarapapaap"
396 48 399 -1 0 65 19 34 "ABarapappa"
397 51 403 -1 92 183 19 26 "ABplpapapap"
398 413 420 -1 200 217 19 30 "ABplpppaaap"
399 398 421 -1 222 59 19 26 "ABprpppppaa"
400 415 422 -1 232 103 19 26 "ABprpppppap"
401 421 424 -1 -124 91 20 30 "ABaraaapppa"
402 399 423 -1 -118 23 20 30 "ABalaappaa"
404 422 442 -1 -84 65 20 30 "ABarappppaa"
405 430 396 -1 -60 13 20 22 "ABpraaaapav"
406 47 411 -1 -58 211 20 34 "ABalppaappa"
407 402 389 -1 -44 189 20 26 "ABalppappap"
408 403 412 -1 -36 27 20 26 "ABprpaaaaap"
409 393 426 -1 -20 227 20 38 "ABalppaappp"
410 395 415 -1 -10 -39 20 26 "ABpraappaa"
411 55 427 -1 6 -13 20 26 "ABprpaapppp"
412 405 400 -1 16 39 20 30 "MSppaapa"
413 584 417 -1 44 193 20 26 "ABplpapaaap"
414 618 418 -1 48 5 20 26 "ABprppaaaap"
415 46 419 -1 80 -31 20 30 "ABprapaapa"
417 370 406 -1 140 209 20 26 "ABplppappap"
418 426 407 -1 216 159 20 30 "ABplpppppap"
419 52 408 -1 232 203 20 30 "ABplpppaapa"
420 416 439 -1 256 205 20 30 "ABplpppaapp"
421 418 440 -1 260 51 20 26 "ABprapppapa"
422 54 441 -1 272 3 20 34 "ABprapappa"
423 428 562 -1 286 173 20 30 "ABplpppapp"
424 404 414 -1 -14 145 21 30 "ABalpappppa"
425 442 445 -1 8 105 21 34 "ABarapapppa"
426 406 428 -1 24 13 21 30 "ABprppaaaaa"
427 53 416 -1 40 95 21 30 "ABarapapppp"
428 408 429 -1 76 27 21 34 "ABprppaapa"
429 410 431 -1 138 75 21 30 "MSppaapp"
430 411 432 -1 156 37 21 34 "MSpapppp"
431 412 434 -1 188 47 21 26 "MSpappap"
432 446 435 -1 196 3 21 26 "ABprppapapp"
433 71 436 -1 212 125 21 30 "ABprpappppp"
434 414 437 -1 226 33 21 30 "Cppapp"
435 420 450 -1 296 77 21 30 "ABprappppp"
436 400 451 -1 -112 131 22 26 "ABalpaappaa"
437 72 452 -1 -76 113 22 30 "ABarapaaaaa"
439 424 446 -1 14 215 22 30 "ABalppapppp"
441 435 455 -1 68 189 22 26 "ABplpapapaa"
442 436 430 -1 110 -3 22 30 "ABprppapaaa"
443 425 461 -1 168 201 22 26 "ABplpppaaaa"
444 397 433 -1 188 99 22 30 "ABprpappppa"
446 419 46 -1 290 149 22 30 "ABplppppppp"
447 439 48 -1 302 113 22 30 "ABprppppppp"
448 429 462 -1 -100 163 23 26 "ABalpaapppp"
449 57 470 -1 -86 9 23 30 "ABpraaaaaa"
450 544 443 -1 -56 41 23 30 "ABprpaaaaaa"
451 433 454 -1 6 175 23 26 "ABplpapaaaa"
452 634 476 -1 46 201 23 34 "ABalpapapap"
454 444 456 -1 100 159 23 30 "ABplpapappa"
455 445 457 -1 108 189 23 30 "ABplppaappa"
456 437 459 -1 142 -3 23 30 "ABprppapaap"
457 438 460 -1 152 189 23 30 "ABplppaappp"
458 446 481 -1 162 -9 23 26 "ABprppapapa"
459 628 464 -1 -98 101 24 26 "ABaraaappap"
460 440 487 -1 -84 149 24 26 "ABalpaappap"
461 448 465 -1 -76 185 24 30 "ABalppapaaa"
462 434 466 -1 64 229 24 26 "ABalpapappa"
463 443 61 -1 102 209 24 30 "ABalpapappp"
464 451 458 -1 120 149 24 30 "ABplpapappp"
465 452 49 -1 196 187 24 26 "ABplppppapa"
466 469 489 -1 -44 -11 25 30 "ABprpaaapa"
467 441 47 -1 -44 111 25 38 "ABarapaaap"
468 456 472 -1 2 3 25 34 "ABprpaaappp"
469 457 501 -1 8 61 25 26 "ABprpapaaaa"
470 458 474 -1 50 29 25 22 "ABprpapaapp"
471 460 478 -1 92 85 25 30 "ABprpapppaa"
472 449 467 -1 92 51 25 30 "ABprpapapap"
473 450 479 -1 114 101 25 30 "ABprpapppap"
474 462 468 -1 120 17 25 22 "ABprppappaa"
475 477 480 -1 158 121 25 26 "ABplpappppa"
476 464 482 -1 166 155 25 26 "ABplppppaap"
477 465 509 -1 200 127 25 30 "ABplpappppp"
478 453 496 -1 222 183 25 30 "ABplpppapaa"
479 60 484 -1 262 79 25 26 "ABprapppapp"
480 466 486 -1 268 153 25 30 "ABplppppppa"
481 467 485 -1 274 29 25 34 "ABprappppa"
482 454 488 -1 -60 59 26 26 "ABarappppap"
483 455 498 -1 -44 191 26 26 "ABalppapaap"
484 622 490 -1 -28 49 26 26 "ABarapppppa"
485 548 471 -1 -16 13 26 26 "ABprpaaappa"
486 483 447 -1 38 161 26 26 "ABplpappaaa"
487 473 475 -1 44 125 26 30 "ABarapapapp"
490 459 505 -1 86 -11 26 30 "ABprpaaaapp"
491 474 477 -1 94 11 26 30 "ABarappappp"
492 475 492 -1 112 61 26 26 "ABprpapappa"
493 463 493 -1 132 131 26 26 "ABplpapppaa"
494 476 494 -1 152 167 26 30 "ABplppppaaa"
495 478 483 -1 172 79 26 26 "ABprppppaaa"
496 62 495 -1 194 93 26 30 "ABprppppaap"
497 468 522 -1 -88 89 27 26 "ABaraaapppp"
498 479 511 -1 -58 157 27 26 "ABalpapaaaa"
499 491 499 -1 -14 85 27 22 "ABarappaaap"
500 61 491 -1 12 115 27 34 "ABarapapapa"
501 482 502 -1 24 177 27 30 "ABalpapapaa"
502 484 592 -1 76 51 27 30 "ABprpapapaa"
503 488 515 -1 270 49 27 30 "ABprpppaapp"
505 480 512 -1 -20 161 28 30 "ABalpapaaap"
506 481 500 -1 -14 189 28 26 "ABalppapapa"
507 492 519 -1 -6 37 28 26 "ABarapppppp"
508 471 473 -1 16 209 28 30 "ABalppapapp"
509 493 520 -1 128 45 28 26 "ABprppaappa"
510 485 52 -1 132 79 28 30 "ABprpapappp"
511 494 507 -1 152 89 28 26 "ABplpapppap"
512 496 510 -1 198 161 28 26 "ABplppppapp"
513 489 517 -1 -104 67 29 26 "ABarapppaaa"
514 499 54 -1 -80 33 29 38 "ABalaapappa"
515 502 526 -1 0 59 29 26 "ABarapppapp"
516 495 529 -1 158 57 29 26 "ABprppaappp"
517 486 521 -1 156 19 29 26 "ABprppappap"
518 511 530 -1 184 49 29 30 "ABprpppaaaa"
519 512 514 -1 202 67 29 26 "ABprppppapa"
520 514 532 -1 210 99 29 30 "ABprppppapp"
521 513 531 -1 216 39 29 26 "ABprpppaaap"
522 497 53 -1 222 137 29 30 "ABplpppapap"
523 506 534 -1 244 51 29 30 "ABprpppaapa"
524 507 535 -1 -64 59 30 26 "ABarapppaap"
525 490 518 -1 -56 91 30 26 "ABarappaaaa"
526 500 523 -1 -46 127 30 26 "ABalpapaapa"
527 589 524 -1 -34 59 30 30 "ABarapppapa"
528 501 536 -1 -10 125 30 26 "ABalpapaapp"
529 503 527 -1 12 93 30 34 "ABarappaap"
530 510 57 -1 88 87 30 30 "ABprpappapa"
531 504 55 -1 110 131 30 34 "ABprpappapp"
532 505 533 -1 234 83 30 26 "ABprpppapaa"
533 590 538 -1 24 31 31 34 "ABarappapaa"
534 509 528 -1 64 11 31 30 "ABprpaaaapa"
535 113 105 -1 -22 201 -14 34 "ABplaapappp"
538 603 593 -1 -54 123 -6 26 "MSaaapaaa"
539 169 154 -1 -74 195 -4 34 "ABalpppappp"
540 565 612 -1 -144 57 0 34 "ABalappppaa"
541 229 549 -1 -64 185 2 34 "ABalppppaav"
543 273 263 -1 -94 53 3 34 "MSppaaap"
545 531 246 -1 -12 145 4 34 "ABalpaapapp"
547 285 553 -1 -156 173 8 26 "ABalaaapall"
552 423 609 -1 -42 103 18 22 "ABarapaaaap"
555 417 438 -1 254 131 19 30 "Caapaa"
556 585 617 -1 48 133 21 30 "ABalpappapp"
557 432 425 -1 -16 197 23 22 "ABalppapppa"
558 70 463 625 -116 35 25 26 "ABalaappap"
562 549 603 -1 50 119 30 34 "ABprpappaap"
568 158 152 -1 -86 15 -7 22 "ABalapppppp"
572 237 565 -1 208 113 1 30 "Eplap"
574 255 264 -1 -62 243 4 26 "ABalpppapav"
576 330 340 -1 290 119 12 26 "Caappd"
579 386 379 -1 -48 153 18 26 "ABalpaaaapp"
581 470 50 -1 6 157 26 30 "ABalpappapa"
583 515 525 -1 -34 23 31 26 "ABalaapappp"
589 523 194 -1 -18 213 -3 34 "ABalpppppap"
612 623 610 -1 71 143 25 40 "ABplpappaap"
613 624 611 -1 -1 213 13 30 "ABplpaaappa"
614 625 273 -1 -121 169 5 27 "ABalapaappa"
615 627 613 -1 -151 106 -8 33 "ABalappaap"
616 629 539 -1 96 20 30 32 "ABarappappa"
617 630 614 -1 -58 63 8 30 "ABaraaapapp"
618 633 245 -1 -72 181 3 26 "ABalppppaad"
619 294 616 -1 132 240 9 26 "ABplppapaap"
620 636 350 -1 213 6 14 36 "Cppaap"
621 637 619 -1 51 75 1 30 "MSpaapapp"
622 640 621 -1 203 46 -18 40 "Caaaap"
623 641 623 -1 276 125 23 28 "Caapap"
624 642 624 -1 262 109 -16 34 "Cpaapp"
625 643 369 -1 -26 141 15 31 "ABalpappaap"
626 156 626 -1 -108 193 -7 30 "ABalppppapa"
627 645 630 -1 29 -21 20 32 "ABpraappap"
628 647 631 -1 53 64 26 28 "ABprpapaaap"
629 648 632 -1 18 41 25 26 "ABprpapaapa"
630 498 516 -1 277 110 28 30 "ABprppppppa"
631 649 633 -1 32 78 17 27 "MSpapaaaa"
