1 55 625 -1 -76 87 -21 26 "ABarpaaapa"
2 69 84 -1 -4 79 -20 38 "ABarpaapap"
3 78 6 -1 76 -5 -17 34 "ABarpppapa"
4 6 101 -1 -108 53 -16 38 "ABarpaaapp"
5 91 7 -1 182 125 -16 38 "Dappp"
6 101 107 -1 -20 161 -14 34 "MSapappa"
7 9 9 -1 134 139 -15 38 "Dappa"
8 11 109 -1 204 161 -15 30 "Cappaaa"
9 115 11 -1 76 163 -12 30 "Daaap"
11 141 63 -1 70 13 -10 34 "MSpppppp"
12 15 13 -1 152 63 -6 38 "Epraa"
13 148 14 -1 8 231 -7 30 "ABalppppppp"
14 158 23 -1 168 103 -5 34 "Eplaa"
15 16 15 -1 274 135 -7 38 "Capppa"
16 17 16 -1 96 107 -4 38 "Ealaa"
17 167 193 -1 30 -39 -4 30 "ABprapaaaap"
19 57 20 -1 194 123 -2 38 "Ealpp"
20 215 22 -1 -34 131 -2 38 "ABaraapaapp"
25 18 557 -1 130 105 -2 34 "Ealap"
27 31 282 -1 220 71 5 46 "Eprpa"
29 29 287 -1 226 115 6 42 "Eplpa"
30 275 276 -1 262 195 6 34 "ABplapppaa"
32 27 286 -1 80 53 7 34 "MSpapaapp"
33 35 43 -1 122 113 9 38 "Ealpa"
34 308 298 -1 -12 23 10 30 "MSppapaa"
35 39 345 -1 -42 71 14 38 "ABarapaapa"
36 337 333 -1 98 -47 12 38 "ABpraapppp"
37 359 358 -1 190 91 14 50 "Eprpp"
38 40 48 -1 172 39 13 42 "Z2"
39 351 361 -1 -118 23 16 34 "ABalaapppaa"
40 336 355 -1 48 -45 15 38 "ABpraapppa"
41 350 379 -1 266 79 16 34 "Cppppp"
42 360 380 -1 292 177 16 38 "ABplappppp"
43 371 383 637 -74 101 16 34 "ABaraaaaap"
44 347 368 -1 216 123 16 38 "Eplpp"
45 370 408 -1 -80 201 19 26 "ABalppaaapp"
46 446 447 -1 290 147 20 38 "ABplppppppp"
47 467 56 -1 -42 109 23 38 "ABarapaaap"
48 447 435 -1 296 115 22 46 "ABprppppppp"
49 465 469 -1 200 183 25 26 "ABplppppapa"
50 581 569 -1 2 145 26 30 "ABalpappapa"
51 54 538 -1 58 51 30 42 "ABarappapap"
52 510 512 -1 134 77 28 26 "ABprpapappp"
53 522 506 -1 224 137 28 30 "ABplpppapap"
54 514 71 -1 -72 25 29 38 "ABalaapappa"
55 531 541 -1 112 131 29 38 "ABprpappapp"
56 53 543 -1 256 121 29 38 "ABprpppapap"
57 530 60 -1 88 87 31 34 "ABprpappapa"
58 23 572 -1 128 63 4 38 "Earap"
59 313 318 -1 144 227 11 42 "ABplppapapa"
60 382 396 -1 66 77 18 34 "MSpapaaap"
61 463 476 -1 104 203 23 30 "ABalpapappp"
63 184 26 -1 -152 75 -1 42 "ABalapppaap"
64 63 2 -1 -84 59 -21 30 "ABarpapapa"
65 2 3 -1 -58 101 -21 34 "ABplaaaapa"
66 1 1 -1 -52 59 -21 30 "ABarpaapaa"
67 65 77 -1 -32 119 -21 34 "ABplaaaapp"
68 77 85 -1 22 55 -21 38 "ABarpaappa"
69 3 81 -1 72 91 -21 34 "ABarppaapa"
70 4 82 -1 -104 95 -20 30 "ABarpaaaap"
71 70 80 -1 28 153 -20 30 "ABarppaaap"
72 67 78 -1 52 169 -20 34 "ABplapaaaap"
73 64 90 -1 -62 183 -19 30 "ABplaaapaa"
74 66 91 -1 -10 201 -19 38 "ABplaaappa"
75 71 4 -1 62 205 -19 34 "ABarppaaaa"
76 72 93 -1 100 201 -19 34 "ABarppapaa"
77 73 94 -1 120 173 -19 34 "ABarppaapp"
78 74 87 -1 146 207 -19 30 "ABarppapap"
79 75 79 -1 184 189 -19 34 "ABplappapa"
80 86 100 -1 -128 145 -18 30 "ABplaapaapp"
81 80 88 -1 -100 137 -18 34 "ABplaaaaaa"
82 76 89 -1 -80 169 -18 22 "ABalapapppp"
83 92 5 -1 -64 139 -18 30 "ABplaaaaapp"
84 68 83 -1 -30 35 -18 38 "ABarpapapp"
85 5 92 -1 24 205 -18 30 "ABplaaappp"
86 79 86 -1 132 41 -18 34 "Cpaaaa"
87 90 97 -1 46 123 -17 30 "MSappppa"
88 81 98 -1 90 139 -17 30 "MSappppp"
89 82 95 -1 158 77 -17 38 "Cpaaap"
90 10 8 -1 218 83 -17 34 "Cpaapa"
91 83 96 -1 226 193 -17 30 "ABarppappa"
92 87 103 -1 -116 185 -16 30 "ABplaapaaaa"
93 89 102 -1 26 1 -16 30 "ABarpppaaa"
94 7 10 -1 46 33 -16 34 "ABarpaappp"
95 8 99 -1 102 73 -16 34 "Caaaaa"
97 85 114 -1 -128 119 -15 22 "ABalapapaa"
98 11 110 -1 234 145 -15 26 "Cappaap"
99 84 112 -1 -138 89 -14 38 "ABarpaaaaa"
100 94 115 -1 -88 111 -14 26 "ABalapapapp"
101 99 116 -1 -44 81 -14 26 "MSaaaapaa"
103 106 111 -1 266 187 -14 34 "ABplapapaa"
104 95 130 -1 -82 195 -13 30 "ABplaapaaap"
105 535 552 -1 -28 199 -13 30 "ABplaapappp"
106 102 117 -1 -10 77 -13 30 "MSaaaapap"
107 96 108 -1 -10 137 -13 30 "MSapappp"
108 113 118 -1 2 101 -13 26 "MSaaaappa"
109 114 119 -1 30 73 -13 38 "MSpaaapa"
111 105 113 -1 162 175 -13 34 "Dapap"
112 111 125 -1 -60 99 -12 30 "MSaaaaapp"
114 98 120 -1 34 149 -12 26 "MSapppap"
115 124 126 -1 110 5 -12 34 "Dpppa"
116 108 139 -1 -124 155 -11 30 "ABalapappap"
117 109 127 -1 -102 63 -11 22 "ABalapppapp"
118 110 129 -1 -82 145 -11 30 "ABplaaaaapa"
119 119 132 -1 -42 21 -11 30 "MSppappp"
123 107 137 -1 -150 123 -10 26 "ABplaapaapa"
124 13 123 -1 -114 39 -10 30 "ABarpapaaa"
125 118 163 -1 -104 209 -10 26 "ABalppppapp"
126 112 143 -1 -52 179 -10 34 "ABplaapappa"
128 126 12 -1 10 -31 -10 34 "ABarpapppp"
129 127 155 -1 16 197 -10 30 "ABalppppppa"
130 121 141 -1 36 115 -10 30 "MSaaaappp"
131 122 142 -1 62 195 -10 30 "ABplapaaapa"
132 123 147 -1 88 221 -10 30 "ABplapaaapp"
133 128 148 -1 120 -39 -10 30 "ABarpppapp"
134 129 149 -1 134 237 -10 34 "ABplapaapp"
136 125 128 -1 -82 33 -9 30 "ABarpapaapp"
137 120 144 -1 -28 119 -9 26 "MSaaapaap"
138 138 134 -1 4 25 -9 30 "MSpppppa"
139 152 135 -1 66 89 -9 26 "MSaaappp"
141 155 150 -1 218 9 -9 30 "Cpppaap"
142 131 161 -1 -162 65 -8 30 "ABpraapaaaa"
143 133 151 -1 -144 23 -8 30 "ABpraapaaap"
144 117 72 -1 -114 105 -8 30 "ABalapapapa"
146 144 164 -1 -82 89 -8 30 "MSaaaaapa"
148 142 168 -1 156 -9 -8 34 "Dpppp"
149 157 170 -1 226 179 -8 38 "Capapa"
150 12 122 -1 268 37 -8 34 "Caaapa"
151 134 578 -1 -126 67 -7 18 "ABalapppapa"
152 568 179 -1 -98 9 -7 22 "ABalapppppp"
154 539 173 -1 -70 205 -7 26 "ABalpppappp"
155 137 180 -1 -52 -31 -7 26 "ABarpapppa"
157 147 165 -1 -18 201 -7 30 "ABplaapapap"
159 14 178 -1 196 -45 -7 34 "ABprappapa"
160 156 169 -1 220 233 -7 34 "ABplappapp"
162 179 185 -1 280 203 -7 30 "ABarppappp"
165 163 154 -1 -20 61 -6 34 "MSpaaaapp"
166 149 183 -1 46 211 -6 30 "ABplpaappap"
167 140 156 -1 68 -27 -6 26 "ABarpppaap"
169 154 177 -1 116 199 -6 30 "Dapaa"
170 169 160 -1 302 105 -6 34 "Cpapap"
172 162 189 -1 -50 175 -5 26 "ABplaapapaa"
173 165 167 -1 2 171 -5 30 "MSapapaa"
174 175 195 -1 54 177 -5 30 "Daaaa"
175 193 184 -1 162 195 -5 30 "Capaaa"
176 170 186 -1 -152 173 -4 26 "ABalapaaapa"
177 160 206 -1 -140 141 -4 26 "ABalapappaa"
178 172 188 -1 -46 69 -4 34 "MSpaaaapa"
179 166 191 -1 4 73 -4 34 "MSpaaappa"
180 189 192 -1 20 137 -4 30 "ABaraapapap"
181 176 196 -1 70 37 -4 26 "MSpppapa"
182 183 17 -1 268 35 -4 34 "Cppppa"
183 186 181 -1 -48 21 -3 34 "MSppappa"
184 182 187 -1 -48 239 -3 30 "ABplpaapapa"
185 188 190 -1 8 9 -3 26 "MSppppap"
186 174 194 -1 46 63 -3 30 "MSpaaappp"
188 194 204 -1 188 233 -3 34 "ABplappaap"
189 178 212 -1 210 71 -3 34 "Eprap"
190 199 198 -1 -122 157 -2 30 "ABalapaaaa"
191 185 240 -1 -118 111 -2 34 "MSaaaaaa"
192 210 216 -1 -86 111 -2 26 "ABaraapaaap"
194 589 200 -1 -16 207 -2 30 "ABalpppppap"
195 200 201 -1 -4 149 -2 30 "ABaraapapaa"
196 25 202 -1 32 21 -2 30 "MSpppaaa"
197 203 18 -1 68 -29 -2 34 "ABprapaaapp"
198 190 209 -1 70 1 -2 26 "Dpaap"
199 230 221 -1 86 169 -2 30 "MSappaaa"
201 217 203 -1 104 -63 -2 30 "ABarppppaa"
202 192 64 -1 114 243 -2 30 "ABplaapppp"
204 196 21 -1 250 229 -2 30 "ABplapapap"
205 180 214 -1 -132 33 -1 26 "ABalappppap"
206 225 225 -1 -86 153 -1 30 "MSapaaap"
207 187 218 -1 -30 -15 -1 30 "ABpraapappp"
209 201 219 -1 12 -21 -1 34 "ABpraaapppa"
210 56 220 -1 8 207 -1 30 "ABplpaappaa"
212 205 222 -1 144 -25 -1 30 "Dppap"
213 221 211 -1 184 -19 -1 30 "Cpppaaa"
214 195 29 -1 228 -39 -1 30 "ABarpppppa"
216 207 224 -1 292 191 -1 30 "ABplapapppa"
217 197 253 -1 -158 25 0 22 "ABalappappp"
218 198 213 -1 -132 3 0 26 "ABpraapaapa"
219 208 215 -1 -98 -7 0 34 "ABpraapaapp"
220 209 226 -1 -82 41 0 26 "ABarpapaapa"
221 212 217 -1 -68 -5 0 26 "ABpraapappa"
222 213 227 -1 -68 119 0 34 "ABaraapaapa"
223 19 208 -1 -50 -35 0 30 "ABarpappap"
224 228 231 -1 54 147 0 26 "MSaapaapa"
225 219 210 -1 148 -59 0 30 "ABarppppap"
226 220 223 -1 154 227 0 30 "ABplappaaa"
228 224 635 -1 -152 105 1 26 "ABalapppaaa"
229 211 232 -1 -76 77 1 26 "ABaraappaap"
230 214 228 -1 -32 187 1 26 "ABalpppppaa"
231 216 27 -1 10 53 1 34 "MSpaapaa"
232 227 234 -1 36 187 1 26 "MSapppaa"
233 206 25 -1 270 -9 1 34 "ABprapapaa"
234 223 238 -1 -156 137 2 34 "ABalaaapar"
235 232 241 -1 -98 213 2 34 "ABalpppaap"
236 241 242 -1 -38 221 2 30 "ABplpaapaap"
237 233 229 -1 -22 45 2 34 "ABaraappapp"
238 226 258 -1 18 83 2 26 "MSpaapapa"
239 235 250 -1 64 203 2 30 "Daapa"
240 229 244 -1 78 123 2 30 "MSaapaapp"
242 244 237 -1 224 -1 2 38 "Cppapa"
243 237 263 -1 -110 113 3 30 "ABaraapaaaa"
244 231 247 -1 -106 87 3 26 "ABaraappaaa"
245 618 255 -1 -70 177 3 26 "ABalppppaad"
246 545 248 -1 -14 147 3 34 "ABalpaapapp"
247 242 585 -1 -8 245 3 30 "ABplaappaa"
248 256 243 -1 16 161 3 30 "ABaraapappa"
249 249 267 -1 24 243 3 30 "ABplaappap"
250 234 30 -1 54 241 3 34 "ABplaapppa"
251 236 251 -1 88 -41 3 30 "ABprapaaapa"
252 243 236 -1 208 199 3 34 "Capaap"
254 238 254 -1 -68 19 4 26 "ABpraapapaa"
255 239 256 -1 -58 65 4 30 "ABaraappapa"
256 240 257 -1 -32 -5 4 30 "ABpraapapap"
257 265 37 -1 26 119 4 30 "ABaraapappp"
258 258 260 -1 52 -1 4 34 "Dpaaa"
260 266 268 -1 100 203 4 26 "Daapp"
261 250 35 -1 298 119 4 34 "Cpapaa"
262 251 252 -1 298 73 4 38 "Cpappd"
263 543 264 -1 -96 51 5 30 "MSppaaap"
264 574 279 -1 -60 233 5 26 "ABalpppapav"
265 253 640 -1 -28 241 5 26 "ABplpaapapp"
266 248 560 -1 0 193 5 34 "MSapapap"
267 255 259 -1 16 -15 5 30 "ABprpaappap"
268 28 270 -1 128 203 5 30 "MSaapppa"
269 33 32 -1 184 169 5 30 "MSappaap"
270 274 274 -1 252 229 5 30 "ABplapappa"
271 246 277 -1 -136 51 6 30 "ABalappapa"
272 26 261 -1 -122 13 6 30 "ABpraaapapa"
273 614 262 -1 -122 167 6 26 "ABalapaappa"
274 252 278 -1 -100 -15 6 26 "ABpraaapapp"
275 269 283 -1 -90 187 6 30 "ABalapaapa"
276 263 67 -1 -86 127 6 38 "ABalpaapaap"
277 271 280 -1 -60 127 6 34 "ABalpaapapa"
278 254 265 -1 -16 -1 6 30 "ABpraaappap"
279 32 42 -1 -4 -39 6 38 "ABpraaapppp"
280 280 281 -1 60 137 6 26 "MSaapappa"
281 276 616 -1 -136 201 7 30 "ABalaaapalr"
282 278 296 -1 -76 81 7 26 "ABaraaapaap"
283 264 40 -1 -22 75 7 30 "ABaraaapapa"
284 273 285 -1 40 97 7 26 "ABaraappppp"
285 34 39 -1 162 -19 7 38 "Cppaaa"
286 282 293 -1 294 167 7 30 "ABplapapppp"
287 262 294 -1 -162 47 8 30 "ABalappappa"
288 30 289 -1 -54 183 8 26 "ABplpaapaaa"
289 283 45 -1 -42 149 8 30 "ABalpaaapa"
290 272 587 -1 -8 239 8 38 "ABplpaapppa"
291 306 306 -1 196 7 8 30 "MSpppaap"
292 267 36 588 -156 85 9 30 "ABalaaappl"
293 292 307 -1 -130 53 9 26 "ABalaappppa"
294 277 288 -1 -80 -11 9 30 "ABpraaaappp"
295 300 299 -1 -16 123 9 38 "ABalpaaapp"
296 285 301 -1 -2 49 9 30 "ABaraapppaa"
297 279 284 -1 32 51 9 30 "ABaraapppap"
299 305 305 -1 188 215 9 26 "ABplppapapp"
300 36 275 349 260 37 9 34 "Cpppap"
301 307 44 -1 -120 169 10 30 "ABalaaaala"
302 296 308 -1 -102 5 10 26 "ABpraaaappa"
303 297 309 -1 -98 129 10 26 "ABalpaapaaa"
304 38 297 -1 -46 11 10 30 "ABpraaappaa"
305 298 311 -1 -30 201 10 26 "ABplpaaaaap"
306 284 300 -1 -10 183 10 26 "MSapaapa"
307 301 302 -1 4 211 10 30 "ABplpaaappp"
308 302 316 -1 56 219 10 30 "ABplppaaaap"
309 303 317 -1 70 185 10 26 "MSappapp"
310 287 290 -1 90 149 10 30 "MSaapapa"
311 281 303 -1 124 63 10 38 "Earpa"
312 304 304 -1 158 187 10 30 "MSaapppp"
313 324 319 -1 196 167 10 30 "ABplpppppaa"
314 37 321 -1 -142 145 11 30 "ABalaaaarl"
315 291 295 -1 -128 17 11 30 "ABalaappppp"
316 293 322 -1 -120 111 11 34 "ABaraaaapa"
317 295 323 -1 -98 89 11 30 "ABaraaapaaa"
318 309 313 -1 18 91 11 30 "ABarapaappp"
319 311 314 -1 28 -5 11 30 "MSppppaa"
320 318 315 -1 32 159 11 26 "MSaapaaaa"
321 320 47 -1 68 -1 11 26 "Dpapa"
322 321 334 -1 106 235 11 30 "ABplppapaaa"
324 44 51 -1 160 143 11 34 "Z3"
326 43 320 -1 -138 113 12 26 "ABalaaaarrp"
328 328 341 -1 -82 213 12 30 "ABalpppaaa"
329 315 327 -1 -66 133 12 26 "ABaraaaaaap"
330 331 328 -1 -56 -25 12 30 "ABprpaapapa"
331 316 312 -1 -12 79 12 30 "ABarapaappa"
332 299 329 -1 -12 -13 12 30 "ABprpaappaa"
333 335 331 -1 26 199 12 26 "ABplppaaaaa"
334 319 46 -1 62 57 12 30 "MSpapaapa"
335 41 52 -1 200 -43 12 30 "ABprappaap"
336 326 337 -1 220 191 12 38 "Capapp"
337 42 326 -1 234 -33 12 30 "ABprappapp"
338 339 338 -1 254 183 12 22 "ABplapppapa"
339 314 340 -1 290 25 12 30 "ABprapapppa"
340 576 590 -1 292 107 12 22 "Caappd"
341 341 617 -1 -116 195 13 30 "ABalppaaapa"
342 329 342 -1 -78 25 13 30 "ABpraaapaa"
343 330 343 -1 -72 161 13 26 "MSapaaaa"
344 332 344 -1 -56 189 13 26 "ABplpaaaaaa"
345 342 310 -1 -40 105 13 22 "ABalpappaaa"
346 317 330 -1 2 153 13 30 "ABalpapppa"
347 334 364 -1 20 235 13 30 "ABplpaapppp"
348 356 324 -1 58 149 13 26 "MSaapaaap"
349 346 347 -1 100 -5 13 26 "Dpapp"
350 620 336 -1 214 3 13 34 "Cppaap"
351 340 591 -1 262 145 13 34 "Capppp"
353 327 50 -1 -142 69 14 30 "ABalaaapprl"
354 343 351 -1 -32 5 14 30 "ABprpaapaap"
355 355 354 -1 40 67 14 30 "ABaraappppa"
356 374 346 -1 52 29 14 30 "MSpppapp"
358 323 592 -1 140 -45 14 30 "ABprapaapp"
359 348 348 -1 258 -19 14 30 "ABprapapap"
360 352 370 -1 -100 55 15 22 "ABalaapppap"
361 353 350 -1 -100 125 15 26 "ABaraaaaaaa"
362 333 352 373 -34 227 15 34 "ABplpaaapa"
363 357 376 -1 78 205 15 34 "ABplppaapa"
364 376 378 -1 114 99 15 26 "MSpapappp"
365 367 366 -1 166 -33 15 30 "ABprappaaa"
366 349 359 -1 256 215 15 30 "ABplappppa"
367 361 360 -1 308 57 15 30 "ABprapapppp"
368 363 384 -1 -34 -29 16 26 "ABprpaapapp"
369 625 374 -1 -22 137 16 30 "ABalpappaap"
370 364 363 -1 0 21 16 30 "MSppapap"
371 358 377 -1 108 205 16 26 "ABplppappaa"
373 368 386 -1 174 213 16 34 "ABplppappp"
374 377 369 -1 312 119 16 30 "Cpappv"
375 43 381 -1 -150 100 17 26 "ABalaaaarra"
376 362 390 -1 -100 3 17 30 "ABpraaaaap"
377 354 371 -1 -78 175 17 26 "ABalppappaa"
378 372 372 -1 -58 41 17 26 "ABprpaapaaa"
379 579 393 -1 -44 135 17 22 "ABalpaaaapp"
380 380 385 -1 20 139 17 34 "ABalpappppp"
381 373 395 -1 16 195 17 30 "ABplpapaapa"
382 381 418 -1 40 211 17 30 "ABplpapaapp"
383 375 397 -1 74 231 17 30 "ABplpaaaapa"
384 365 53 -1 102 71 17 30 "MSpapapa"
385 387 402 -1 136 169 17 34 "MSapaapp"
386 388 367 -1 178 173 17 30 "MSpappaa"
387 369 387 -1 270 35 17 30 "ABprapppaa"
388 378 389 -1 -130 137 18 30 "ABalpaapppa"
389 407 411 -1 -48 187 18 30 "ABalppappap"
391 391 388 -1 -138 49 19 26 "ABalaaapprr"
392 48 382 -1 -120 169 19 34 "ABalaaaalp"
393 379 407 -1 -112 105 19 30 "ABaraaappaa"
394 392 409 -1 -78 139 19 22 "ABalpaaaapa"
395 393 410 -1 -68 -19 19 26 "ABpraaaapad"
396 405 392 -1 -58 11 19 26 "ABpraaaapav"
397 394 412 -1 -34 75 19 30 "ABarapapaaa"
398 395 414 -1 -12 97 19 26 "ABarapapaap"
399 396 394 -1 4 65 19 30 "ABarapappa"
400 412 416 -1 22 39 19 26 "MSppaapa"
402 383 375 -1 76 125 19 30 "MSaappaa"
403 397 398 -1 94 181 19 26 "ABplpapapap"
404 385 399 -1 106 227 19 30 "ABplpaaaapp"
405 386 401 -1 108 127 19 26 "MSaappap"
406 417 420 -1 142 213 19 26 "ABplppappap"
407 418 403 -1 216 155 19 30 "ABplpppppap"
408 419 423 -1 230 201 19 30 "ABplpppaapa"
410 390 406 -1 -150 85 20 38 "ABalaapaaa"
411 406 73 -1 -54 209 20 30 "ABalppaappa"
412 408 439 -1 -32 25 20 30 "ABprpaaaaap"
413 60 413 -1 -26 -23 20 34 "ABprpaapppa"
414 424 441 -1 -12 139 20 30 "ABalpappppa"
415 410 426 -1 -4 -37 20 26 "ABpraappaa"
416 427 643 -1 36 97 20 30 "ABarapapppp"
417 413 594 -1 46 191 20 26 "ABplpapaaap"
418 414 453 -1 50 3 20 26 "ABprppaaaap"
419 415 429 -1 82 -31 20 30 "ABprapaapa"
420 398 422 -1 200 213 20 26 "ABplpppaaap"
421 399 404 -1 226 59 20 26 "ABprpppppaa"
422 400 431 -1 230 99 20 26 "ABprpppppap"
423 402 -1 -1 -116 27 21 30 "ABalaappaa"
424 401 448 -1 -114 95 21 34 "ABaraaapppa"
425 557 440 -1 -18 191 21 26 "ABalppapppa"
426 409 54 -1 -14 225 21 30 "ABalppaappp"
427 411 415 -1 10 -11 21 22 "ABprpaapppp"
428 426 427 -1 26 15 21 30 "ABprppaaaaa"
429 428 443 -1 78 23 21 30 "ABprppaapa"
430 442 454 -1 110 -7 21 26 "ABprppapaaa"
431 429 456 -1 142 67 21 30 "MSppaapp"
432 430 55 -1 154 27 21 34 "MSpapppp"
433 444 445 -1 186 99 21 30 "ABprpappppa"
434 431 444 -1 190 45 21 26 "MSpappap"
435 432 421 -1 196 3 21 30 "ABprppapapp"
436 433 430 -1 210 125 21 26 "ABprpappppp"
437 434 446 -1 232 29 21 30 "Cppapp"
438 555 424 -1 254 125 21 26 "Caapaa"
439 420 433 -1 254 201 21 34 "ABplpppaapp"
440 421 458 -1 266 49 21 26 "ABprapppapa"
441 422 425 -1 272 -3 21 30 "ABprapappa"
442 404 436 -1 -84 61 22 26 "ABarappppaa"
443 450 438 -1 -54 39 22 26 "ABprpaaaaaa"
444 50 461 -1 -50 147 22 30 "ABalpaaaaa"
445 425 472 -1 12 101 22 34 "ABarapapppa"
446 439 452 -1 14 207 22 26 "ABalppapppp"
447 486 473 -1 34 165 22 22 "ABplpappaaa"
450 435 459 -1 294 79 22 30 "ABprappppp"
451 436 450 -1 -108 125 23 26 "ABalpaappaa"
452 437 437 -1 -72 111 23 30 "ABarapaaaaa"
454 451 463 -1 4 175 23 26 "ABplpapaaaa"
455 441 442 -1 70 185 23 30 "ABplpapapaa"
456 454 618 -1 104 157 23 26 "ABplpapappa"
457 455 455 -1 114 183 23 26 "ABplppaappa"
458 464 477 -1 126 147 23 26 "ABplpapappp"
459 456 466 -1 144 -3 23 26 "ABprppapaap"
460 457 467 -1 156 187 23 30 "ABplppaappp"
461 443 457 -1 174 199 23 30 "ABplpppaaaa"
462 448 471 -1 -98 159 24 30 "ABalpaapppp"
463 558 480 -1 -94 25 24 26 "ABalaappapp"
464 459 481 -1 -94 95 24 26 "ABaraaappap"
465 461 482 -1 -76 183 24 26 "ABalppapaaa"
466 462 488 -1 70 223 24 30 "ABalpapappa"
467 472 474 -1 94 53 24 22 "ABprpapapap"
468 474 70 -1 122 15 24 30 "ABprppappaa"
469 61 496 -1 -126 71 25 34 "ABalaapaap"
470 449 460 -1 -72 7 25 30 "ABpraaaaaa"
471 485 483 -1 -12 17 25 26 "ABprpaaappa"
472 468 462 -1 2 3 25 30 "ABprpaaappp"
473 508 499 -1 16 205 25 26 "ABalppapapp"
474 470 501 -1 52 25 25 26 "ABprpapaapp"
475 487 487 -1 50 121 25 30 "ABarapapapp"
476 452 59 -1 54 195 25 34 "ABalpapapap"
477 491 489 -1 94 17 25 30 "ABarappappp"
478 471 475 -1 94 85 25 26 "ABprpapppaa"
479 473 490 -1 118 97 25 30 "ABprpapppap"
480 475 478 -1 160 119 25 26 "ABplpappppa"
481 458 58 -1 164 -15 25 26 "ABprppapapa"
482 476 468 -1 170 151 25 26 "ABplppppaap"
483 495 505 -1 176 73 25 22 "ABprppppaaa"
484 479 470 -1 260 77 25 30 "ABprapppapp"
485 481 494 -1 274 27 25 34 "ABprappppa"
486 480 495 -1 272 149 25 30 "ABplppppppa"
487 460 497 -1 -84 139 26 26 "ABalpaappap"
488 482 568 -1 -56 53 26 26 "ABarappppap"
489 466 508 -1 -36 -9 26 34 "ABprpaaapa"
490 484 509 -1 -24 47 26 26 "ABarapppppa"
491 500 485 -1 18 121 26 30 "ABarapapapa"
492 492 502 -1 112 59 26 26 "ABprpapappa"
493 493 503 -1 138 127 26 30 "ABplpapppaa"
494 494 504 -1 156 161 26 30 "ABplppppaaa"
495 496 492 -1 194 93 26 30 "ABprppppaap"
496 478 479 -1 226 179 26 30 "ABplpppapaa"
498 483 507 -1 -46 185 27 26 "ABalppapaap"
499 499 511 -1 -14 83 27 26 "ABarappaaap"
500 506 519 -1 -14 185 27 30 "ABalppapapa"
501 469 484 -1 14 59 27 30 "ABprpapaaaa"
502 501 500 -1 28 177 27 30 "ABalpapapaa"
505 490 522 -1 92 -11 27 30 "ABprpaaaapp"
507 511 513 -1 156 89 27 26 "ABplpapppap"
508 52 491 -1 192 13 27 34 "ABprppappp"
509 477 493 -1 198 127 27 22 "ABplpappppp"
510 512 514 -1 204 157 27 30 "ABplppppapp"
511 498 498 -1 -60 151 28 26 "ABalpapaaaa"
512 505 510 -1 -20 157 28 26 "ABalpapaaap"
514 519 528 -1 204 63 28 22 "ABprppppapa"
515 503 524 -1 268 51 28 26 "ABprpppaapp"
516 630 515 -1 280 103 28 30 "ABprppppppa"
517 513 516 -1 -96 59 29 26 "ABarapppaaa"
518 525 518 -1 -54 89 29 30 "ABarappaaaa"
519 507 520 -1 0 35 29 26 "ABarapppppp"
520 509 525 -1 130 45 29 30 "ABprppaappa"
521 517 542 -1 156 19 29 30 "ABprppappap"
522 497 517 -1 -88 81 30 26 "ABaraaapppp"
523 526 533 -1 -42 121 30 34 "ABalpapaapa"
524 527 534 -1 -32 57 30 30 "ABarapppapa"
525 583 545 -1 -30 9 30 38 "ABalaapappp"
526 515 546 -1 6 57 30 30 "ABarapppapp"
527 529 537 -1 10 95 30 34 "ABarappaap"
528 534 548 -1 66 11 30 30 "ABprpaaaapa"
529 516 526 -1 156 55 30 30 "ABprppaappp"
530 518 527 -1 182 49 30 26 "ABprpppaaaa"
531 521 529 -1 214 33 30 26 "ABprpppaaap"
532 520 530 -1 212 97 30 26 "ABprppppapp"
533 532 531 -1 238 81 30 30 "ABprpppapaa"
534 523 532 -1 240 47 30 30 "ABprpppaapa"
535 524 544 -1 -60 57 31 30 "ABarapppaap"
536 528 536 -1 -6 125 31 26 "ABalpapaapp"
537 51 61 -1 20 153 31 30 "ABprpappaaa"
538 533 547 -1 22 27 31 30 "ABarappapaa"
539 616 540 -1 100 17 31 34 "ABarappappa"
544 116 138 -1 -126 185 -11 30 "ABalapaaapp"
545 164 166 -1 0 107 -7 26 "MSaaapapa"
546 173 182 -1 42 123 -5 26 "MSaaapapp"
547 22 24 -1 270 169 -3 30 "Cappap"
549 541 233 -1 -56 187 1 30 "ABalppppaav"
553 547 632 -1 -154 169 8 30 "ABalaaapall"
554 290 604 -1 262 -19 9 22 "ABarpppppp"
555 270 563 -1 -62 225 10 26 "ABalpppapad"
556 345 565 -1 94 141 14 30 "MSaapappp"
557 366 356 -1 118 17 14 30 "MSpapppa"
561 62 641 -1 -52 63 23 30 "MSppaaaa"
562 423 434 -1 288 171 23 22 "ABplpppapp"
565 572 33 -1 188 111 0 30 "Eplap"
568 47 405 -1 296 147 17 34 "Caappv"
570 93 124 -1 -100 163 -14 18 "ABalapapppa"
573 135 152 -1 -84 -9 -8 30 "ABarpappaa"
574 139 145 -1 36 -1 -8 30 "ABprapaaaaa"
577 177 197 -1 88 65 -4 34 "Earaa"
578 181 207 -1 -118 197 -3 30 "ABalapaappp"
581 259 269 -1 110 -11 5 30 "Dppaa"
588 384 365 -1 80 85 18 26 "MSpapappa"
592 502 521 -1 76 51 27 30 "ABprpapapaa"
593 538 174 -1 -54 123 -6 26 "MSaaapaaa"
603 562 539 -1 50 119 30 34 "ABprpappaap"
606 171 555 -1 -114 23 -4 26 "ABalapppppa"
609 552 362 -1 -42 103 18 22 "ABarapaaaap"
610 612 622 -1 73 144 25 40 "ABplpappaap"
611 613 353 -1 -1 210 13 30 "ABplpaaappa"
612 540 623 -1 -145 60 0 34 "ABalappppaa"
613 615 624 -1 -150 104 -8 33 "ABalappaap"
614 617 638 -1 -57 61 9 30 "ABaraaapapp"
615 97 626 -1 30 186 -14 30 "ABplapaaaaa"
616 619 335 -1 133 231 10 26 "ABplppapaap"
617 556 627 -1 50 133 19 30 "ABalpappapp"
618 136 175 -1 -46 65 -7 36 "MSpaaaaa"
619 621 628 -1 52 74 1 30 "MSpaapapp"
620 24 28 -1 180 53 1 40 "Earpp"
621 622 629 -1 201 43 -19 40 "Caaaap"
622 143 630 -1 289 60 -8 30 "Caaapp"
623 623 633 -1 274 122 22 28 "Caapap"
624 624 631 -1 262 110 -17 34 "Cpaapp"
625 558 634 -1 -116 47 21 28 "ABalaappapa"
626 626 636 -1 -108 192 -7 30 "ABalppppapa"
627 100 106 -1 -25 232 -14 34 "ABplaaapap"
628 168 245 -1 79 248 -2 32 "ABplapaapa"
629 49 639 -1 254 176 19 26 "ABplapppapp"
630 627 642 -1 28 -20 20 32 "ABpraappap"
631 628 486 -1 55 66 25 29 "ABprpapaaap"
632 629 464 -1 20 40 24 24 "ABprpapaapa"
633 631 417 -1 33 74 18 25 "MSpapaaaa"
