2 4 2 -1 144 97 -21 38 "Cpaaap"
3 5 88 -1 88 81 -21 42 "Caaaaa"
4 6 4 -1 174 125 -19 38 "Dappp"
5 9 98 -1 8 211 -19 38 "ABplaaappp"
6 105 102 -1 100 183 -18 30 "ABarppaapp"
7 106 6 -1 164 199 -19 34 "ABplappapa"
8 10 100 -1 48 223 -17 34 "ABarppaaaa"
9 117 96 -1 -82 143 -16 30 "ABplaaaaapp"
10 669 608 -1 -56 127 -12 26 "MSaaapaaa"
11 16 135 -1 252 205 -13 38 "ABplapapaa"
12 15 11 -1 270 137 -13 34 "Capppaa"
13 132 134 -1 138 175 -13 30 "Dapap"
14 616 141 -1 96 -5 -11 34 "Dpppa"
15 150 9 -1 -14 25 -11 34 "MSpppppa"
16 17 140 -1 60 15 -12 34 "MSpppppp"
17 149 143 -1 -128 125 -9 34 "ABalapapapa"
18 165 146 -1 150 -7 -10 34 "Dpppp"
19 18 12 -1 156 57 -8 42 "Epraa"
20 167 13 -1 210 5 -9 30 "Cpppaap"
21 175 156 -1 256 25 -8 30 "Cppppaa"
22 172 162 -1 14 -19 -8 34 "ABprapaaaaa"
23 19 201 -1 92 55 -5 46 "Earaa"
24 25 24 -1 92 105 -4 42 "Ealaa"
26 87 27 -1 -14 -37 -6 34 "ABarpapppp"
27 184 17 -1 32 137 -6 34 "ABaraapapap"
28 188 172 -1 214 69 -5 38 "Eprap"
29 193 177 -1 8 153 -5 30 "ABaraapapaa"
30 187 182 -1 128 191 -6 30 "Capaaaa"
31 195 183 -1 146 221 -6 34 "ABplappaaa"
34 30 29 -1 186 49 -2 42 "Earpp"
37 43 40 -1 240 71 3 46 "Eprpa"
38 46 269 -1 124 -61 3 30 "ABarppppap"
39 254 246 -1 180 215 2 34 "ABplappaap"
40 270 251 -1 -88 201 4 26 "ABalapaapap"
41 45 253 -1 112 185 4 34 "MSaapppa"
42 49 46 -1 120 109 5 38 "Ealpa"
43 50 255 -1 212 -43 3 30 "ABarpppppa"
44 52 275 -1 -78 13 6 38 "ABpraaaappp"
45 47 42 -1 178 139 6 34 "Z3"
46 293 286 -1 -48 15 7 26 "ABpraapapaa"
47 311 281 -1 258 15 6 30 "Cpppapa"
48 332 289 -1 184 -15 8 38 "Cppaaap"
50 373 346 -1 -64 105 12 26 "ABaraaaaapp"
51 60 353 -1 10 151 15 38 "ABalpappppp"
52 361 57 -1 62 239 12 34 "ABplaapppa"
53 55 53 -1 170 53 12 38 "Z2"
54 382 49 -1 216 89 11 46 "Eprpp"
55 607 609 -1 230 127 13 38 "Eplpp"
56 65 59 -1 80 -39 16 38 "ABpraapppp"
57 459 427 -1 292 181 16 42 "ABplappppp"
59 424 391 -1 10 89 16 30 "ABarapapppp"
60 377 408 -1 54 111 15 34 "ABarapapapp"
61 443 445 -1 -64 181 18 30 "ABalppappap"
62 428 60 -1 120 -33 18 30 "ABprapaapp"
64 495 460 -1 -120 107 20 38 "ABaraaapppa"
65 643 604 -1 50 81 25 30 "ABprpapaaap"
66 546 538 -1 146 71 25 22 "ABprppaappp"
68 552 544 -1 -32 171 28 26 "ABalppapapa"
69 543 71 -1 16 -3 27 34 "ABpraappap"
71 84 568 -1 -18 117 31 34 "ABarappaapa"
73 124 109 -1 16 73 -15 26 "MSpaaapaa"
74 174 662 -1 178 191 -8 42 "Capaaap"
75 374 325 -1 -52 81 12 26 "ABarapaapaa"
76 455 415 -1 -4 65 17 30 "ABarapappa"
77 545 68 -1 150 27 26 34 "ABprppapapa"
78 83 565 -1 168 67 29 38 "ABprpppaaaa"
80 101 84 -1 2 167 -22 30 "ABarppaaap"
81 100 87 -1 -70 101 -21 34 "ABplaaaapp"
82 99 1 -1 -8 69 -21 30 "ABarpaappa"
83 3 91 -1 44 59 -20 38 "ABarppaapa"
84 104 94 -1 78 207 -20 30 "ABarppapaa"
85 113 89 -1 -64 33 -19 38 "ABarpapapp"
86 8 97 -1 -34 209 -19 34 "ABplaaappa"
87 7 5 -1 18 119 -19 34 "MSappppa"
89 108 689 -1 -112 93 -18 26 "ABarpaaapa"
90 107 612 -1 -108 121 -18 26 "ABarpaaaapp"
91 109 92 -1 -96 45 -18 30 "ABarpaapaa"
96 115 111 -1 -142 107 -17 30 "ABarpaaaapa"
97 112 112 -1 -86 189 -17 30 "ABplaaapaa"
98 118 106 -1 -40 165 -17 38 "MSapappa"
99 13 8 -1 -40 129 -17 34 "MSapappp"
100 114 93 -1 64 11 -17 38 "ABarpppapa"
101 119 101 -1 66 125 -17 30 "MSappppp"
102 11 7 -1 120 141 -17 38 "Dappa"
103 120 103 -1 178 165 -17 30 "Cappaaa"
104 121 110 -1 208 207 -17 30 "ABarppappa"
105 116 105 -1 -126 77 -16 30 "ABarpapapa"
107 123 108 -1 -28 89 -16 30 "MSaaaapaa"
108 126 107 -1 74 163 -16 26 "Daaap"
109 110 104 -1 230 131 -16 30 "Cappaap"
110 12 116 -1 126 217 -15 34 "ABarppapap"
111 135 581 -1 -128 37 -14 30 "ABarpaaappp"
112 14 125 -1 -46 99 -14 26 "MSaaaaapp"
113 130 118 -1 -4 -1 -14 30 "ABarpppaaa"
114 86 128 -1 24 5 -14 38 "ABarpaappp"
115 125 114 -1 28 149 -14 30 "MSapppap"
116 127 130 -1 -156 111 -13 30 "ABarpaaaaal"
117 133 131 -1 -146 79 -13 34 "ABarpaaappa"
118 128 121 -1 -146 163 -13 30 "ABplaapaapp"
119 131 127 -1 18 105 -13 26 "MSaaaappa"
120 584 115 -1 72 89 -13 30 "MSaaappp"
121 147 10 -1 202 173 -13 30 "Capapaa"
123 129 123 -1 -100 119 -12 26 "ABalapapapp"
124 141 124 -1 -78 81 -12 26 "MSpaaaaaa"
125 137 132 -1 -44 189 -12 30 "ABplaapappa"
126 138 133 -1 -18 211 -12 34 "ABplaapappp"
127 144 119 -1 -8 81 -12 30 "MSaaaapap"
128 156 136 -1 -78 41 -11 30 "MSppappp"
129 142 126 -1 -42 71 -11 26 "MSpaaaaap"
130 146 138 -1 50 67 -11 30 "MSpaaapap"
131 145 139 -1 50 203 -11 34 "ABplapaaapa"
132 151 129 -1 58 151 -11 34 "MSappaaa"
133 157 153 -1 80 211 -11 30 "ABplapaaapp"
134 153 157 -1 306 147 -11 34 "Cpapap"
137 139 144 -1 -124 193 -10 26 "ABalapaaapp"
138 136 148 -1 -102 203 -10 30 "ABplaapaaaa"
139 143 149 -1 -8 141 -10 26 "MSaaapaap"
140 194 669 -1 38 45 -10 26 "MSpaaappp"
142 160 145 -1 -116 63 -9 30 "ABalapppapp"
143 170 137 -1 -36 37 -9 30 "MSpppaaa"
144 163 151 -1 20 181 -9 30 "MSapapaa"
145 154 159 -1 -124 165 -8 26 "ABalapapppa"
146 155 168 -1 -78 217 -8 34 "ABplaapaaap"
148 179 160 -1 -36 187 -8 30 "ABplaapapaa"
149 181 150 -1 2 197 -8 30 "ABplaapapap"
150 183 16 -1 22 223 -8 30 "ABalppppppa"
153 20 165 -1 238 177 -8 30 "Capapap"
154 176 166 -1 -170 135 -7 30 "ABplaapaapa"
155 169 174 -1 -144 153 -7 30 "ABalapappap"
157 178 167 -1 -84 107 -7 34 "MSaaaaapa"
158 180 28 -1 -24 249 -7 34 "ABplaaapap"
160 173 163 -1 38 95 -7 30 "MSaaaappp"
161 702 23 -1 -60 -19 -6 34 "ABarpapppa"
162 192 176 -1 -30 75 -6 34 "MSpaaaapp"
163 24 181 -1 4 77 -6 30 "MSpaaappa"
164 171 161 -1 4 111 -6 26 "MSaaapapa"
165 185 164 -1 56 115 -6 22 "MSaaapapp"
166 215 18 -1 168 97 -6 34 "Eplaa"
167 205 178 -1 268 169 -6 30 "Cappapa"
168 189 173 -1 -175 83 -5 28 "ABarpaaaaar"
170 200 20 -1 -104 51 -5 34 "ABarpapaapp"
171 219 21 -1 -62 17 -5 30 "MSppappa"
172 209 583 -1 0 1 -5 30 "MSppppap"
173 697 198 -1 40 -55 -5 26 "ABarpppaap"
174 210 169 -1 50 -1 -5 26 "Dpaap"
175 213 25 -1 94 -39 -5 30 "ABarpppapp"
176 214 188 -1 94 203 -5 30 "Dapaa"
177 216 184 -1 190 193 -5 30 "Capaapa"
178 26 185 -1 202 107 -5 38 "Ealpp"
179 605 30 -1 212 227 -5 34 "ABplappapp"
180 190 191 -1 -150 53 -4 30 "ABarpapaaaa"
183 89 618 -1 20 39 -4 26 "MSpaapaap"
184 212 200 -1 54 195 -4 30 "Daaaa"
185 97 186 -1 276 211 -4 34 "ABarppappp"
186 196 192 -1 -150 185 -3 30 "ABalapaaapa"
187 230 195 -1 -92 119 -3 30 "ABaraapaaap"
188 28 196 -1 -80 163 -3 30 "MSapaaap"
189 237 197 -1 -10 51 -3 26 "MSpaapaaa"
190 208 32 -1 8 245 -3 30 "ABalppppppp"
192 670 76 -1 64 145 -3 34 "MSaapappa"
193 223 22 -1 132 99 -3 34 "Ealap"
194 232 204 -1 294 139 -3 30 "Capppap"
195 228 193 -1 -124 163 -2 30 "ABalapaaaa"
196 218 194 -1 -122 5 -2 30 "ABarpappaa"
197 206 212 -1 -102 219 -2 26 "ABalpppaapv"
198 32 226 -1 -88 -15 -2 30 "ABarpappap"
199 231 187 -1 -8 209 -2 30 "ABalpppppap"
201 203 207 -1 84 153 -2 30 "MSaapaapp"
203 225 209 -1 170 -53 -2 30 "ABprappapa"
204 226 202 -1 176 -21 -2 30 "Cpppaaa"
205 239 203 -1 206 167 -2 30 "MSappaap"
206 217 190 -1 -166 39 -1 30 "ABpraapaaap"
207 227 211 -1 -156 149 -1 26 "ABalapappaa"
208 243 34 -1 -74 71 -1 30 "ABaraappapa"
209 38 36 -1 -64 131 -1 34 "ABaraapaapa"
210 235 621 -1 -50 151 -1 30 "ABalpaapapa"
211 236 213 -1 -48 201 -1 30 "ABalppppaav"
212 250 219 -1 -22 197 -1 30 "ABalpppppaa"
213 39 214 -1 -16 153 -1 30 "ABalpaapapp"
214 238 206 -1 44 235 -1 26 "ABplpaappap"
215 222 220 -1 102 23 -1 22 "MSpppapa"
216 224 208 -1 134 -25 -1 30 "Dppap"
217 37 35 -1 288 49 -1 30 "Cppppap"
218 240 216 -1 -182 77 0 34 "ABpraapaaaa"
219 233 223 -1 -156 95 0 26 "ABalapppaap"
220 234 31 -1 -122 121 0 34 "MSaaaaaa"
221 229 225 -1 -112 193 0 34 "ABalapaappp"
222 246 230 -1 -28 51 0 34 "ABaraappapp"
223 247 38 -1 88 239 0 30 "ABplaapppp"
224 35 221 -1 222 -1 0 34 "Cppapa"
225 242 227 -1 -74 37 1 26 "ABalapppppa"
226 249 240 -1 -64 239 1 30 "ABplpaapapa"
227 244 229 -1 -60 5 1 30 "ABpraapappa"
228 245 218 -1 -60 185 1 26 "ABalppppaad"
229 259 43 -1 -40 -19 1 30 "ABpraapappp"
230 261 231 -1 -18 -3 1 30 "ABpraapapap"
231 262 234 -1 12 167 1 34 "ABaraapappa"
232 251 39 -1 14 225 1 30 "ABplpaappaa"
233 40 37 -1 44 155 1 30 "MSaapaapa"
235 263 236 -1 50 -25 1 30 "ABprapaaapp"
237 41 44 -1 124 233 1 30 "ABplapaapp"
238 264 222 -1 230 187 1 30 "Capaapp"
239 696 622 -1 -144 51 2 34 "ABalappppap"
240 271 228 -1 -82 89 2 30 "ABaraappaap"
241 295 233 -1 12 -51 2 30 "ABprapaaaap"
242 662 252 -1 22 199 2 26 "MSapppaa"
243 277 243 -1 24 121 2 30 "ABaraapappp"
244 279 254 -1 156 181 2 30 "MSaapppp"
245 88 256 -1 228 233 2 30 "ABplapapap"
246 282 257 -1 276 171 2 30 "Cappapp"
247 265 247 -1 286 209 2 26 "ABplapapppa"
248 255 248 -1 -176 129 3 26 "ABalaaaparl"
249 266 258 -1 -142 181 3 30 "ABalaaapall"
250 269 259 -1 -106 113 3 30 "ABaraapaaaa"
251 291 239 -1 -106 87 3 30 "ABaraappaaa"
252 284 260 -1 -102 223 3 26 "ABalpppaapd"
253 274 241 -1 -38 157 3 30 "ABalpaaapap"
254 260 242 -1 -28 229 3 30 "ABplpaapaap"
255 275 232 -1 -4 13 3 30 "MSppapaa"
256 276 263 -1 0 113 3 26 "ABalpaaappp"
257 278 585 -1 84 193 3 30 "Daapp"
258 309 290 -1 214 163 3 30 "ABplpppppaa"
259 281 271 -1 260 209 3 30 "ABplapppaaa"
260 267 250 -1 -130 9 4 30 "ABpraapaapa"
261 258 607 -1 -102 -1 4 34 "ABpraapaapp"
262 688 588 -1 -50 71 4 38 "ABaraaapapp"
264 48 264 -1 6 -27 4 30 "ABpraaapppa"
265 296 244 -1 24 39 4 38 "ABaraapppap"
266 318 267 -1 92 -3 4 26 "Dppaa"
267 298 268 -1 98 -39 4 26 "ABprapaaapa"
269 283 283 -1 -164 167 5 26 "ABalaaaparr"
270 268 272 -1 -120 39 5 26 "ABalappapap"
271 304 274 -1 -88 51 5 30 "MSppaaap"
274 286 276 -1 -20 135 5 22 "ABalpaaappa"
275 317 277 -1 -16 193 5 26 "MSapapap"
277 297 279 -1 38 79 5 30 "ABaraappppp"
280 306 288 -1 72 153 5 30 "MSaapapa"
281 44 626 -1 78 -61 5 26 "ABarppppaa"
282 51 265 -1 80 43 5 30 "MSpapaapp"
285 42 45 -1 256 -25 5 38 "ABprapapaa"
286 313 284 -1 -114 187 6 30 "ABalapaappa"
287 305 285 -1 -60 191 6 30 "ABplpaapaaa"
288 290 287 -1 58 209 6 30 "Daapa"
290 312 47 -1 300 43 6 38 "Cpappd"
291 301 297 -1 -174 99 7 26 "ABalaaappll"
292 302 291 -1 -152 35 7 30 "ABalappappp"
293 319 298 -1 -152 143 7 26 "ABalaaaarlp"
294 316 304 -1 -20 -3 7 30 "ABpraaappap"
295 327 293 -1 -2 167 7 30 "ABalpapppaa"
296 308 296 -1 120 67 7 38 "Earpa"
297 320 312 -1 -142 69 8 26 "ABalappapaa"
299 322 591 -1 -62 235 8 26 "ABalpppapav"
300 323 301 -1 -52 57 8 30 "ABarapaapap"
301 324 302 -1 -42 177 8 18 "MSapaapa"
302 325 303 -1 -38 215 8 26 "ABplpaaaaap"
303 339 51 -1 6 41 8 30 "ABaraapppaa"
304 340 306 -1 6 81 8 26 "ABarapaappp"
305 341 305 -1 6 135 8 30 "ABalpapppap"
306 342 318 -1 52 147 8 26 "MSaapaaap"
308 632 320 -1 138 193 8 34 "ABplppapaap"
309 321 590 -1 -138 161 9 26 "ABalaaaalal"
310 701 313 -1 -126 33 9 34 "ABpraaapapa"
311 336 322 -1 -100 141 9 30 "ABalpaapaaa"
312 355 335 -1 -84 -3 9 26 "ABpraaaappa"
313 337 315 -1 -46 151 9 26 "ABalpaaapaa"
314 326 337 -1 -28 241 9 26 "ABplpaapapp"
315 328 307 -1 26 197 9 30 "MSappapp"
316 329 309 -1 44 31 9 30 "MSpapaapa"
317 343 589 -1 84 127 9 30 "MSaapappp"
318 347 330 -1 274 211 9 26 "ABplapppaap"
319 333 629 -1 -162 67 10 30 "ABalappappa"
320 356 336 -1 -74 139 10 26 "ABaraaaaaap"
321 338 317 -1 -30 77 10 26 "ABaraaapapa"
322 349 327 -1 30 155 10 30 "MSaapaaaa"
323 360 354 -1 30 -25 10 30 "ABprpaappap"
324 54 338 -1 92 93 10 26 "MSpapappp"
326 344 329 -1 176 195 10 30 "ABplppapapp"
327 345 48 -1 194 21 10 26 "MSpppaap"
328 348 331 -1 294 175 10 30 "ABplapapppp"
329 334 321 -1 -156 115 11 26 "ABalaaaarrp"
330 368 332 -1 -128 9 11 26 "ABpraaapapp"
331 335 333 671 -122 125 11 26 "ABaraaaapa"
332 354 323 -1 -100 215 11 26 "ABalpppaaaa"
333 358 326 -1 -32 131 11 34 "ABalpappaap"
334 91 349 -1 -28 47 11 30 "ABarapaappa"
335 362 328 -1 72 49 11 26 "MSpapappa"
336 90 339 -1 152 191 11 30 "ABplppapapa"
338 364 340 -1 234 229 11 30 "ABplapappa"
339 365 360 -1 272 51 11 30 "Cpppapp"
340 57 362 -1 -136 35 12 30 "ABalaappppp"
341 352 342 -1 -132 195 12 26 "ABalaaapalr"
342 353 334 -1 -100 97 12 26 "ABaraaapaaa"
343 370 365 -1 -84 21 12 26 "ABpraaapaad"
344 359 350 -1 -24 -35 12 34 "ABpraaapppp"
346 391 366 -1 30 51 12 30 "ABaraappppa"
347 381 356 -1 128 171 12 26 "ABplppappap"
348 56 311 423 224 185 12 30 "Capapp"
349 366 54 -1 272 -9 12 30 "ABarpppppp"
350 367 361 -1 -170 93 13 30 "ABalaaapplr"
351 351 341 -1 -150 163 13 30 "ABalaaaarla"
352 369 344 -1 -92 183 13 26 "ABalppappaa"
353 372 347 -1 -64 227 13 26 "ABalpppapad"
354 357 348 -1 -56 193 13 26 "ABplpaaaaaa"
355 376 351 -1 -6 207 13 30 "ABplpaaappp"
357 375 352 -1 -4 -15 13 30 "ABprpaappaa"
358 403 407 -1 46 211 13 30 "ABplppaaaap"
359 404 393 -1 54 75 13 26 "MSpapaaap"
360 393 367 -1 80 163 13 26 "ABplpapapap"
361 378 52 -1 84 119 13 26 "MSaappaa"
362 405 377 -1 84 197 13 26 "ABplppaapap"
363 61 378 -1 86 1 13 22 "Dpapp"
364 394 355 -1 90 69 13 30 "MSpapapa"
365 395 368 -1 106 123 13 26 "MSaappap"
366 380 370 -1 110 197 13 26 "ABplppapaaa"
367 447 357 -1 150 -25 13 30 "ABprappaaa"
368 363 358 -1 184 171 13 26 "MSpappaa"
369 397 371 -1 266 179 13 22 "ABplapppapp"
371 58 345 -1 -58 169 14 30 "MSapaaaa"
372 591 387 -1 -50 137 14 30 "ABalpaaaapp"
373 594 390 -1 -12 23 14 26 "MSppapap"
374 392 376 -1 56 3 14 30 "Dpapa"
375 379 58 -1 114 13 14 34 "MSpapppa"
377 383 359 -1 236 15 14 30 "Cppaap"
378 409 383 -1 302 25 14 26 "ABprapapppa"
379 636 384 -1 314 137 14 30 "Cpappv"
382 386 363 -1 -136 89 15 26 "ABalaapaaa"
383 387 385 -1 -118 177 15 26 "ABalaaaalar"
384 411 386 -1 -100 35 15 22 "ABalaapppaa"
385 412 691 -1 -98 59 15 22 "ABalaapppap"
386 413 412 -1 -64 45 15 26 "ABprpaapaaa"
387 414 388 -1 -32 -5 15 30 "ABprpaapaap"
388 400 389 -1 -30 207 15 26 "ABplpaaappa"
389 59 596 -1 -30 97 15 26 "ABarapapaap"
390 445 404 -1 -22 131 15 26 "ABalpappppa"
391 63 375 -1 12 -9 15 26 "MSppppaa"
392 390 392 -1 24 199 15 30 "ABplppaaaaa"
393 402 436 -1 32 243 15 30 "ABplaappap"
395 62 418 -1 94 219 15 30 "ABplapaapa"
397 419 55 -1 154 19 15 30 "MSpapppp"
398 637 381 -1 162 155 15 22 "MSapaapp"
399 406 382 -1 210 157 15 26 "ABplpppppap"
400 433 395 -1 222 53 15 30 "ABprpppppaa"
401 398 399 -1 -138 137 16 30 "ABalpaapppa"
402 453 434 -1 -52 13 16 26 "ABprpaaaaap"
403 423 446 -1 4 245 16 26 "ABplpaapppa"
404 429 419 -1 126 191 16 30 "ABplpaaaapp"
405 431 56 -1 182 -19 16 34 "ABprappaap"
406 432 394 -1 194 203 16 26 "ABplpppaaap"
407 420 373 -1 -160 71 17 26 "ABalaaapprl"
408 421 411 -1 -108 195 17 34 "ABalppaaapa"
409 593 402 -1 -98 105 17 26 "ABaraaaaapa"
410 441 431 -1 -78 -11 17 30 "ABprpaapapa"
411 442 433 -1 -72 213 17 26 "ABalpppaaap"
412 595 406 -1 38 63 17 30 "MSpapaaaa"
414 66 603 -1 152 181 17 26 "ABplppapppa"
415 435 397 479 260 93 17 34 "Cppppp"
416 407 409 -1 264 141 17 30 "Capppp"
417 434 396 441 268 15 17 30 "ABprapppaa"
418 436 426 -1 294 57 17 30 "ABprapapppp"
419 410 429 -1 -158 113 18 26 "ABalaaaarra"
420 440 78 -1 -78 109 18 30 "ABarapaaaaa"
421 452 432 -1 -70 73 18 26 "MSppaaaa"
422 444 413 -1 -46 97 18 34 "ABarapaaaap"
423 454 435 -1 -16 35 18 26 "MSppaapa"
426 418 417 -1 60 163 18 30 "ABplpapapaa"
427 427 62 -1 64 185 18 26 "ABplppaapaa"
428 98 448 -1 92 173 18 26 "ABalpapappp"
429 638 438 -1 164 71 18 34 "MSppaapp"
430 448 439 -1 172 201 18 30 "ABplppapppp"
431 597 440 -1 186 109 18 30 "ABprpappppa"
432 469 420 -1 194 31 18 30 "MSpappap"
433 449 421 -1 208 127 18 30 "ABprpappppp"
434 457 422 -1 222 85 18 26 "ABprpppppap"
435 482 424 -1 256 199 18 26 "ABplpppaapp"
436 678 428 -1 302 119 18 30 "Caappv"
437 437 430 -1 -140 163 19 30 "ABalaaaalpa"
438 474 453 -1 -100 67 19 30 "ABarappppaa"
441 458 477 -1 236 211 19 30 "ABplappppa"
442 471 457 -1 238 -17 19 30 "ABprapapap"
443 472 452 -1 266 59 19 30 "ABprapppapp"
445 438 79 -1 -118 137 20 26 "ABalpaappaa"
446 476 658 -1 -66 43 20 30 "ABprpaaaaaa"
447 461 61 454 -48 145 20 30 "ABalpaaaaa"
448 462 80 -1 -48 213 20 30 "ABplpaaapaa"
449 465 463 -1 12 215 20 30 "ABplpaapppp"
450 466 416 -1 12 111 20 30 "ABarapapppa"
451 456 447 -1 46 171 20 30 "ABplpapaaap"
452 478 468 -1 72 21 20 30 "ABprppaapap"
453 468 449 -1 98 139 20 30 "ABplpapappa"
454 467 437 -1 106 85 20 30 "ABprpapppap"
455 480 471 -1 120 51 20 34 "ABprppappaa"
456 489 692 -1 206 -9 20 30 "ABprappapp"
457 470 478 -1 242 179 20 26 "ABplpppaapa"
458 463 455 -1 -22 197 21 30 "ABalppapppa"
460 497 464 -1 20 149 22 24 "ABplpappaaa"
461 477 67 -1 32 197 21 26 "ABplpapaapp"
462 484 489 -1 58 85 21 30 "ABprpapppaa"
463 479 469 -1 82 53 21 26 "ABprpapapap"
464 69 470 -1 106 175 21 30 "ABalpapappa"
465 71 63 -1 118 145 21 30 "ABplppaappa"
466 486 472 -1 128 127 21 26 "ABplpapappp"
467 487 474 -1 136 159 21 26 "ABplppaappp"
468 488 450 -1 178 149 21 34 "ABplppppaap"
469 504 496 -1 204 177 21 30 "ABplppppapa"
471 491 480 -1 298 109 21 30 "ABprppppppp"
472 493 458 -1 298 141 21 30 "ABplppppppp"
473 494 481 -1 -150 87 22 26 "ABalaapaapa"
474 68 461 -1 -114 175 22 26 "ABalaaaalpp"
475 641 507 -1 -108 151 22 26 "ABalpaapppp"
476 700 483 -1 -66 17 22 30 "ABpraaaapav"
477 510 484 -1 -64 107 22 30 "ABarapaaapa"
478 483 510 -1 -40 -15 22 26 "ABprpaapapp"
479 521 511 -1 -26 177 22 26 "ABalppapppp"
480 72 486 -1 -22 143 22 26 "ABalpappapa"
481 513 505 -1 -18 3 22 30 "ABprpaapppa"
482 496 488 -1 20 39 22 26 "ABprppaaaaa"
483 498 465 -1 38 17 22 26 "ABprppaaaap"
484 514 467 -1 68 69 22 26 "ABprpapapaa"
485 485 66 -1 110 11 22 26 "ABprppapaaa"
486 499 636 -1 136 19 22 30 "ABprppapaap"
487 517 473 -1 142 49 22 26 "ABprppappap"
488 518 492 -1 140 95 22 22 "ABprpapappp"
489 502 475 -1 182 19 22 26 "ABprppapapp"
490 503 495 -1 186 83 22 30 "ABprppppaaa"
491 492 498 -1 296 79 22 30 "ABprappppp"
492 475 503 -1 -78 197 23 26 "ABalppaaapp"
493 509 502 -1 -74 61 23 38 "ABarappppap"
494 512 485 -1 -32 35 23 26 "ABprpaaappa"
495 511 504 -1 -28 103 23 26 "ABarapaaapp"
497 515 637 -1 96 43 23 26 "ABarappappp"
498 516 491 -1 102 83 23 26 "ABprpapappa"
499 500 493 -1 164 175 23 30 "ABplpppaaaa"
500 501 494 -1 170 119 23 26 "ABplpappppa"
501 505 497 -1 210 137 23 34 "ABplpappppp"
502 599 638 -1 216 95 23 30 "ABprppppaap"
503 506 516 -1 248 9 23 30 "ABprapappa"
504 608 482 -1 -126 47 24 26 "ABalaappapa"
505 519 508 -1 -96 113 24 30 "ABaraaappap"
507 70 501 -1 -82 137 24 22 "ABalpaappap"
508 94 519 -1 -70 -1 24 30 "ABpraaaapad"
509 520 509 -1 -56 155 24 30 "ABalpapaaaa"
510 79 527 -1 76 99 24 26 "ABprpappapa"
511 683 512 -1 88 181 24 30 "ABplpaaaapa"
513 80 528 -1 116 49 24 30 "ABprpaaaapp"
514 534 513 -1 122 89 24 26 "ABprppaappa"
515 523 506 -1 172 151 24 26 "ABplppppaaa"
516 524 639 -1 246 67 24 26 "ABprpppaapa"
517 95 73 -1 254 49 24 34 "ABprpppaapp"
518 526 517 -1 276 147 24 30 "ABplppppppa"
520 528 518 -1 -126 81 25 30 "ABalaapaapp"
521 75 543 -1 -54 193 25 26 "ABalppaappa"
522 77 523 -1 -6 211 25 30 "ABalppaappp"
524 74 547 -1 62 177 25 38 "ABalpapapap"
525 533 81 -1 116 123 25 30 "ABprpappapp"
526 535 514 -1 154 125 25 26 "ABplpapppaa"
527 536 69 -1 170 91 25 26 "ABplpapppap"
528 537 540 -1 212 145 25 34 "ABplppppapp"
529 539 515 -1 230 173 25 34 "ABplpppapaa"
530 540 531 -1 272 101 25 30 "ABprppppppa"
531 527 541 -1 288 57 25 26 "ABprapppapa"
532 693 520 -1 -40 61 26 22 "ABarapppppa"
533 522 522 -1 -10 35 26 26 "ABprpaaappp"
534 544 546 -1 28 163 26 30 "ABalpapapaa"
535 73 525 -1 46 -7 26 30 "ABpraapppa"
536 531 526 -1 60 39 26 26 "ABprppaapaa"
538 547 529 -1 194 31 26 30 "ABprppapppp"
539 549 70 -1 -104 79 27 30 "ABarapppaaa"
540 541 532 -1 -56 93 27 30 "ABarappaaaa"
541 551 542 -1 -48 125 27 26 "ABalpapaapa"
542 542 533 -1 -42 9 27 22 "ABprpaaapap"
543 561 545 -1 -14 139 27 30 "ABalpapaapp"
544 687 575 -1 -2 157 27 30 "ABalpapaaap"
545 553 524 -1 10 57 27 26 "ABprpapaapa"
546 554 535 -1 36 53 27 22 "ABprpapaapp"
547 78 536 -1 78 7 27 30 "ABprapaapa"
548 538 65 -1 214 101 27 26 "ABprppppapp"
549 548 72 -1 234 141 27 34 "ABplpppapap"
550 565 557 -1 -80 23 28 26 "ABpraaaaaap"
551 560 550 -1 -62 167 28 34 "ABalppapaap"
552 567 559 -1 -60 31 28 26 "ABprpaaapaa"
553 569 552 -1 4 181 28 26 "ABalppapapp"
554 81 553 -1 6 25 28 26 "ABprpaapppp"
555 555 555 -1 52 133 28 30 "ABprpappaap"
556 556 539 -1 160 45 28 26 "ABprppapppa"
557 562 566 -1 192 75 28 30 "ABprppppapa"
558 558 642 -1 252 43 28 34 "ABprappppa"
559 550 549 -1 -100 49 29 26 "ABalaappapp"
560 559 556 -1 -80 79 29 30 "ABarapppaap"
561 564 558 -1 -80 107 29 26 "ABaraaapppp"
562 568 551 -1 -14 -1 29 26 "ABpraappaa"
563 577 554 -1 22 135 29 22 "ABprpappaaa"
564 82 563 -1 60 85 29 34 "ABarappapap"
565 572 564 -1 86 69 29 30 "ABprpaaaapa"
566 579 571 -1 120 53 29 34 "ABarappappa"
568 96 75 -1 -22 41 30 30 "ABalaapappp"
570 580 567 -1 202 51 30 30 "ABprpppaaap"
571 573 572 -1 232 81 30 30 "ABprpppapaa"
572 575 82 -1 -42 85 31 30 "ABarapppapa"
573 576 560 -1 14 109 31 26 "ABarappaapp"
574 578 570 -1 30 91 31 30 "ABarappapaa"
579 583 582 -1 -88 179 -12 30 "ABalapapppp"
583 207 77 -1 -68 199 -4 30 "ABalpppappp"
584 587 175 -1 -66 71 -3 34 "MSpaaaapa"
585 29 586 -1 122 63 2 38 "Earap"
588 623 295 -1 124 -21 5 26 "Cppaaaa"
589 292 273 -1 -94 137 6 34 "ABalpaapaap"
592 315 324 -1 -80 89 8 30 "ABaraaapaap"
594 415 414 -1 -30 237 14 30 "ABplpaaapap"
595 388 -1 -1 -98 141 15 30 "ABaraaaaaaa"
597 422 -1 -1 -30 91 18 30 "ABarapapaaa"
601 600 605 -1 20 85 26 26 "ABprpapaaaa"
606 31 215 -1 216 75 -3 38 "Eplap"
608 111 95 122 -119 151 -17 34 "ABplaaaaaa"
610 162 14 -1 -34 147 -9 34 "ABaraapaapp"
611 168 679 -1 -150 111 -8 30 "ABalappaap"
623 330 294 -1 50 -5 8 26 "Dpaaa"
626 371 594 -1 -68 47 12 26 "ABpraaapaav"
631 450 601 -1 228 35 17 26 "Cppapp"
632 451 401 -1 -114 17 18 30 "ABpraaaaap"
633 460 444 -1 -116 115 19 30 "ABaraaappaa"
635 473 442 -1 -134 59 20 30 "ABalaaapprr"
637 563 74 -1 254 123 28 34 "ABprpppapap"
638 566 693 -1 -68 61 29 30 "ABalaapappa"
642 590 316 -1 -48 17 11 26 "ABpraaappaa"
648 102 90 -1 30 171 -20 30 "ABplapaaaap"
650 310 41 -1 236 125 6 34 "Eplpa"
651 314 300 -1 -90 197 7 26 "ABalapaapaa"
653 439 403 -1 -84 149 17 26 "ABalpaaaapa"
654 508 500 -1 -88 181 23 26 "ABalppapaaa"
658 396 369 -1 112 169 13 26 "ABplppappaa"
659 668 670 -1 76 139 24 37 "ABplpappaap"
660 671 672 -1 193 0 -16 40 "Caaaap"
661 672 673 -1 242 0 -11 40 "Caaapa"
662 673 674 -1 284 21 -7 34 "Caaapp"
663 674 675 -1 124 3 -19 40 "Cpaaaa"
664 675 676 -1 220 70 -18 40 "Cpaapa"
665 676 677 -1 315 152 1 39 "Cpapaa"
666 677 678 -1 261 145 -21 34 "Cpaapp"
667 679 372 -1 308 84 13 34 "Caappd"
668 481 64 -1 237 129 20 26 "Caapaa"
669 680 680 -1 -154 125 3 26 "ABalapppaaa"
670 681 681 -1 -126 86 -6 24 "ABalapppapa"
671 682 682 -1 -159 85 5 28 "ABalappppaa"
673 684 487 -1 2 125 22 26 "ABarapapapa"
674 685 683 -1 55 116 12 32 "ABalpappapp"
675 686 684 -1 -118 185 -4 30 "ABalppppapa"
676 689 405 -1 36 32 15 30 "MSpppapp"
677 690 685 -1 -18 100 25 30 "ABarappaaap"
678 691 569 -1 -7 77 30 30 "ABarapppapp"
679 692 686 -1 -21 81 26 28 "ABarapppppp"
680 694 687 -1 -33 76 -22 30 "ABarpaapap"
681 695 158 -1 -136 36 -9 28 "ABarpapaaap"
682 2 688 -1 -91 85 -21 33 "ABplaaaapa"
683 698 456 -1 9 187 19 26 "ABplpapaapa"
684 699 690 -1 7 178 23 27 "ABplpapaaaa"
685 399 364 -1 -124 62 13 24 "ABalaappppa"
686 703 694 -1 59 45 -3 32 "MSpaapapp"
687 704 695 -1 29 61 -1 33 "MSpaapapa"
688 705 696 -1 245 119 23 32 "Caapap"
689 507 499 -1 -102 29 23 28 "ABpraaaaaaa"
