1 4 3 -1 -74 135 -17 58 "ABplaa"
2 5 5 -1 34 119 -11 62 "ABplap"
3 11 6 -1 124 107 -11 54 "Caa"
4 8 4 -1 244 67 -11 50 "Cpa"
6 7 8 -1 -6 227 -8 58 "ABalpp"
7 9 11 -1 82 237 -8 58 "ABplpa"
8 1 12 -1 106 21 -7 58 "ABarpp"
9 10 9 -1 190 173 -6 54 "Cap"
10 13 14 -1 -2 9 -5 58 "ABarpa"
11 15 10 -1 294 105 -4 50 "Cpp"
12 12 13 -1 -90 55 -3 58 "ABalap"
13 14 15 -1 170 253 -2 54 "ABplpp"
14 16 17 -1 -160 119 4 58 "ABalaa"
15 18 16 -1 208 -5 6 62 "ABprap"
16 17 18 -1 312 177 7 58 "D"
17 19 19 -1 -86 191 9 62 "ABalpa"
18 20 20 -1 230 155 12 66 "Ep"
19 21 22 -1 298 61 16 58 "ABprpp"
20 2 1 -1 116 147 17 62 "Ea"
21 22 24 -1 -72 61 18 58 "ABaraa"
22 24 25 -1 44 225 18 54 "MSap"
24 3 23 -1 112 -13 19 62 "ABpraa"
25 28 2 -1 18 21 21 58 "ABarap"
26 27 27 -1 -38 145 23 54 "MSaa"
27 23 26 -1 42 119 24 54 "MSpa"
28 26 29 -1 262 185 24 54 "P4"
29 29 28 -1 208 39 25 58 "ABprpa"
30 30 30 -1 146 85 26 54 "MSpp"
