1, 1, 1, 1, -1, 2.349, 3.7845, 1.512, 3.219, EMS, 0, 0, 0, 0 , , 0, 0, 0, , 0, , 0, 
1, 1, 1, 1, -1, 10.875, 1.0875, 2.016, 3.219, P2, 0, 0, 0, 0 , , 0, 0, 0, , 0, , 0, 
1, 1, 1, 1, -1, 1.57765, -5.18379, -0.343421, 2.95191, ABpl, 0, 0, 0, 0 , , 0, 0, 0, , 0, , 0, 
1, 1, 1, 1, -1, 1.4805, -6.60514, 0.755612, 2.95191, ABpr, 0, 0, 0, 0 , , 0, 0, 0, , 0, , 0, 
2, 1, 2, 2, -1, -6.87672, 0.269613, 0.245508, 3.10329, ABal, 0, 0, 0, 0 , , 0, 0, 0, , 0, , 0, 
1, 1, 1, 1, -1, -4.10422, 1.08006, 4.12394, 3.10329, ABar, 0, 0, 0, 0 , , 0, 0, 0, , 0, , 0, 
