3, 1, 3, 3, -1, -1.9712, -6.03436, 1.77971, 2.69986, ABara, 0, 0, 0, 0 , , 0, 0, 0, , 0, , 0, 
1, 1, 1, 1, -1, 1.93506, -3.94782, 3.18851, 2.69986, ABarp, 0, 0, 0, 0 , , 0, 0, 0, , 0, , 0, 
2, 1, 2, 2, -1, 6.76133, -5.75144, 2.58109, 2.56816, ABpra, 0, 0, 0, 0 , , 0, 0, 0, , 0, , 0, 
1, 1, 1, 1, -1, 6.81051, -5.65126, 2.41086, 2.56816, ABprp, 0, 0, 0, 0 , , 0, 0, 0, , 0, , 0, 
2, 1, 2, 2, -1, 8.1139, -1.48407, -0.849698, 2.80053, C, 0, 0, 0, 0 , , 0, 0, 0, , 0, , 0, 
2, 1, 2, 2, -1, -3.22358, 2.36656, -4.02841, 2.56816, ABpla, 0, 0, 0, 0 , , 0, 0, 0, , 0, , 0, 
1, 1, 1, 1, -1, -1.15662, 3.78514, -1.43376, 2.56816, ABplp, 0, 0, 0, 0 , , 0, 0, 0, , 0, , 0, 
2, 1, 2, 2, -1, -9.46762, 2.00817, 2.60496, 2.69986, ABalp, 0, 0, 0, 0 , , 0, 0, 0, , 0, , 0, 
3, 1, 3, 3, -1, -10.9068, 1.64253, -0.109639, 2.69986, ABala, 0, 0, 0, 0 , , 0, 0, 0, , 0, , 0, 
1, 1, 1, 1, -1, 2.349, 3.7845, 1.512, 2.80053, MS, 0, 0, 0, 0 , , 0, 0, 0, , 0, , 0, 
1, 1, 1, 1, -1, 7.39183, 3.68267, 0.0802623, 2.80053, E, 0, 0, 0, 0 , , 0, 0, 0, , 0, , 0, 
1, 1, 1, 1, -1, 13.4057, 3.60348, 3.90657, 2.80053, P3, 0, 0, 0, 0 , , 0, 0, 0, , 0, , 0, 
