3, 1, 3, 3, -1, -3.40991, -4.42269, 3.33269, 2.69986, ABara, 0, 0, 0, 0 , , 0, 0, 0, , 0, , 0, 
2, 1, 2, 2, -1, -5.42291, 0.0714581, -3.96663, 2.56816, ABpla, 0, 0, 0, 0 , , 0, 0, 0, , 0, , 0, 
2, 1, 2, 2, -1, 5.77399, -2.13796, -3.09616, 2.80053, C, 0, 0, 0, 0 , , 0, 0, 0, , 0, , 0, 
1, 1, 1, 1, -1, 0.107543, 4.34484, -2.57, 2.56816, ABplp, 0, 0, 0, 0 , , 0, 0, 0, , 0, , 0, 
1, 1, 1, 1, -1, 4.51855, 5.15996, 4.32844, 2.43646, MSp, 0, 0, 0, 0 , , 0, 0, 0, , 0, , 0, 
1, 1, 1, 1, -1, 12.8681, 3.65918, 2.17488, 2.80053, P3, 0, 0, 0, 0 , , 0, 0, 0, , 0, , 0, 
3, 1, 3, 3, -1, -0.101006, 4.55273, 1.46845, 2.43646, MSa, 0, 0, 0, 0 , , 0, 0, 0, , 0, , 0, 
4, 1, 4, 4, -1, 7.92578, 4.07348, -0.00930561, 2.43646, Ea, 0, 0, 0, 0 , , 0, 0, 0, , 0, , 0, 
1, 1, 1, 1, -1, 7.71143, 3.54965, 0.233537, 2.43646, Ep, 0, 0, 0, 0 , , 0, 0, 0, , 0, , 0, 
3, 1, 3, 3, -1, -10.5709, -0.111032, 1.18319, 2.69986, ABala, 0, 0, 0, 0 , , 0, 0, 0, , 0, , 0, 
2, 1, 2, 2, -1, -7.37435, 4.31742, 1.28841, 2.69986, ABalp, 0, 0, 0, 0 , , 0, 0, 0, , 0, , 0, 
1, 1, 1, 1, -1, 7.8669, -2.26341, 2.52828, 2.56816, ABprp, 0, 0, 0, 0 , , 0, 0, 0, , 0, , 0, 
2, 1, 2, 2, -1, 4.89527, -5.8521, 2.41922, 2.56816, ABpra, 0, 0, 0, 0 , , 0, 0, 0, , 0, , 0, 
1, 1, 1, 1, -1, 0.53217, -4.62682, 0.230229, 2.69986, ABarp, 0, 0, 0, 0 , , 0, 0, 0, , 0, , 0, 
