2, 1, 2, 2, -1, 7.74796, -1.30264, -2.86732, 2.43646, Cp, 0, 0, 0, 0 , , 0, 0, 0, , 0, , 0, 
2, 1, 2, 2, -1, 4.7994, -4.66554, 1.61805, 2.2343, ABprap, 0, 0, 0, 0 , , 0, 0, 0, , 0, , 0, 
4, 1, 4, 4, -1, 1.70003, -6.35066, 2.54078, 2.2343, ABpraa, 0, 0, 0, 0 , , 0, 0, 0, , 0, , 0, 
1, 1, 1, 1, -1, 2.02863, -3.53603, -0.0608893, 2.34888, ABarpp, 0, 0, 0, 0 , , 0, 0, 0, , 0, , 0, 
1, 1, 1, 1, -1, 8.88451, -1.26417, 2.10921, 2.2343, ABprpp, 0, 0, 0, 0 , , 0, 0, 0, , 0, , 0, 
2, 1, 2, 2, -1, -2.84479, -5.49998, -1.90327, 2.34888, ABarpa, 0, 0, 0, 0 , , 0, 0, 0, , 0, , 0, 
2, 1, 2, 2, -1, -8.04378, -1.54984, -3.83699, 2.2343, ABplaa, 0, 0, 0, 0 , , 0, 0, 0, , 0, , 0, 
2, 1, 2, 2, -1, -4.59582, -0.621931, -3.23277, 2.2343, ABplap, 0, 0, 0, 0 , , 0, 0, 0, , 0, , 0, 
1, 1, 1, 1, -1, 2.88143, 4.79708, -2.22197, 2.2343, ABplpp, 0, 0, 0, 0 , , 0, 0, 0, , 0, , 0, 
1, 1, 1, 1, -1, 2.90869, -0.69264, -3.30852, 2.43646, Ca, 0, 0, 0, 0 , , 0, 0, 0, , 0, , 0, 
1, 1, 1, 1, -1, -0.0382673, 5.37181, -3.10786, 2.2343, ABplpa, 0, 0, 0, 0 , , 0, 0, 0, , 0, , 0, 
1, 1, 1, 1, -1, 14.3551, 5.79157, 3.31543, 2.43646, P4, 0, 0, 0, 0 , , 0, 0, 0, , 0, , 0, 
6, 1, 6, 6, -1, 12.627, 2.4405, -0.111262, 2.43646, D, 0, 0, 0, 0 , , 0, 0, 0, , 0, , 0, 
4, 1, 4, 4, -1, 4.98073, 3.61357, 0.324114, 2.43646, Ea, 0, 0, 0, 0 , , 0, 0, 0, , 0, , 0, 
5, 1, 5, 5, -1, 7.07783, -0.245117, 3.19633, 2.2343, ABprpa, 0, 0, 0, 0 , , 0, 0, 0, , 0, , 0, 
1, 1, 1, 1, -1, 1.91974, 0.974118, 2.91248, 2.43646, MSp, 0, 0, 0, 0 , , 0, 0, 0, , 0, , 0, 
1, 1, 1, 1, -1, 7.56498, 2.36826, -0.155516, 2.43646, Ep, 0, 0, 0, 0 , , 0, 0, 0, , 0, , 0, 
3, 1, 3, 3, -1, -6.45117, -2.45483, 4.31403, 2.34888, ABaraa, 0, 0, 0, 0 , , 0, 0, 0, , 0, , 0, 
3, 1, 3, 3, -1, -3.42308, -3.63614, 2.86161, 2.34888, ABarap, 0, 0, 0, 0 , , 0, 0, 0, , 0, , 0, 
3, 1, 3, 3, -1, -9.5071, -0.869859, 1.73267, 2.34888, ABalap, 0, 0, 0, 0 , , 0, 0, 0, , 0, , 0, 
2, 1, 2, 2, -1, -4.56265, 5.24295, 0.453617, 2.34888, ABalpp, 0, 0, 0, 0 , , 0, 0, 0, , 0, , 0, 
2, 1, 2, 2, -1, -10.9906, -0.523646, 3.03967, 2.34888, ABalaa, 0, 0, 0, 0 , , 0, 0, 0, , 0, , 0, 
4, 1, 4, 4, -1, -7.23162, 5.65855, 0.698264, 2.34888, ABalpa, 0, 0, 0, 0 , , 0, 0, 0, , 0, , 0, 
3, 1, 3, 3, -1, -5.44453, 4.55593, 1.37175, 2.43646, MSa, 0, 0, 0, 0 , , 0, 0, 0, , 0, , 0, 
