2, 1, 2, 2, -1, 8.58576, -1.56811, -2.78501, 2.43646, Cp, 0, 0, 0, 0 , , 0, 0, 0, , 0, , 0, 
2, 1, 2, 2, -1, -3.30624, -0.519259, -3.20173, 2.2343, ABplap, 0, 0, 0, 0 , , 0, 0, 0, , 0, , 0, 
1, 1, 1, 1, -1, 0.00672009, 5.57801, -2.98312, 2.2343, ABplpa, 0, 0, 0, 0 , , 0, 0, 0, , 0, , 0, 
1, 1, 1, 1, -1, 2.65621, -0.25611, -3.11369, 2.43646, Ca, 0, 0, 0, 0 , , 0, 0, 0, , 0, , 0, 
1, 1, 1, 1, -1, 3.62857, 4.83331, -2.47257, 2.2343, ABplpp, 0, 0, 0, 0 , , 0, 0, 0, , 0, , 0, 
2, 1, 2, 2, -1, -7.58861, -1.22185, -3.90272, 2.2343, ABplaa, 0, 0, 0, 0 , , 0, 0, 0, , 0, , 0, 
2, 1, 2, 2, -1, -3.39247, -5.4358, -2.02601, 2.34888, ABarpa, 0, 0, 0, 0 , , 0, 0, 0, , 0, , 0, 
5, 1, 5, 5, -1, -7.39873, 4.15519, 1.94615, 2.11972, MSaa, 0, 0, 0, 0 , , 0, 0, 0, , 0, , 0, 
2, 1, 2, 2, -1, -10.922, -0.288321, 2.83569, 2.34888, ABalaa, 0, 0, 0, 0 , , 0, 0, 0, , 0, , 0, 
3, 1, 3, 3, -1, -5.11159, 3.8904, 1.37734, 2.11972, MSap, 0, 0, 0, 0 , , 0, 0, 0, , 0, , 0, 
2, 1, 2, 2, -1, -4.34148, 5.19603, -0.373197, 2.34888, ABalpp, 0, 0, 0, 0 , , 0, 0, 0, , 0, , 0, 
4, 1, 4, 4, -1, -7.84705, 5.22359, 0.29334, 2.34888, ABalpa, 0, 0, 0, 0 , , 0, 0, 0, , 0, , 0, 
3, 1, 3, 3, -1, -3.20252, -3.90848, 2.70539, 2.34888, ABarap, 0, 0, 0, 0 , , 0, 0, 0, , 0, , 0, 
3, 1, 3, 3, -1, -9.3125, -1.20203, 0.759168, 2.34888, ABalap, 0, 0, 0, 0 , , 0, 0, 0, , 0, , 0, 
3, 1, 3, 3, -1, -6.72755, -2.32941, 3.935, 2.34888, ABaraa, 0, 0, 0, 0 , , 0, 0, 0, , 0, , 0, 
1, 1, 1, 1, -1, 2.1145, -3.81775, -0.598531, 2.34888, ABarpp, 0, 0, 0, 0 , , 0, 0, 0, , 0, , 0, 
4, 1, 4, 4, -1, 1.47136, -6.48892, 2.30298, 2.2343, ABpraa, 0, 0, 0, 0 , , 0, 0, 0, , 0, , 0, 
1, 1, 1, 1, -1, 9.52005, -1.58661, 1.94689, 2.2343, ABprpp, 0, 0, 0, 0 , , 0, 0, 0, , 0, , 0, 
5, 1, 5, 5, -1, 6.64693, -1.09097, 3.16472, 2.2343, ABprpa, 0, 0, 0, 0 , , 0, 0, 0, , 0, , 0, 
2, 1, 2, 2, -1, 5.48521, -4.81516, 1.03939, 2.2343, ABprap, 0, 0, 0, 0 , , 0, 0, 0, , 0, , 0, 
4, 1, 4, 4, -1, 4.20555, 3.44658, 0.400927, 2.43646, Ea, 0, 0, 0, 0 , , 0, 0, 0, , 0, , 0, 
6, 1, 6, 6, -1, 12.3992, 2.61625, 0.0162868, 2.43646, D, 0, 0, 0, 0 , , 0, 0, 0, , 0, , 0, 
1, 1, 1, 1, -1, 1.52129, 0.0865324, 2.88497, 2.11972, MSpp, 0, 0, 0, 0 , , 0, 0, 0, , 0, , 0, 
7, 1, 7, 7, -1, 1.05377, -0.153995, 2.51952, 2.11972, MSpa, 0, 0, 0, 0 , , 0, 0, 0, , 0, , 0, 
1, 1, 1, 1, -1, 13.7035, 5.70242, 3.37393, 2.43646, P4, 0, 0, 0, 0 , , 0, 0, 0, , 0, , 0, 
1, 1, 1, 1, -1, 7.62049, 2.02644, -0.305879, 2.43646, Ep, 0, 0, 0, 0 , , 0, 0, 0, , 0, , 0, 
