2, 1, 2, 2, -1, -4.214, -5.33954, -2.21012, 2.34888, ABarpa, 0, 0, 0, 0 , , 0, 0, 0, , 0, , 0, 
3, 1, 3, 3, -1, -9.01938, -1.70238, -0.70719, 2.34888, ABalap, 0, 0, 0, 0 , , 0, 0, 0, , 0, , 0, 
3, 1, 3, 3, -1, -7.14211, -2.14127, 3.36645, 2.34888, ABaraa, 0, 0, 0, 0 , , 0, 0, 0, , 0, , 0, 
3, 1, 3, 3, -1, -2.87168, -4.31699, 2.47105, 2.34888, ABarap, 0, 0, 0, 0 , , 0, 0, 0, , 0, , 0, 
2, 1, 2, 2, -1, 9.84247, -1.96631, -2.66155, 2.43646, Cp, 0, 0, 0, 0 , , 0, 0, 0, , 0, , 0, 
1, 1, 1, 1, -1, 2.24293, -4.23916, -1.40275, 2.34888, ABarpp, 0, 0, 0, 0 , , 0, 0, 0, , 0, , 0, 
2, 1, 2, 2, -1, -6.90775, -0.731238, -4.00103, 2.2343, ABplaa, 0, 0, 0, 0 , , 0, 0, 0, , 0, , 0, 
2, 1, 2, 2, -1, -1.37186, -0.365251, -3.15517, 2.2343, ABplap, 0, 0, 0, 0 , , 0, 0, 0, , 0, , 0, 
2, 1, 2, 2, -1, -4.01063, 5.12584, -1.60997, 2.34888, ABalpp, 0, 0, 0, 0 , , 0, 0, 0, , 0, , 0, 
6, 1, 6, 6, -1, 12.0574, 2.87987, 0.207609, 2.43646, D, 0, 0, 0, 0 , , 0, 0, 0, , 0, , 0, 
1, 1, 1, 1, -1, 12.7261, 5.5687, 3.46167, 2.43646, P4, 0, 0, 0, 0 , , 0, 0, 0, , 0, , 0, 
7, 1, 7, 7, -1, -0.41392, 0.0852596, 2.51694, 2.11972, MSpa, 0, 0, 0, 0 , , 0, 0, 0, , 0, , 0, 
1, 1, 1, 1, -1, 7.70374, 1.51372, -0.531424, 2.43646, Ep, 0, 0, 0, 0 , , 0, 0, 0, , 0, , 0, 
4, 1, 4, 4, -1, 3.04279, 3.19609, 0.516147, 2.43646, Ea, 0, 0, 0, 0 , , 0, 0, 0, , 0, , 0, 
1, 1, 1, 1, -1, 3.79322, 1.07189, 4.95455, 2.11972, MSpp, 0, 0, 0, 0 , , 0, 0, 0, , 0, , 0, 
2, 1, 2, 2, -1, 6.51393, -5.0396, 0.171396, 2.2343, ABprap, 0, 0, 0, 0 , , 0, 0, 0, , 0, , 0, 
4, 1, 4, 4, -1, 1.12836, -6.6963, 1.94627, 2.2343, ABpraa, 0, 0, 0, 0 , , 0, 0, 0, , 0, , 0, 
5, 1, 5, 5, -1, 5.99788, -2.36506, 3.11711, 2.2343, ABprpa, 0, 0, 0, 0 , , 0, 0, 0, , 0, , 0, 
1, 1, 1, 1, -1, 10.4734, -2.07027, 1.7034, 2.2343, ABprpp, 0, 0, 0, 0 , , 0, 0, 0, , 0, , 0, 
2, 1, 2, 2, -1, -10.8193, 0.0646655, 2.52972, 2.34888, ABalaa, 0, 0, 0, 0 , , 0, 0, 0, , 0, , 0, 
3, 1, 3, 3, -1, -3.77829, 4.52164, 1.49015, 2.11972, MSap, 0, 0, 0, 0 , , 0, 0, 0, , 0, , 0, 
5, 1, 5, 5, -1, -6.92671, 4.02102, 2.25578, 2.11972, MSaa, 0, 0, 0, 0 , , 0, 0, 0, , 0, , 0, 
4, 1, 4, 4, -1, -8.7702, 4.57115, -0.314046, 2.34888, ABalpa, 0, 0, 0, 0 , , 0, 0, 0, , 0, , 0, 
1, 1, 1, 1, -1, 4.74929, 4.88766, -2.84846, 2.2343, ABplpp, 0, 0, 0, 0 , , 0, 0, 0, , 0, , 0, 
1, 1, 1, 1, -1, 0.0742012, 5.88732, -2.79602, 2.2343, ABplpa, 0, 0, 0, 0 , , 0, 0, 0, , 0, , 0, 
1, 1, 1, 1, -1, 2.27748, 0.398686, -2.82145, 2.43646, Ca, 0, 0, 0, 0 , , 0, 0, 0, , 0, , 0, 
