3, 1, 3, 3, -1, -7.2803, -2.07855, 3.17694, 2.34888, ABaraa, 0, 0, 0, 0 , , 0, 0, 0, , 0, , 0, 
3, 1, 3, 3, -1, -2.7614, -4.45316, 2.39294, 2.34888, ABarap, 0, 0, 0, 0 , , 0, 0, 0, , 0, , 0, 
2, 1, 2, 2, -1, -4.48785, -5.30746, -2.27149, 2.34888, ABarpa, 0, 0, 0, 0 , , 0, 0, 0, , 0, , 0, 
3, 1, 3, 3, -1, -8.92248, -1.86777, -1.1919, 2.34888, ABalap, 0, 0, 0, 0 , , 0, 0, 0, , 0, , 0, 
1, 1, 1, 1, -1, 2.28586, -4.38003, -1.67158, 2.34888, ABarpp, 0, 0, 0, 0 , , 0, 0, 0, , 0, , 0, 
2, 1, 2, 2, -1, 10.2614, -2.09904, -2.62039, 2.43646, Cp, 0, 0, 0, 0 , , 0, 0, 0, , 0, , 0, 
2, 1, 2, 2, -1, -6.68016, -0.567244, -4.03389, 2.2343, ABplaa, 0, 0, 0, 0 , , 0, 0, 0, , 0, , 0, 
2, 1, 2, 2, -1, -3.90004, 5.10238, -2.02338, 2.34888, ABalpp, 0, 0, 0, 0 , , 0, 0, 0, , 0, , 0, 
2, 1, 2, 2, -1, -0.732447, -0.314342, -3.13978, 2.2343, ABplap, 0, 0, 0, 0 , , 0, 0, 0, , 0, , 0, 
2, 1, 2, 2, -1, 1.85534, 0.332992, -2.78364, 2.11972, Caa, 0, 0, 0, 0 , , 0, 0, 0, , 0, , 0, 
1, 1, 1, 1, -1, 5.12286, 4.90578, -2.97376, 2.2343, ABplpp, 0, 0, 0, 0 , , 0, 0, 0, , 0, , 0, 
1, 1, 1, 1, -1, 2.62226, 0.42312, -2.72118, 2.11972, Cap, 0, 0, 0, 0 , , 0, 0, 0, , 0, , 0, 
1, 1, 1, 1, -1, 0.0966949, 5.99042, -2.73366, 2.2343, ABplpa, 0, 0, 0, 0 , , 0, 0, 0, , 0, , 0, 
4, 1, 4, 4, -1, 1.01402, -6.76543, 1.82737, 2.2343, ABpraa, 0, 0, 0, 0 , , 0, 0, 0, , 0, , 0, 
1, 1, 1, 1, -1, 10.7911, -2.23149, 1.62224, 2.2343, ABprpp, 0, 0, 0, 0 , , 0, 0, 0, , 0, , 0, 
5, 1, 5, 5, -1, 5.78153, -2.78975, 3.10124, 2.2343, ABprpa, 0, 0, 0, 0 , , 0, 0, 0, , 0, , 0, 
2, 1, 2, 2, -1, 6.85684, -5.11442, -0.117935, 2.2343, ABprap, 0, 0, 0, 0 , , 0, 0, 0, , 0, , 0, 
4, 1, 4, 4, -1, -9.07791, 4.35367, -0.516508, 2.34888, ABalpa, 0, 0, 0, 0 , , 0, 0, 0, , 0, , 0, 
3, 1, 3, 3, -1, -3.33386, 4.73206, 1.52776, 2.11972, MSap, 0, 0, 0, 0 , , 0, 0, 0, , 0, , 0, 
5, 1, 5, 5, -1, -6.76937, 3.9763, 2.35899, 2.11972, MSaa, 0, 0, 0, 0 , , 0, 0, 0, , 0, , 0, 
2, 1, 2, 2, -1, -10.785, 0.182328, 2.42773, 2.34888, ABalaa, 0, 0, 0, 0 , , 0, 0, 0, , 0, , 0, 
4, 1, 4, 4, -1, 2.65521, 3.1126, 0.554553, 2.43646, Ea, 0, 0, 0, 0 , , 0, 0, 0, , 0, , 0, 
1, 1, 1, 1, -1, 7.73149, 1.34282, -0.606605, 2.43646, Ep, 0, 0, 0, 0 , , 0, 0, 0, , 0, , 0, 
7, 1, 7, 7, -1, -0.594293, 0.164816, 2.53972, 2.11972, MSpa, 0, 0, 0, 0 , , 0, 0, 0, , 0, , 0, 
1, 1, 1, 1, -1, 12.4004, 5.52413, 3.49092, 2.43646, P4, 0, 0, 0, 0 , , 0, 0, 0, , 0, , 0, 
6, 1, 6, 6, -1, 11.9435, 2.96775, 0.271384, 2.43646, D, 0, 0, 0, 0 , , 0, 0, 0, , 0, , 0, 
1, 1, 1, 1, -1, 3.91102, 0.803648, 4.84827, 2.11972, MSpp, 0, 0, 0, 0 , , 0, 0, 0, , 0, , 0, 
