2, 1, 2, 2, -1, -5.17246, -5.22724, -2.42492, 2.34888, ABarpa, 0, 0, 0, 0 , , 0, 0, 0, , 0, , 0, 
3, 1, 3, 3, 3, -8.67821, -2.28473, -2.41387, 2.34888, ABalap, 0, 0, 0, 0 , , 0, 0, 0, , 0, , 0, 
1, 1, 1, 1, -1, 2.39319, -4.73218, -2.34363, 2.34888, ABarpp, 0, 0, 0, 0 , , 0, 0, 0, , 0, , 0, 
3, 1, 3, 3, -1, 9.61041, -2.99177, -3.07933, 2.11972, Cpa, 0, 0, 0, 0 , , 0, 0, 0, , 0, , 0, 
2, 1, 2, 2, -1, 11.0553, -0.396075, -2.09064, 2.11972, Cpp, 0, 0, 0, 0 , , 0, 0, 0, , 0, , 0, 
1, 1, 1, 1, 3, 6.05679, 4.95107, -3.28701, 2.2343, ABplpp, 0, 0, 0, 0 , , 0, 0, 0, , 0, , 0, 
1, 1, 1, 1, -1, 4.19758, 0.681346, -2.8472, 2.11972, Cap, 0, 0, 0, 0 , , 0, 0, 0, , 0, , 0, 
2, 1, 2, 2, 4, 0.879531, -0.186002, -3.10098, 2.2343, ABplap, 0, 0, 0, 0 , , 0, 0, 0, , 0, , 0, 
2, 1, 2, 2, -1, 1.42707, -0.199237, -2.94482, 2.11972, Caa, 0, 0, 0, 0 , , 0, 0, 0, , 0, , 0, 
1, 1, 1, 1, -1, 0.152929, 6.24817, -2.57774, 2.2343, ABplpa, 0, 0, 0, 0 , , 0, 0, 0, , 0, , 0, 
1, 1, 1, 1, -1, 11.5859, 5.41269, 3.56404, 2.43646, P4, 0, 0, 0, 0 , , 0, 0, 0, , 0, , 0, 
4, 1, 4, 4, -1, 1.68624, 2.90386, 0.650569, 2.43646, Ea, 0, 0, 0, 0 , , 0, 0, 0, , 0, , 0, 
1, 1, 1, 1, -1, 4.20554, 0.133046, 4.58259, 2.11972, MSpp, 0, 0, 0, 0 , , 0, 0, 0, , 0, , 0, 
6, 1, 6, 6, -1, 11.6587, 3.18743, 0.430819, 2.43646, D, 0, 0, 0, 0 , , 0, 0, 0, , 0, , 0, 
1, 1, 1, 1, -1, 7.80087, 0.915549, -0.794559, 2.43646, Ep, 0, 0, 0, 0 , , 0, 0, 0, , 0, , 0, 
3, 1, 3, 3, -1, -7.62577, -1.92177, 2.70315, 2.34888, ABaraa, 0, 0, 0, 0 , , 0, 0, 0, , 0, , 0, 
4, 1, 4, 4, -1, -2.51298, -4.8164, 2.18957, 2.04353, ABarapa, 0, 0, 0, 0 , , 0, 0, 0, , 0, , 0, 
3, 1, 3, 3, -1, -2.46385, -4.79428, 2.15548, 2.04353, ABarapp, 0, 0, 0, 0 , , 0, 0, 0, , 0, , 0, 
2, 1, 2, 2, -1, -6.07709, -0.158113, -4.12013, 1.94384, ABplaap, 0, 0, 0, 0 , , 0, 0, 0, , 0, , 0, 
3, 1, 3, 3, -1, -6.13463, -0.186426, -4.13226, 1.94384, ABplaaa, 0, 0, 0, 0 , , 0, 0, 0, , 0, , 0, 
2, 1, 2, 2, -1, -3.62357, 5.04373, -3.0569, 2.34888, ABalpp, 0, 0, 0, 0 , , 0, 0, 0, , 0, , 0, 
4, 1, 4, 4, -1, -9.84464, 3.81178, -1.02098, 2.34888, ABalpa, 0, 0, 0, 0 , , 0, 0, 0, , 0, , 0, 
2, 1, 2, 2, 6, -10.6994, 0.476484, 2.17276, 2.34888, ABalaa, 0, 0, 0, 0 , , 0, 0, 0, , 0, , 0, 
5, 1, 5, 5, -1, -6.37603, 3.8645, 2.61701, 2.11972, MSaa, 0, 0, 0, 0 , , 0, 0, 0, , 0, , 0, 
7, 1, 7, 7, -1, -1.04372, 0.363044, 2.59647, 2.11972, MSpa, 0, 0, 0, 0 , , 0, 0, 0, , 0, , 0, 
3, 1, 3, 3, -1, -2.22278, 5.25809, 1.62177, 2.11972, MSap, 0, 0, 0, 0 , , 0, 0, 0, , 0, , 0, 
4, 1, 4, 4, -1, 0.728185, -6.93825, 1.53011, 2.2343, ABpraa, 0, 0, 0, 0 , , 0, 0, 0, , 0, , 0, 
5, 1, 5, 5, -1, 5.29427, -3.83758, 3.03885, 1.94384, ABprpap, 0, 0, 0, 0 , , 0, 0, 0, , 0, , 0, 
2, 1, 2, 2, 6, 7.71411, -5.30145, -0.841263, 2.2343, ABprap, 0, 0, 0, 0 , , 0, 0, 0, , 0, , 0, 
5, 1, 5, 5, -1, 5.22441, -3.87614, 3.05358, 1.94384, ABprpaa, 0, 0, 0, 0 , , 0, 0, 0, , 0, , 0, 
1, 1, 1, 1, -1, 11.5856, -2.63454, 1.41933, 2.2343, ABprpp, 0, 0, 0, 0 , , 0, 0, 0, , 0, , 0, 
