1, 1, 1, 1, 4, 2.43612, -4.87304, -2.61245, 2.34888, ABarpp, 0, 0, 0, 0 , , 0, 0, 0, , 0, , 0, 
6, 1, 6, 6, -1, 7.07133, -5.7739, -1.10181, 1.94384, ABprapa, 0, 0, 0, 0 , , 0, 0, 0, , 0, , 0, 
3, 1, 3, 3, -1, 9.49236, -2.93122, -3.1434, 2.11972, Cpa, 0, 0, 0, 0 , , 0, 0, 0, , 0, , 0, 
3, 1, 3, 3, -1, -1.69568, -4.89095, 0.930443, 2.04353, ABarapp, 0, 0, 0, 0 , , 0, 0, 0, , 0, , 0, 
3, 1, 3, 3, -1, -7.05256, -2.08954, 2.47009, 2.04353, ABaraap, 0, 0, 0, 0 , , 0, 0, 0, , 0, , 0, 
4, 1, 4, 4, -1, -3.2615, -5.56458, 1.91263, 2.04353, ABarapa, 0, 0, 0, 0 , , 0, 0, 0, , 0, , 0, 
5, 1, 5, 5, -1, -8.13161, -2.27276, 2.44614, 2.04353, ABaraaa, 0, 0, 0, 0 , , 0, 0, 0, , 0, , 0, 
4, 1, 4, 4, -1, -5.69586, -5.42912, -2.7064, 2.04353, ABarpaa, 0, 0, 0, 0 , , 0, 0, 0, , 0, , 0, 
3, 1, 3, 3, -1, -9.35013, -3.02452, -2.95166, 2.04353, ABalapa, 0, 0, 0, 0 , , 0, 0, 0, , 0, , 0, 
3, 1, 3, 3, -1, -8.2502, -1.45711, -1.63366, 2.04353, ABalapp, 0, 0, 0, 0 , , 0, 0, 0, , 0, , 0, 
2, 1, 2, 2, -1, -4.84098, -5.06009, -2.66032, 2.04353, ABarpap, 0, 0, 0, 0 , , 0, 0, 0, , 0, , 0, 
4, 1, 4, 4, -1, 1.17968, -6.89177, 1.20714, 1.94384, ABpraap, 0, 0, 0, 0 , , 0, 0, 0, , 0, , 0, 
5, 1, 5, 5, -1, 4.75253, -4.75007, 2.86649, 1.94384, ABprpaa, 0, 0, 0, 0 , , 0, 0, 0, , 0, , 0, 
1, 1, 1, 1, -1, 11.4609, -3.45652, 1.23251, 1.94384, ABprppp, 0, 0, 0, 0 , , 0, 0, 0, , 0, , 0, 
5, 1, 5, 5, -1, 6.37636, -3.8141, 2.54965, 1.94384, ABprpap, 0, 0, 0, 0 , , 0, 0, 0, , 0, , 0, 
8, 1, 8, 8, -1, 0.311587, -7.27324, 1.23625, 1.94384, ABpraaa, 0, 0, 0, 0 , , 0, 0, 0, , 0, , 0, 
7, 1, 7, 7, -1, 11.6702, -3.22059, 1.25641, 1.94384, ABprppa, 0, 0, 0, 0 , , 0, 0, 0, , 0, , 0, 
2, 1, 2, 2, -1, 8.25652, -4.20986, -0.832074, 1.94384, ABprapp, 0, 0, 0, 0 , , 0, 0, 0, , 0, , 0, 
1, 1, 1, 1, -1, 11.2601, 5.36812, 3.59329, 2.43646, P4, 0, 0, 0, 0 , , 0, 0, 0, , 0, , 0, 
6, 1, 6, 6, -1, 11.5448, 3.27531, 0.494593, 2.43646, D, 0, 0, 0, 0 , , 0, 0, 0, , 0, , 0, 
1, 1, 1, 1, -1, 4.32335, -0.135194, 4.47631, 2.11972, MSpp, 0, 0, 0, 0 , , 0, 0, 0, , 0, , 0, 
4, 1, 4, 4, -1, 1.29865, 2.82036, 0.688976, 2.43646, Ea, 0, 0, 0, 0 , , 0, 0, 0, , 0, , 0, 
1, 1, 1, 1, -1, 7.82862, 0.744642, -0.869741, 2.43646, Ep, 0, 0, 0, 0 , , 0, 0, 0, , 0, , 0, 
1, 1, 1, 1, 5, 0.175423, 6.35127, -2.51537, 2.2343, ABplpa, 0, 0, 0, 0 , , 0, 0, 0, , 0, , 0, 
1, 1, 1, 1, -1, 6.67919, 4.87935, -2.01038, 1.94384, ABplppp, 0, 0, 0, 0 , , 0, 0, 0, , 0, , 0, 
1, 1, 1, 1, -1, 4.5233, 0.960001, -2.93835, 2.11972, Cap, 0, 0, 0, 0 , , 0, 0, 0, , 0, , 0, 
2, 1, 2, 2, -1, 1.80591, 0.816248, -2.54431, 1.94384, ABplapp, 0, 0, 0, 0 , , 0, 0, 0, , 0, , 0, 
2, 1, 2, 2, -1, 1.55676, -0.222277, -2.98767, 2.11972, Caa, 0, 0, 0, 0 , , 0, 0, 0, , 0, , 0, 
3, 1, 3, 3, -1, 5.56574, 4.60269, -3.92848, 1.94384, ABplppa, 0, 0, 0, 0 , , 0, 0, 0, , 0, , 0, 
4, 1, 4, 4, -1, 0.419699, -0.985323, -3.4054, 1.94384, ABplapa, 0, 0, 0, 0 , , 0, 0, 0, , 0, , 0, 
2, 1, 2, 2, -1, 11.1821, -0.139142, -2.13104, 2.11972, Cpp, 0, 0, 0, 0 , , 0, 0, 0, , 0, , 0, 
3, 1, 3, 3, -1, -6.68925, -0.920831, -4.60236, 1.94384, ABplaaa, 0, 0, 0, 0 , , 0, 0, 0, , 0, , 0, 
2, 1, 2, 2, -1, -3.45481, 4.88971, -3.26216, 2.04353, ABalppp, 0, 0, 0, 0 , , 0, 0, 0, , 0, , 0, 
5, 1, 5, 5, -1, -10.4625, 3.32253, -1.57332, 2.04353, ABalpaa, 0, 0, 0, 0 , , 0, 0, 0, , 0, , 0, 
2, 1, 2, 2, -1, -4.91764, 0.00417304, -4.2288, 1.94384, ABplaap, 0, 0, 0, 0 , , 0, 0, 0, , 0, , 0, 
4, 1, 4, 4, -1, -9.42962, 3.83453, -1.77572, 2.04353, ABalpap, 0, 0, 0, 0 , , 0, 0, 0, , 0, , 0, 
4, 1, 4, 4, -1, -3.602, 4.9532, -3.53832, 2.04353, ABalppa, 0, 0, 0, 0 , , 0, 0, 0, , 0, , 0, 
3, 1, 3, 3, -1, -1.77834, 5.4685, 1.65937, 2.11972, MSap, 0, 0, 0, 0 , , 0, 0, 0, , 0, , 0, 
6, 1, 6, 6, -1, -11.1373, -0.0518731, 1.83619, 2.04353, ABalaaa, 0, 0, 0, 0 , , 0, 0, 0, , 0, , 0, 
5, 1, 5, 5, -1, -6.21869, 3.81978, 2.72022, 2.11972, MSaa, 0, 0, 0, 0 , , 0, 0, 0, , 0, , 0, 
7, 1, 7, 7, -1, -1.2241, 0.442601, 2.61925, 2.11972, MSpa, 0, 0, 0, 0 , , 0, 0, 0, , 0, , 0, 
2, 1, 2, 2, -1, -10.1993, 0.208375, 1.37247, 2.04353, ABalaap, 0, 0, 0, 0 , , 0, 0, 0, , 0, , 0, 
