3, 1, 3, 3, -1, 8.96114, -2.65875, -3.43169, 2.11972, Cpa, 0, 0, 0, 0 , , 0, 0, 0, , 0, , 0, 
6, 1, 6, 6, -1, 5.97231, -6.16014, -1.18926, 1.94384, ABprapa, 0, 0, 0, 0 , , 0, 0, 0, , 0, , 0, 
4, 1, 4, 4, -1, 0.423467, -5.04808, -3.23328, 2.04353, ABarppa, 0, 0, 0, 0 , , 0, 0, 0, , 0, , 0, 
3, 1, 3, 3, -1, -5.70504, -1.88443, 2.7898, 2.04353, ABaraap, 0, 0, 0, 0 , , 0, 0, 0, , 0, , 0, 
4, 1, 4, 4, -1, -3.86832, -5.36172, 2.14731, 2.04353, ABarapa, 0, 0, 0, 0 , , 0, 0, 0, , 0, , 0, 
5, 1, 5, 5, -1, -8.58854, -2.79524, 2.32286, 2.04353, ABaraaa, 0, 0, 0, 0 , , 0, 0, 0, , 0, , 0, 
2, 1, 2, 2, -1, -2.80868, 4.53043, -1.46103, 2.04353, ABalppp, 0, 0, 0, 0 , , 0, 0, 0, , 0, , 0, 
4, 1, 4, 4, -1, -5.27021, 4.72687, -3.76382, 2.04353, ABalppa, 0, 0, 0, 0 , , 0, 0, 0, , 0, , 0, 
4, 1, 4, 4, -1, -8.33383, 4.4957, -1.07688, 2.04353, ABalpap, 0, 0, 0, 0 , , 0, 0, 0, , 0, , 0, 
3, 1, 3, 3, -1, -6.98833, -0.974303, -1.09137, 2.04353, ABalapp, 0, 0, 0, 0 , , 0, 0, 0, , 0, , 0, 
5, 1, 5, 5, -1, -10.6092, 2.80347, -1.61968, 2.04353, ABalpaa, 0, 0, 0, 0 , , 0, 0, 0, , 0, , 0, 
2, 1, 2, 2, -1, -4.82946, 1.12003, -3.6827, 1.94384, ABplaap, 0, 0, 0, 0 , , 0, 0, 0, , 0, , 0, 
5, 1, 5, 5, -1, -1.17701, 6.06576, -3.36146, 1.94384, ABplpaa, 0, 0, 0, 0 , , 0, 0, 0, , 0, , 0, 
4, 1, 4, 4, -1, -1.34526, -1.27634, -3.46817, 1.94384, ABplapa, 0, 0, 0, 0 , , 0, 0, 0, , 0, , 0, 
3, 1, 3, 3, -1, -9.46937, -3.04131, -2.53916, 2.04353, ABalapa, 0, 0, 0, 0 , , 0, 0, 0, , 0, , 0, 
3, 1, 3, 3, -1, -7.34051, -1.04211, -4.21522, 1.94384, ABplaaa, 0, 0, 0, 0 , , 0, 0, 0, , 0, , 0, 
4, 1, 4, 4, -1, -6.2628, -5.72154, -2.44293, 2.04353, ABarpaa, 0, 0, 0, 0 , , 0, 0, 0, , 0, , 0, 
2, 1, 2, 2, -1, -3.39353, -4.09848, -1.63984, 2.04353, ABarpap, 0, 0, 0, 0 , , 0, 0, 0, , 0, , 0, 
4, 1, 4, 4, -1, 2.15489, -6.55658, 1.16883, 1.94384, ABpraap, 0, 0, 0, 0 , , 0, 0, 0, , 0, , 0, 
1, 1, 1, 1, -1, 4.33529, -3.42999, -0.416134, 2.04353, ABarppp, 0, 0, 0, 0 , , 0, 0, 0, , 0, , 0, 
8, 1, 8, 8, -1, -0.722073, -7.40905, 0.623662, 1.94384, ABpraaa, 0, 0, 0, 0 , , 0, 0, 0, , 0, , 0, 
3, 1, 3, 3, -1, -0.803086, -4.52804, 1.82628, 2.04353, ABarapp, 0, 0, 0, 0 , , 0, 0, 0, , 0, , 0, 
5, 1, 5, 5, -1, 5.26487, -5.38107, 2.80482, 1.94384, ABprpaa, 0, 0, 0, 0 , , 0, 0, 0, , 0, , 0, 
1, 1, 1, 1, -1, 11.4396, -2.69691, 1.28593, 1.94384, ABprppp, 0, 0, 0, 0 , , 0, 0, 0, , 0, , 0, 
1, 1, 1, 1, -1, 4.85249, -1.34004, 3.99896, 2.11972, MSpp, 0, 0, 0, 0 , , 0, 0, 0, , 0, , 0, 
5, 1, 5, 5, -1, 7.71405, -3.35718, 2.71891, 1.94384, ABprpap, 0, 0, 0, 0 , , 0, 0, 0, , 0, , 0, 
7, 1, 7, 7, -1, 11.4271, -3.94379, 1.06195, 1.94384, ABprppa, 0, 0, 0, 0 , , 0, 0, 0, , 0, , 0, 
2, 1, 2, 2, -1, 8.58781, -3.72776, -0.82553, 1.94384, ABprapp, 0, 0, 0, 0 , , 0, 0, 0, , 0, , 0, 
2, 1, 2, 2, -1, 11.7527, 1.01706, -2.3128, 2.11972, Cpp, 0, 0, 0, 0 , , 0, 0, 0, , 0, , 0, 
6, 1, 6, 6, -1, 7.47321, 1.44678, -1.57969, 2.11972, Epl, 0, 0, 0, 0 , , 0, 0, 0, , 0, , 0, 
2, 1, 2, 2, -1, 1.19328, 1.56689, -2.70857, 1.94384, ABplapp, 0, 0, 0, 0 , , 0, 0, 0, , 0, , 0, 
1, 1, 1, 1, -1, 6.54192, 5.39572, -1.6312, 1.94384, ABplppp, 0, 0, 0, 0 , , 0, 0, 0, , 0, , 0, 
2, 1, 2, 2, -1, 2.14038, -0.325955, -3.18047, 2.11972, Caa, 0, 0, 0, 0 , , 0, 0, 0, , 0, , 0, 
1, 1, 1, 1, -1, 5.98901, 2.21395, -3.34852, 2.11972, Cap, 0, 0, 0, 0 , , 0, 0, 0, , 0, , 0, 
1, 1, 1, 1, -1, 1.65141, 6.42107, -2.1045, 1.94384, ABplpap, 0, 0, 0, 0 , , 0, 0, 0, , 0, , 0, 
3, 1, 3, 3, -1, 4.08697, 4.96648, -3.85488, 1.94384, ABplppa, 0, 0, 0, 0 , , 0, 0, 0, , 0, , 0, 
6, 1, 6, 6, -1, -11.2095, -0.278597, 1.44628, 2.04353, ABalaaa, 0, 0, 0, 0 , , 0, 0, 0, , 0, , 0, 
5, 1, 5, 5, -1, -5.27494, 3.73748, 3.0007, 1.84416, MSaap, 0, 0, 0, 0 , , 0, 0, 0, , 0, , 0, 
7, 1, 7, 7, -1, -1.83859, 0.78191, 2.72829, 1.84416, MSpap, 0, 0, 0, 0 , , 0, 0, 0, , 0, , 0, 
7, 1, 7, 7, -1, -2.136, 0.699331, 2.67722, 1.84416, MSpaa, 0, 0, 0, 0 , , 0, 0, 0, , 0, , 0, 
8, 1, 8, 8, -1, -5.8266, 3.55855, 3.11425, 1.84416, MSaaa, 0, 0, 0, 0 , , 0, 0, 0, , 0, , 0, 
2, 1, 2, 2, -1, -8.99204, 0.537381, 1.32168, 2.04353, ABalaap, 0, 0, 0, 0 , , 0, 0, 0, , 0, , 0, 
8, 1, 8, 8, -1, 0.752942, 3.5791, 0.782796, 2.11972, Eal, 0, 0, 0, 0 , , 0, 0, 0, , 0, , 0, 
4, 1, 4, 4, -1, 1.99462, 1.63158, 0.268986, 2.11972, Ear, 0, 0, 0, 0 , , 0, 0, 0, , 0, , 0, 
1, 1, 1, 1, -1, 9.79408, 5.16753, 3.7249, 2.43646, P4, 0, 0, 0, 0 , , 0, 0, 0, , 0, , 0, 
3, 1, 3, 3, 9, 0.217902, 6.41361, 1.82827, 2.11972, MSap, 0, 0, 0, 0 , , 0, 0, 0, , 0, , 0, 
1, 1, 1, 1, -1, 6.41703, 0.156904, -0.413356, 2.11972, Epr, 0, 0, 0, 0 , , 0, 0, 0, , 0, , 0, 
6, 1, 6, 6, -1, 11.0322, 3.67075, 0.781577, 2.43646, D, 0, 0, 0, 0 , , 0, 0, 0, , 0, , 0, 
