3, 1, 3, 3, -1, -8.92302, -2.28857, -1.21957, 1.77787, ABalapap, 0, 0, 0, 0 , , 0, 0, 0, , 0, , 0, 
8, 1, 8, 8, -1, -5.12582, -1.51605, -3.78857, 1.69114, ABplapaa, 0, 0, 0, 0 , , 0, 0, 0, , 0, , 0, 
6, 1, 6, 6, -1, -7.10801, -5.42843, -1.02084, 1.77787, ABarpaaa, 0, 0, 0, 0 , , 0, 0, 0, , 0, , 0, 
7, 1, 7, 7, -1, -2.52703, -5.15633, -3.26972, 1.77787, ABarppaa, 0, 0, 0, 0 , , 0, 0, 0, , 0, , 0, 
4, 1, 4, 4, -1, -5.46647, -4.83224, -1.1985, 1.77787, ABarpaap, 0, 0, 0, 0 , , 0, 0, 0, , 0, , 0, 
9, 1, 9, 9, -1, -10.3159, -2.94391, -1.21579, 1.77787, ABalapaa, 0, 0, 0, 0 , , 0, 0, 0, , 0, , 0, 
5, 1, 5, 5, -1, 7.88256, -2.85894, -3.92862, 1.84416, Cpaa, 0, 0, 0, 0 , , 0, 0, 0, , 0, , 0, 
6, 1, 6, 6, -1, 3.54786, -7.04051, -1.23205, 1.69114, ABprapaa, 0, 0, 0, 0 , , 0, 0, 0, , 0, , 0, 
4, 1, 4, 4, -1, -0.744737, -4.696, -2.93336, 1.77787, ABarppap, 0, 0, 0, 0 , , 0, 0, 0, , 0, , 0, 
7, 1, 7, 7, -1, 2.85885, -4.73322, -1.15109, 1.77787, ABarpppa, 0, 0, 0, 0 , , 0, 0, 0, , 0, , 0, 
6, 1, 6, 6, -1, 5.19262, -6.09471, -1.41328, 1.69114, ABprapap, 0, 0, 0, 0 , , 0, 0, 0, , 0, , 0, 
11, 1, 11, 11, -1, 0.221378, 5.86919, -3.67854, 1.69114, ABplppaa, 0, 0, 0, 0 , , 0, 0, 0, , 0, , 0, 
3, 1, 3, 3, -1, 1.57619, 6.20809, -2.95243, 1.69114, ABplppap, 0, 0, 0, 0 , , 0, 0, 0, , 0, , 0, 
2, 1, 2, 2, -1, 13.0661, 4.16185, -1.95559, 1.84416, Cppp, 0, 0, 0, 0 , , 0, 0, 0, , 0, , 0, 
2, 1, 2, 2, -1, 5.26732, 0.74194, -3.28271, 1.84416, Caap, 0, 0, 0, 0 , , 0, 0, 0, , 0, , 0, 
6, 1, 6, 6, -1, 5.89992, 2.75459, -1.14671, 2.11972, Epl, 0, 0, 0, 0 , , 0, 0, 0, , 0, , 0, 
3, 1, 3, 3, -1, 9.44459, -0.875537, -3.40356, 1.84416, Cpap, 0, 0, 0, 0 , , 0, 0, 0, , 0, , 0, 
8, 1, 8, 8, -1, 7.74254, 4.35849, -3.76151, 1.84416, Capa, 0, 0, 0, 0 , , 0, 0, 0, , 0, , 0, 
2, 1, 2, 2, -1, 1.23159, 3.99655, -2.42284, 1.69114, ABplappp, 0, 0, 0, 0 , , 0, 0, 0, , 0, , 0, 
9, 1, 9, 9, -1, 12.8798, 1.983, -2.42532, 1.84416, Cppa, 0, 0, 0, 0 , , 0, 0, 0, , 0, , 0, 
12, 1, 12, 12, -1, 5.3715, 6.65258, -1.45042, 1.69114, ABplpppa, 0, 0, 0, 0 , , 0, 0, 0, , 0, , 0, 
1, 1, 1, 1, -1, 9.88071, 4.00819, -3.505, 1.84416, Capp, 0, 0, 0, 0 , , 0, 0, 0, , 0, , 0, 
10, 1, 10, 10, -1, -0.433703, 3.13445, -3.09119, 1.69114, ABplappa, 0, 0, 0, 0 , , 0, 0, 0, , 0, , 0, 
7, 1, 7, 7, -1, 2.84379, -0.374715, -3.61266, 1.84416, Caaa, 0, 0, 0, 0 , , 0, 0, 0, , 0, , 0, 
13, 1, 13, 13, -1, 2.52438, -6.43868, 2.04045, 1.69114, ABpraapa, 0, 0, 0, 0 , , 0, 0, 0, , 0, , 0, 
9, 1, 9, 9, -1, 3.89983, -3.06551, 3.27727, 1.84416, MSppa, 0, 0, 0, 0 , , 0, 0, 0, , 0, , 0, 
3, 1, 3, 3, -1, 1.40162, -4.08083, 2.26785, 1.77787, ABarappp, 0, 0, 0, 0 , , 0, 0, 0, , 0, , 0, 
2, 1, 2, 2, -1, -0.779114, -2.37051, 0.251714, 1.77787, ABarpapp, 0, 0, 0, 0 , , 0, 0, 0, , 0, , 0, 
1, 1, 1, 1, -1, 5.25827, -2.90779, 0.675687, 1.77787, ABarpppp, 0, 0, 0, 0 , , 0, 0, 0, , 0, , 0, 
5, 1, 5, 5, -1, 10.929, -2.57223, 2.64755, 1.69114, ABprpapp, 0, 0, 0, 0 , , 0, 0, 0, , 0, , 0, 
7, 1, 7, 7, -1, 11.1617, -4.32782, 0.903491, 1.69114, ABprppap, 0, 0, 0, 0 , , 0, 0, 0, , 0, , 0, 
10, 1, 10, 10, -1, -0.020196, -4.39851, 3.62833, 1.77787, ABarappa, 0, 0, 0, 0 , , 0, 0, 0, , 0, , 0, 
15, 1, 15, 15, -1, 11.0436, -4.58758, 0.94761, 1.69114, ABprppaa, 0, 0, 0, 0 , , 0, 0, 0, , 0, , 0, 
11, 1, 11, 11, -1, 9.48892, -3.2906, 3.17384, 1.69114, ABprpapa, 0, 0, 0, 0 , , 0, 0, 0, , 0, , 0, 
4, 1, 4, 4, -1, 4.01745, -5.85741, 1.15, 1.69114, ABpraapp, 0, 0, 0, 0 , , 0, 0, 0, , 0, , 0, 
5, 1, 5, 5, -1, 6.3656, -5.92719, 2.62641, 1.69114, ABprpaap, 0, 0, 0, 0 , , 0, 0, 0, , 0, , 0, 
14, 1, 14, 14, -1, 8.86136, -3.87776, -0.616762, 1.69114, ABprappa, 0, 0, 0, 0 , , 0, 0, 0, , 0, , 0, 
2, 1, 2, 2, -1, 9.63154, -1.98972, -0.726938, 1.69114, ABprappp, 0, 0, 0, 0 , , 0, 0, 0, , 0, , 0, 
12, 1, 12, 12, -1, 5.08848, -6.89888, 2.94532, 1.69114, ABprpaaa, 0, 0, 0, 0 , , 0, 0, 0, , 0, , 0, 
5, 1, 5, 5, -1, -8.02854, -2.55896, 2.55994, 1.77787, ABaraaap, 0, 0, 0, 0 , , 0, 0, 0, , 0, , 0, 
4, 1, 4, 4, -1, -4.34694, -4.2511, 2.90937, 1.77787, ABarapap, 0, 0, 0, 0 , , 0, 0, 0, , 0, , 0, 
8, 1, 8, 8, -1, -1.65081, -6.45122, 0.125947, 1.69114, ABpraaap, 0, 0, 0, 0 , , 0, 0, 0, , 0, , 0, 
6, 1, 6, 6, -1, -2.80418, -2.91524, 0.976983, 1.77787, ABarpapa, 0, 0, 0, 0 , , 0, 0, 0, , 0, , 0, 
7, 1, 7, 7, -1, -5.17469, -1.27654, 3.84927, 1.77787, ABaraapa, 0, 0, 0, 0 , , 0, 0, 0, , 0, , 0, 
10, 1, 10, 10, -1, -2.77349, -7.22231, 0.317068, 1.69114, ABpraaaa, 0, 0, 0, 0 , , 0, 0, 0, , 0, , 0, 
8, 1, 8, 8, -1, -5.94192, -4.92261, 2.71329, 1.77787, ABarapaa, 0, 0, 0, 0 , , 0, 0, 0, , 0, , 0, 
9, 1, 9, 9, -1, -9.31524, -2.78237, 2.86368, 1.77787, ABaraaaa, 0, 0, 0, 0 , , 0, 0, 0, , 0, , 0, 
3, 1, 3, 3, -1, -3.08961, -1.36573, 3.522, 1.77787, ABaraapp, 0, 0, 0, 0 , , 0, 0, 0, , 0, , 0, 
3, 1, 3, 3, -1, 2.98511, 5.72968, 2.35766, 1.84416, MSapp, 0, 0, 0, 0 , , 0, 0, 0, , 0, , 0, 
8, 1, 8, 8, -1, 0.478711, 3.05586, 0.219576, 2.11972, Eal, 0, 0, 0, 0 , , 0, 0, 0, , 0, , 0, 
1, 1, 1, 1, -1, 6.37334, 4.6995, 4.032, 2.43646, P4, 0, 0, 0, 0 , , 0, 0, 0, , 0, , 0, 
4, 1, 4, 4, -1, 1.62543, -0.83772, -0.406943, 2.11972, Ear, 0, 0, 0, 0 , , 0, 0, 0, , 0, , 0, 
10, 1, 10, 10, -1, 9.01295, 5.06119, 0.546159, 2.11972, Da, 0, 0, 0, 0 , , 0, 0, 0, , 0, , 0, 
1, 1, 1, 1, -1, 7.2729, 0.201876, 4.559, 1.84416, MSppp, 0, 0, 0, 0 , , 0, 0, 0, , 0, , 0, 
1, 1, 1, 1, -1, 11.5407, -0.601311, 1.53733, 1.69114, ABprpppp, 0, 0, 0, 0 , , 0, 0, 0, , 0, , 0, 
12, 1, 12, 12, -1, 1.37596, 7.13064, -0.444628, 1.69114, ABplpapa, 0, 0, 0, 0 , , 0, 0, 0, , 0, , 0, 
11, 1, 11, 11, -1, 12.0573, -0.170288, 1.82859, 1.69114, ABprpppa, 0, 0, 0, 0 , , 0, 0, 0, , 0, , 0, 
1, 1, 1, 1, -1, 3.29873, 6.87568, -0.486511, 1.69114, ABplpapp, 0, 0, 0, 0 , , 0, 0, 0, , 0, , 0, 
6, 1, 6, 6, -1, 10.4531, 3.03024, 2.20449, 2.11972, Dp, 0, 0, 0, 0 , , 0, 0, 0, , 0, , 0, 
1, 1, 1, 1, -1, 6.5895, 6.47868, 0.133322, 1.69114, ABplpppp, 0, 0, 0, 0 , , 0, 0, 0, , 0, , 0, 
1, 1, 1, 1, -1, 7.00438, -0.872223, 0.0663643, 2.11972, Epr, 0, 0, 0, 0 , , 0, 0, 0, , 0, , 0, 
7, 1, 7, 7, -1, 1.94725, 0.754996, 3.2288, 1.84416, MSpap, 0, 0, 0, 0 , , 0, 0, 0, , 0, , 0, 
7, 1, 7, 7, -1, -8.94503, 5.08851, -2.61271, 1.77787, ABalppaa, 0, 0, 0, 0 , , 0, 0, 0, , 0, , 0, 
6, 1, 6, 6, -1, -5.58271, 3.21945, -2.93767, 1.69114, ABplaapa, 0, 0, 0, 0 , , 0, 0, 0, , 0, , 0, 
2, 1, 2, 2, -1, -3.48085, 3.36791, -2.81485, 1.69114, ABplaapp, 0, 0, 0, 0 , , 0, 0, 0, , 0, , 0, 
8, 1, 8, 8, -1, -3.69437, 6.36345, -3.65877, 1.69114, ABplpaaa, 0, 0, 0, 0 , , 0, 0, 0, , 0, , 0, 
3, 1, 3, 3, -1, -7.54954, -0.266328, -3.20843, 1.69114, ABplaaap, 0, 0, 0, 0 , , 0, 0, 0, , 0, , 0, 
5, 1, 5, 5, -1, -9.09804, -0.691369, -3.35434, 1.69114, ABplaaaa, 0, 0, 0, 0 , , 0, 0, 0, , 0, , 0, 
4, 1, 4, 4, -1, -3.62749, -0.709219, -3.33373, 1.69114, ABplapap, 0, 0, 0, 0 , , 0, 0, 0, , 0, , 0, 
5, 1, 5, 5, -1, -2.34731, 6.50225, -2.99406, 1.69114, ABplpaap, 0, 0, 0, 0 , , 0, 0, 0, , 0, , 0, 
4, 1, 4, 4, -1, -7.57402, 5.70289, -1.76701, 1.77787, ABalppap, 0, 0, 0, 0 , , 0, 0, 0, , 0, , 0, 
8, 1, 8, 8, -1, -6.59349, 2.3046, 3.22815, 1.84416, MSaaa, 0, 0, 0, 0 , , 0, 0, 0, , 0, , 0, 
5, 1, 5, 5, -1, -9.77683, 2.57141, -0.587774, 1.77787, ABalpaap, 0, 0, 0, 0 , , 0, 0, 0, , 0, , 0, 
7, 1, 7, 7, -1, -2.41904, -0.990523, 2.63104, 1.84416, MSpaa, 0, 0, 0, 0 , , 0, 0, 0, , 0, , 0, 
4, 1, 4, 4, -1, -5.94853, 5.74229, 0.42357, 1.77787, ABalpapp, 0, 0, 0, 0 , , 0, 0, 0, , 0, , 0, 
13, 1, 13, 13, -1, -3.17513, 5.6879, 0.0700081, 1.77787, ABalpppa, 0, 0, 0, 0 , , 0, 0, 0, , 0, , 0, 
10, 1, 10, 10, -1, -11.1552, 0.1345, 1.56917, 1.77787, ABalaaaa, 0, 0, 0, 0 , , 0, 0, 0, , 0, , 0, 
9, 1, 9, 9, -1, -7.66448, 5.31532, 1.0981, 1.77787, ABalpapa, 0, 0, 0, 0 , , 0, 0, 0, , 0, , 0, 
9, 1, 9, 9, -1, -1.34552, 5.75287, 2.03278, 1.84416, MSapa, 0, 0, 0, 0 , , 0, 0, 0, , 0, , 0, 
5, 1, 5, 5, -1, -1.4918, 3.25953, 3.17493, 1.84416, MSaap, 0, 0, 0, 0 , , 0, 0, 0, , 0, , 0, 
3, 1, 3, 3, -1, -3.9776, 0.681177, 0.720221, 1.77787, ABalappp, 0, 0, 0, 0 , , 0, 0, 0, , 0, , 0, 
2, 1, 2, 2, -1, -1.88061, 4.91132, 1.40373, 1.77787, ABalpppp, 0, 0, 0, 0 , , 0, 0, 0, , 0, , 0, 
2, 1, 2, 2, -1, -6.16796, 1.01463, 0.901004, 1.77787, ABalaapp, 0, 0, 0, 0 , , 0, 0, 0, , 0, , 0, 
12, 1, 12, 12, -1, -5.19566, -0.238663, 0.141547, 1.77787, ABalappa, 0, 0, 0, 0 , , 0, 0, 0, , 0, , 0, 
9, 1, 9, 9, -1, -10.9118, 1.87625, -0.612698, 1.77787, ABalpaaa, 0, 0, 0, 0 , , 0, 0, 0, , 0, , 0, 
6, 1, 6, 6, -1, -10.3762, 0.365592, 1.11933, 1.77787, ABalaaap, 0, 0, 0, 0 , , 0, 0, 0, , 0, , 0, 
11, 1, 11, 11, -1, -7.59918, 1.40023, 2.06601, 1.77787, ABalaapa, 0, 0, 0, 0 , , 0, 0, 0, , 0, , 0, 
