6, 1, 6, 6, -1, 3.38054, -6.75957, -1.69337, 1.69114, ABprapaa, 0, 0, 0, 0 , , 0, 0, 0, , 0, , 0, 
6, 1, 6, 6, -1, 5.61636, -5.77955, -1.85788, 1.69114, ABprapap, 0, 0, 0, 0 , , 0, 0, 0, , 0, , 0, 
5, 1, 5, 5, -1, 7.98136, -2.67467, -3.95183, 1.84416, Cpaa, 0, 0, 0, 0 , , 0, 0, 0, , 0, , 0, 
7, 1, 7, 7, -1, 2.76069, -4.48763, -1.50139, 1.77787, ABarpppa, 0, 0, 0, 0 , , 0, 0, 0, , 0, , 0, 
4, 1, 4, 4, -1, -0.056365, -3.68531, -3.01386, 1.77787, ABarppap, 0, 0, 0, 0 , , 0, 0, 0, , 0, , 0, 
3, 1, 3, 3, -1, -8.48182, -1.88289, -1.65072, 1.77787, ABalapap, 0, 0, 0, 0 , , 0, 0, 0, , 0, , 0, 
9, 1, 9, 9, -1, -10.1665, -2.45143, -1.4729, 1.77787, ABalapaa, 0, 0, 0, 0 , , 0, 0, 0, , 0, , 0, 
7, 1, 7, 7, -1, -2.20225, -4.24421, -3.36545, 1.77787, ABarppaa, 0, 0, 0, 0 , , 0, 0, 0, , 0, , 0, 
6, 1, 6, 6, -1, -7.19678, -4.76642, -1.37648, 1.77787, ABarpaaa, 0, 0, 0, 0 , , 0, 0, 0, , 0, , 0, 
4, 1, 4, 4, -1, -5.06787, -4.31294, -1.69404, 1.77787, ABarpaap, 0, 0, 0, 0 , , 0, 0, 0, , 0, , 0, 
9, 1, 9, 9, -1, -9.46353, -2.54049, 2.80865, 1.77787, ABaraaaa, 0, 0, 0, 0 , , 0, 0, 0, , 0, , 0, 
4, 1, 4, 4, -1, -3.98452, -4.18629, 3.00914, 1.77787, ABarapap, 0, 0, 0, 0 , , 0, 0, 0, , 0, , 0, 
6, 1, 6, 6, -1, -3.14352, -3.13071, 0.311864, 1.77787, ABarpapa, 0, 0, 0, 0 , , 0, 0, 0, , 0, , 0, 
5, 1, 5, 5, -1, -7.82522, -2.8606, 2.42338, 1.77787, ABaraaap, 0, 0, 0, 0 , , 0, 0, 0, , 0, , 0, 
8, 1, 8, 8, -1, -6.00342, -4.63836, 2.91154, 1.77787, ABarapaa, 0, 0, 0, 0 , , 0, 0, 0, , 0, , 0, 
7, 1, 7, 7, -1, -5.76428, -1.24429, 3.75185, 1.77787, ABaraapa, 0, 0, 0, 0 , , 0, 0, 0, , 0, , 0, 
10, 1, 10, 10, -1, -3.2535, -7.05259, 0.235756, 1.69114, ABpraaaa, 0, 0, 0, 0 , , 0, 0, 0, , 0, , 0, 
8, 1, 8, 8, -1, -1.79522, -6.42795, -0.274425, 1.69114, ABpraaap, 0, 0, 0, 0 , , 0, 0, 0, , 0, , 0, 
7, 1, 7, 7, -1, -2.33557, -1.30169, 2.67199, 1.84416, MSpaa, 0, 0, 0, 0 , , 0, 0, 0, , 0, , 0, 
3, 1, 3, 3, -1, -3.23454, -1.29105, 3.58371, 1.77787, ABaraapp, 0, 0, 0, 0 , , 0, 0, 0, , 0, , 0, 
1, 1, 1, 1, -1, 7.14376, -1.11644, 0.180203, 2.11972, Epr, 0, 0, 0, 0 , , 0, 0, 0, , 0, , 0, 
4, 1, 4, 4, -1, 3.98528, -5.87036, 0.579066, 1.69114, ABpraapp, 0, 0, 0, 0 , , 0, 0, 0, , 0, , 0, 
5, 1, 5, 5, -1, 10.0128, -2.87977, 2.7893, 1.69114, ABprpapp, 0, 0, 0, 0 , , 0, 0, 0, , 0, , 0, 
14, 1, 14, 14, -1, 8.71071, -4.24697, -0.710712, 1.69114, ABprappa, 0, 0, 0, 0 , , 0, 0, 0, , 0, , 0, 
10, 1, 10, 10, -1, -0.416597, -4.64929, 3.5128, 1.77787, ABarappa, 0, 0, 0, 0 , , 0, 0, 0, , 0, , 0, 
15, 1, 15, 15, -1, 10.0213, -5.20442, 1.39443, 1.69114, ABprppaa, 0, 0, 0, 0 , , 0, 0, 0, , 0, , 0, 
2, 1, 2, 2, -1, 9.88735, -2.0651, -0.694525, 1.69114, ABprappp, 0, 0, 0, 0 , , 0, 0, 0, , 0, , 0, 
7, 1, 7, 7, -1, 10.9346, -3.73676, 1.04944, 1.69114, ABprppap, 0, 0, 0, 0 , , 0, 0, 0, , 0, , 0, 
1, 1, 1, 1, -1, 5.60673, -2.57899, 0.311723, 1.77787, ABarpppp, 0, 0, 0, 0 , , 0, 0, 0, , 0, , 0, 
5, 1, 5, 5, -1, 5.69443, -6.15217, 2.16031, 1.69114, ABprpaap, 0, 0, 0, 0 , , 0, 0, 0, , 0, , 0, 
12, 1, 12, 12, -1, 3.89425, -6.97065, 2.55826, 1.69114, ABprpaaa, 0, 0, 0, 0 , , 0, 0, 0, , 0, , 0, 
4, 1, 4, 4, -1, 1.53782, -1.42369, -0.567342, 2.11972, Ear, 0, 0, 0, 0 , , 0, 0, 0, , 0, , 0, 
3, 1, 3, 3, -1, 1.16314, -4.33681, 2.07799, 1.77787, ABarappp, 0, 0, 0, 0 , , 0, 0, 0, , 0, , 0, 
2, 1, 2, 2, -1, -0.740699, -2.65098, -0.441034, 1.77787, ABarpapp, 0, 0, 0, 0 , , 0, 0, 0, , 0, , 0, 
13, 1, 13, 13, -1, 2.01071, -6.47238, 1.35827, 1.69114, ABpraapa, 0, 0, 0, 0 , , 0, 0, 0, , 0, , 0, 
9, 1, 9, 9, -1, 3.74445, -3.29041, 3.1092, 1.84416, MSppa, 0, 0, 0, 0 , , 0, 0, 0, , 0, , 0, 
11, 1, 11, 11, -1, 8.23617, -3.76444, 3.19387, 1.69114, ABprpapa, 0, 0, 0, 0 , , 0, 0, 0, , 0, , 0, 
6, 1, 6, 6, -1, 10.4478, 2.50116, 2.48578, 2.11972, Dp, 0, 0, 0, 0 , , 0, 0, 0, , 0, , 0, 
1, 1, 1, 1, -1, 11.2946, -0.870135, 1.83785, 1.69114, ABprpppp, 0, 0, 0, 0 , , 0, 0, 0, , 0, , 0, 
11, 1, 11, 11, -1, 11.7595, -0.953487, 1.81669, 1.69114, ABprpppa, 0, 0, 0, 0 , , 0, 0, 0, , 0, , 0, 
3, 1, 3, 3, -1, 3.37629, 5.67657, 2.49017, 1.84416, MSapp, 0, 0, 0, 0 , , 0, 0, 0, , 0, , 0, 
7, 1, 7, 7, -1, 2.68525, 0.759262, 3.34372, 1.84416, MSpap, 0, 0, 0, 0 , , 0, 0, 0, , 0, , 0, 
1, 1, 1, 1, -1, 7.3676, 0.224639, 4.09269, 1.84416, MSppp, 0, 0, 0, 0 , , 0, 0, 0, , 0, , 0, 
8, 1, 8, 8, -1, 0.413418, 2.93128, 0.0854754, 2.11972, Eal, 0, 0, 0, 0 , , 0, 0, 0, , 0, , 0, 
5, 1, 5, 5, -1, -0.698155, 3.08026, 3.30678, 1.84416, MSaap, 0, 0, 0, 0 , , 0, 0, 0, , 0, , 0, 
1, 1, 1, 1, -1, 2.86871, 6.71954, 0.135498, 1.69114, ABplpapp, 0, 0, 0, 0 , , 0, 0, 0, , 0, , 0, 
1, 1, 1, 1, -1, 5.55888, 4.58807, 4.10512, 2.43646, P4, 0, 0, 0, 0 , , 0, 0, 0, , 0, , 0, 
1, 1, 1, 1, -1, 6.57369, 6.38038, 0.640555, 1.69114, ABplpppp, 0, 0, 0, 0 , , 0, 0, 0, , 0, , 0, 
10, 1, 10, 10, -1, 8.5793, 5.25032, 0.717518, 2.11972, Da, 0, 0, 0, 0 , , 0, 0, 0, , 0, , 0, 
12, 1, 12, 12, -1, 0.514547, 7.002, 0.0129869, 1.69114, ABplpapa, 0, 0, 0, 0 , , 0, 0, 0, , 0, , 0, 
4, 1, 4, 4, -1, -7.42873, 5.52446, -1.07325, 1.77787, ABalppap, 0, 0, 0, 0 , , 0, 0, 0, , 0, , 0, 
8, 1, 8, 8, -1, -4.56045, -0.640832, -3.89079, 1.69114, ABplapaa, 0, 0, 0, 0 , , 0, 0, 0, , 0, , 0, 
5, 1, 5, 5, -1, -2.57521, 6.54237, -2.69132, 1.69114, ABplpaap, 0, 0, 0, 0 , , 0, 0, 0, , 0, , 0, 
3, 1, 3, 3, -1, -6.95493, 0.163404, -3.35152, 1.69114, ABplaaap, 0, 0, 0, 0 , , 0, 0, 0, , 0, , 0, 
5, 1, 5, 5, -1, -9.0252, -0.155035, -3.35621, 1.69114, ABplaaaa, 0, 0, 0, 0 , , 0, 0, 0, , 0, , 0, 
8, 1, 8, 8, -1, -4.19361, 6.35433, -2.96738, 1.69114, ABplpaaa, 0, 0, 0, 0 , , 0, 0, 0, , 0, , 0, 
7, 1, 7, 7, -1, -8.97454, 5.03536, -2.09473, 1.77787, ABalppaa, 0, 0, 0, 0 , , 0, 0, 0, , 0, , 0, 
6, 1, 6, 6, -1, -5.78167, 3.39877, -3.04323, 1.69114, ABplaapa, 0, 0, 0, 0 , , 0, 0, 0, , 0, , 0, 
4, 1, 4, 4, -1, -2.49831, 0.13445, -3.36166, 1.69114, ABplapap, 0, 0, 0, 0 , , 0, 0, 0, , 0, , 0, 
2, 1, 2, 2, -1, -3.27046, 3.64233, -2.76604, 1.69114, ABplaapp, 0, 0, 0, 0 , , 0, 0, 0, , 0, , 0, 
10, 1, 10, 10, -1, -11.087, 0.110173, 1.38116, 1.77787, ABalaaaa, 0, 0, 0, 0 , , 0, 0, 0, , 0, , 0, 
11, 1, 11, 11, -1, -7.75007, 0.701397, 1.83569, 1.77787, ABalaapa, 0, 0, 0, 0 , , 0, 0, 0, , 0, , 0, 
9, 1, 9, 9, -1, -8.10934, 4.65692, 1.36864, 1.77787, ABalpapa, 0, 0, 0, 0 , , 0, 0, 0, , 0, , 0, 
2, 1, 2, 2, -1, -6.00715, 0.188477, 0.54845, 1.77787, ABalaapp, 0, 0, 0, 0 , , 0, 0, 0, , 0, , 0, 
3, 1, 3, 3, -1, -3.81555, 0.313467, 0.267533, 1.77787, ABalappp, 0, 0, 0, 0 , , 0, 0, 0, , 0, , 0, 
9, 1, 9, 9, -1, -1.59892, 5.52585, 2.20108, 1.84416, MSapa, 0, 0, 0, 0 , , 0, 0, 0, , 0, , 0, 
8, 1, 8, 8, -1, -6.63071, 2.02963, 3.28236, 1.84416, MSaaa, 0, 0, 0, 0 , , 0, 0, 0, , 0, , 0, 
9, 1, 9, 9, -1, -10.9218, 1.63313, -0.21442, 1.77787, ABalpaaa, 0, 0, 0, 0 , , 0, 0, 0, , 0, , 0, 
5, 1, 5, 5, -1, -9.7371, 2.45784, -0.536084, 1.77787, ABalpaap, 0, 0, 0, 0 , , 0, 0, 0, , 0, , 0, 
2, 1, 2, 2, -1, -2.17915, 4.62546, 1.06134, 1.77787, ABalpppp, 0, 0, 0, 0 , , 0, 0, 0, , 0, , 0, 
6, 1, 6, 6, -1, -10.1966, -0.0996979, 0.654376, 1.77787, ABalaaap, 0, 0, 0, 0 , , 0, 0, 0, , 0, , 0, 
4, 1, 4, 4, -1, -6.0515, 5.26803, 0.962821, 1.77787, ABalpapp, 0, 0, 0, 0 , , 0, 0, 0, , 0, , 0, 
12, 1, 12, 12, -1, -5.6546, -0.406227, -0.241232, 1.77787, ABalappa, 0, 0, 0, 0 , , 0, 0, 0, , 0, , 0, 
13, 1, 13, 13, -1, -3.88461, 5.2664, -0.0885112, 1.77787, ABalpppa, 0, 0, 0, 0 , , 0, 0, 0, , 0, , 0, 
2, 1, 2, 2, -1, 6.35016, 1.20104, -3.22116, 1.84416, Caap, 0, 0, 0, 0 , , 0, 0, 0, , 0, , 0, 
6, 1, 6, 6, -1, 5.52533, 3.06597, -1.04362, 2.11972, Epl, 0, 0, 0, 0 , , 0, 0, 0, , 0, , 0, 
9, 1, 9, 9, -1, 12.7129, 1.57362, -1.76782, 1.84416, Cppa, 0, 0, 0, 0 , , 0, 0, 0, , 0, , 0, 
12, 1, 12, 12, -1, 5.20977, 6.74738, -1.03996, 1.69114, ABplpppa, 0, 0, 0, 0 , , 0, 0, 0, , 0, , 0, 
8, 1, 8, 8, -1, 7.87098, 4.34229, -3.01623, 1.84416, Capa, 0, 0, 0, 0 , , 0, 0, 0, , 0, , 0, 
1, 1, 1, 1, -1, 10.1177, 4.04421, -2.92683, 1.84416, Capp, 0, 0, 0, 0 , , 0, 0, 0, , 0, , 0, 
3, 1, 3, 3, -1, 9.99614, -0.362269, -3.3063, 1.84416, Cpap, 0, 0, 0, 0 , , 0, 0, 0, , 0, , 0, 
7, 1, 7, 7, -1, 3.36698, 0.0300979, -3.59838, 1.84416, Caaa, 0, 0, 0, 0 , , 0, 0, 0, , 0, , 0, 
10, 1, 10, 10, -1, 0.109431, 3.75935, -2.89189, 1.69114, ABplappa, 0, 0, 0, 0 , , 0, 0, 0, , 0, , 0, 
3, 1, 3, 3, -1, 1.81601, 6.25398, -2.49555, 1.69114, ABplppap, 0, 0, 0, 0 , , 0, 0, 0, , 0, , 0, 
2, 1, 2, 2, -1, 2.25497, 4.30447, -2.19357, 1.69114, ABplappp, 0, 0, 0, 0 , , 0, 0, 0, , 0, , 0, 
2, 1, 2, 2, -1, 12.9307, 3.75308, -1.61775, 1.84416, Cppp, 0, 0, 0, 0 , , 0, 0, 0, , 0, , 0, 
11, 1, 11, 11, -1, 0.0985619, 6.06477, -3.0942, 1.69114, ABplppaa, 0, 0, 0, 0 , , 0, 0, 0, , 0, , 0, 
