7, 1, 7, 7, -1, -1.22791, -1.50786, -3.65263, 1.77787, ABarppaa, 0, 0, 0, 0 , , 0, 0, 0, , 0, , 0, 
6, 1, 6, 6, -1, -4.1604, -3.7764, -1.68127, 1.77787, ABarpapa, 0, 0, 0, 0 , , 0, 0, 0, , 0, , 0, 
8, 1, 8, 8, -1, -2.22799, -6.35821, -1.47421, 1.69114, ABpraaap, 0, 0, 0, 0 , , 0, 0, 0, , 0, , 0, 
4, 1, 4, 4, -1, -3.87209, -2.75503, -3.18067, 1.77787, ABarpaap, 0, 0, 0, 0 , , 0, 0, 0, , 0, , 0, 
6, 1, 6, 6, -1, -7.46309, -2.7804, -2.44341, 1.77787, ABarpaaa, 0, 0, 0, 0 , , 0, 0, 0, , 0, , 0, 
12, 1, 12, 12, -1, -7.02988, -0.908359, -1.38829, 1.77787, ABalappa, 0, 0, 0, 0 , , 0, 0, 0, , 0, , 0, 
8, 1, 8, 8, -1, -2.85869, 1.99361, -4.19847, 1.69114, ABplapaa, 0, 0, 0, 0 , , 0, 0, 0, , 0, , 0, 
9, 1, 9, 9, -1, -9.71876, -0.975633, -2.24335, 1.77787, ABalapaa, 0, 0, 0, 0 , , 0, 0, 0, , 0, , 0, 
3, 1, 3, 3, -1, -7.15971, -0.66718, -2.94273, 1.77787, ABalapap, 0, 0, 0, 0 , , 0, 0, 0, , 0, , 0, 
2, 1, 2, 2, -1, -2.63927, 4.46562, -2.6196, 1.69114, ABplaapp, 0, 0, 0, 0 , , 0, 0, 0, , 0, , 0, 
3, 1, 3, 3, -1, -5.17107, 1.4526, -3.78079, 1.69114, ABplaaap, 0, 0, 0, 0 , , 0, 0, 0, , 0, , 0, 
6, 1, 6, 6, -1, -6.37853, 3.93675, -3.35991, 1.69114, ABplaapa, 0, 0, 0, 0 , , 0, 0, 0, , 0, , 0, 
5, 1, 5, 5, -1, -8.80667, 1.45397, -3.36181, 1.69114, ABplaaaa, 0, 0, 0, 0 , , 0, 0, 0, , 0, , 0, 
3, 1, 3, 3, -1, -3.32993, -0.788438, -1.08902, 1.77787, ABalappp, 0, 0, 0, 0 , , 0, 0, 0, , 0, , 0, 
5, 1, 5, 5, -1, -3.25891, 6.66272, -1.78309, 1.69114, ABplpaap, 0, 0, 0, 0 , , 0, 0, 0, , 0, , 0, 
11, 1, 11, 11, -1, -3.82717, -2.15928, 1.95847, 1.60442, MSpaaa, 0, 0, 0, 0 , , 0, 0, 0, , 0, , 0, 
9, 1, 9, 9, -1, -9.9084, -1.81484, 2.64357, 1.77787, ABaraaaa, 0, 0, 0, 0 , , 0, 0, 0, , 0, , 0, 
6, 1, 6, 6, -1, -9.65842, -1.49402, -0.73895, 1.77787, ABalaaap, 0, 0, 0, 0 , , 0, 0, 0, , 0, , 0, 
7, 1, 7, 7, -1, -1.69036, -1.08944, 2.48042, 1.60442, MSpaap, 0, 0, 0, 0 , , 0, 0, 0, , 0, , 0, 
5, 1, 5, 5, -1, -7.21526, -3.76553, 2.0137, 1.77787, ABaraaap, 0, 0, 0, 0 , , 0, 0, 0, , 0, , 0, 
2, 1, 2, 2, -1, -5.52525, -2.28724, -0.508037, 1.77787, ABalaapp, 0, 0, 0, 0 , , 0, 0, 0, , 0, , 0, 
8, 1, 8, 8, -1, -6.1879, -3.78561, 3.5063, 1.77787, ABarapaa, 0, 0, 0, 0 , , 0, 0, 0, , 0, , 0, 
10, 1, 10, 10, -1, -1.60448, -5.40076, 3.16659, 1.77787, ABarappa, 0, 0, 0, 0 , , 0, 0, 0, , 0, , 0, 
3, 1, 3, 3, -1, -3.66931, -1.06702, 3.76882, 1.77787, ABaraapp, 0, 0, 0, 0 , , 0, 0, 0, , 0, , 0, 
7, 1, 7, 7, -1, -7.53306, -1.14754, 3.4596, 1.77787, ABaraapa, 0, 0, 0, 0 , , 0, 0, 0, , 0, , 0, 
4, 1, 4, 4, -1, -2.89724, -3.99185, 3.30847, 1.77787, ABarapap, 0, 0, 0, 0 , , 0, 0, 0, , 0, , 0, 
10, 1, 10, 10, -1, -4.69354, -6.54344, -0.00817877, 1.69114, ABpraaaa, 0, 0, 0, 0 , , 0, 0, 0, , 0, , 0, 
11, 1, 11, 11, -1, -8.20226, -1.39277, 1.14547, 1.77787, ABalaapa, 0, 0, 0, 0 , , 0, 0, 0, , 0, , 0, 
8, 1, 8, 8, -1, -5.68967, 6.32698, -0.895511, 1.69114, ABplpaaa, 0, 0, 0, 0 , , 0, 0, 0, , 0, , 0, 
12, 1, 12, 12, -1, -2.0668, 6.61649, 1.38431, 1.69114, ABplpapa, 0, 0, 0, 0 , , 0, 0, 0, , 0, , 0, 
14, 1, 14, 14, -1, -7.86748, 0.797918, 2.20585, 1.60442, MSaaaa, 0, 0, 0, 0 , , 0, 0, 0, , 0, , 0, 
7, 1, 7, 7, -1, -9.06298, 4.87612, -0.542505, 1.77787, ABalppaa, 0, 0, 0, 0 , , 0, 0, 0, , 0, , 0, 
4, 1, 4, 4, -1, -6.36043, 3.84526, 2.58058, 1.77787, ABalpapp, 0, 0, 0, 0 , , 0, 0, 0, , 0, , 0, 
9, 1, 9, 9, -1, -9.44392, 2.68171, 2.18023, 1.77787, ABalpapa, 0, 0, 0, 0 , , 0, 0, 0, , 0, , 0, 
8, 1, 8, 8, -1, -5.13399, 1.47276, 2.66154, 1.60442, MSaaap, 0, 0, 0, 0 , , 0, 0, 0, , 0, , 0, 
13, 1, 13, 13, -1, -1.21135, 2.5724, 3.30283, 1.60442, MSaapa, 0, 0, 0, 0 , , 0, 0, 0, , 0, , 0, 
15, 1, 15, 15, -1, -3.33236, 4.62082, 2.06325, 1.60442, MSapaa, 0, 0, 0, 0 , , 0, 0, 0, , 0, , 0, 
2, 1, 2, 2, -1, -3.07479, 3.76789, 0.0341629, 1.77787, ABalpppp, 0, 0, 0, 0 , , 0, 0, 0, , 0, , 0, 
9, 1, 9, 9, -1, -1.25962, 4.96037, 2.2593, 1.60442, MSapap, 0, 0, 0, 0 , , 0, 0, 0, , 0, , 0, 
5, 1, 5, 5, -1, -9.61791, 2.11714, -0.381014, 1.77787, ABalpaap, 0, 0, 0, 0 , , 0, 0, 0, , 0, , 0, 
13, 1, 13, 13, -1, -6.01302, 4.00191, -0.564069, 1.77787, ABalpppa, 0, 0, 0, 0 , , 0, 0, 0, , 0, , 0, 
9, 1, 9, 9, -1, -10.9517, 0.903768, 0.980415, 1.77787, ABalpaaa, 0, 0, 0, 0 , , 0, 0, 0, , 0, , 0, 
4, 1, 4, 4, -1, -6.99334, 4.98973, 1.00572, 1.77787, ABalppap, 0, 0, 0, 0 , , 0, 0, 0, , 0, , 0, 
10, 1, 10, 10, -1, -10.8823, 0.0371941, 0.817141, 1.77787, ABalaaaa, 0, 0, 0, 0 , , 0, 0, 0, , 0, , 0, 
6, 1, 6, 6, -1, 2.87859, -5.91673, -3.07733, 1.69114, ABprapaa, 0, 0, 0, 0 , , 0, 0, 0, , 0, , 0, 
5, 1, 5, 5, -1, 8.27776, -2.12185, -4.02145, 1.84416, Cpaa, 0, 0, 0, 0 , , 0, 0, 0, , 0, , 0, 
2, 1, 2, 2, -1, -0.62558, -3.49144, -2.51697, 1.77787, ABarpapp, 0, 0, 0, 0 , , 0, 0, 0, , 0, , 0, 
6, 1, 6, 6, -1, 6.88759, -4.83407, -3.1917, 1.69114, ABprapap, 0, 0, 0, 0 , , 0, 0, 0, , 0, , 0, 
7, 1, 7, 7, -1, 2.59553, -3.65196, -2.62694, 1.77787, ABarpppa, 0, 0, 0, 0 , , 0, 0, 0, , 0, , 0, 
4, 1, 4, 4, 10, 2.48109, -3.14423, -1.17143, 1.84416, Earp, 0, 0, 0, 0 , , 0, 0, 0, , 0, , 0, 
1, 1, 1, 1, -1, 6.21512, -1.94331, -1.34066, 1.77787, ABarpppp, 0, 0, 0, 0 , , 0, 0, 0, , 0, , 0, 
4, 1, 4, 4, -1, 3.8889, -5.90916, -1.13182, 1.69114, ABpraapp, 0, 0, 0, 0 , , 0, 0, 0, , 0, , 0, 
10, 1, 10, 10, -1, 1.73883, 5.63403, -2.29401, 1.69114, ABplappa, 0, 0, 0, 0 , , 0, 0, 0, , 0, , 0, 
7, 1, 7, 7, -1, 4.93655, 1.24454, -3.55556, 1.84416, Caaa, 0, 0, 0, 0 , , 0, 0, 0, , 0, , 0, 
3, 1, 3, 3, -1, 2.49985, 6.36927, -1.15509, 1.69114, ABplppap, 0, 0, 0, 0 , , 0, 0, 0, , 0, , 0, 
3, 1, 3, 3, -1, 11.6508, 1.17753, -3.01449, 1.84416, Cpap, 0, 0, 0, 0 , , 0, 0, 0, , 0, , 0, 
2, 1, 2, 2, -1, 5.32511, 5.22825, -1.50576, 1.69114, ABplappp, 0, 0, 0, 0 , , 0, 0, 0, , 0, , 0, 
4, 1, 4, 4, -1, 0.88546, 2.66264, -3.44537, 1.69114, ABplapap, 0, 0, 0, 0 , , 0, 0, 0, , 0, , 0, 
1, 1, 1, 1, -1, 10.8285, 4.15225, -1.19232, 1.84416, Capp, 0, 0, 0, 0 , , 0, 0, 0, , 0, , 0, 
4, 1, 4, 4, -1, 2.00646, -0.656595, -3.25508, 1.77787, ABarppap, 0, 0, 0, 0 , , 0, 0, 0, , 0, , 0, 
11, 1, 11, 11, -1, -0.219801, 6.6554, -1.31897, 1.69114, ABplppaa, 0, 0, 0, 0 , , 0, 0, 0, , 0, , 0, 
2, 1, 2, 2, -1, 9.59869, 2.57833, -3.0365, 1.84416, Caap, 0, 0, 0, 0 , , 0, 0, 0, , 0, , 0, 
9, 1, 9, 9, -1, 12.2128, 0.346859, 0.202501, 1.84416, Cppa, 0, 0, 0, 0 , , 0, 0, 0, , 0, , 0, 
10, 1, 10, 10, -1, 7.27833, 5.81773, 1.2316, 2.11972, Da, 0, 0, 0, 0 , , 0, 0, 0, , 0, , 0, 
30, 1, 30, 30, 52, -0.671828, 2.24709, -0.406663, 1.84416, Eala, 0, 0, 0, 0 , , 0, 0, 0, , 0, , 0, 
20, 1, 20, 20, -1, 2.58737, 5.16814, 2.65876, 1.60442, MSappa, 0, 0, 0, 0 , , 0, 0, 0, , 0, , 0, 
14, 1, 14, 14, -1, 1.80789, -0.199459, 3.4638, 1.60442, MSpapa, 0, 0, 0, 0 , , 0, 0, 0, , 0, , 0, 
1, 1, 1, 1, -1, 1.57866, 6.25114, 2.00153, 1.69114, ABplpapp, 0, 0, 0, 0 , , 0, 0, 0, , 0, , 0, 
8, 1, 8, 8, -1, 8.25587, 4.29376, -0.782862, 1.84416, Capa, 0, 0, 0, 0 , , 0, 0, 0, , 0, , 0, 
2, 1, 2, 2, -1, 12.525, 2.52812, -0.605358, 1.84416, Cppp, 0, 0, 0, 0 , , 0, 0, 0, , 0, , 0, 
8, 1, 8, 8, 53, 0.346558, 1.86098, -0.347158, 1.84416, Ealp, 0, 0, 0, 0 , , 0, 0, 0, , 0, , 0, 
15, 1, 15, 15, 54, 6.34455, 3.71855, 4.10729, 2.11972, Z2, 0, 0, 0, 0 , , 0, 0, 0, , 0, , 0, 
1, 1, 1, 1, -1, 6.52626, 6.08545, 2.16225, 1.69114, ABplpppp, 0, 0, 0, 0 , , 0, 0, 0, , 0, , 0, 
12, 1, 12, 12, -1, 4.72513, 7.03145, 0.190055, 1.69114, ABplpppa, 0, 0, 0, 0 , , 0, 0, 0, , 0, , 0, 
21, 1, 21, 21, -1, 5.83506, -0.782036, 3.15666, 1.60442, MSpppa, 0, 0, 0, 0 , , 0, 0, 0, , 0, , 0, 
3, 1, 3, 3, -1, 4.41163, 5.0296, 2.25633, 1.60442, MSappp, 0, 0, 0, 0 , , 0, 0, 0, , 0, , 0, 
1, 1, 1, 1, 55, 6.22292, 5.69161, 5.88465, 2.11972, Z3, 0, 0, 0, 0 , , 0, 0, 0, , 0, , 0, 
6, 1, 6, 6, -1, 10.4318, 0.913932, 3.32965, 2.11972, Dp, 0, 0, 0, 0 , , 0, 0, 0, , 0, , 0, 
44, 1, 44, 44, 56, 3.68015, 3.57164, -0.685448, 1.84416, Epla, 0, 0, 0, 0 , , 0, 0, 0, , 0, , 0, 
1, 1, 1, 1, -1, 8.19783, 0.601839, 4.6587, 1.60442, MSpppp, 0, 0, 0, 0 , , 0, 0, 0, , 0, , 0, 
6, 1, 6, 6, 57, 4.73731, 3.05748, -0.265429, 1.84416, Eplp, 0, 0, 0, 0 , , 0, 0, 0, , 0, , 0, 
5, 1, 5, 5, -1, 1.23528, 2.87922, 3.20938, 1.60442, MSaapp, 0, 0, 0, 0 , , 0, 0, 0, , 0, , 0, 
7, 1, 7, 7, -1, 4.19294, 0.24647, 3.52748, 1.60442, MSpapp, 0, 0, 0, 0 , , 0, 0, 0, , 0, , 0, 
2, 1, 2, 2, -1, 10.6548, -2.29122, -0.597284, 1.69114, ABprappp, 0, 0, 0, 0 , , 0, 0, 0, , 0, , 0, 
13, 1, 13, 13, -1, 0.469679, -6.57349, -0.688263, 1.69114, ABpraapa, 0, 0, 0, 0 , , 0, 0, 0, , 0, , 0, 
11, 1, 11, 11, -1, 4.4779, -5.18598, 3.25397, 1.69114, ABprpapa, 0, 0, 0, 0 , , 0, 0, 0, , 0, , 0, 
5, 1, 5, 5, -1, 7.26412, -3.8024, 3.21452, 1.69114, ABprpapp, 0, 0, 0, 0 , , 0, 0, 0, , 0, , 0, 
7, 1, 7, 7, -1, 9.36668, -4.16279, 0.989898, 1.69114, ABprppap, 0, 0, 0, 0 , , 0, 0, 0, , 0, , 0, 
1, 1, 1, 1, -1, 10.5571, -1.67571, 2.73839, 1.69114, ABprpppp, 0, 0, 0, 0 , , 0, 0, 0, , 0, , 0, 
1, 1, 1, 1, -1, 7.56329, -1.85153, 0.52286, 2.11972, Epr, 0, 0, 0, 0 , , 0, 0, 0, , 0, , 0, 
5, 1, 5, 5, -1, 3.68093, -6.82711, 0.762002, 1.69114, ABprpaap, 0, 0, 0, 0 , , 0, 0, 0, , 0, , 0, 
15, 1, 15, 15, -1, 7.31149, -5.99694, 1.77662, 1.69114, ABprppaa, 0, 0, 0, 0 , , 0, 0, 0, , 0, , 0, 
14, 1, 14, 14, -1, 8.25877, -5.35461, -0.992563, 1.69114, ABprappa, 0, 0, 0, 0 , , 0, 0, 0, , 0, , 0, 
9, 1, 9, 9, -1, 2.70423, -3.27083, 1.99087, 1.60442, MSppap, 0, 0, 0, 0 , , 0, 0, 0, , 0, , 0, 
17, 1, 17, 17, 22, 0.387723, -3.07943, -0.932643, 1.84416, Eara, 0, 0, 0, 0 , , 0, 0, 0, , 0, , 0, 
3, 1, 3, 3, -1, 0.447704, -5.10473, 1.50842, 1.77787, ABarappp, 0, 0, 0, 0 , , 0, 0, 0, , 0, , 0, 
16, 1, 16, 16, -1, 0.921555, -4.03927, 2.29963, 1.60442, MSppaa, 0, 0, 0, 0 , , 0, 0, 0, , 0, , 0, 
11, 1, 11, 11, -1, 10.8669, -3.30047, 1.78103, 1.69114, ABprpppa, 0, 0, 0, 0 , , 0, 0, 0, , 0, , 0, 
12, 1, 12, 12, -1, 0.311575, -7.18595, 1.39708, 1.69114, ABprpaaa, 0, 0, 0, 0 , , 0, 0, 0, , 0, , 0, 
