2, 1, 2, 2, 162, -4.5297, -4.33007, -1.48712, 1.54674, ABalaappp, 0, 0, 0, 0 , , 0, 0, 0, , 0, , 0, 
3, 1, 3, 3, 163, -2.48785, -1.52276, -2.09677, 1.54674, ABalapppp, 0, 0, 0, 0 , , 0, 0, 0, , 0, , 0, 
50, 1, 50, 50, 164, -9.61705, -2.69747, -1.9416, 1.54674, ABalaaapa, 0, 0, 0, 0 , , 0, 0, 0, , 0, , 0, 
8, 1, 8, 8, 165, -2.10118, -6.1655, -2.74503, 1.47129, ABpraaapp, 0, 0, 0, 0 , , 0, 0, 0, , 0, , 0, 
38, 1, 38, 38, 166, -1.01482, -4.16344, -3.94544, 1.54674, ABarpappa, 0, 0, 0, 0 , , 0, 0, 0, , 0, , 0, 
13, 1, 13, 13, 167, -3.46386, -1.5303, -1.91013, 1.54674, ABalapppa, 0, 0, 0, 0 , , 0, 0, 0, , 0, , 0, 
35, 1, 35, 35, 168, -3.07009, -6.40275, -2.43692, 1.47129, ABpraaapa, 0, 0, 0, 0 , , 0, 0, 0, , 0, , 0, 
4, 1, 4, 4, 169, -2.64393, -1.77736, -3.97234, 1.54674, ABarpaapp, 0, 0, 0, 0 , , 0, 0, 0, , 0, , 0, 
20, 1, 20, 20, 170, -5.44063, -4.33058, -3.10957, 1.54674, ABarpapaa, 0, 0, 0, 0 , , 0, 0, 0, , 0, , 0, 
22, 1, 22, 22, 171, -5.62123, -4.52477, -1.36748, 1.54674, ABalaappa, 0, 0, 0, 0 , , 0, 0, 0, , 0, , 0, 
70, 1, 70, 70, 172, -9.14118, -1.51524, -2.56831, 1.54674, ABalappaa, 0, 0, 0, 0 , , 0, 0, 0, , 0, , 0, 
50, 1, 50, 50, 173, -1.22047, -6.7309, -2.23304, 1.47129, ABpraapaa, 0, 0, 0, 0 , , 0, 0, 0, , 0, , 0, 
12, 1, 12, 12, 174, -7.93212, -1.42225, -2.7943, 1.54674, ABalappap, 0, 0, 0, 0 , , 0, 0, 0, , 0, , 0, 
10, 1, 10, 10, 175, -3.62799, -1.88371, -4.13772, 1.54674, ABarpaapa, 0, 0, 0, 0 , , 0, 0, 0, , 0, , 0, 
6, 1, 6, 6, 176, -8.63088, -2.9228, -2.16665, 1.54674, ABalaaapp, 0, 0, 0, 0 , , 0, 0, 0, , 0, , 0, 
6, 1, 6, 6, 177, -4.39327, -4.21532, -3.35378, 1.54674, ABarpapap, 0, 0, 0, 0 , , 0, 0, 0, , 0, , 0, 
3, 1, 3, 3, 207, -3.68015, 2.20356, -3.94507, 1.47129, ABplaaapp, 0, 0, 0, 0 , , 0, 0, 0, , 0, , 0, 
69, 1, 69, 69, 208, -4.35655, 6.73154, -1.02666, 1.47129, ABplpaapa, 0, 0, 0, 0 , , 0, 0, 0, , 0, , 0, 
14, 1, 14, 14, 209, -7.18468, 4.19489, -3.48656, 1.47129, ABplaapaa, 0, 0, 0, 0 , , 0, 0, 0, , 0, , 0, 
2, 1, 2, 2, 210, -1.8813, 4.96329, -2.46324, 1.47129, ABplaappp, 0, 0, 0, 0 , , 0, 0, 0, , 0, , 0, 
6, 1, 6, 6, 211, -6.27163, 4.39444, -3.65926, 1.47129, ABplaapap, 0, 0, 0, 0 , , 0, 0, 0, , 0, , 0, 
34, 1, 34, 34, 212, -1.98433, 4.02116, -4.44123, 1.47129, ABplapaaa, 0, 0, 0, 0 , , 0, 0, 0, , 0, , 0, 
6, 1, 6, 6, 213, -7.1672, -0.524968, -3.83369, 1.54674, ABarpaaap, 0, 0, 0, 0 , , 0, 0, 0, , 0, , 0, 
45, 1, 45, 45, 214, -9.51862, -0.0816551, -2.61952, 1.54674, ABalapaaa, 0, 0, 0, 0 , , 0, 0, 0, , 0, , 0, 
9, 1, 9, 9, 215, -9.13845, 0.673656, -3.20625, 1.54674, ABalapaap, 0, 0, 0, 0 , , 0, 0, 0, , 0, , 0, 
21, 1, 21, 21, 216, -6.64615, 0.0698404, -3.75694, 1.54674, ABalapapa, 0, 0, 0, 0 , , 0, 0, 0, , 0, , 0, 
112, 1, 112, 112, 217, -8.29292, -0.558211, -3.47844, 1.54674, ABarpaaaa, 0, 0, 0, 0 , , 0, 0, 0, , 0, , 0, 
3, 1, 3, 3, 218, -5.69292, 0.38366, -4.02473, 1.54674, ABalapapp, 0, 0, 0, 0 , , 0, 0, 0, , 0, , 0, 
13, 1, 13, 13, 219, -7.18056, 3.18212, -1.00324, 1.54674, ABalpppap, 0, 0, 0, 0 , , 0, 0, 0, , 0, , 0, 
18, 1, 18, 18, 220, -9.02742, 2.41065, -3.17557, 1.47129, ABplaaaaa, 0, 0, 0, 0 , , 0, 0, 0, , 0, , 0, 
30, 1, 30, 30, 221, -1.37326, 1.69415, -1.43269, 1.84416, Eala, 0, 0, 0, 0 , , 0, 0, 0, , 0, , 0, 
11, 1, 11, 11, 222, -4.56998, 2.16312, -4.08991, 1.47129, ABplaaapa, 0, 0, 0, 0 , , 0, 0, 0, , 0, , 0, 
5, 1, 5, 5, 223, -8.23124, 2.6373, -3.59011, 1.47129, ABplaaaap, 0, 0, 0, 0 , , 0, 0, 0, , 0, , 0, 
10, 1, 10, 10, 224, -2.71852, 4.77743, -2.62149, 1.47129, ABplaappa, 0, 0, 0, 0 , , 0, 0, 0, , 0, , 0, 
30, 1, 30, 30, 172, -9.30008, -1.23725, 3.13437, 1.54674, ABaraapaa, 0, 0, 0, 0 , , 0, 0, 0, , 0, , 0, 
12, 1, 12, 12, 173, -1.281, -7.30145, 0.748451, 1.47129, ABprpaaap, 0, 0, 0, 0 , , 0, 0, 0, , 0, , 0, 
8, 1, 8, 8, 174, -5.7958, -3.0696, 4.14373, 1.54674, ABarapaap, 0, 0, 0, 0 , , 0, 0, 0, , 0, , 0, 
5, 1, 5, 5, 175, -6.28448, -4.4634, 1.84338, 1.54674, ABaraaapp, 0, 0, 0, 0 , , 0, 0, 0, , 0, , 0, 
196, 1, 196, 196, 176, -9.25475, -1.02116, 0.58754, 1.39584, MSaaaaa, 0, 0, 0, 0 , , 0, 0, 0, , 0, , 0, 
83, 1, 83, 83, 177, -9.21135, -3.48234, 0.488187, 1.54674, ABalaapaa, 0, 0, 0, 0 , , 0, 0, 0, , 0, , 0, 
10, 1, 10, 10, 178, -2.04007, -6.06353, 2.97833, 1.54674, ABarappap, 0, 0, 0, 0 , , 0, 0, 0, , 0, , 0, 
11, 1, 11, 11, 179, -8.12099, -3.92305, 0.276179, 1.54674, ABalaapap, 0, 0, 0, 0 , , 0, 0, 0, , 0, , 0, 
4, 1, 4, 4, 180, -1.73134, -3.68029, 3.49165, 1.54674, ABarapapp, 0, 0, 0, 0 , , 0, 0, 0, , 0, , 0, 
12, 1, 12, 12, 181, -2.19321, -7.31975, 0.697277, 1.47129, ABprpaaaa, 0, 0, 0, 0 , , 0, 0, 0, , 0, , 0, 
7, 1, 7, 7, -1, -1.79939, -1.21751, 1.54124, 1.60442, MSpaap, 0, 0, 0, 0 , , 0, 0, 0, , 0, , 0, 
40, 1, 40, 40, 182, -3.09946, -6.00232, 2.78536, 1.54674, ABarappaa, 0, 0, 0, 0 , , 0, 0, 0, , 0, , 0, 
16, 1, 16, 16, -1, -3.91093, -4.53141, 0.857543, 1.60442, MSppaa, 0, 0, 0, 0 , , 0, 0, 0, , 0, , 0, 
10, 1, 10, 10, 183, -5.82128, -6.11331, -0.50977, 1.47129, ABpraaaap, 0, 0, 0, 0 , , 0, 0, 0, , 0, , 0, 
103, 1, 103, 103, 184, -6.83765, -5.81192, -0.108779, 1.47129, ABpraaaaa, 0, 0, 0, 0 , , 0, 0, 0, , 0, , 0, 
29, 1, 29, 29, 185, -6.80592, -3.17657, 3.80837, 1.54674, ABarapaaa, 0, 0, 0, 0 , , 0, 0, 0, , 0, , 0, 
147, 1, 147, 147, 186, -6.02888, -2.93661, 0.689203, 1.39584, MSpaaaa, 0, 0, 0, 0 , , 0, 0, 0, , 0, , 0, 
11, 1, 11, 11, 187, -5.15267, -2.83559, 0.206204, 1.39584, MSpaaap, 0, 0, 0, 0 , , 0, 0, 0, , 0, , 0, 
15, 1, 15, 15, 188, -2.65615, -4.04033, 3.49733, 1.54674, ABarapapa, 0, 0, 0, 0 , , 0, 0, 0, , 0, , 0, 
13, 1, 13, 13, 189, -7.27449, -4.28482, 1.64917, 1.54674, ABaraaapa, 0, 0, 0, 0 , , 0, 0, 0, , 0, , 0, 
271, 1, 271, 271, 279, -1.18762, 7.36813, 0.904012, 1.47129, ABplppaaa, 0, 0, 0, 0 , , 0, 0, 0, , 0, , 0, 
16, 1, 16, 16, 280, -4.02155, 3.22214, -0.584318, 1.54674, ABalppppa, 0, 0, 0, 0 , , 0, 0, 0, , 0, , 0, 
27, 1, 27, 27, 281, -7.06057, 4.57661, 2.12237, 1.54674, ABalppapa, 0, 0, 0, 0 , , 0, 0, 0, , 0, , 0, 
9, 1, 9, 9, 282, -9.98648, -0.893788, 2.88115, 1.54674, ABaraaaap, 0, 0, 0, 0 , , 0, 0, 0, , 0, , 0, 
19, 1, 19, 19, 283, -7.01303, 2.74055, 3.62811, 1.54674, ABalpappa, 0, 0, 0, 0 , , 0, 0, 0, , 0, , 0, 
14, 1, 14, 14, 284, -8.25954, -0.681126, 0.0982815, 1.39584, MSaaaap, 0, 0, 0, 0 , , 0, 0, 0, , 0, , 0, 
4, 1, 4, 4, 285, -6.05801, 3.09967, 3.66297, 1.54674, ABalpappp, 0, 0, 0, 0 , , 0, 0, 0, , 0, , 0, 
9, 1, 9, 9, -1, -1.43353, 4.34043, 0.630517, 1.60442, MSapap, 0, 0, 0, 0 , , 0, 0, 0, , 0, , 0, 
175, 1, 175, 175, 286, -10.8745, -0.944541, 2.04813, 1.54674, ABaraaaaa, 0, 0, 0, 0 , , 0, 0, 0, , 0, , 0, 
34, 1, 34, 34, 287, -7.30041, 6.24472, 0.746904, 1.47129, ABplpaaaa, 0, 0, 0, 0 , , 0, 0, 0, , 0, , 0, 
5, 1, 5, 5, 288, -9.21129, 2.2474, -0.041712, 1.54674, ABalpaapp, 0, 0, 0, 0 , , 0, 0, 0, , 0, , 0, 
12, 1, 12, 12, 289, -3.58807, 6.36698, 2.54951, 1.47129, ABplpapap, 0, 0, 0, 0 , , 0, 0, 0, , 0, , 0, 
15, 1, 15, 15, -1, -5.52002, 3.23393, 0.906756, 1.60442, MSapaa, 0, 0, 0, 0 , , 0, 0, 0, , 0, , 0, 
4, 1, 4, 4, 290, -6.29076, 4.68447, 2.74326, 1.54674, ABalppapp, 0, 0, 0, 0 , , 0, 0, 0, , 0, , 0, 
31, 1, 31, 31, 291, -10.8734, 0.959641, 2.52953, 1.54674, ABalpapaa, 0, 0, 0, 0 , , 0, 0, 0, , 0, , 0, 
17, 1, 17, 17, 292, -9.83127, 1.578, -0.48995, 1.54674, ABalpaapa, 0, 0, 0, 0 , , 0, 0, 0, , 0, , 0, 
9, 1, 9, 9, 293, -10.8226, 0.745724, 2.37644, 1.54674, ABalpaaap, 0, 0, 0, 0 , , 0, 0, 0, , 0, , 0, 
8, 1, 8, 8, 294, -3.66991, 0.240262, 1.11202, 1.60442, MSaaap, 0, 0, 0, 0 , , 0, 0, 0, , 0, , 0, 
3, 1, 3, 3, 295, -3.43032, -0.795342, 3.92975, 1.54674, ABaraappp, 0, 0, 0, 0 , , 0, 0, 0, , 0, , 0, 
50, 1, 50, 50, 296, -4.60757, 6.25592, 2.43215, 1.47129, ABplpapaa, 0, 0, 0, 0 , , 0, 0, 0, , 0, , 0, 
8, 1, 8, 8, 297, -6.34623, 6.37743, 0.709464, 1.47129, ABplpaaap, 0, 0, 0, 0 , , 0, 0, 0, , 0, , 0, 
98, 1, 98, 98, 298, -11.1227, -0.328824, 1.98882, 1.54674, ABalpaaaa, 0, 0, 0, 0 , , 0, 0, 0, , 0, , 0, 
7, 1, 7, 7, 299, -8.32584, -0.894419, 3.36608, 1.54674, ABaraapap, 0, 0, 0, 0 , , 0, 0, 0, , 0, , 0, 
38, 1, 38, 38, 300, -8.17267, 2.83094, -0.888184, 1.54674, ABalpppaa, 0, 0, 0, 0 , , 0, 0, 0, , 0, , 0, 
9, 1, 9, 9, 301, -10.0605, 1.32634, 3.1402, 1.54674, ABalpapap, 0, 0, 0, 0 , , 0, 0, 0, , 0, , 0, 
5, 1, 5, 5, 302, -3.30267, 6.81748, -0.89555, 1.47129, ABplpaapp, 0, 0, 0, 0 , , 0, 0, 0, , 0, , 0, 
156, 1, 156, 156, 303, -9.6386, 4.42322, 1.06128, 1.54674, ABalppaaa, 0, 0, 0, 0 , , 0, 0, 0, , 0, , 0, 
107, 1, 107, 107, 304, -10.6145, 0.171428, -0.234646, 1.54674, ABalaaaal, 0, 0, 0, 0 , , 0, 0, 0, , 0, , 0, 
7, 1, 7, 7, 305, -8.63325, 4.99338, 1.47643, 1.54674, ABalppaap, 0, 0, 0, 0 , , 0, 0, 0, , 0, , 0, 
213, 1, 213, 213, 306, -1.8595, 2.04676, 3.2776, 1.39584, MSaapaa, 0, 0, 0, 0 , , 0, 0, 0, , 0, , 0, 
10, 1, 10, 10, 307, -10.7354, -0.273698, 0.764652, 1.54674, ABalaaaar, 0, 0, 0, 0 , , 0, 0, 0, , 0, , 0, 
2, 1, 2, 2, 308, -3.1025, 3.33548, -0.523353, 1.54674, ABalppppp, 0, 0, 0, 0 , , 0, 0, 0, , 0, , 0, 
36, 1, 36, 36, 309, -4.49024, -0.995363, 3.88459, 1.54674, ABaraappa, 0, 0, 0, 0 , , 0, 0, 0, , 0, , 0, 
4, 1, 4, 4, 196, 4.32712, -5.78399, -2.3732, 1.47129, ABpraappp, 0, 0, 0, 0 , , 0, 0, 0, , 0, , 0, 
2, 1, 2, 2, 197, -0.0222404, -3.94577, -3.89926, 1.54674, ABarpappp, 0, 0, 0, 0 , , 0, 0, 0, , 0, , 0, 
6, 1, 6, 6, 198, 3.00615, -5.0965, -4.19561, 1.47129, ABprapaap, 0, 0, 0, 0 , , 0, 0, 0, , 0, , 0, 
5, 1, 5, 5, 199, 8.89641, -1.63247, -3.94299, 1.60442, Cpaap, 0, 0, 0, 0 , , 0, 0, 0, , 0, , 0, 
110, 1, 110, 110, 200, 1.84533, -2.91016, -3.92321, 1.54674, ABarpppaa, 0, 0, 0, 0 , , 0, 0, 0, , 0, , 0, 
14, 1, 14, 14, 201, 8.34071, -5.98989, -1.2526, 1.47129, ABprappap, 0, 0, 0, 0 , , 0, 0, 0, , 0, , 0, 
103, 1, 103, 103, 202, 6.3371, -1.36076, -3.32828, 1.54674, ABarppppa, 0, 0, 0, 0 , , 0, 0, 0, , 0, , 0, 
13, 1, 13, 13, 203, -0.275286, -6.56737, -2.50475, 1.47129, ABpraapap, 0, 0, 0, 0 , , 0, 0, 0, , 0, , 0, 
22, 1, 22, 22, 204, 7.9941, -2.03821, -4.16115, 1.60442, Cpaaa, 0, 0, 0, 0 , , 0, 0, 0, , 0, , 0, 
23, 1, 23, 23, 205, 7.21239, -4.53729, -3.93785, 1.47129, ABprapapa, 0, 0, 0, 0 , , 0, 0, 0, , 0, , 0, 
17, 1, 17, 17, 206, -0.938014, -2.2714, -1.55959, 1.84416, Eara, 0, 0, 0, 0 , , 0, 0, 0, , 0, , 0, 
55, 1, 55, 55, 207, 2.01815, -5.34662, -4.20674, 1.47129, ABprapaaa, 0, 0, 0, 0 , , 0, 0, 0, , 0, , 0, 
32, 1, 32, 32, 208, 3.38853, -6.06727, -2.38678, 1.47129, ABpraappa, 0, 0, 0, 0 , , 0, 0, 0, , 0, , 0, 
1, 1, 1, 1, 209, 7.54191, -1.06895, -3.08093, 1.54674, ABarppppp, 0, 0, 0, 0 , , 0, 0, 0, , 0, , 0, 
6, 1, 6, 6, 210, 7.98569, -4.08265, -3.86445, 1.47129, ABprapapp, 0, 0, 0, 0 , , 0, 0, 0, , 0, , 0, 
66, 1, 66, 66, 211, 7.45806, -6.60999, -1.22882, 1.47129, ABprappaa, 0, 0, 0, 0 , , 0, 0, 0, , 0, , 0, 
7, 1, 7, 7, 212, 3.05378, -2.53507, -3.79699, 1.54674, ABarpppap, 0, 0, 0, 0 , , 0, 0, 0, , 0, , 0, 
15, 1, 15, 15, 256, 4.6476, -6.74033, 2.42921, 1.47129, ABprppaap, 0, 0, 0, 0 , , 0, 0, 0, , 0, , 0, 
40, 1, 40, 40, 257, -0.372692, -5.59612, 1.08356, 1.54674, ABarapppa, 0, 0, 0, 0 , , 0, 0, 0, , 0, , 0, 
159, 1, 159, 159, 258, 11.3127, -3.01515, -0.671459, 1.47129, ABprapppa, 0, 0, 0, 0 , , 0, 0, 0, , 0, , 0, 
140, 1, 140, 140, 259, 7.20896, -4.84404, 0.937984, 1.47129, ABprppapa, 0, 0, 0, 0 , , 0, 0, 0, , 0, , 0, 
2, 1, 2, 2, 260, 11.7936, -1.99991, -0.266663, 1.47129, ABprapppp, 0, 0, 0, 0 , , 0, 0, 0, , 0, , 0, 
23, 1, 23, 23, 261, 7.1937, -2.18366, 0.658708, 1.84416, Epra, 0, 0, 0, 0 , , 0, 0, 0, , 0, , 0, 
11, 1, 11, 11, 262, 10.5489, -4.78168, 1.70768, 1.47129, ABprpppap, 0, 0, 0, 0 , , 0, 0, 0, , 0, , 0, 
3, 1, 3, 3, 263, 0.528001, -5.45636, 1.31557, 1.54674, ABarapppp, 0, 0, 0, 0 , , 0, 0, 0, , 0, , 0, 
191, 1, 191, 191, 264, -0.080449, -1.48688, 3.62988, 1.39584, MSpapaa, 0, 0, 0, 0 , , 0, 0, 0, , 0, , 0, 
9, 1, 9, 9, -1, -0.348351, -4.2997, -0.381745, 1.60442, MSppap, 0, 0, 0, 0 , , 0, 0, 0, , 0, , 0, 
4, 1, 4, 4, 265, 2.48592, -1.71336, -0.478075, 1.84416, Earp, 0, 0, 0, 0 , , 0, 0, 0, , 0, , 0, 
1, 1, 1, 1, 266, 8.01299, -1.71509, 0.477163, 1.84416, Eprp, 0, 0, 0, 0 , , 0, 0, 0, , 0, , 0, 
1, 1, 1, 1, 267, 10.2071, -1.85197, 3.51837, 1.47129, ABprppppp, 0, 0, 0, 0 , , 0, 0, 0, , 0, , 0, 
5, 1, 5, 5, 268, 6.19832, -4.14915, 3.39396, 1.47129, ABprpappp, 0, 0, 0, 0 , , 0, 0, 0, , 0, , 0, 
1, 1, 1, 1, -1, 4.79184, -2.88309, 1.95214, 1.60442, MSpppp, 0, 0, 0, 0 , , 0, 0, 0, , 0, , 0, 
41, 1, 41, 41, 269, 2.18395, -7.2802, -0.068295, 1.47129, ABprpaapa, 0, 0, 0, 0 , , 0, 0, 0, , 0, , 0, 
7, 1, 7, 7, 270, 8.24529, -4.35519, 0.911808, 1.47129, ABprppapp, 0, 0, 0, 0 , , 0, 0, 0, , 0, , 0, 
70, 1, 70, 70, 271, 1.00905, -6.4226, 3.28242, 1.47129, ABprpapaa, 0, 0, 0, 0 , , 0, 0, 0, , 0, , 0, 
14, 1, 14, 14, 272, 1.09385, -1.32163, 3.4694, 1.39584, MSpapap, 0, 0, 0, 0 , , 0, 0, 0, , 0, , 0, 
9, 1, 9, 9, -1, 11.4791, -1.45303, 3.09333, 1.84416, Cppa, 0, 0, 0, 0 , , 0, 0, 0, , 0, , 0, 
74, 1, 74, 74, 273, 9.84211, -5.4502, 1.79135, 1.47129, ABprpppaa, 0, 0, 0, 0 , , 0, 0, 0, , 0, , 0, 
11, 1, 11, 11, 274, 2.01945, -6.20511, 3.32524, 1.47129, ABprpapap, 0, 0, 0, 0 , , 0, 0, 0, , 0, , 0, 
44, 1, 44, 44, 275, 5.34223, -4.45681, 3.49952, 1.47129, ABprpappa, 0, 0, 0, 0 , , 0, 0, 0, , 0, , 0, 
76, 1, 76, 76, 276, 9.73112, -2.75223, 3.44892, 1.47129, ABprppppa, 0, 0, 0, 0 , , 0, 0, 0, , 0, , 0, 
21, 1, 21, 21, -1, 2.16411, -2.734, 2.26024, 1.60442, MSpppa, 0, 0, 0, 0 , , 0, 0, 0, , 0, , 0, 
176, 1, 176, 176, 277, 3.55167, -7.12676, 2.07282, 1.47129, ABprppaaa, 0, 0, 0, 0 , , 0, 0, 0, , 0, , 0, 
5, 1, 5, 5, 278, 3.02508, -7.10455, 0.0590081, 1.47129, ABprpaapp, 0, 0, 0, 0 , , 0, 0, 0, , 0, , 0, 
2, 1, 2, 2, 201, 12.5083, 3.83503, -2.30901, 1.60442, Caapp, 0, 0, 0, 0 , , 0, 0, 0, , 0, , 0, 
7, 1, 7, 7, 202, 6.36611, 2.14571, -3.38408, 1.60442, Caaap, 0, 0, 0, 0 , , 0, 0, 0, , 0, , 0, 
65, 1, 65, 65, 203, -0.909377, 0.830721, -3.91143, 1.54674, ABarppaaa, 0, 0, 0, 0 , , 0, 0, 0, , 0, , 0, 
44, 1, 44, 44, 204, 4.38943, 2.15972, -1.46922, 1.84416, Epla, 0, 0, 0, 0 , , 0, 0, 0, , 0, , 0, 
7, 1, 7, 7, 205, 0.23342, 0.973374, -3.89803, 1.54674, ABarppaap, 0, 0, 0, 0 , , 0, 0, 0, , 0, , 0, 
184, 1, 184, 184, 206, 7.6844, 6.19443, -1.098, 1.47129, ABplapppa, 0, 0, 0, 0 , , 0, 0, 0, , 0, , 0, 
25, 1, 25, 25, 207, 2.41119, 6.9474, -1.95383, 1.47129, ABplappaa, 0, 0, 0, 0 , , 0, 0, 0, , 0, , 0, 
4, 1, 4, 4, 208, 3.53864, 4.43006, -3.45478, 1.47129, ABplapapp, 0, 0, 0, 0 , , 0, 0, 0, , 0, , 0, 
10, 1, 10, 10, 209, 3.37751, 6.88102, -1.80327, 1.47129, ABplappap, 0, 0, 0, 0 , , 0, 0, 0, , 0, , 0, 
17, 1, 17, 17, 210, 5.42105, 1.80839, -3.6645, 1.60442, Caaaa, 0, 0, 0, 0 , , 0, 0, 0, , 0, , 0, 
20, 1, 20, 20, 211, 2.63316, 4.15017, -3.53614, 1.47129, ABplapapa, 0, 0, 0, 0 , , 0, 0, 0, , 0, , 0, 
13, 1, 13, 13, 212, 12.1831, 1.61161, -3.22413, 1.60442, Cpapa, 0, 0, 0, 0 , , 0, 0, 0, , 0, , 0, 
50, 1, 50, 50, 213, 12.2779, 3.69297, -3.4025, 1.60442, Caapa, 0, 0, 0, 0 , , 0, 0, 0, , 0, , 0, 
42, 1, 42, 42, 214, 3.27684, 1.83906, -3.5676, 1.54674, ABarppapa, 0, 0, 0, 0 , , 0, 0, 0, , 0, , 0, 
8, 1, 8, 8, 215, -0.961451, 4.13315, -4.44129, 1.47129, ABplapaap, 0, 0, 0, 0 , , 0, 0, 0, , 0, , 0, 
4, 1, 4, 4, 216, 4.34812, 2.07234, -3.34445, 1.54674, ABarppapp, 0, 0, 0, 0 , , 0, 0, 0, , 0, , 0, 
3, 1, 3, 3, 217, 12.5657, 2.0955, -2.52396, 1.60442, Cpapp, 0, 0, 0, 0 , , 0, 0, 0, , 0, , 0, 
7, 1, 7, 7, -1, 4.45245, -0.758747, 3.65761, 1.60442, MSpapp, 0, 0, 0, 0 , , 0, 0, 0, , 0, , 0, 
3, 1, 3, 3, 350, 3.62726, 6.49673, 0.0308675, 1.47129, ABplppapp, 0, 0, 0, 0 , , 0, 0, 0, , 0, , 0, 
247, 1, 247, 247, 351, 11.1964, 4.38047, 0.324844, 1.60442, Cappa, 0, 0, 0, 0 , , 0, 0, 0, , 0, , 0, 
145, 1, 145, 145, 352, 6.08732, 6.0392, 3.25635, 1.47129, ABplppppa, 0, 0, 0, 0 , , 0, 0, 0, , 0, , 0, 
65, 1, 65, 65, 353, 6.53477, 6.03247, 1.43711, 1.84416, Daa, 0, 0, 0, 0 , , 0, 0, 0, , 0, , 0, 
3, 1, 3, 3, -1, 3.18128, 4.80169, 1.0218, 1.60442, MSappp, 0, 0, 0, 0 , , 0, 0, 0, , 0, , 0, 
1, 1, 1, 1, 354, 6.97166, 5.68173, 3.23355, 1.47129, ABplppppp, 0, 0, 0, 0 , , 0, 0, 0, , 0, , 0, 
5, 1, 5, 5, -1, 2.92759, 2.05287, 3.77763, 1.60442, MSaapp, 0, 0, 0, 0 , , 0, 0, 0, , 0, , 0, 
72, 1, 72, 72, 355, 10.1042, 0.192897, 3.73317, 1.84416, Dpa, 0, 0, 0, 0 , , 0, 0, 0, , 0, , 0, 
13, 1, 13, 13, 356, -0.683289, 2.09953, 3.26498, 1.39584, MSaapap, 0, 0, 0, 0 , , 0, 0, 0, , 0, , 0, 
8, 1, 8, 8, 357, 1.39717, 2.39676, -0.319393, 1.84416, Ealp, 0, 0, 0, 0 , , 0, 0, 0, , 0, , 0, 
12, 1, 12, 12, 358, 4.81737, 7.19078, 1.23147, 1.47129, ABplpppap, 0, 0, 0, 0 , , 0, 0, 0, , 0, , 0, 
1, 1, 1, 1, 359, 12.1189, 4.16149, 1.28435, 1.60442, Cappp, 0, 0, 0, 0 , , 0, 0, 0, , 0, , 0, 
206, 1, 206, 206, 360, 3.79135, 7.39835, 1.48143, 1.47129, ABplpppaa, 0, 0, 0, 0 , , 0, 0, 0, , 0, , 0, 
2, 1, 2, 2, 361, 12.3636, 1.47085, 0.975494, 1.60442, Cpppp, 0, 0, 0, 0 , , 0, 0, 0, , 0, , 0, 
2, 1, 2, 2, 362, 8.61914, 5.91644, -0.624985, 1.47129, ABplapppp, 0, 0, 0, 0 , , 0, 0, 0, , 0, , 0, 
277, 1, 277, 277, 363, 11.7083, 0.588019, 0.346126, 1.60442, Cpppa, 0, 0, 0, 0 , , 0, 0, 0, , 0, , 0, 
20, 1, 20, 20, -1, 0.870159, 4.14167, 2.41254, 1.60442, MSappa, 0, 0, 0, 0 , , 0, 0, 0, , 0, , 0, 
6, 1, 6, 6, 364, 7.68178, 2.03634, -0.408551, 1.84416, Eplp, 0, 0, 0, 0 , , 0, 0, 0, , 0, , 0, 
131, 1, 131, 131, 365, 0.369847, 5.95304, 3.13772, 1.47129, ABplpappa, 0, 0, 0, 0 , , 0, 0, 0, , 0, , 0, 
11, 1, 11, 11, 366, 0.0535598, 7.42824, 0.908396, 1.47129, ABplppaap, 0, 0, 0, 0 , , 0, 0, 0, , 0, , 0, 
166, 1, 166, 166, 367, 2.62095, 6.44263, -0.0518968, 1.47129, ABplppapa, 0, 0, 0, 0 , , 0, 0, 0, , 0, , 0, 
15, 1, 15, 15, 368, 6.98475, 2.97432, 3.54189, 2.11972, Z2, 0, 0, 0, 0 , , 0, 0, 0, , 0, , 0, 
10, 1, 10, 10, 369, 7.48836, 5.8295, 1.23191, 1.84416, Dap, 0, 0, 0, 0 , , 0, 0, 0, , 0, , 0, 
1, 1, 1, 1, 370, 1.31557, 5.98907, 3.10625, 1.47129, ABplpappp, 0, 0, 0, 0 , , 0, 0, 0, , 0, , 0, 
6, 1, 6, 6, 371, 10.7335, 0.847877, 3.34572, 1.84416, Dpp, 0, 0, 0, 0 , , 0, 0, 0, , 0, , 0, 
8, 1, 8, 8, -1, 8.821, 4.22249, 2.49638, 1.84416, Capa, 0, 0, 0, 0 , , 0, 0, 0, , 0, , 0, 
1, 1, 1, 1, 372, 3.87985, 4.18447, 3.7874, 2.11972, Z3, 0, 0, 0, 0 , , 0, 0, 0, , 0, , 0, 
