2, 1, 2, 2, 209, -4.58299, -4.33985, -1.48138, 1.54674, ABalaappp, 0, 0, 0, 0 , , 0, 0, 0, , 0, , 0, 
4, 1, 4, 4, 210, -2.69893, -1.78319, -3.98171, 1.54674, ABarpaapp, 0, 0, 0, 0 , , 0, 0, 0, , 0, , 0, 
22, 1, 22, 22, 211, -5.57376, -4.51658, -1.37279, 1.54674, ABalaappa, 0, 0, 0, 0 , , 0, 0, 0, , 0, , 0, 
70, 1, 70, 70, 212, -9.09441, -1.51171, -2.57729, 1.54674, ABalappaa, 0, 0, 0, 0 , , 0, 0, 0, , 0, , 0, 
17, 1, 17, 17, 213, -1.11793, -2.16175, -1.64467, 1.84416, Eara, 0, 0, 0, 0 , , 0, 0, 0, , 0, , 0, 
20, 1, 20, 20, 214, -5.39311, -4.32536, -3.1207, 1.54674, ABarpapaa, 0, 0, 0, 0 , , 0, 0, 0, , 0, , 0, 
35, 1, 35, 35, 215, -3.0301, -6.39295, -2.44973, 1.47129, ABpraaapa, 0, 0, 0, 0 , , 0, 0, 0, , 0, , 0, 
50, 1, 50, 50, 216, -1.17962, -6.72383, -2.24489, 1.47129, ABpraapaa, 0, 0, 0, 0 , , 0, 0, 0, , 0, , 0, 
8, 1, 8, 8, 217, -2.14853, -6.17708, -2.73006, 1.47129, ABpraaapp, 0, 0, 0, 0 , , 0, 0, 0, , 0, , 0, 
50, 1, 50, 50, 218, -9.57551, -2.70716, -1.95128, 1.54674, ABalaaapa, 0, 0, 0, 0 , , 0, 0, 0, , 0, , 0, 
6, 1, 6, 6, 219, -4.44678, -4.22122, -3.34136, 1.54674, ABarpapap, 0, 0, 0, 0 , , 0, 0, 0, , 0, , 0, 
10, 1, 10, 10, 220, -3.57892, -1.87829, -4.12961, 1.54674, ABarpaapa, 0, 0, 0, 0 , , 0, 0, 0, , 0, , 0, 
3, 1, 3, 3, 221, -2.54025, -1.52329, -2.0869, 1.54674, ABalapppp, 0, 0, 0, 0 , , 0, 0, 0, , 0, , 0, 
13, 1, 13, 13, 222, -3.41717, -1.53007, -1.9192, 1.54674, ABalapppa, 0, 0, 0, 0 , , 0, 0, 0, , 0, , 0, 
12, 1, 12, 12, 223, -7.98523, -1.4264, -2.78461, 1.54674, ABalappap, 0, 0, 0, 0 , , 0, 0, 0, , 0, , 0, 
6, 1, 6, 6, 224, -8.67744, -2.91237, -2.15623, 1.54674, ABalaaapp, 0, 0, 0, 0 , , 0, 0, 0, , 0, , 0, 
7, 1, 7, 7, 248, 3.00044, -2.55161, -3.80258, 1.54674, ABarpppap, 0, 0, 0, 0 , , 0, 0, 0, , 0, , 0, 
32, 1, 32, 32, 249, 3.43091, -6.05448, -2.38626, 1.47129, ABpraappa, 0, 0, 0, 0 , , 0, 0, 0, , 0, , 0, 
5, 1, 5, 5, 250, 8.84435, -1.65588, -3.95558, 1.60442, Cpaap, 0, 0, 0, 0 , , 0, 0, 0, , 0, , 0, 
23, 1, 23, 23, 251, 7.25094, -4.51463, -3.9341, 1.47129, ABprapapa, 0, 0, 0, 0 , , 0, 0, 0, , 0, , 0, 
2, 1, 2, 2, 252, -0.0753864, -3.95748, -3.90186, 1.54674, ABarpappp, 0, 0, 0, 0 , , 0, 0, 0, , 0, , 0, 
22, 1, 22, 22, 253, 8.04211, -2.01661, -4.14954, 1.60442, Cpaaa, 0, 0, 0, 0 , , 0, 0, 0, , 0, , 0, 
55, 1, 55, 55, 254, 2.06098, -5.33572, -4.20634, 1.47129, ABprapaaa, 0, 0, 0, 0 , , 0, 0, 0, , 0, , 0, 
103, 1, 103, 103, 255, 6.38378, -1.34942, -3.31879, 1.54674, ABarppppa, 0, 0, 0, 0 , , 0, 0, 0, , 0, , 0, 
4, 1, 4, 4, 256, 4.27698, -5.79912, -2.37401, 1.47129, ABpraappp, 0, 0, 0, 0 , , 0, 0, 0, , 0, , 0, 
6, 1, 6, 6, 257, 2.95543, -5.10928, -4.19626, 1.47129, ABprapaap, 0, 0, 0, 0 , , 0, 0, 0, , 0, , 0, 
38, 1, 38, 38, 258, -0.967825, -4.15319, -3.94338, 1.54674, ABarpappa, 0, 0, 0, 0 , , 0, 0, 0, , 0, , 0, 
6, 1, 6, 6, 259, 7.93993, -4.10956, -3.86871, 1.47129, ABprapapp, 0, 0, 0, 0 , , 0, 0, 0, , 0, , 0, 
14, 1, 14, 14, 260, 8.29675, -6.02085, -1.25144, 1.47129, ABprappap, 0, 0, 0, 0 , , 0, 0, 0, , 0, , 0, 
110, 1, 110, 110, 261, 1.89274, -2.89543, -3.91827, 1.54674, ABarpppaa, 0, 0, 0, 0 , , 0, 0, 0, , 0, , 0, 
1, 1, 1, 1, 262, 7.48947, -1.08162, -3.09179, 1.54674, ABarppppp, 0, 0, 0, 0 , , 0, 0, 0, , 0, , 0, 
13, 1, 13, 13, 263, -0.323731, -6.57574, -2.49093, 1.47129, ABpraapap, 0, 0, 0, 0 , , 0, 0, 0, , 0, , 0, 
66, 1, 66, 66, 264, 7.49516, -6.584, -1.22985, 1.47129, ABprappaa, 0, 0, 0, 0 , , 0, 0, 0, , 0, , 0, 
4, 1, 4, 4, 252, 4.29591, 2.06138, -3.35544, 1.54674, ABarppapp, 0, 0, 0, 0 , , 0, 0, 0, , 0, , 0, 
7, 1, 7, 7, 253, 6.31419, 2.12714, -3.39946, 1.60442, Caaap, 0, 0, 0, 0 , , 0, 0, 0, , 0, , 0, 
42, 1, 42, 42, 254, 3.32387, 1.8497, -3.55791, 1.54674, ABarppapa, 0, 0, 0, 0 , , 0, 0, 0, , 0, , 0, 
7, 1, 7, 7, 255, 0.178089, 0.966784, -3.89872, 1.54674, ABarppaap, 0, 0, 0, 0 , , 0, 0, 0, , 0, , 0, 
4, 1, 4, 4, 256, 3.48857, 4.41483, -3.45935, 1.47129, ABplapapp, 0, 0, 0, 0 , , 0, 0, 0, , 0, , 0, 
2, 1, 2, 2, 257, 12.4971, 3.82813, -2.36172, 1.60442, Caapp, 0, 0, 0, 0 , , 0, 0, 0, , 0, , 0, 
13, 1, 13, 13, 258, 12.2044, 1.63856, -3.18532, 1.60442, Cpapa, 0, 0, 0, 0 , , 0, 0, 0, , 0, , 0, 
20, 1, 20, 20, 259, 2.67655, 4.16382, -3.5323, 1.47129, ABplapapa, 0, 0, 0, 0 , , 0, 0, 0, , 0, , 0, 
17, 1, 17, 17, 260, 5.46873, 1.82537, -3.65032, 1.60442, Caaaa, 0, 0, 0, 0 , , 0, 0, 0, , 0, , 0, 
25, 1, 25, 25, 261, 2.45577, 6.94428, -1.94689, 1.47129, ABplappaa, 0, 0, 0, 0 , , 0, 0, 0, , 0, , 0, 
184, 1, 184, 184, 262, 7.72346, 6.18299, -1.07831, 1.47129, ABplapppa, 0, 0, 0, 0 , , 0, 0, 0, , 0, , 0, 
10, 1, 10, 10, 263, 3.3247, 6.88459, -1.8115, 1.47129, ABplappap, 0, 0, 0, 0 , , 0, 0, 0, , 0, , 0, 
44, 1, 44, 44, 264, 4.48622, 1.96704, -1.57618, 1.84416, Epla, 0, 0, 0, 0 , , 0, 0, 0, , 0, , 0, 
3, 1, 3, 3, 265, 12.5429, 2.06658, -2.56599, 1.60442, Cpapp, 0, 0, 0, 0 , , 0, 0, 0, , 0, , 0, 
65, 1, 65, 65, 266, -0.859968, 0.837204, -3.91088, 1.54674, ABarppaaa, 0, 0, 0, 0 , , 0, 0, 0, , 0, , 0, 
50, 1, 50, 50, 267, 12.288, 3.69923, -3.35391, 1.60442, Caapa, 0, 0, 0, 0 , , 0, 0, 0, , 0, , 0, 
20, 1, 20, 20, -1, 0.635994, 4.0017, 2.37897, 1.60442, MSappa, 0, 0, 0, 0 , , 0, 0, 0, , 0, , 0, 
7, 1, 7, 7, -1, 4.48784, -0.895822, 3.67535, 1.60442, MSpapp, 0, 0, 0, 0 , , 0, 0, 0, , 0, , 0, 
1, 1, 1, 1, 422, 3.56034, 3.97896, 3.50141, 2.11972, Z3, 0, 0, 0, 0 , , 0, 0, 0, , 0, , 0, 
5, 1, 5, 5, -1, 3.15836, 1.94018, 3.85511, 1.60442, MSaapp, 0, 0, 0, 0 , , 0, 0, 0, , 0, , 0, 
1, 1, 1, 1, 423, 1.26164, 5.98701, 3.10806, 1.47129, ABplpappp, 0, 0, 0, 0 , , 0, 0, 0, , 0, , 0, 
8, 1, 8, 8, 424, 1.54043, 2.46982, -0.315607, 1.84416, Ealp, 0, 0, 0, 0 , , 0, 0, 0, , 0, , 0, 
6, 1, 6, 6, 425, 8.0833, 1.89709, -0.428068, 1.84416, Eplp, 0, 0, 0, 0 , , 0, 0, 0, , 0, , 0, 
3, 1, 3, 3, 426, 3.57663, 6.49401, 0.026791, 1.47129, ABplppapp, 0, 0, 0, 0 , , 0, 0, 0, , 0, , 0, 
65, 1, 65, 65, 427, 6.60045, 6.01849, 1.42298, 1.84416, Daa, 0, 0, 0, 0 , , 0, 0, 0, , 0, , 0, 
15, 1, 15, 15, 428, 7.07205, 2.87283, 3.46479, 2.11972, Z2, 0, 0, 0, 0 , , 0, 0, 0, , 0, , 0, 
166, 1, 166, 166, 429, 2.66384, 6.44494, -0.0482822, 1.47129, ABplppapa, 0, 0, 0, 0 , , 0, 0, 0, , 0, , 0, 
1, 1, 1, 1, 430, 12.0796, 4.17083, 1.24356, 1.60442, Cappp, 0, 0, 0, 0 , , 0, 0, 0, , 0, , 0, 
72, 1, 72, 72, 431, 10.1462, 0.236678, 3.70728, 1.84416, Dpa, 0, 0, 0, 0 , , 0, 0, 0, , 0, , 0, 
131, 1, 131, 131, 432, 0.415415, 5.95477, 3.13622, 1.47129, ABplpappa, 0, 0, 0, 0 , , 0, 0, 0, , 0, , 0, 
3, 1, 3, 3, -1, 3.0135, 4.77061, 0.853454, 1.60442, MSappp, 0, 0, 0, 0 , , 0, 0, 0, , 0, , 0, 
2, 1, 2, 2, 433, 8.57358, 5.93016, -0.64812, 1.47129, ABplapppp, 0, 0, 0, 0 , , 0, 0, 0, , 0, , 0, 
6, 1, 6, 6, 434, 10.6939, 0.806719, 3.37007, 1.84416, Dpp, 0, 0, 0, 0 , , 0, 0, 0, , 0, , 0, 
206, 1, 206, 206, 435, 3.83299, 7.38994, 1.47137, 1.47129, ABplpppaa, 0, 0, 0, 0 , , 0, 0, 0, , 0, , 0, 
10, 1, 10, 10, 436, 7.42642, 5.84268, 1.24524, 1.84416, Dap, 0, 0, 0, 0 , , 0, 0, 0, , 0, , 0, 
277, 1, 277, 277, 437, 11.7331, 0.621368, 0.369967, 1.60442, Cpppa, 0, 0, 0, 0 , , 0, 0, 0, , 0, , 0, 
2, 1, 2, 2, 438, 12.3367, 1.4346, 0.949713, 1.60442, Cpppp, 0, 0, 0, 0 , , 0, 0, 0, , 0, , 0, 
13, 1, 13, 13, 439, -0.73339, 2.0973, 3.26551, 1.39584, MSaapap, 0, 0, 0, 0 , , 0, 0, 0, , 0, , 0, 
8, 1, 8, 8, 440, 9.41009, 4.02512, 2.73552, 1.60442, Capap, 0, 0, 0, 0 , , 0, 0, 0, , 0, , 0, 
11, 1, 11, 11, 441, 0.000901798, 7.42572, 0.908286, 1.47129, ABplppaap, 0, 0, 0, 0 , , 0, 0, 0, , 0, , 0, 
145, 1, 145, 145, 442, 6.12759, 6.02293, 3.25528, 1.47129, ABplppppa, 0, 0, 0, 0 , , 0, 0, 0, , 0, , 0, 
247, 1, 247, 247, 443, 11.2327, 4.37187, 0.362668, 1.60442, Cappa, 0, 0, 0, 0 , , 0, 0, 0, , 0, , 0, 
392, 1, 392, 392, 444, 8.36834, 4.39306, 2.80113, 1.60442, Capaa, 0, 0, 0, 0 , , 0, 0, 0, , 0, , 0, 
12, 1, 12, 12, 445, 4.76803, 7.20078, 1.24358, 1.47129, ABplpppap, 0, 0, 0, 0 , , 0, 0, 0, , 0, , 0, 
1, 1, 1, 1, 446, 6.92403, 5.70099, 3.23474, 1.47129, ABplppppp, 0, 0, 0, 0 , , 0, 0, 0, , 0, , 0, 
41, 1, 41, 41, 330, 2.22563, -7.27149, -0.0619464, 1.47129, ABprpaapa, 0, 0, 0, 0 , , 0, 0, 0, , 0, , 0, 
4, 1, 4, 4, 331, 2.48658, -1.5181, -0.383456, 1.84416, Earp, 0, 0, 0, 0 , , 0, 0, 0, , 0, , 0, 
3, 1, 3, 3, 332, 0.476611, -5.4643, 1.30235, 1.54674, ABarapppp, 0, 0, 0, 0 , , 0, 0, 0, , 0, , 0, 
9, 1, 9, 9, 333, 0.100402, -4.08541, -0.583225, 1.39584, MSppapp, 0, 0, 0, 0 , , 0, 0, 0, , 0, , 0, 
15, 1, 15, 15, 334, 4.6002, -6.75704, 2.41376, 1.47129, ABprppaap, 0, 0, 0, 0 , , 0, 0, 0, , 0, , 0, 
176, 1, 176, 176, 335, 3.59186, -7.11259, 2.08586, 1.47129, ABprppaaa, 0, 0, 0, 0 , , 0, 0, 0, , 0, , 0, 
14, 1, 14, 14, 336, 1.04407, -1.32868, 3.4762, 1.39584, MSpapap, 0, 0, 0, 0 , , 0, 0, 0, , 0, , 0, 
40, 1, 40, 40, 337, -0.326943, -5.58899, 1.09536, 1.54674, ABarapppa, 0, 0, 0, 0 , , 0, 0, 0, , 0, , 0, 
191, 1, 191, 191, 338, -0.0406224, -1.48132, 3.62443, 1.39584, MSpapaa, 0, 0, 0, 0 , , 0, 0, 0, , 0, , 0, 
159, 1, 159, 159, 339, 11.3307, -2.97709, -0.656285, 1.47129, ABprapppa, 0, 0, 0, 0 , , 0, 0, 0, , 0, , 0, 
2, 1, 2, 2, 340, 11.7723, -2.04492, -0.284609, 1.47129, ABprapppp, 0, 0, 0, 0 , , 0, 0, 0, , 0, , 0, 
21, 1, 21, 21, -1, 1.66314, -3.00038, 2.13791, 1.60442, MSpppa, 0, 0, 0, 0 , , 0, 0, 0, , 0, , 0, 
7, 1, 7, 7, 341, 8.19799, -4.3775, 0.913004, 1.47129, ABprppapp, 0, 0, 0, 0 , , 0, 0, 0, , 0, , 0, 
76, 1, 76, 76, 342, 9.75165, -2.7134, 3.45194, 1.47129, ABprppppa, 0, 0, 0, 0 , , 0, 0, 0, , 0, , 0, 
23, 1, 23, 23, 343, 7.25297, -2.14985, 0.645611, 1.84416, Epra, 0, 0, 0, 0 , , 0, 0, 0, , 0, , 0, 
5, 1, 5, 5, 344, 2.97594, -7.11481, 0.0516107, 1.47129, ABprpaapp, 0, 0, 0, 0 , , 0, 0, 0, , 0, , 0, 
1, 1, 1, 1, 345, 7.95714, -1.74711, 0.489576, 1.84416, Eprp, 0, 0, 0, 0 , , 0, 0, 0, , 0, , 0, 
11, 1, 11, 11, 346, 10.5121, -4.81654, 1.71203, 1.47129, ABprpppap, 0, 0, 0, 0 , , 0, 0, 0, , 0, , 0, 
281, 1, 281, 281, 347, -0.991739, -4.56713, -0.440384, 1.39584, MSppapa, 0, 0, 0, 0 , , 0, 0, 0, , 0, , 0, 
11, 1, 11, 11, 348, 1.96755, -6.21625, 3.32303, 1.47129, ABprpapap, 0, 0, 0, 0 , , 0, 0, 0, , 0, , 0, 
74, 1, 74, 74, 349, 9.87314, -5.42091, 1.78767, 1.47129, ABprpppaa, 0, 0, 0, 0 , , 0, 0, 0, , 0, , 0, 
140, 1, 140, 140, 350, 7.24899, -4.82516, 0.936974, 1.47129, ABprppapa, 0, 0, 0, 0 , , 0, 0, 0, , 0, , 0, 
9, 1, 9, 9, 351, 11.6693, -1.23484, 3.39035, 1.60442, Cppap, 0, 0, 0, 0 , , 0, 0, 0, , 0, , 0, 
1, 1, 1, 1, 352, 10.1828, -1.89794, 3.51485, 1.47129, ABprppppp, 0, 0, 0, 0 , , 0, 0, 0, , 0, , 0, 
44, 1, 44, 44, 353, 5.3846, -4.44159, 3.4943, 1.47129, ABprpappa, 0, 0, 0, 0 , , 0, 0, 0, , 0, , 0, 
5, 1, 5, 5, 354, 6.14847, -4.16707, 3.40011, 1.47129, ABprpappp, 0, 0, 0, 0 , , 0, 0, 0, , 0, , 0, 
1, 1, 1, 1, -1, 4.32703, -3.35867, 1.58279, 1.60442, MSpppp, 0, 0, 0, 0 , , 0, 0, 0, , 0, , 0, 
328, 1, 328, 328, 355, 11.1743, -1.97158, 3.32917, 1.60442, Cppaa, 0, 0, 0, 0 , , 0, 0, 0, , 0, , 0, 
70, 1, 70, 70, 356, 1.05338, -6.41302, 3.28429, 1.47129, ABprpapaa, 0, 0, 0, 0 , , 0, 0, 0, , 0, , 0, 
10, 1, 10, 10, 227, -2.0926, -6.06054, 2.96875, 1.54674, ABarappap, 0, 0, 0, 0 , , 0, 0, 0, , 0, , 0, 
220, 1, 220, 220, 228, -1.89766, -1.25437, 1.40248, 1.39584, MSpaapa, 0, 0, 0, 0 , , 0, 0, 0, , 0, , 0, 
4, 1, 4, 4, 229, -1.78234, -3.70014, 3.49195, 1.54674, ABarapapp, 0, 0, 0, 0 , , 0, 0, 0, , 0, , 0, 
16, 1, 16, 16, 230, -4.57041, -4.59857, 0.660745, 1.60442, MSppaa, 0, 0, 0, 0 , , 0, 0, 0, , 0, , 0, 
5, 1, 5, 5, 231, -6.33777, -4.4538, 1.83291, 1.54674, ABaraaapp, 0, 0, 0, 0 , , 0, 0, 0, , 0, , 0, 
12, 1, 12, 12, 232, -1.33373, -7.30252, 0.74543, 1.47129, ABprpaaap, 0, 0, 0, 0 , , 0, 0, 0, , 0, , 0, 
40, 1, 40, 40, 233, -3.05287, -6.00505, 2.79384, 1.54674, ABarappaa, 0, 0, 0, 0 , , 0, 0, 0, , 0, , 0, 
7, 1, 7, 7, 234, -1.70751, -1.20753, 1.45047, 1.39584, MSpaapp, 0, 0, 0, 0 , , 0, 0, 0, , 0, , 0, 
12, 1, 12, 12, 235, -2.14906, -7.31887, 0.69969, 1.47129, ABprpaaaa, 0, 0, 0, 0 , , 0, 0, 0, , 0, , 0, 
196, 1, 196, 196, 236, -9.22087, -1.00957, 0.570913, 1.39584, MSaaaaa, 0, 0, 0, 0 , , 0, 0, 0, , 0, , 0, 
8, 1, 8, 8, 237, -5.84738, -3.07509, 4.12658, 1.54674, ABarapaap, 0, 0, 0, 0 , , 0, 0, 0, , 0, , 0, 
30, 1, 30, 30, 238, -9.25507, -1.22144, 3.14507, 1.54674, ABaraapaa, 0, 0, 0, 0 , , 0, 0, 0, , 0, , 0, 
147, 1, 147, 147, 239, -6.07469, -2.94189, 0.714485, 1.39584, MSpaaaa, 0, 0, 0, 0 , , 0, 0, 0, , 0, , 0, 
83, 1, 83, 83, 240, -9.16853, -3.49976, 0.479823, 1.54674, ABalaapaa, 0, 0, 0, 0 , , 0, 0, 0, , 0, , 0, 
103, 1, 103, 103, 241, -6.79988, -5.82312, -0.123682, 1.47129, ABpraaaaa, 0, 0, 0, 0 , , 0, 0, 0, , 0, , 0, 
11, 1, 11, 11, 242, -8.16921, -3.90367, 0.285515, 1.54674, ABalaapap, 0, 0, 0, 0 , , 0, 0, 0, , 0, , 0, 
10, 1, 10, 10, 243, -5.86595, -6.10006, -0.492146, 1.47129, ABpraaaap, 0, 0, 0, 0 , , 0, 0, 0, , 0, , 0, 
29, 1, 29, 29, 244, -6.76006, -3.17174, 3.82357, 1.54674, ABarapaaa, 0, 0, 0, 0 , , 0, 0, 0, , 0, , 0, 
13, 1, 13, 13, 245, -7.2271, -4.29338, 1.65845, 1.54674, ABaraaapa, 0, 0, 0, 0 , , 0, 0, 0, , 0, , 0, 
11, 1, 11, 11, 246, -5.09551, -2.82899, 0.174734, 1.39584, MSpaaap, 0, 0, 0, 0 , , 0, 0, 0, , 0, , 0, 
15, 1, 15, 15, 247, -2.61092, -4.02271, 3.49703, 1.54674, ABarapapa, 0, 0, 0, 0 , , 0, 0, 0, , 0, , 0, 
10, 1, 10, 10, 260, -2.67548, 4.78698, -2.61335, 1.47129, ABplaappa, 0, 0, 0, 0 , , 0, 0, 0, , 0, , 0, 
6, 1, 6, 6, 261, -6.32234, 4.38332, -3.64964, 1.47129, ABplaapap, 0, 0, 0, 0 , , 0, 0, 0, , 0, , 0, 
14, 1, 14, 14, 262, -7.14174, 4.20424, -3.49466, 1.47129, ABplaapaa, 0, 0, 0, 0 , , 0, 0, 0, , 0, , 0, 
3, 1, 3, 3, 263, -3.73186, 2.20119, -3.95348, 1.47129, ABplaaapp, 0, 0, 0, 0 , , 0, 0, 0, , 0, , 0, 
69, 1, 69, 69, 264, -4.31271, 6.73512, -1.02114, 1.47129, ABplpaapa, 0, 0, 0, 0 , , 0, 0, 0, , 0, , 0, 
9, 1, 9, 9, 265, -9.15719, 0.636448, -3.17733, 1.54674, ABalapaap, 0, 0, 0, 0 , , 0, 0, 0, , 0, , 0, 
45, 1, 45, 45, 266, -9.50192, -0.0484558, -2.64529, 1.54674, ABalapaaa, 0, 0, 0, 0 , , 0, 0, 0, , 0, , 0, 
112, 1, 112, 112, 267, -8.24931, -0.556711, -3.49232, 1.54674, ABarpaaaa, 0, 0, 0, 0 , , 0, 0, 0, , 0, , 0, 
11, 1, 11, 11, 268, -4.5263, 2.16509, -4.08279, 1.47129, ABplaaapa, 0, 0, 0, 0 , , 0, 0, 0, , 0, , 0, 
6, 1, 6, 6, 269, -7.21632, -0.526206, -3.81831, 1.54674, ABarpaaap, 0, 0, 0, 0 , , 0, 0, 0, , 0, , 0, 
30, 1, 30, 30, 270, -1.46905, 1.61863, -1.57282, 1.84416, Eala, 0, 0, 0, 0 , , 0, 0, 0, , 0, , 0, 
5, 1, 5, 5, 271, -8.27527, 2.62486, -3.56718, 1.47129, ABplaaaap, 0, 0, 0, 0 , , 0, 0, 0, , 0, , 0, 
34, 1, 34, 34, 272, -1.93934, 4.02627, -4.44126, 1.47129, ABplapaaa, 0, 0, 0, 0 , , 0, 0, 0, , 0, , 0, 
3, 1, 3, 3, 273, -5.74262, 0.367361, -4.01084, 1.54674, ABalapapp, 0, 0, 0, 0 , , 0, 0, 0, , 0, , 0, 
2, 1, 2, 2, 274, -1.93221, 4.95198, -2.47287, 1.47129, ABplaappp, 0, 0, 0, 0 , , 0, 0, 0, , 0, , 0, 
18, 1, 18, 18, 275, -8.99016, 2.42135, -3.19496, 1.47129, ABplaaaaa, 0, 0, 0, 0 , , 0, 0, 0, , 0, , 0, 
8, 1, 8, 8, 276, -1.01408, 4.12757, -4.44131, 1.47129, ABplapaap, 0, 0, 0, 0 , , 0, 0, 0, , 0, , 0, 
21, 1, 21, 21, 277, -6.60178, 0.0845108, -3.76948, 1.54674, ABalapapa, 0, 0, 0, 0 , , 0, 0, 0, , 0, , 0, 
4, 1, 4, 4, 375, -6.10965, 3.08029, 3.66103, 1.54674, ABalpappp, 0, 0, 0, 0 , , 0, 0, 0, , 0, , 0, 
10, 1, 10, 10, 376, -10.7299, -0.253476, 0.719296, 1.54674, ABalaaaar, 0, 0, 0, 0 , , 0, 0, 0, , 0, , 0, 
9, 1, 9, 9, -1, -1.45724, 4.25589, 0.40841, 1.60442, MSapap, 0, 0, 0, 0 , , 0, 0, 0, , 0, , 0, 
12, 1, 12, 12, 377, -3.64082, 6.36122, 2.54356, 1.47129, ABplpapap, 0, 0, 0, 0 , , 0, 0, 0, , 0, , 0, 
9, 1, 9, 9, 378, -10.0236, -0.895857, 2.84632, 1.54674, ABaraaaap, 0, 0, 0, 0 , , 0, 0, 0, , 0, , 0, 
15, 1, 15, 15, -1, -5.81834, 3.04481, 0.749052, 1.60442, MSapaa, 0, 0, 0, 0 , , 0, 0, 0, , 0, , 0, 
294, 1, 294, 294, 379, -4.1616, 0.16796, 1.19733, 1.39584, MSaaapa, 0, 0, 0, 0 , , 0, 0, 0, , 0, , 0, 
98, 1, 98, 98, 380, -11.1104, -0.284775, 2.00468, 1.54674, ABalpaaaa, 0, 0, 0, 0 , , 0, 0, 0, , 0, , 0, 
8, 1, 8, 8, 381, -6.39598, 6.37053, 0.71158, 1.47129, ABplpaaap, 0, 0, 0, 0 , , 0, 0, 0, , 0, , 0, 
36, 1, 36, 36, 382, -4.44143, -0.986127, 3.88668, 1.54674, ABaraappa, 0, 0, 0, 0 , , 0, 0, 0, , 0, , 0, 
9, 1, 9, 9, 383, -10.1018, 1.3077, 3.10919, 1.54674, ABalpapap, 0, 0, 0, 0 , , 0, 0, 0, , 0, , 0, 
271, 1, 271, 271, 384, -1.14312, 7.37031, 0.904246, 1.47129, ABplppaaa, 0, 0, 0, 0 , , 0, 0, 0, , 0, , 0, 
50, 1, 50, 50, 385, -4.56332, 6.26073, 2.43737, 1.47129, ABplpapaa, 0, 0, 0, 0 , , 0, 0, 0, , 0, , 0, 
34, 1, 34, 34, 386, -7.25856, 6.25055, 0.745425, 1.47129, ABplpaaaa, 0, 0, 0, 0 , , 0, 0, 0, , 0, , 0, 
107, 1, 107, 107, 387, -10.6194, 0.15346, -0.194267, 1.54674, ABalaaaal, 0, 0, 0, 0 , , 0, 0, 0, , 0, , 0, 
9, 1, 9, 9, 388, -10.8365, 0.696198, 2.35855, 1.54674, ABalpaaap, 0, 0, 0, 0 , , 0, 0, 0, , 0, , 0, 
14, 1, 14, 14, 389, -8.30174, -0.695531, 0.119059, 1.39584, MSaaaap, 0, 0, 0, 0 , , 0, 0, 0, , 0, , 0, 
38, 1, 38, 38, 390, -8.12799, 2.84679, -0.89332, 1.54674, ABalpppaa, 0, 0, 0, 0 , , 0, 0, 0, , 0, , 0, 
31, 1, 31, 31, 391, -10.8367, 0.976179, 2.55712, 1.54674, ABalpapaa, 0, 0, 0, 0 , , 0, 0, 0, , 0, , 0, 
5, 1, 5, 5, 392, -3.35461, 6.81325, -0.901954, 1.47129, ABplpaapp, 0, 0, 0, 0 , , 0, 0, 0, , 0, , 0, 
213, 1, 213, 213, 393, -1.8193, 2.04858, 3.27717, 1.39584, MSaapaa, 0, 0, 0, 0 , , 0, 0, 0, , 0, , 0, 
7, 1, 7, 7, 394, -8.67656, 4.96881, 1.45858, 1.54674, ABalppaap, 0, 0, 0, 0 , , 0, 0, 0, , 0, , 0, 
19, 1, 19, 19, 395, -6.96711, 2.75786, 3.62973, 1.54674, ABalpappa, 0, 0, 0, 0 , , 0, 0, 0, , 0, , 0, 
8, 1, 8, 8, 396, -3.03212, 0.309456, 0.979347, 1.39584, MSaaapp, 0, 0, 0, 0 , , 0, 0, 0, , 0, , 0, 
17, 1, 17, 17, 397, -9.80147, 1.61018, -0.4684, 1.54674, ABalpaapa, 0, 0, 0, 0 , , 0, 0, 0, , 0, , 0, 
175, 1, 175, 175, 398, -10.8415, -0.942603, 2.07907, 1.54674, ABaraaaaa, 0, 0, 0, 0 , , 0, 0, 0, , 0, , 0, 
4, 1, 4, 4, 399, -6.33197, 4.67866, 2.71015, 1.54674, ABalppapp, 0, 0, 0, 0 , , 0, 0, 0, , 0, , 0, 
7, 1, 7, 7, 400, -8.37632, -0.912212, 3.35407, 1.54674, ABaraapap, 0, 0, 0, 0 , , 0, 0, 0, , 0, , 0, 
156, 1, 156, 156, 401, -9.6001, 4.44505, 1.07721, 1.54674, ABalppaaa, 0, 0, 0, 0 , , 0, 0, 0, , 0, , 0, 
3, 1, 3, 3, 402, -3.4853, -0.805695, 3.92742, 1.54674, ABaraappp, 0, 0, 0, 0 , , 0, 0, 0, , 0, , 0, 
16, 1, 16, 16, 403, -3.97535, 3.22789, -0.58119, 1.54674, ABalppppa, 0, 0, 0, 0 , , 0, 0, 0, , 0, , 0, 
13, 1, 13, 13, 404, -7.23026, 3.16456, -0.997434, 1.54674, ABalpppap, 0, 0, 0, 0 , , 0, 0, 0, , 0, , 0, 
5, 1, 5, 5, 405, -9.24482, 2.21119, -0.0659525, 1.54674, ABalpaapp, 0, 0, 0, 0 , , 0, 0, 0, , 0, , 0, 
2, 1, 2, 2, 406, -3.15436, 3.32913, -0.526729, 1.54674, ABalppppp, 0, 0, 0, 0 , , 0, 0, 0, , 0, , 0, 
27, 1, 27, 27, 407, -7.02389, 4.58171, 2.15208, 1.54674, ABalppapa, 0, 0, 0, 0 , , 0, 0, 0, , 0, , 0, 
