3, 1, 3, 3, -1, 9.113999999999999, 13.891499999999999, 4.25565, 2.7195, EMS, 0, 0, 0, 0, , 0, 0, 0, 0, 0, 
1, 1, 1, 1, -1, 8.673, -1.3964999999999999, 3.4045199999999998, 2.8665, ABp, 0, 0, 0, 0, , 0, 0, 0, 0, 0, 
2, 1, 2, 2, -1, -5.585999999999999, 6.2475, 4.25565, 3.0134999999999996, ABa, 0, 0, 0, 0, , 0, 0, 0, 0, 0, 
4, 1, 4, 4, -1, 23.52, 9.3345, 5.10678, 2.7195, P2, 0, 0, 0, 0, , 0, 0, 0, 0, 0, 
