3, 1, 3, 3, -1, 9.113999999999999, 13.891499999999999, 4.25565, 2.7195, EMS, 0, 0, 0, 0, , 0, 0, 0, 0, 0, 
4, 1, 4, 4, -1, 23.52, 9.3345, 5.10678, 2.7195, P2, 0, 0, 0, 0, , 0, 0, 0, 0, 0, 
6, 1, 6, 6, -1, -6.2272331081080985, 4.996994932432463, 3.5394187500000047, 2.6217449999999998, ABal, 0, 0, 0, 0, , 0, 0, 0, 0, 0, 
5, 1, 5, 5, -1, 7.3137550675675875, -1.7125309684684782, 3.3920467342342198, 2.493855, ABpl, 0, 0, 0, 0, , 0, 0, 0, 0, 0, 
1, 1, 1, 1, -1, 8.535162751677811, -0.7092729306487646, 2.62489331096198, 2.493855, ABpr, 0, 0, 0, 0, , 0, 0, 0, 0, 0, 
2, 1, 2, 2, -1, -4.964111856823299, 6.254554809843355, 3.6977676174496645, 2.6217449999999998, ABar, 0, 0, 0, 0, , 0, 0, 0, 0, 0, 
