3, 1, 3, 3, -1, 8.610511235955025, 13.124085674157277, 4.0205532303370894, 2.365965, MS, 0, 0, 0, 0, , 0, 0, 0, 0, 0, 
2, 1, 2, 2, -1, -4.023440715883753, 6.265225950782884, 2.853911912751678, 2.6217449999999998, ABar, 0, 0, 0, 0, , 0, 0, 0, 0, 0, 
4, 1, 4, 4, -1, 23.52, 9.3345, 5.10678, 2.7195, P2, 0, 0, 0, 0, , 0, 0, 0, 0, 0, 
7, 1, 7, 7, -1, 9.11615917107587, 12.981994708994746, 4.050338844797179, 2.365965, E, 0, 0, 0, 0, , 0, 0, 0, 0, 0, 
1, 1, 1, 1, -1, 8.315598993288484, 0.3854250559284167, 1.383010089485488, 2.493855, ABpr, 0, 0, 0, 0, , 0, 0, 0, 0, 0, 
6, 1, 6, 6, -1, -7.197165540540517, 3.1054746621622007, 2.4560437500000116, 2.6217449999999998, ABal, 0, 0, 0, 0, , 0, 0, 0, 0, 0, 
5, 1, 5, 5, -1, 5.1485861486487, -2.215943130630656, 3.372177815315278, 2.493855, ABpl, 0, 0, 0, 0, , 0, 0, 0, 0, 0, 
