6, 1, 6, 6, -1, -8.490408783783824, 0.583447635135159, 1.0115437500000208, 2.6217449999999998, ABal, 0, 0, 0, 0, , 0, 0, 0, 0, 0, 
1, 1, 1, 1, -1, 8.022847315436048, 1.8450223713646674, -0.2728342058165213, 2.493855, ABpr, 0, 0, 0, 0, , 0, 0, 0, 0, 0, 
8, 1, 8, 8, -1, 22.43660778985514, 8.921567481884075, 5.025425199275344, 2.365965, C, 0, 0, 0, 0, , 0, 0, 0, 0, 0, 
7, 1, 7, 7, -1, 9.124942239859072, 9.28231216931236, 3.21517482363316, 2.365965, E, 0, 0, 0, 0, , 0, 0, 0, 0, 0, 
3, 1, 3, 3, -1, 6.562421348314603, 10.002400280898746, 3.0642273876405035, 2.365965, MS, 0, 0, 0, 0, , 0, 0, 0, 0, 0, 
2, 1, 2, 2, -1, -2.769212527964253, 6.279454138702255, 1.7287709731543623, 2.6217449999999998, ABar, 0, 0, 0, 0, , 0, 0, 0, 0, 0, 
5, 1, 5, 5, -1, 2.2616942567568508, -2.887159346846893, 3.345685923423356, 2.493855, ABpl, 0, 0, 0, 0, , 0, 0, 0, 0, 0, 
4, 1, 4, 4, -1, 23.045019455253005, 8.784086575875522, 4.883483501945527, 2.365965, P3, 0, 0, 0, 0, , 0, 0, 0, 0, 0, 
