5, 1, 5, 5, -1, 2.544438698759126, -4.873759084936162, 3.5228834389227632, 1.8875988495, ABplpp, 0, 0, 0, 0, , 0, 0, 0, 0, 0, 
9, 1, 9, 9, -1, -4.251427815938052, 1.0868640412398205, 3.610177513338531, 1.8875988495, ABplap, 0, 0, 0, 0, , 0, 0, 0, 0, 0, 
22, 1, 22, 22, -1, 2.508955524159479, 6.2495562753917175, -2.047029950912084, 1.8875988495, ABpraa, 0, 0, 0, 0, , 0, 0, 0, 0, 0, 
16, 1, 16, 16, -1, -6.703330878068162, 1.0858849652761815, 3.9587730973486615, 1.8875988495, ABplaa, 0, 0, 0, 0, , 0, 0, 0, 0, 0, 
15, 1, 15, 15, -1, 3.9761305588129607, 0.8554408319051718, 3.197637083483434, 2.0583895500000002, Ca, 0, 0, 0, 0, , 0, 0, 0, 0, 0, 
13, 1, 13, 13, -1, 5.433292379329942, -2.7163849263757345, -0.04817002207646518, 2.0583895500000002, Ea, 0, 0, 0, 0, , 0, 0, 0, 0, 0, 
12, 1, 12, 12, -1, -3.865200070429113, 3.685852431332534, -3.7711122495582874, 1.9843987904999998, ABarap, 0, 0, 0, 0, , 0, 0, 0, 0, 0, 
11, 1, 11, 11, -1, -9.850989971128303, 1.6131035946044605, -0.8124548239372466, 1.9843987904999998, ABalap, 0, 0, 0, 0, , 0, 0, 0, 0, 0, 
23, 1, 23, 23, -1, -6.528941677052865, -5.796627676287096, 0.2569171437192222, 1.9843987904999998, ABalpa, 0, 0, 0, 0, , 0, 0, 0, 0, 0, 
6, 1, 6, 6, -1, -4.862736914292902, -6.146568718668014, 0.8349318760679733, 1.9843987904999998, ABalpp, 0, 0, 0, 0, , 0, 0, 0, 0, 0, 
1, 1, 1, 1, -1, 9.671290417478529, 0.42026902838875096, -2.259097757418923, 1.8875988495, ABprpp, 0, 0, 0, 0, , 0, 0, 0, 0, 0, 
19, 1, 19, 19, -1, -10.421918934176016, 0.8133755851756488, -2.131695876076374, 1.9843987904999998, ABalaa, 0, 0, 0, 0, , 0, 0, 0, 0, 0, 
18, 1, 18, 18, -1, -5.39598046897987, 2.8326492330151636, -3.89021888198788, 1.9843987904999998, ABaraa, 0, 0, 0, 0, , 0, 0, 0, 0, 0, 
21, 1, 21, 21, -1, 12.445790725347567, -3.1962710323074766, -0.10420040176076803, 2.0583895500000002, D, 0, 0, 0, 0, , 0, 0, 0, 0, 0, 
4, 1, 4, 4, -1, 11.910605164383728, -3.2306328590763593, -0.4147229776574418, 2.0583895500000002, P4, 0, 0, 0, 0, , 0, 0, 0, 0, 0, 
10, 1, 10, 10, -1, 4.500836648420278, 5.791773493143402, -1.376461130777146, 1.8875988495, ABprap, 0, 0, 0, 0, , 0, 0, 0, 0, 0, 
7, 1, 7, 7, -1, 8.6268348207961, -1.7191806847899114, 0.7351563304547641, 2.0583895500000002, Ep, 0, 0, 0, 0, , 0, 0, 0, 0, 0, 
14, 1, 14, 14, -1, -5.059364840158232, -3.6775093943591366, -1.0944719926513633, 2.0583895500000002, MSa, 0, 0, 0, 0, , 0, 0, 0, 0, 0, 
20, 1, 20, 20, -1, 0.9425821969750705, -5.25323064437113, 3.300819034192063, 1.8875988495, ABplpa, 0, 0, 0, 0, , 0, 0, 0, 0, 0, 
3, 1, 3, 3, -1, 0.8518350018638101, -0.014553233221580749, -2.0060375534727903, 2.0583895500000002, MSp, 0, 0, 0, 0, , 0, 0, 0, 0, 0, 
8, 1, 8, 8, -1, 8.835462390549313, 2.451205459314665, 3.1071996037892102, 2.0583895500000002, Cp, 0, 0, 0, 0, , 0, 0, 0, 0, 0, 
17, 1, 17, 17, -1, 7.702732272338059, 0.761360338611668, -2.767792638435818, 1.8875988495, ABprpa, 0, 0, 0, 0, , 0, 0, 0, 0, 0, 
2, 1, 2, 2, -1, 0.07122783239333694, 5.099493449827779, 2.4003257501417483, 1.9843987904999998, ABarpp, 0, 0, 0, 0, , 0, 0, 0, 0, 0, 
24, 1, 24, 24, -1, -1.7749380071151843, 5.174826271378372, 2.3632335976016328, 1.9843987904999998, ABarpa, 0, 0, 0, 0, , 0, 0, 0, 0, 0, 
