22, 1, 22, 22, -1, 2.4041135529534814, 6.2910045538804225, -2.013493855667298, 1.8875988495, ABpraa, 0, 0, 0, 0, , 0, 0, 0, 0, 0, 
7, 1, 7, 7, -1, 8.595887761257112, -1.6599998783677303, 0.7487186061952038, 2.0583895500000002, Ep, 0, 0, 0, 0, , 0, 0, 0, 0, 0, 
24, 1, 24, 24, -1, -1.9626967141659157, 5.176433628336731, 2.368644937465303, 1.9843987904999998, ABarpa, 0, 0, 0, 0, , 0, 0, 0, 0, 0, 
6, 1, 6, 6, -1, -4.790410888318479, -6.0858629372818065, 0.97513357493019, 1.9843987904999998, ABalpp, 0, 0, 0, 0, , 0, 0, 0, 0, 0, 
9, 1, 9, 9, -1, -3.915413305368756, 1.0287516819251878, 3.5775228946545283, 1.8875988495, ABplap, 0, 0, 0, 0, , 0, 0, 0, 0, 0, 
15, 1, 15, 15, -1, 3.7975106027121646, 0.7140536844519183, 3.152797572689037, 2.0583895500000002, Ca, 0, 0, 0, 0, , 0, 0, 0, 0, 0, 
20, 1, 20, 20, -1, 0.9004400576920382, -5.314071159359906, 3.2573427570805915, 1.8875988495, ABplpa, 0, 0, 0, 0, , 0, 0, 0, 0, 0, 
11, 1, 11, 11, -1, -9.78264616955057, 1.65425192414442, -0.6204517118878295, 1.9843987904999998, ABalap, 0, 0, 0, 0, , 0, 0, 0, 0, 0, 
23, 1, 23, 23, -1, -6.721794127910266, -5.680228360304455, 0.3051271079901266, 1.9843987904999998, ABalpa, 0, 0, 0, 0, , 0, 0, 0, 0, 0, 
1, 1, 1, 1, -1, 9.793672474271665, 0.5542130151870879, -2.207560314793545, 1.8875988495, ABprpp, 0, 0, 0, 0, , 0, 0, 0, 0, 0, 
14, 1, 14, 14, -1, -5.343174414682946, -3.8638678266505235, -1.1496016055168043, 2.0583895500000002, MSa, 0, 0, 0, 0, , 0, 0, 0, 0, 0, 
21, 1, 21, 21, -1, 12.38950355402336, -3.2162860659119956, -0.1313808804779018, 2.0583895500000002, D, 0, 0, 0, 0, , 0, 0, 0, 0, 0, 
17, 1, 17, 17, -1, 7.559092958166266, 0.9413977457104, -2.78499774729921, 1.8875988495, ABprpa, 0, 0, 0, 0, , 0, 0, 0, 0, 0, 
10, 1, 10, 10, -1, 4.692552660975177, 5.7650655261360795, -1.2430884866288952, 1.8875988495, ABprap, 0, 0, 0, 0, , 0, 0, 0, 0, 0, 
8, 1, 8, 8, -1, 9.00270235129808, 2.423395865413689, 3.055923261699851, 2.0583895500000002, Cp, 0, 0, 0, 0, , 0, 0, 0, 0, 0, 
19, 1, 19, 19, -1, -10.436518807617322, 0.7383406687937513, -2.131350059737236, 1.9843987904999998, ABalaa, 0, 0, 0, 0, , 0, 0, 0, 0, 0, 
4, 1, 4, 4, -1, 11.774240353015056, -3.2557893131450504, -0.488365687182058, 2.0583895500000002, P4, 0, 0, 0, 0, , 0, 0, 0, 0, 0, 
18, 1, 18, 18, -1, -5.529939129077567, 2.777708157744006, -3.814858715077386, 1.9843987904999998, ABaraa, 0, 0, 0, 0, , 0, 0, 0, 0, 0, 
12, 1, 12, 12, -1, -3.784563347552405, 3.7505192810591383, -3.6790548911857393, 1.9843987904999998, ABarap, 0, 0, 0, 0, , 0, 0, 0, 0, 0, 
13, 1, 13, 13, -1, 5.214673873671477, -2.7158057404189395, -0.0806406367883996, 2.0583895500000002, Ea, 0, 0, 0, 0, , 0, 0, 0, 0, 0, 
5, 1, 5, 5, -1, 2.74019603993908, -4.878242437632616, 3.5123870239000095, 1.8875988495, ABplpp, 0, 0, 0, 0, , 0, 0, 0, 0, 0, 
16, 1, 16, 16, -1, -6.666328936051319, 1.027653206453788, 3.96863013525126, 1.8875988495, ABplaa, 0, 0, 0, 0, , 0, 0, 0, 0, 0, 
3, 1, 3, 3, -1, 0.9288311145428632, 0.02266653353917811, -2.116806976764778, 2.0583895500000002, MSp, 0, 0, 0, 0, , 0, 0, 0, 0, 0, 
2, 1, 2, 2, -1, 0.19031109312795566, 5.088580116223714, 2.4119019907046066, 1.9843987904999998, ABarpp, 0, 0, 0, 0, , 0, 0, 0, 0, 0, 
