21, 1, 21, 21, -1, 11.71405749813287, -3.4564664691662244, -0.4575466250835122, 2.0583895500000002, D, 0, 0, 0, 0, , 0, 0, 0, 0, 0, 
6, 1, 6, 6, -1, -3.9224985766254035, -5.3573935606473135, 2.657553961276713, 1.9843987904999998, ABalpp, 0, 0, 0, 0, , 0, 0, 0, 0, 0, 
19, 1, 19, 19, -1, -10.611717288912988, -0.16207832778902123, -2.1272002636675813, 1.9843987904999998, ABalaa, 0, 0, 0, 0, , 0, 0, 0, 0, 0, 
8, 1, 8, 8, -1, 10.696950574759436, 1.6430908526030847, 2.6125655587691248, 1.7907989085000002, Cpp, 0, 0, 0, 0, , 0, 0, 0, 0, 0, 
10, 1, 10, 10, -1, 6.993144811633964, 5.444569922048212, 0.3573832431501307, 1.8875988495, ABprap, 0, 0, 0, 0, , 0, 0, 0, 0, 0, 
11, 1, 11, 11, -1, -8.962520550617779, 2.148031878623934, 1.6835856327052123, 1.9843987904999998, ABalap, 0, 0, 0, 0, , 0, 0, 0, 0, 0, 
1, 1, 1, 1, -1, 11.26225715578929, 2.1615408567671235, -1.5891110032890108, 1.8875988495, ABprpp, 0, 0, 0, 0, , 0, 0, 0, 0, 0, 
17, 1, 17, 17, -1, 5.8354211881047515, 3.101846630895185, -2.991459053659911, 1.8875988495, ABprpa, 0, 0, 0, 0, , 0, 0, 0, 0, 0, 
4, 1, 4, 4, -1, 10.13786261659099, -3.557666761969343, -1.3720782014774124, 2.0583895500000002, P4, 0, 0, 0, 0, , 0, 0, 0, 0, 0, 
28, 1, 28, 28, -1, 2.221181978940728, -0.4957743176562718, 2.804889394398181, 1.7907989085000002, Caa, 0, 0, 0, 0, , 0, 0, 0, 0, 0, 
27, 1, 27, 27, -1, 10.197471244996937, 2.188229464078626, 2.7527283672487424, 1.7907989085000002, Cpa, 0, 0, 0, 0, , 0, 0, 0, 0, 0, 
15, 1, 15, 15, -1, 2.6623853181142794, -0.904154861669025, 2.8447534838803303, 1.7907989085000002, Cap, 0, 0, 0, 0, , 0, 0, 0, 0, 0, 
26, 1, 26, 26, -1, 0.19500348231050887, -0.13611321472893845, -2.6173506576301575, 1.7907989085000002, MSpa, 0, 0, 0, 0, , 0, 0, 0, 0, 0, 
7, 1, 7, 7, -1, 8.224523046789253, -0.9498302013015578, 0.9114659150804798, 2.0583895500000002, Ep, 0, 0, 0, 0, , 0, 0, 0, 0, 0, 
20, 1, 20, 20, -1, 0.39473438629565005, -6.044157339225216, 2.735627431742932, 1.8875988495, ABplpa, 0, 0, 0, 0, , 0, 0, 0, 0, 0, 
14, 1, 14, 14, -1, -3.9365701727761246, -5.120043712176281, -1.4917591898130265, 1.7907989085000002, MSap, 0, 0, 0, 0, , 0, 0, 0, 0, 0, 
5, 1, 5, 5, -1, 5.0892841340983805, -4.932042669990062, 3.386430043626964, 1.8875988495, ABplpp, 0, 0, 0, 0, , 0, 0, 0, 0, 0, 
23, 1, 23, 23, -1, -9.036023538199084, -4.28343656851277, 0.8836466792409794, 1.9843987904999998, ABalpa, 0, 0, 0, 0, , 0, 0, 0, 0, 0, 
24, 1, 24, 24, -1, -4.215801198774723, 5.1957219118370475, 2.4335810158293447, 1.9843987904999998, ABarpa, 0, 0, 0, 0, , 0, 0, 0, 0, 0, 
13, 1, 13, 13, -1, 2.5912518057700624, -2.7088555089374, -0.4702880133316101, 2.0583895500000002, Ea, 0, 0, 0, 0, , 0, 0, 0, 0, 0, 
3, 1, 3, 3, -1, 2.330671176457728, 0.5673354053304105, -2.972299633550657, 1.7907989085000002, MSpp, 0, 0, 0, 0, , 0, 0, 0, 0, 0, 
25, 1, 25, 25, -1, -5.942604540980288, -4.122308937284512, -1.988021653262345, 1.7907989085000002, MSaa, 0, 0, 0, 0, , 0, 0, 0, 0, 0, 
12, 1, 12, 12, -1, -2.8169226730319092, 4.526521477778609, -2.5743665907151616, 1.9843987904999998, ABarap, 0, 0, 0, 0, , 0, 0, 0, 0, 0, 
9, 1, 9, 9, -1, 0.11676082146281051, 0.331403370149529, 3.1856674704464965, 1.8875988495, ABplap, 0, 0, 0, 0, , 0, 0, 0, 0, 0, 
18, 1, 18, 18, -1, -7.137443050249933, 2.118415254490114, -2.9105367121514556, 1.9843987904999998, ABaraa, 0, 0, 0, 0, , 0, 0, 0, 0, 0, 
22, 1, 22, 22, -1, 1.1460098984815077, 6.788383895744881, -1.611060712729865, 1.8875988495, ABpraa, 0, 0, 0, 0, , 0, 0, 0, 0, 0, 
16, 1, 16, 16, -1, -6.2223056318492, 0.32887210058498906, 4.0869145900824435, 1.8875988495, ABplaa, 0, 0, 0, 0, , 0, 0, 0, 0, 0, 
2, 1, 2, 2, -1, 1.6193102219433924, 4.957620112974926, 2.5508168774589066, 1.9843987904999998, ABarpp, 0, 0, 0, 0, , 0, 0, 0, 0, 0, 
