23, 1, 23, 23, -1, 0.6942698430733445, -1.4266186181427751, 6.966742772873748, 1.6133323499999999, ABpraap, 0, 0, 0, 0, , 0, 0, 0, 0, 0, 
3, 1, 3, 3, -1, 6.337242083846112, 3.1971940404240513, -5.050474866695494, 1.7245966499999996, ABplppp, 0, 0, 0, 0, , 0, 0, 0, 0, 0, 
8, 1, 8, 8, -1, 7.942261764264841, 0.8556897624427241, 4.981394860425668, 1.6133323499999999, ABprapp, 0, 0, 0, 0, , 0, 0, 0, 0, 0, 
10, 1, 10, 10, -1, 3.293469176628764, -3.6642637906437643, 0.7520115668694686, 1.7245966499999996, MSpp, 0, 0, 0, 0, , 0, 0, 0, 0, 0, 
16, 1, 16, 16, -1, -5.881676570005551, 3.868883276909721, -0.3797527900968014, 1.83586095, ABplaap, 0, 0, 0, 0, , 0, 0, 0, 0, 0, 
24, 1, 24, 24, -1, 11.217538755739687, -0.6962447491444146, -3.7234513701518397, 1.9822949999999997, D, 0, 0, 0, 0, , 0, 0, 0, 0, 0, 
29, 1, 29, 29, -1, -10.710313674552472, -1.949221044343455, -0.3517546565784471, 1.7245966499999996, ABalaaa, 0, 0, 0, 0, , 0, 0, 0, 0, 0, 
42, 1, 42, 42, -1, 11.699647591498035, -1.330492417405045, 2.8742229786478797, 1.6133323499999999, ABprppa, 0, 0, 0, 0, , 0, 0, 0, 0, 0, 
36, 1, 36, 36, -1, -4.011504097976545, 3.3460024097912364, -5.0470706592786545, 1.7245966499999996, ABalppa, 0, 0, 0, 0, , 0, 0, 0, 0, 0, 
27, 1, 27, 27, -1, 9.604863953715855, 3.059840323172437, 2.201056547902284, 1.83586095, Cpa, 0, 0, 0, 0, , 0, 0, 0, 0, 0, 
19, 1, 19, 19, -1, -7.377615725419488, -2.672976312765863, 1.7741290766279363, 1.7245966499999996, ABaraap, 0, 0, 0, 0, , 0, 0, 0, 0, 0, 
9, 1, 9, 9, -1, -2.025562301548989, -2.4698846925240145, 4.59665234321971, 1.7245966499999996, ABarapp, 0, 0, 0, 0, , 0, 0, 0, 0, 0, 
2, 1, 2, 2, -1, 2.5012035916452877, 2.52541451755787, 4.840906334629467, 1.7245966499999996, ABarppp, 0, 0, 0, 0, , 0, 0, 0, 0, 0, 
25, 1, 25, 25, -1, -5.856147577141977, -2.618554483259514, -3.9646173160963305, 1.7245966499999996, MSaa, 0, 0, 0, 0, , 0, 0, 0, 0, 0, 
18, 1, 18, 18, -1, 0.4080903807995151, 2.2917050055077532, -6.437533229315937, 1.7245966499999996, ABplpap, 0, 0, 0, 0, , 0, 0, 0, 0, 0, 
39, 1, 39, 39, -1, -0.1368217169122083, 2.623764349555572, -6.3437712128329355, 1.7245966499999996, ABplpaa, 0, 0, 0, 0, , 0, 0, 0, 0, 0, 
15, 1, 15, 15, -1, 4.025501669607151, 3.1289188997988857, -1.6575688843730936, 1.83586095, Cap, 0, 0, 0, 0, , 0, 0, 0, 0, 0, 
37, 1, 37, 37, -1, -8.808919848780594, 2.3442899118126594, 2.4049083822165653, 1.7245966499999996, ABalapa, 0, 0, 0, 0, , 0, 0, 0, 0, 0, 
11, 1, 11, 11, -1, 11.80020391468043, -1.4137941692598404, 2.365697968090964, 1.6133323499999999, ABprppp, 0, 0, 0, 0, , 0, 0, 0, 0, 0, 
5, 1, 5, 5, -1, 8.005568119270935, 0.9896833882597921, -0.6067725017644808, 2.110185, Ep, 0, 0, 0, 0, , 0, 0, 0, 0, 0, 
35, 1, 35, 35, -1, -7.869357483358403, -2.5284132412896976, 1.995956688972201, 1.7245966499999996, ABaraaa, 0, 0, 0, 0, , 0, 0, 0, 0, 0, 
21, 1, 21, 21, -1, -9.826617820011625, 0.9448805697356538, -3.808182921430734, 1.7245966499999996, ABalpap, 0, 0, 0, 0, , 0, 0, 0, 0, 0, 
12, 1, 12, 12, -1, 11.146365770183916, 2.6269350823137185, 0.5156910678279758, 1.83586095, Cpp, 0, 0, 0, 0, , 0, 0, 0, 0, 0, 
26, 1, 26, 26, -1, -0.9617728361525112, -2.9170792747144865, -0.6280276734224229, 1.7245966499999996, MSpa, 0, 0, 0, 0, , 0, 0, 0, 0, 0, 
1, 1, 1, 1, -1, 0.8626501014807073, 3.085553147761977, -0.3246271085179417, 1.83586095, ABplapp, 0, 0, 0, 0, , 0, 0, 0, 0, 0, 
44, 1, 44, 44, -1, 6.061377804904273, 3.330100117165699, -5.009753547292646, 1.7245966499999996, ABplppa, 0, 0, 0, 0, , 0, 0, 0, 0, 0, 
14, 1, 14, 14, 45, 1.0462438364867808, -0.706723074911447, -2.73451264405091, 2.110185, Ea, 0, 0, 0, 0, , 0, 0, 0, 0, 0, 
6, 1, 6, 6, -1, -8.098551067968184, 2.1465463027713496, 2.0178979075368, 1.7245966499999996, ABalapp, 0, 0, 0, 0, , 0, 0, 0, 0, 0, 
4, 1, 4, 4, -1, 8.899819752307751, -2.0200018193797735, -4.086248610925453, 1.9822949999999997, P4, 0, 0, 0, 0, , 0, 0, 0, 0, 0, 
13, 1, 13, 13, -1, -2.1449478186673945, -1.703885692980501, -5.832989685753561, 1.7245966499999996, MSap, 0, 0, 0, 0, , 0, 0, 0, 0, 0, 
30, 1, 30, 30, -1, 0.08976918825559622, 3.177532484036127, 0.44422032500499853, 1.83586095, ABplapa, 0, 0, 0, 0, , 0, 0, 0, 0, 0, 
17, 1, 17, 17, -1, 5.7518575907800535, -3.0612631153035763, 3.70533576486588, 1.6133323499999999, ABprpap, 0, 0, 0, 0, , 0, 0, 0, 0, 0, 
31, 1, 31, 31, -1, -6.526721256547647, 4.016737303281668, 0.369345950041973, 1.83586095, ABplaaa, 0, 0, 0, 0, , 0, 0, 0, 0, 0, 
22, 1, 22, 22, -1, -10.136298374397517, -2.092720133594797, -0.6002890124408183, 1.7245966499999996, ABalaap, 0, 0, 0, 0, , 0, 0, 0, 0, 0, 
40, 1, 40, 40, -1, 0.2964928558561735, -1.283867729946398, 7.0406361522749865, 1.6133323499999999, ABpraaa, 0, 0, 0, 0, , 0, 0, 0, 0, 0, 
43, 1, 43, 43, -1, 5.339969338164131, -3.0260796305415316, 4.107601513632293, 1.6133323499999999, ABprpaa, 0, 0, 0, 0, , 0, 0, 0, 0, 0, 
20, 1, 20, 20, -1, -4.940276183230093, 2.07594487813094, 4.90551485297693, 1.7245966499999996, ABarpap, 0, 0, 0, 0, , 0, 0, 0, 0, 0, 
7, 1, 7, 7, -1, -3.3841921355074187, 3.0130416967546805, -5.106780787396955, 1.7245966499999996, ABalppp, 0, 0, 0, 0, , 0, 0, 0, 0, 0, 
28, 1, 28, 28, -1, 2.4575584683184726, 2.9868465109516915, -0.2101800103927844, 1.83586095, Caa, 0, 0, 0, 0, , 0, 0, 0, 0, 0, 
32, 1, 32, 32, -1, -2.9525186673865065, -2.3314141561085746, 4.7687970963562245, 1.7245966499999996, ABarapa, 0, 0, 0, 0, , 0, 0, 0, 0, 0, 
41, 1, 41, 41, -1, 2.0415419669865225, 2.6910389172206113, 4.914965812561225, 1.7245966499999996, ABarppa, 0, 0, 0, 0, , 0, 0, 0, 0, 0, 
33, 1, 33, 33, -1, 7.125532681556403, 0.9310014935765981, 5.574824732524873, 1.6133323499999999, ABprapa, 0, 0, 0, 0, , 0, 0, 0, 0, 0, 
34, 1, 34, 34, -1, -5.4600552078687015, 2.3300966840259094, 5.2626895607038495, 1.7245966499999996, ABarpaa, 0, 0, 0, 0, , 0, 0, 0, 0, 0, 
38, 1, 38, 38, -1, -10.196260757475413, 1.172301383049739, -3.4474197663891966, 1.7245966499999996, ABalpaa, 0, 0, 0, 0, , 0, 0, 0, 0, 0, 
