22, 1, 22, 22, -1, -8.746136582843876, 0.25759153944563506, -4.466514226070498, 1.7245966499999996, ABalpap, 0, 0, 0, 0, , 0, 0, 0, 0, 0, 
30, 1, 30, 30, -1, 5.939012516154142, 1.0279008714127498, 6.025228010752988, 1.6133323499999999, ABprapa, 0, 0, 0, 0, , 0, 0, 0, 0, 0, 
33, 1, 33, 33, -1, -7.185814091262639, 3.8557337923132593, 0.6653939663496842, 1.83586095, ABplaaa, 0, 0, 0, 0, , 0, 0, 0, 0, 0, 
4, 1, 4, 4, -1, 7.889054851121459, -2.5711888836987544, -4.195287120734975, 1.9822949999999997, P4, 0, 0, 0, 0, , 0, 0, 0, 0, 0, 
21, 1, 21, 21, -1, -6.040625653023664, -3.1285740902093475, 1.5419684917187408, 1.7245966499999996, ABaraap, 0, 0, 0, 0, , 0, 0, 0, 0, 0, 
3, 1, 3, 3, -1, 6.2376250003645, 2.5737641630748698, -5.511005990737338, 1.7245966499999996, ABplppp, 0, 0, 0, 0, , 0, 0, 0, 0, 0, 
43, 1, 43, 43, -1, 11.674607884452099, -1.1658156594615932, 3.4139443923652975, 1.6133323499999999, ABprppa, 0, 0, 0, 0, , 0, 0, 0, 0, 0, 
5, 1, 5, 5, -1, 7.862567563777786, 0.9071637673414623, -0.0893891192683664, 1.83586095, Epr, 0, 0, 0, 0, , 0, 0, 0, 0, 0, 
17, 1, 17, 17, -1, 1.5732154263211562, -1.5367966388787542, 6.616366820809035, 1.6133323499999999, ABpraap, 0, 0, 0, 0, , 0, 0, 0, 0, 0, 
39, 1, 39, 39, -1, 5.751523892332605, -2.8955360641582852, 4.8539411978225795, 1.6133323499999999, ABprpaa, 0, 0, 0, 0, , 0, 0, 0, 0, 0, 
2, 1, 2, 2, -1, 2.781778726413946, 2.1300534281454864, 4.677854129978944, 1.7245966499999996, ABarppp, 0, 0, 0, 0, , 0, 0, 0, 0, 0, 
26, 1, 26, 26, -1, -5.502735643445137, -3.0879333939314084, -3.7183808775745932, 1.5003990854999996, MSaap, 0, 0, 0, 0, , 0, 0, 0, 0, 0, 
19, 1, 19, 19, -1, 7.518704381625268, -3.046885302857148, 3.128693010099068, 1.6133323499999999, ABprpap, 0, 0, 0, 0, , 0, 0, 0, 0, 0, 
49, 1, 49, 49, -1, -5.677532701191404, -3.086894938886957, -3.6858478575976212, 1.5003990854999996, MSaaa, 0, 0, 0, 0, , 0, 0, 0, 0, 0, 
20, 1, 20, 20, -1, -3.7403142353743464, 0.9493263070891433, 4.039986334543057, 1.7245966499999996, ABarpap, 0, 0, 0, 0, , 0, 0, 0, 0, 0, 
7, 1, 7, 7, -1, -3.0393199349406657, 1.811668736788552, -5.3620504958190995, 1.7245966499999996, ABalppp, 0, 0, 0, 0, , 0, 0, 0, 0, 0, 
47, 1, 47, 47, -1, 10.761562428124, -0.8324246174974198, -3.857757734780517, 1.7245966499999996, Da, 0, 0, 0, 0, , 0, 0, 0, 0, 0, 
23, 1, 23, 23, -1, -9.320729000364087, -2.03808556449139, -0.915745651951314, 1.7245966499999996, ABalaap, 0, 0, 0, 0, , 0, 0, 0, 0, 0, 
12, 1, 12, 12, -1, 11.760014414770385, 2.6171331261237167, -0.6787769496958148, 1.83586095, Cpp, 0, 0, 0, 0, , 0, 0, 0, 0, 0, 
29, 1, 29, 29, -1, -1.9794657144786596, 3.3567182939239526, 1.0285063446161964, 1.83586095, ABplapa, 0, 0, 0, 0, , 0, 0, 0, 0, 0, 
24, 1, 24, 24, -1, 10.970072128714886, -0.9637513998140925, -3.5317706570912457, 1.7245966499999996, Dp, 0, 0, 0, 0, , 0, 0, 0, 0, 0, 
1, 1, 1, 1, -1, 0.3671123490584343, 3.077364107538417, -1.3091850189550336, 1.83586095, ABplapp, 0, 0, 0, 0, , 0, 0, 0, 0, 0, 
8, 1, 8, 8, -1, 8.31522841386941, 0.8074745630925884, 4.297713005466979, 1.6133323499999999, ABprapp, 0, 0, 0, 0, , 0, 0, 0, 0, 0, 
6, 1, 6, 6, -1, -6.878364996939736, 1.4466606418254973, 1.3816462531543547, 1.7245966499999996, ABalapp, 0, 0, 0, 0, , 0, 0, 0, 0, 0, 
46, 1, 46, 46, -1, 7.573369469624938, 1.0328771217411605, -0.6373620901664434, 1.83586095, Epl, 0, 0, 0, 0, , 0, 0, 0, 0, 0, 
35, 1, 35, 35, -1, 0.5712919831674198, 2.9271160501976032, 5.034071786191544, 1.7245966499999996, ABarppa, 0, 0, 0, 0, , 0, 0, 0, 0, 0, 
42, 1, 42, 42, -1, -10.79059900370205, -1.6706030884062595, -0.2783466378291882, 1.7245966499999996, ABalaaa, 0, 0, 0, 0, , 0, 0, 0, 0, 0, 
34, 1, 34, 34, -1, -8.077179980513796, -2.531210847977101, 2.463830641310588, 1.7245966499999996, ABaraaa, 0, 0, 0, 0, , 0, 0, 0, 0, 0, 
31, 1, 31, 31, -1, -3.6558211241256986, -2.4244685564432116, 4.831257024682533, 1.7245966499999996, ABarapa, 0, 0, 0, 0, , 0, 0, 0, 0, 0, 
25, 1, 25, 25, -1, -1.6520197007056163, -2.752008550221814, -0.7541188481621106, 1.5003990854999996, MSpap, 0, 0, 0, 0, , 0, 0, 0, 0, 0, 
45, 1, 45, 45, -1, 0.49898524754611, -0.6446039783573565, -2.677531072777677, 1.83586095, Eal, 0, 0, 0, 0, , 0, 0, 0, 0, 0, 
36, 1, 36, 36, -1, -5.762777208437994, 1.9368985520350295, 5.4276992648277105, 1.7245966499999996, ABarpaa, 0, 0, 0, 0, , 0, 0, 0, 0, 0, 
44, 1, 44, 44, -1, 4.544490628276291, 3.389229677925452, -5.2611510721696115, 1.7245966499999996, ABplppa, 0, 0, 0, 0, , 0, 0, 0, 0, 0, 
41, 1, 41, 41, -1, -0.4857171271134333, -0.7978154047692918, 6.99842361209551, 1.6133323499999999, ABpraaa, 0, 0, 0, 0, , 0, 0, 0, 0, 0, 
37, 1, 37, 37, -1, -10.22415799952917, 1.16712923011697, -3.0237941896876066, 1.7245966499999996, ABalpaa, 0, 0, 0, 0, , 0, 0, 0, 0, 0, 
32, 1, 32, 32, -1, -9.081949423588535, 2.0602851449264725, 2.5822403965782463, 1.7245966499999996, ABalapa, 0, 0, 0, 0, , 0, 0, 0, 0, 0, 
28, 1, 28, 28, -1, 9.101557731957161, 3.3629424323080954, 2.216256766501239, 1.83586095, Cpa, 0, 0, 0, 0, , 0, 0, 0, 0, 0, 
27, 1, 27, 27, -1, 2.7197425002328863, 3.2056658539259093, 0.12187765758526525, 1.83586095, Caa, 0, 0, 0, 0, , 0, 0, 0, 0, 0, 
38, 1, 38, 38, -1, -5.375887123899826, 3.049896666216864, -5.140345295359845, 1.7245966499999996, ABalppa, 0, 0, 0, 0, , 0, 0, 0, 0, 0, 
13, 1, 13, 13, -1, -0.3738394859233326, -1.8585388961591294, -6.376901166265549, 1.7245966499999996, MSap, 0, 0, 0, 0, , 0, 0, 0, 0, 0, 
16, 1, 16, 16, -1, -5.443393960443623, 3.4562933342390307, -1.358063707196693, 1.83586095, ABplaap, 0, 0, 0, 0, , 0, 0, 0, 0, 0, 
15, 1, 15, 15, -1, 5.689290843014067, 3.476215532719051, -2.607741258966078, 1.83586095, Cap, 0, 0, 0, 0, , 0, 0, 0, 0, 0, 
40, 1, 40, 40, -1, -1.0092311168624217, 2.9393619933293116, -6.300570214123751, 1.7245966499999996, ABplpaa, 0, 0, 0, 0, , 0, 0, 0, 0, 0, 
14, 1, 14, 14, -1, 0.6361282958226541, -0.5481316200328147, -1.9690017273868663, 1.83586095, Ear, 0, 0, 0, 0, , 0, 0, 0, 0, 0, 
18, 1, 18, 18, -1, 1.0532086621485814, 1.682566940032761, -6.655433237415865, 1.7245966499999996, ABplpap, 0, 0, 0, 0, , 0, 0, 0, 0, 0, 
10, 1, 10, 10, -1, 4.616559224022117, -3.8420927265329117, 1.3810265511895767, 1.7245966499999996, MSpp, 0, 0, 0, 0, , 0, 0, 0, 0, 0, 
11, 1, 11, 11, -1, 12.007880010433457, -1.4440631666317587, 1.7177802650732605, 1.6133323499999999, ABprppp, 0, 0, 0, 0, , 0, 0, 0, 0, 0, 
48, 1, 48, 48, -1, -1.8806030597691097, -2.7217839360996923, -0.6608465803530676, 1.5003990854999996, MSpaa, 0, 0, 0, 0, , 0, 0, 0, 0, 0, 
9, 1, 9, 9, -1, -1.0755488747855262, -2.8098976470244743, 4.352088531196977, 1.7245966499999996, ABarapp, 0, 0, 0, 0, , 0, 0, 0, 0, 0, 
