26, 1, 26, 26, -1, -5.3236642594694725, -3.0971991549002458, -3.693741600818851, 1.5003990854999996, MSaap, 0, 0, 0, 0, , 0, 0, 0, 0, 0, 
4, 1, 4, 4, -1, 7.762709238473173, -2.640087266738627, -4.208916934461166, 1.9822949999999997, P4, 0, 0, 0, 0, , 0, 0, 0, 0, 0, 
14, 1, 14, 14, -1, 0.6544384856560511, -0.5087605628514514, -1.8431518794978783, 1.83586095, Ear, 0, 0, 0, 0, , 0, 0, 0, 0, 0, 
10, 1, 10, 10, -1, 4.758685736011932, -3.884511468132955, 1.437783527563634, 1.7245966499999996, MSpp, 0, 0, 0, 0, , 0, 0, 0, 0, 0, 
28, 1, 28, 28, -1, 9.018150893368652, 3.407551602486258, 2.218741508451272, 1.83586095, Cpa, 0, 0, 0, 0, , 0, 0, 0, 0, 0, 
41, 1, 41, 41, -1, -0.5836851091730235, -0.739882201582672, 6.997468020938533, 1.6133323499999999, ABpraaa, 0, 0, 0, 0, , 0, 0, 0, 0, 0, 
47, 1, 47, 47, -1, 10.664981753549453, -0.8453261784410454, -3.911275415053327, 1.7245966499999996, Da, 0, 0, 0, 0, , 0, 0, 0, 0, 0, 
36, 1, 36, 36, -1, -5.812231439424819, 1.8928705834711694, 5.446457211155556, 1.7245966499999996, ABarpaa, 0, 0, 0, 0, , 0, 0, 0, 0, 0, 
21, 1, 21, 21, -1, -5.917858231439251, -3.164826020249373, 1.5105587489346488, 1.7245966499999996, ABaraap, 0, 0, 0, 0, , 0, 0, 0, 0, 0, 
25, 1, 25, 25, -1, -1.4782321136843484, -2.776047976463043, -0.75440353757227, 1.5003990854999996, MSpap, 0, 0, 0, 0, , 0, 0, 0, 0, 0, 
8, 1, 8, 8, -1, 8.370062633677502, 0.8101184050261956, 4.216962971656515, 1.6133323499999999, ABprapp, 0, 0, 0, 0, , 0, 0, 0, 0, 0, 
30, 1, 30, 30, -1, 5.81314590723864, 1.0473071702528332, 6.075847939321688, 1.6133323499999999, ABprapa, 0, 0, 0, 0, , 0, 0, 0, 0, 0, 
33, 1, 33, 33, -1, -7.270035633819063, 3.8352059542120607, 0.7038414712777339, 1.83586095, ABplaaa, 0, 0, 0, 0, , 0, 0, 0, 0, 0, 
16, 1, 16, 16, -1, -5.388407503200924, 3.4038528097404237, -1.4812772680646227, 1.83586095, ABplaap, 0, 0, 0, 0, , 0, 0, 0, 0, 0, 
35, 1, 35, 35, -1, 0.41312617370421584, 2.9551824049219553, 5.046667252326796, 1.7245966499999996, ABarppa, 0, 0, 0, 0, , 0, 0, 0, 0, 0, 
42, 1, 42, 42, -1, -10.799982035419946, -1.6273529241293239, -0.2498973485829542, 1.7245966499999996, ABalaaa, 0, 0, 0, 0, , 0, 0, 0, 0, 0, 
40, 1, 40, 40, -1, -1.1184293637997493, 2.9789754021558337, -6.2950451316379334, 1.7245966499999996, ABplpaa, 0, 0, 0, 0, , 0, 0, 0, 0, 0, 
48, 1, 48, 48, -1, -1.8946922062246856, -2.7209812137473968, -0.5844691318379862, 1.5003990854999996, MSpaa, 0, 0, 0, 0, , 0, 0, 0, 0, 0, 
11, 1, 11, 11, -1, 12.015952169474279, -1.4588126982901233, 1.5905323761709163, 1.6133323499999999, ABprppp, 0, 0, 0, 0, , 0, 0, 0, 0, 0, 
45, 1, 45, 45, -1, 0.49302233148985647, -0.6223076748617529, -2.677084648851664, 1.83586095, Eal, 0, 0, 0, 0, , 0, 0, 0, 0, 0, 
38, 1, 38, 38, -1, -5.531454398202108, 3.02309647612845, -5.14805373859029, 1.7245966499999996, ABalppa, 0, 0, 0, 0, , 0, 0, 0, 0, 0, 
6, 1, 6, 6, -1, -6.728492459808985, 1.3663823945523372, 1.3052793126675275, 1.7245966499999996, ABalapp, 0, 0, 0, 0, , 0, 0, 0, 0, 0, 
31, 1, 31, 31, -1, -3.7444095082004045, -2.436501429240521, 4.838849373671239, 1.7245966499999996, ABarapa, 0, 0, 0, 0, , 0, 0, 0, 0, 0, 
49, 1, 49, 49, -1, -5.7124985307825975, -3.094889122250344, -3.6213722298496682, 1.5003990854999996, MSaaa, 0, 0, 0, 0, , 0, 0, 0, 0, 0, 
5, 1, 5, 5, -1, 7.8564520300208915, 0.8707116938924175, -0.03908245790033757, 1.83586095, Epr, 0, 0, 0, 0, , 0, 0, 0, 0, 0, 
19, 1, 19, 19, -1, 7.696366933565047, -3.0472066450860007, 3.086555229359868, 1.6133323499999999, ABprpap, 0, 0, 0, 0, , 0, 0, 0, 0, 0, 
46, 1, 46, 46, -1, 7.498397246784032, 1.026356799339663, -0.717525183774147, 1.83586095, Epl, 0, 0, 0, 0, , 0, 0, 0, 0, 0, 
32, 1, 32, 32, -1, -9.113441859844537, 2.030510971982611, 2.6046877888835134, 1.7245966499999996, ABalapa, 0, 0, 0, 0, , 0, 0, 0, 0, 0, 
37, 1, 37, 37, -1, -10.23364224429802, 1.16812564139134, -2.969054561216037, 1.7245966499999996, ABalpaa, 0, 0, 0, 0, , 0, 0, 0, 0, 0, 
9, 1, 9, 9, -1, -0.9566086597175885, -2.852930178581671, 4.321141859261911, 1.7245966499999996, ABarapp, 0, 0, 0, 0, , 0, 0, 0, 0, 0, 
23, 1, 23, 23, -1, -9.190124412716463, -2.029833731270181, -0.9480010307167118, 1.7245966499999996, ABalaap, 0, 0, 0, 0, , 0, 0, 0, 0, 0, 
3, 1, 3, 3, -1, 6.230353699896416, 2.4976333560932584, -5.567158134733507, 1.7245966499999996, ABplppp, 0, 0, 0, 0, , 0, 0, 0, 0, 0, 
2, 1, 2, 2, -1, 2.8233556949549454, 2.0860960519615146, 4.658261253685347, 1.7245966499999996, ABarppp, 0, 0, 0, 0, , 0, 0, 0, 0, 0, 
27, 1, 27, 27, -1, 2.744152699597972, 3.2290248244235205, 0.15446560320625236, 1.83586095, Caa, 0, 0, 0, 0, , 0, 0, 0, 0, 0, 
13, 1, 13, 13, -1, -0.09477299963439662, -1.8539638448752722, -6.423602511435417, 1.7245966499999996, MSap, 0, 0, 0, 0, , 0, 0, 0, 0, 0, 
7, 1, 7, 7, -1, -2.9946100216178766, 1.6787347241776995, -5.388762241946052, 1.7245966499999996, ABalppp, 0, 0, 0, 0, , 0, 0, 0, 0, 0, 
22, 1, 22, 22, -1, -8.622064675502608, 0.17640080999669283, -4.542140865946792, 1.7245966499999996, ABalpap, 0, 0, 0, 0, , 0, 0, 0, 0, 0, 
17, 1, 17, 17, -1, 1.662992053997242, -1.5462477427537875, 6.580573224367577, 1.6133323499999999, ABpraap, 0, 0, 0, 0, , 0, 0, 0, 0, 0, 
39, 1, 39, 39, -1, 5.7804756036586955, -2.8831211450660557, 4.956985592768388, 1.6133323499999999, ABprpaa, 0, 0, 0, 0, , 0, 0, 0, 0, 0, 
12, 1, 12, 12, -1, 11.829100311333686, 2.6189616477635784, -0.8423553272217096, 1.83586095, Cpp, 0, 0, 0, 0, , 0, 0, 0, 0, 0, 
43, 1, 43, 43, -1, 11.647162587793309, -1.1509118155778442, 3.467459998378623, 1.6133323499999999, ABprppa, 0, 0, 0, 0, , 0, 0, 0, 0, 0, 
15, 1, 15, 15, -1, 5.875676406530854, 3.5143317584235607, -2.7240416178842555, 1.83586095, Cap, 0, 0, 0, 0, , 0, 0, 0, 0, 0, 
29, 1, 29, 29, -1, -2.1778035724753506, 3.373543205667051, 1.0869019938543885, 1.83586095, ABplapa, 0, 0, 0, 0, , 0, 0, 0, 0, 0, 
24, 1, 24, 24, -1, 10.95634299079897, -1.0288357881683166, -3.4557570482160007, 1.7245966499999996, Dp, 0, 0, 0, 0, , 0, 0, 0, 0, 0, 
20, 1, 20, 20, -1, -3.6190964855119185, 0.821958908572048, 3.941637704475557, 1.7245966499999996, ABarpap, 0, 0, 0, 0, , 0, 0, 0, 0, 0, 
44, 1, 44, 44, -1, 4.364743839989375, 3.3961683631187727, -5.291851102220002, 1.7245966499999996, ABplppa, 0, 0, 0, 0, , 0, 0, 0, 0, 0, 
18, 1, 18, 18, -1, 1.1340970307883036, 1.6063467033941632, -6.682614424357892, 1.7245966499999996, ABplpap, 0, 0, 0, 0, , 0, 0, 0, 0, 0, 
1, 1, 1, 1, -1, 0.34411033640698135, 3.0733157301368927, -1.4254612026113256, 1.83586095, ABplapp, 0, 0, 0, 0, , 0, 0, 0, 0, 0, 
34, 1, 34, 34, -1, -8.1171199619246, -2.519737352539184, 2.5060716694659244, 1.7245966499999996, ABaraaa, 0, 0, 0, 0, , 0, 0, 0, 0, 0, 
