35, 1, 35, 35, -1, 0.2549603642410104, 2.9832487596463073, 5.0592627184620484, 1.7245966499999996, ABarppa, 0, 0, 0, 0, , 0, 0, 0, 0, 0, 
14, 1, 14, 14, -1, 0.6727486754894482, -0.4693895056700856, -1.7173020316088903, 1.83586095, Ear, 0, 0, 0, 0, , 0, 0, 0, 0, 0, 
27, 1, 27, 27, -1, 2.768562898963058, 3.2523837949211316, 0.18705354882723946, 1.83586095, Caa, 0, 0, 0, 0, , 0, 0, 0, 0, 0, 
33, 1, 33, 33, -1, -7.354257176375487, 3.814678116110862, 0.7422889762057836, 1.83586095, ABplaaa, 0, 0, 0, 0, , 0, 0, 0, 0, 0, 
46, 1, 46, 46, -1, 7.4234250239431265, 1.0198364769381654, -0.7976882773818506, 1.83586095, Epl, 0, 0, 0, 0, , 0, 0, 0, 0, 0, 
45, 1, 45, 45, -1, 0.4870594154336029, -0.6000113713661492, -2.6766382249256515, 1.83586095, Eal, 0, 0, 0, 0, , 0, 0, 0, 0, 0, 
38, 1, 38, 38, -1, -5.68702167250439, 2.9962962860400357, -5.1557621818207355, 1.7245966499999996, ABalppa, 0, 0, 0, 0, , 0, 0, 0, 0, 0, 
10, 1, 10, 10, 50, 4.900812248001747, -3.926930209732998, 1.4945405039376911, 1.7245966499999996, MSpp, 0, 0, 0, 0, , 0, 0, 0, 0, 0, 
20, 1, 20, 20, -1, -3.4978787356494907, 0.6945915100549527, 3.8432890744080463, 1.7245966499999996, ABarpap, 0, 0, 0, 0, , 0, 0, 0, 0, 0, 
25, 1, 25, 25, -1, -1.3044445266630804, -2.800087402704272, -0.7546882269824293, 1.5003990854999996, MSpap, 0, 0, 0, 0, , 0, 0, 0, 0, 0, 
39, 1, 39, 39, -1, 5.809427314984786, -2.870706225973826, 5.060029987714196, 1.6133323499999999, ABprpaa, 0, 0, 0, 0, , 0, 0, 0, 0, 0, 
13, 1, 13, 13, -1, 0.1842934866545387, -1.849388793591415, -6.470303856605286, 1.7245966499999996, MSap, 0, 0, 0, 0, , 0, 0, 0, 0, 0, 
19, 1, 19, 19, -1, 7.874029485504826, -3.0475279873148535, 3.0444174486206683, 1.6133323499999999, ABprpap, 0, 0, 0, 0, , 0, 0, 0, 0, 0, 
37, 1, 37, 37, -1, -10.243126489066869, 1.1691220526657098, -2.9143149327444675, 1.7245966499999996, ABalpaa, 0, 0, 0, 0, , 0, 0, 0, 0, 0, 
36, 1, 36, 36, -1, -5.861685670411644, 1.8488426149073094, 5.465215157483401, 1.7245966499999996, ABarpaa, 0, 0, 0, 0, , 0, 0, 0, 0, 0, 
40, 1, 40, 40, -1, -1.227627610737077, 3.0185888109823558, -6.289520049152116, 1.7245966499999996, ABplpaa, 0, 0, 0, 0, , 0, 0, 0, 0, 0, 
7, 1, 7, 7, -1, -2.9499001082950875, 1.545800711566847, -5.415473988073005, 1.7245966499999996, ABalppp, 0, 0, 0, 0, , 0, 0, 0, 0, 0, 
26, 1, 26, 26, -1, -5.144592875493808, -3.106464915869083, -3.6691023240631084, 1.5003990854999996, MSaap, 0, 0, 0, 0, , 0, 0, 0, 0, 0, 
2, 1, 2, 2, -1, 2.864932663495945, 2.042138675777543, 4.63866837739175, 1.7245966499999996, ABarppp, 0, 0, 0, 0, , 0, 0, 0, 0, 0, 
5, 1, 5, 5, -1, 7.850336496263997, 0.8342596204433728, 0.011224203467691323, 1.83586095, Epr, 0, 0, 0, 0, , 0, 0, 0, 0, 0, 
4, 1, 4, 4, -1, 7.636363625824886, -2.7089856497784996, -4.222546748187356, 1.9822949999999997, P4, 0, 0, 0, 0, , 0, 0, 0, 0, 0, 
41, 1, 41, 41, -1, -0.6816530912326138, -0.6819489983960523, 6.996512429781556, 1.6133323499999999, ABpraaa, 0, 0, 0, 0, , 0, 0, 0, 0, 0, 
6, 1, 6, 6, -1, -6.578619922678234, 1.2861041472791772, 1.2289123721807003, 1.7245966499999996, ABalapp, 0, 0, 0, 0, , 0, 0, 0, 0, 0, 
28, 1, 28, 28, -1, 8.934744054780143, 3.4521607726644206, 2.2212262504013047, 1.83586095, Cpa, 0, 0, 0, 0, , 0, 0, 0, 0, 0, 
32, 1, 32, 32, -1, -9.144934296100539, 2.0007367990387492, 2.6271351811887804, 1.7245966499999996, ABalapa, 0, 0, 0, 0, , 0, 0, 0, 0, 0, 
16, 1, 16, 16, -1, -5.333421045958226, 3.3514122852418167, -1.6044908289325523, 1.83586095, ABplaap, 0, 0, 0, 0, , 0, 0, 0, 0, 0, 
30, 1, 30, 30, -1, 5.687279298323139, 1.0667134690929165, 6.126467867890389, 1.6133323499999999, ABprapa, 0, 0, 0, 0, , 0, 0, 0, 0, 0, 
21, 1, 21, 21, -1, -5.7950908098548375, -3.2010779502893985, 1.4791490061505568, 1.7245966499999996, ABaraap, 0, 0, 0, 0, , 0, 0, 0, 0, 0, 
31, 1, 31, 31, -1, -3.8329978922751105, -2.4485343020378307, 4.846441722659944, 1.7245966499999996, ABarapa, 0, 0, 0, 0, , 0, 0, 0, 0, 0, 
18, 1, 18, 18, -1, 1.2149853994280257, 1.5301264667555654, -6.709795611299919, 1.7245966499999996, ABplpap, 0, 0, 0, 0, , 0, 0, 0, 0, 0, 
11, 1, 11, 11, -1, 12.0240243285151, -1.4735622299484878, 1.463284487268572, 1.6133323499999999, ABprppp, 0, 0, 0, 0, , 0, 0, 0, 0, 0, 
29, 1, 29, 29, -1, -2.3761414304720416, 3.3903681174101497, 1.1452976430925805, 1.83586095, ABplapa, 0, 0, 0, 0, , 0, 0, 0, 0, 0, 
34, 1, 34, 34, -1, -8.157059943335403, -2.508263857101267, 2.548312697621261, 1.7245966499999996, ABaraaa, 0, 0, 0, 0, , 0, 0, 0, 0, 0, 
12, 1, 12, 12, -1, 11.898186207896988, 2.62079016940344, -1.0059337047476047, 1.83586095, Cpp, 0, 0, 0, 0, , 0, 0, 0, 0, 0, 
15, 1, 15, 15, -1, 6.06206197004764, 3.5524479841280705, -2.840341976802433, 1.83586095, Cap, 0, 0, 0, 0, , 0, 0, 0, 0, 0, 
49, 1, 49, 49, -1, -5.747464360373791, -3.1028833056137306, -3.556896602101715, 1.5003990854999996, MSaaa, 0, 0, 0, 0, , 0, 0, 0, 0, 0, 
22, 1, 22, 22, -1, -8.49799276816134, 0.09521008054775028, -4.617767505823086, 1.7245966499999996, ABalpap, 0, 0, 0, 0, , 0, 0, 0, 0, 0, 
9, 1, 9, 9, -1, -0.8376684446496465, -2.8959627101388676, 4.290195187326845, 1.7245966499999996, ABarapp, 0, 0, 0, 0, , 0, 0, 0, 0, 0, 
48, 1, 48, 48, -1, -1.9087813526802615, -2.7201784913951013, -0.5080916833229048, 1.5003990854999996, MSpaa, 0, 0, 0, 0, , 0, 0, 0, 0, 0, 
3, 1, 3, 3, -1, 6.223082399428333, 2.421502549111647, -5.623310278729676, 1.7245966499999996, ABplppp, 0, 0, 0, 0, , 0, 0, 0, 0, 0, 
43, 1, 43, 43, -1, 11.619717291134519, -1.1360079716940952, 3.520975604391949, 1.6133323499999999, ABprppa, 0, 0, 0, 0, , 0, 0, 0, 0, 0, 
24, 1, 24, 24, -1, 10.942613852883053, -1.0939201765225406, -3.3797434393407557, 1.7245966499999996, Dp, 0, 0, 0, 0, , 0, 0, 0, 0, 0, 
47, 1, 47, 47, -1, 10.568401078974906, -0.858227739384671, -3.964793095326137, 1.7245966499999996, Da, 0, 0, 0, 0, , 0, 0, 0, 0, 0, 
42, 1, 42, 42, -1, -10.809365067137842, -1.5841027598523882, -0.22144805933672018, 1.7245966499999996, ABalaaa, 0, 0, 0, 0, , 0, 0, 0, 0, 0, 
23, 1, 23, 23, -1, -9.059519825068838, -2.021581898048972, -0.9802564094821097, 1.7245966499999996, ABalaap, 0, 0, 0, 0, , 0, 0, 0, 0, 0, 
1, 1, 1, 1, -1, 0.3211083237555284, 3.0692673527353684, -1.5417373862676176, 1.83586095, ABplapp, 0, 0, 0, 0, , 0, 0, 0, 0, 0, 
17, 1, 17, 17, -1, 1.7527686816733279, -1.5556988466288209, 6.544779627926119, 1.6133323499999999, ABpraap, 0, 0, 0, 0, , 0, 0, 0, 0, 0, 
44, 1, 44, 44, -1, 4.184997051702458, 3.4031070483120933, -5.322551132270392, 1.7245966499999996, ABplppa, 0, 0, 0, 0, , 0, 0, 0, 0, 0, 
8, 1, 8, 8, -1, 8.424896853485595, 0.8127622469598028, 4.136212937846051, 1.6133323499999999, ABprapp, 0, 0, 0, 0, , 0, 0, 0, 0, 0, 
