41, 1, 41, 41, -1, -0.8775890553517942, -0.5660825920228127, 6.994601247467602, 1.6133323499999999, ABpraaa, 0, 0, 0, 0, , 0, 0, 0, 0, 0, 
28, 1, 28, 28, -1, 8.767930377603125, 3.5413791130207457, 2.2261957343013705, 1.83586095, Cpa, 0, 0, 0, 0, , 0, 0, 0, 0, 0, 
17, 1, 17, 17, -1, 1.9323219370254996, -1.5746010543788875, 6.473192435043203, 1.6133323499999999, ABpraap, 0, 0, 0, 0, , 0, 0, 0, 0, 0, 
49, 1, 49, 49, -1, -5.8173960195561785, -3.118871672340504, -3.427945346605809, 1.5003990854999996, MSaaa, 0, 0, 0, 0, , 0, 0, 0, 0, 0, 
34, 1, 34, 34, -1, -8.23693990615701, -2.4853168662254332, 2.632794753931934, 1.7245966499999996, ABaraaa, 0, 0, 0, 0, , 0, 0, 0, 0, 0, 
40, 1, 40, 40, -1, -1.4460241046117321, 3.0978156286354, -6.27846988418048, 1.7245966499999996, ABplpaa, 0, 0, 0, 0, , 0, 0, 0, 0, 0, 
42, 1, 42, 42, -1, -10.828131130573633, -1.497602431298517, -0.16454948084425214, 1.7245966499999996, ABalaaa, 0, 0, 0, 0, , 0, 0, 0, 0, 0, 
48, 1, 48, 48, -1, -1.9369596455914133, -2.7185730466905103, -0.3553367862927419, 1.5003990854999996, MSpaa, 0, 0, 0, 0, , 0, 0, 0, 0, 0, 
18, 1, 18, 18, -1, 1.37676213670747, 1.3776859934783698, -6.764157985183973, 1.7245966499999996, ABplpap, 0, 0, 0, 0, , 0, 0, 0, 0, 0, 
9, 1, 9, 9, -1, -0.5997880145137626, -2.982027773253261, 4.2283018434567134, 1.7245966499999996, ABarapp, 0, 0, 0, 0, , 0, 0, 0, 0, 0, 
39, 1, 39, 39, -1, 5.867330737636967, -2.845876387789367, 5.266118777605812, 1.6133323499999999, ABprpaa, 0, 0, 0, 0, , 0, 0, 0, 0, 0, 
44, 1, 44, 44, -1, 3.8255034751286257, 3.4169844186987346, -5.383951192371172, 1.7245966499999996, ABplppa, 0, 0, 0, 0, , 0, 0, 0, 0, 0, 
12, 1, 12, 12, -1, 12.03635800102359, 2.6244472126831635, -1.3330904597994075, 1.83586095, Cpp, 0, 0, 0, 0, , 0, 0, 0, 0, 0, 
15, 1, 15, 15, -1, 6.4348330970812135, 3.62868043553709, -3.0729426946387886, 1.83586095, Cap, 0, 0, 0, 0, , 0, 0, 0, 0, 0, 
43, 1, 43, 43, -1, 11.564826697816939, -1.1062002839265972, 3.6280068164186003, 1.6133323499999999, ABprppa, 0, 0, 0, 0, , 0, 0, 0, 0, 0, 
50, 1, 50, 50, -1, 4.940840837907455, -3.9143034504587084, 1.6176825892664455, 1.5003990854999996, MSppa, 0, 0, 0, 0, , 0, 0, 0, 0, 0, 
14, 1, 14, 14, -1, 0.7093690551562423, -0.39064739130735243, -1.4656023358309143, 1.83586095, Ear, 0, 0, 0, 0, , 0, 0, 0, 0, 0, 
7, 1, 7, 7, -1, -2.8604802816495094, 1.2799326863451421, -5.468897480326911, 1.7245966499999996, ABalppp, 0, 0, 0, 0, , 0, 0, 0, 0, 0, 
11, 1, 11, 11, -1, 12.040168646596744, -1.503061293265217, 1.2087887094638834, 1.6133323499999999, ABprppp, 0, 0, 0, 0, , 0, 0, 0, 0, 0, 
10, 1, 10, 10, -1, 5.106327242724278, -3.9355461939671055, 1.458234390549227, 1.5003990854999996, MSppp, 0, 0, 0, 0, , 0, 0, 0, 0, 0, 
20, 1, 20, 20, -1, -3.255443235924635, 0.4398567130207604, 3.646591814273025, 1.7245966499999996, ABarpap, 0, 0, 0, 0, , 0, 0, 0, 0, 0, 
46, 1, 46, 46, -1, 7.273480578261315, 1.0067958321351702, -0.9580144645972577, 1.83586095, Epl, 0, 0, 0, 0, , 0, 0, 0, 0, 0, 
25, 1, 25, 25, -1, -0.9568693526205428, -2.8481662551867304, -0.755257605802748, 1.5003990854999996, MSpap, 0, 0, 0, 0, , 0, 0, 0, 0, 0, 
30, 1, 30, 30, -1, 5.435546080492136, 1.1055260667730833, 6.2277077250277895, 1.6133323499999999, ABprapa, 0, 0, 0, 0, , 0, 0, 0, 0, 0, 
29, 1, 29, 29, -1, -2.7728171464654237, 3.4240179408963467, 1.2620889415689647, 1.83586095, ABplapa, 0, 0, 0, 0, , 0, 0, 0, 0, 0, 
13, 1, 13, 13, -1, 0.6955167448342809, -1.8484579823287435, -6.543142797899515, 1.5003990854999996, MSapp, 0, 0, 0, 0, , 0, 0, 0, 0, 0, 
45, 1, 45, 45, -1, 0.47513358332109584, -0.555418764374942, -2.675745377073626, 1.83586095, Eal, 0, 0, 0, 0, , 0, 0, 0, 0, 0, 
36, 1, 36, 36, -1, -5.960594132385294, 1.7607866777795893, 5.502731050139092, 1.7245966499999996, ABarpaa, 0, 0, 0, 0, , 0, 0, 0, 0, 0, 
19, 1, 19, 19, -1, 8.229354589384315, -3.048170671772559, 2.9601418871422687, 1.6133323499999999, ABprpap, 0, 0, 0, 0, , 0, 0, 0, 0, 0, 
1, 1, 1, 1, -1, 0.27510429845262246, 3.06117059793232, -1.7742897535802016, 1.83586095, ABplapp, 0, 0, 0, 0, , 0, 0, 0, 0, 0, 
23, 1, 23, 23, -1, -8.798310649773589, -2.005078231606554, -1.0447671670129053, 1.7245966499999996, ABalaap, 0, 0, 0, 0, , 0, 0, 0, 0, 0, 
3, 1, 3, 3, -1, 6.208539798492166, 2.2692409351484244, -5.735614566722013, 1.7245966499999996, ABplppp, 0, 0, 0, 0, , 0, 0, 0, 0, 0, 
6, 1, 6, 6, -1, -6.2788748484167325, 1.1255476527328572, 1.0761784912070458, 1.7245966499999996, ABalapp, 0, 0, 0, 0, , 0, 0, 0, 0, 0, 
5, 1, 5, 5, -1, 7.838105428750209, 0.7613554735452832, 0.11183752620374894, 1.83586095, Epr, 0, 0, 0, 0, , 0, 0, 0, 0, 0, 
33, 1, 33, 33, -1, -7.522700261488335, 3.773622439908465, 0.819183986061883, 1.83586095, ABplaaa, 0, 0, 0, 0, , 0, 0, 0, 0, 0, 
4, 1, 4, 4, -1, 7.383672400528313, -2.846782415858245, -4.249806375639737, 1.9822949999999997, P4, 0, 0, 0, 0, , 0, 0, 0, 0, 0, 
24, 1, 24, 24, -1, 10.91515557705122, -1.2240889532309887, -3.2277162215902657, 1.7245966499999996, Dp, 0, 0, 0, 0, , 0, 0, 0, 0, 0, 
38, 1, 38, 38, -1, -5.998156221108953, 2.9426959058632076, -5.171179068281626, 1.7245966499999996, ABalppa, 0, 0, 0, 0, , 0, 0, 0, 0, 0, 
47, 1, 47, 47, -1, 10.375239729825813, -0.8840308612719222, -4.071828455871721, 1.7245966499999996, Da, 0, 0, 0, 0, , 0, 0, 0, 0, 0, 
8, 1, 8, 8, -1, 8.534565293101782, 0.8180499308270173, 3.974712870225115, 1.6133323499999999, ABprapp, 0, 0, 0, 0, , 0, 0, 0, 0, 0, 
21, 1, 21, 21, -1, -5.549555966686011, -3.2735818103694494, 1.4163295205823727, 1.7245966499999996, ABaraap, 0, 0, 0, 0, , 0, 0, 0, 0, 0, 
27, 1, 27, 27, -1, 2.8173832976932296, 3.299101735916354, 0.25222944006921355, 1.83586095, Caa, 0, 0, 0, 0, , 0, 0, 0, 0, 0, 
2, 1, 2, 2, -1, 2.948086600577944, 1.9542239234095853, 4.599482624804556, 1.7245966499999996, ABarppp, 0, 0, 0, 0, , 0, 0, 0, 0, 0, 
51, 1, 51, 51, -1, 0.6451742153871027, -1.8465054269537058, -6.539674463244987, 1.5003990854999996, MSapa, 0, 0, 0, 0, , 0, 0, 0, 0, 0, 
35, 1, 35, 35, -1, -0.06137125468540025, 3.0393814690950114, 5.084453650732553, 1.7245966499999996, ABarppa, 0, 0, 0, 0, , 0, 0, 0, 0, 0, 
32, 1, 32, 32, -1, -9.207919168612543, 1.941188453151026, 2.6720299657993145, 1.7245966499999996, ABalapa, 0, 0, 0, 0, , 0, 0, 0, 0, 0, 
22, 1, 22, 22, -1, -8.249848953478805, -0.06717137835013537, -4.769020785575674, 1.7245966499999996, ABalpap, 0, 0, 0, 0, , 0, 0, 0, 0, 0, 
16, 1, 16, 16, -1, -5.223448131472829, 3.2465312362446026, -1.8509179506684117, 1.83586095, ABplaap, 0, 0, 0, 0, , 0, 0, 0, 0, 0, 
26, 1, 26, 26, -1, -4.78645010754248, -3.124996437806758, -3.6198237705516236, 1.5003990854999996, MSaap, 0, 0, 0, 0, , 0, 0, 0, 0, 0, 
31, 1, 31, 31, -1, -4.01017466042452, -2.47260004763245, 4.8616264206373545, 1.7245966499999996, ABarapa, 0, 0, 0, 0, , 0, 0, 0, 0, 0, 
37, 1, 37, 37, -1, -10.262094978604567, 1.1711148752144496, -2.8048356758013284, 1.7245966499999996, ABalpaa, 0, 0, 0, 0, , 0, 0, 0, 0, 0, 
