42, 1, 42, 42, -1, -10.538409128621673, 0.8627696497344173, -0.16499286486594256, 1.5019914445294498, ABalaaap, 0, 0, 0, 0, , 0, 0, 0, 0, 0, 
34, 1, 34, 34, -1, 5.093711176118888, 6.786173016419803, -1.8410372132406716, 1.42872356918655, ABprpaap, 0, 0, 0, 0, , 0, 0, 0, 0, 0, 
37, 1, 37, 37, -1, -3.207264547601793, -6.387692096092118, 2.763067936935518, 1.42872356918655, ABplpaap, 0, 0, 0, 0, , 0, 0, 0, 0, 0, 
46, 1, 46, 46, -1, -6.445659079874925, -1.8071335571731906, -3.165251146416964, 1.3554556938436502, MSaaap, 0, 0, 0, 0, , 0, 0, 0, 0, 0, 
52, 1, 52, 52, -1, 8.353842271222227, 2.031659517892841, 3.9389017091958594, 1.5579950503950002, Cpaa, 0, 0, 0, 0, , 0, 0, 0, 0, 0, 
24, 1, 24, 24, -1, 10.608994947410375, -1.6965910437845646, -2.541354696240716, 1.7907989085000002, Dp, 0, 0, 0, 0, , 0, 0, 0, 0, 0, 
44, 1, 44, 44, -1, 1.097183405202708, -6.003341771825164, 2.970940510570535, 1.42872356918655, ABplppap, 0, 0, 0, 0, , 0, 0, 0, 0, 0, 
35, 1, 35, 35, -1, -4.3099501685332, 4.647491500039534, -2.8754408853432936, 1.5019914445294498, ABarapap, 0, 0, 0, 0, , 0, 0, 0, 0, 0, 
85, 1, 85, 85, -1, -7.1673986736643425, -0.48722970721063286, -1.5770917473070867, 1.5019914445294498, ABalaapa, 0, 0, 0, 0, , 0, 0, 0, 0, 0, 
43, 1, 43, 43, -1, -0.5114879046399297, 3.4198323629006384, 3.398341334775448, 1.5019914445294498, ABarppap, 0, 0, 0, 0, , 0, 0, 0, 0, 0, 
71, 1, 71, 71, -1, -4.1555758361150925, -6.236664382120517, 2.2347200730134427, 1.42872356918655, ABplpaaa, 0, 0, 0, 0, , 0, 0, 0, 0, 0, 
72, 1, 72, 72, -1, 3.754216088778053, 6.819287822725275, -2.0748968362658955, 1.42872356918655, ABprpaaa, 0, 0, 0, 0, , 0, 0, 0, 0, 0, 
80, 1, 80, 80, -1, -3.741002200943197, -5.058199541226667, -0.0649669467599225, 1.5019914445294498, ABalpppa, 0, 0, 0, 0, , 0, 0, 0, 0, 0, 
74, 1, 74, 74, -1, 0.44397336301280765, -6.880005044280666, -0.5215166031109376, 1.42872356918655, ABplpapa, 0, 0, 0, 0, , 0, 0, 0, 0, 0, 
83, 1, 83, 83, -1, -9.554998254204579, 2.2196467328739278, 1.8571984263486272, 1.5019914445294498, ABalapaa, 0, 0, 0, 0, , 0, 0, 0, 0, 0, 
88, 1, 88, 88, -1, -6.78895407359571, -1.719661710177624, -3.10055866017801, 1.3554556938436502, MSaaaa, 0, 0, 0, 0, , 0, 0, 0, 0, 0, 
1, 1, 1, 1, -1, 11.316499040628756, 0.4831865113289745, -2.3881105160631684, 1.42872356918655, ABprpppp, 0, 0, 0, 0, , 0, 0, 0, 0, 0, 
64, 1, 64, 64, -1, -3.5767432655157405, 6.653217974936353, 0.26998937266084516, 1.42872356918655, ABpraaaa, 0, 0, 0, 0, , 0, 0, 0, 0, 0, 
47, 1, 47, 47, -1, 5.644046707270768, -2.6236116056026817, 0.8797778357108156, 1.7907989085000002, Epl, 0, 0, 0, 0, , 0, 0, 0, 0, 0, 
68, 1, 68, 68, -1, -2.9818240053490843, 3.17002843598137, 0.4842062554147538, 1.5019914445294498, ABarpapa, 0, 0, 0, 0, , 0, 0, 0, 0, 0, 
26, 1, 26, 26, -1, 3.301911265003473, -0.7502054203848493, -3.4378589022667785, 1.3554556938436502, MSpapp, 0, 0, 0, 0, , 0, 0, 0, 0, 0, 
39, 1, 39, 39, -1, -8.192921562801216, 3.487345523980031, -2.1751680643378877, 1.5019914445294498, ABaraaap, 0, 0, 0, 0, , 0, 0, 0, 0, 0, 
11, 1, 11, 11, -1, 2.644494789715284, -4.049079070485325, 2.322236155806362, 1.42872356918655, ABplappp, 0, 0, 0, 0, , 0, 0, 0, 0, 0, 
73, 1, 73, 73, -1, -0.2441070376330694, 4.520375353944256, -3.2947229186133247, 1.5019914445294498, ABarappa, 0, 0, 0, 0, , 0, 0, 0, 0, 0, 
10, 1, 10, 10, -1, 9.979382693706057, 2.9459584201789966, 0.7151955278084189, 1.42872356918655, ABprappp, 0, 0, 0, 0, , 0, 0, 0, 0, 0, 
16, 1, 16, 16, -1, -3.588409961819803, -3.9176108492975166, 2.636617445101339, 1.42872356918655, ABplaapp, 0, 0, 0, 0, , 0, 0, 0, 0, 0, 
87, 1, 87, 87, -1, 0.5176202762165028, -6.1358422329771605, 2.873091935416803, 1.42872356918655, ABplppaa, 0, 0, 0, 0, , 0, 0, 0, 0, 0, 
48, 1, 48, 48, -1, -2.262563653088392, 1.4567086755990977, -2.6686677011583746, 1.3554556938436502, MSpaap, 0, 0, 0, 0, , 0, 0, 0, 0, 0, 
81, 1, 81, 81, -1, 3.162569299091556, 3.9160702679606265, 2.1036112782054768, 1.5019914445294498, ABarpppa, 0, 0, 0, 0, , 0, 0, 0, 0, 0, 
33, 1, 33, 33, -1, -1.1455465646810783, -0.915959923115738, 3.5385227200991927, 1.42872356918655, ABplapap, 0, 0, 0, 0, , 0, 0, 0, 0, 0, 
9, 1, 9, 9, -1, -4.1034301600459155, 0.5982057713686844, 0.7508299186546148, 1.5019914445294498, ABalappp, 0, 0, 0, 0, , 0, 0, 0, 0, 0, 
17, 1, 17, 17, -1, 8.534562442836323, 3.1785828783489123, -3.2019006284341422, 1.42872356918655, ABprpapp, 0, 0, 0, 0, , 0, 0, 0, 0, 0, 
27, 1, 27, 27, -1, 6.312341522232022, -0.9922649085964408, 3.2700372846291237, 1.5579950503950002, Caap, 0, 0, 0, 0, , 0, 0, 0, 0, 0, 
62, 1, 62, 62, -1, 11.400815534440596, 1.5406293274011496, -1.7326842549785884, 1.42872356918655, ABprpppa, 0, 0, 0, 0, , 0, 0, 0, 0, 0, 
53, 1, 53, 53, -1, 4.228024547985691, -0.5425284605834728, 3.502955061986453, 1.5579950503950002, Caaa, 0, 0, 0, 0, , 0, 0, 0, 0, 0, 
86, 1, 86, 86, -1, 5.681203149160874, -6.748269824735074, 0.5534342340868456, 1.42872356918655, ABplpppa, 0, 0, 0, 0, , 0, 0, 0, 0, 0, 
2, 1, 2, 2, -1, 4.336518223925209, 3.558064931993859, 1.8909441396450277, 1.5019914445294498, ABarpppp, 0, 0, 0, 0, , 0, 0, 0, 0, 0, 
18, 1, 18, 18, -1, 3.3620340700448574, 5.99530667187259, 0.04409065301667351, 1.42872356918655, ABpraapp, 0, 0, 0, 0, , 0, 0, 0, 0, 0, 
76, 1, 76, 76, -1, -10.546907718562178, -1.5609159247546738, 0.3141199430337427, 1.5019914445294498, ABalpaaa, 0, 0, 0, 0, , 0, 0, 0, 0, 0, 
20, 1, 20, 20, -1, -6.413316472562546, -0.23131401839288324, -1.15300960471161, 1.5019914445294498, ABalaapp, 0, 0, 0, 0, , 0, 0, 0, 0, 0, 
12, 1, 12, 12, -1, 0.5347578789883409, 4.40585654462853, -2.7418636081708683, 1.5019914445294498, ABarappp, 0, 0, 0, 0, , 0, 0, 0, 0, 0, 
67, 1, 67, 67, -1, 8.518964307616601, -4.287827055376962, 2.4328587767790886, 1.5579950503950002, Capa, 0, 0, 0, 0, , 0, 0, 0, 0, 0, 
21, 1, 21, 21, -1, 1.9272827689631105, -6.754855000794849, -0.781861883032118, 1.42872356918655, ABplpapp, 0, 0, 0, 0, , 0, 0, 0, 0, 0, 
51, 1, 51, 51, -1, 3.787835658954677, 3.2354289721294673, -3.0943896116195013, 1.5579950503950002, MSppa, 0, 0, 0, 0, , 0, 0, 0, 0, 0, 
23, 1, 23, 23, -1, -4.1576669449865005, 1.0207894237395272, -3.7388293370509733, 1.5019914445294498, ABaraapp, 0, 0, 0, 0, , 0, 0, 0, 0, 0, 
4, 1, 4, 4, 92, 4.526957717251626, -4.525834824903621, -4.407004944228437, 2.0583895500000002, P4, 0, 0, 0, 0, , 0, 0, 0, 0, 0, 
50, 1, 50, 50, -1, 8.413098465631435, -5.131689969477926, -1.1571220220692608, 1.7907989085000002, Da, 0, 0, 0, 0, , 0, 0, 0, 0, 0, 
79, 1, 79, 79, -1, -9.129982992562814, 2.6287349500187704, -2.3656079668910066, 1.5019914445294498, ABaraaaa, 0, 0, 0, 0, , 0, 0, 0, 0, 0, 
69, 1, 69, 69, -1, 9.031352872665487, 5.225349885985197, -1.268464468494162, 1.42872356918655, ABprppaa, 0, 0, 0, 0, , 0, 0, 0, 0, 0, 
65, 1, 65, 65, -1, 0.9962025482437437, -4.408755996003253, 2.623997668362487, 1.42872356918655, ABplappa, 0, 0, 0, 0, , 0, 0, 0, 0, 0, 
32, 1, 32, 32, -1, 10.047371333905751, 4.538889663096058, -0.882384112016815, 1.42872356918655, ABprppap, 0, 0, 0, 0, , 0, 0, 0, 0, 0, 
15, 1, 15, 15, -1, 9.31195051003517, -4.300196448005044, 2.6883731830869695, 1.5579950503950002, Capp, 0, 0, 0, 0, , 0, 0, 0, 0, 0, 
56, 1, 56, 56, -1, 8.604713924736402, 4.408275791161491, 1.0011291400761158, 1.42872356918655, ABprappa, 0, 0, 0, 0, , 0, 0, 0, 0, 0, 
3, 1, 3, 3, -1, 7.163368412140454, -0.0169276920439082, -3.5277796438806, 1.5579950503950002, MSppp, 0, 0, 0, 0, , 0, 0, 0, 0, 0, 
45, 1, 45, 45, -1, 0.32096423807866264, -2.6567002734542324, -0.04666785836733624, 1.7907989085000002, Eal, 0, 0, 0, 0, , 0, 0, 0, 0, 0, 
49, 1, 49, 49, -1, -1.5649031018191821, -5.422081105365753, -2.342371140506952, 1.5579950503950002, MSapa, 0, 0, 0, 0, , 0, 0, 0, 0, 0, 
30, 1, 30, 30, -1, -6.915005839874748, -0.0021785244502374925, 3.710861433451023, 1.42872356918655, ABplaaap, 0, 0, 0, 0, , 0, 0, 0, 0, 0, 
25, 1, 25, 25, -1, -0.2269797683069832, -2.988794630877679, -3.363943587847142, 1.3554556938436502, MSaapp, 0, 0, 0, 0, , 0, 0, 0, 0, 0, 
61, 1, 61, 61, -1, -8.583872436354394, -0.16319447222888533, 3.4654359010388243, 1.42872356918655, ABplaaaa, 0, 0, 0, 0, , 0, 0, 0, 0, 0, 
14, 1, 14, 14, -1, 1.1100765573377063, 1.4187943209628737, 0.5082711305897324, 1.7907989085000002, Ear, 0, 0, 0, 0, , 0, 0, 0, 0, 0, 
58, 1, 58, 58, -1, 3.494770575605938, 6.244806154957248, 2.3224017363069134, 1.42872356918655, ABprapaa, 0, 0, 0, 0, , 0, 0, 0, 0, 0, 
59, 1, 59, 59, -1, 12.476001058865865, -2.0158217641919034, 1.1742965280868396, 1.5579950503950002, Cppa, 0, 0, 0, 0, , 0, 0, 0, 0, 0, 
28, 1, 28, 28, -1, 10.341981293381973, 0.17630527176284438, 3.3431320534123876, 1.5579950503950002, Cpap, 0, 0, 0, 0, , 0, 0, 0, 0, 0, 
13, 1, 13, 13, -1, 3.3895558281006353, -5.764754624609462, -2.535119142457692, 1.5579950503950002, MSapp, 0, 0, 0, 0, , 0, 0, 0, 0, 0, 
6, 1, 6, 6, -1, -2.6675867739922428, -5.0722914956540315, -0.1451325667382717, 1.5019914445294498, ABalpppp, 0, 0, 0, 0, , 0, 0, 0, 0, 0, 
7, 1, 7, 7, -1, 7.689320786568137, 1.2505790059825919, -0.009368251609477882, 1.7907989085000002, Epr, 0, 0, 0, 0, , 0, 0, 0, 0, 0, 
41, 1, 41, 41, -1, -8.780379565852892, 2.1828308373108953, 2.1203762285292944, 1.5019914445294498, ABalapap, 0, 0, 0, 0, , 0, 0, 0, 0, 0, 
66, 1, 66, 66, -1, 7.034070149746441, 3.8883564393359995, -3.1433143935111847, 1.42872356918655, ABprpapa, 0, 0, 0, 0, , 0, 0, 0, 0, 0, 
57, 1, 57, 57, -1, -5.576030847368555, -3.6196028750768656, 3.082513609228566, 1.42872356918655, ABplaapa, 0, 0, 0, 0, , 0, 0, 0, 0, 0, 
5, 1, 5, 5, -1, 6.189225643575491, -6.421048470012489, 0.10728938904193763, 1.42872356918655, ABplpppp, 0, 0, 0, 0, , 0, 0, 0, 0, 0, 
40, 1, 40, 40, -1, -5.281616925107959, 4.313900474923083, 2.2996837328667312, 1.5019914445294498, ABarpaap, 0, 0, 0, 0, , 0, 0, 0, 0, 0, 
75, 1, 75, 75, -1, -5.454664049635825, 4.481304822116965, -2.9761450899080435, 1.5019914445294498, ABarapaa, 0, 0, 0, 0, , 0, 0, 0, 0, 0, 
63, 1, 63, 63, -1, -8.11784392139835, -4.039209282370099, -1.6572114796823982, 1.5019914445294498, ABalpapa, 0, 0, 0, 0, , 0, 0, 0, 0, 0, 
90, 1, 90, 90, -1, -2.370064145191463, 1.5031646851105707, -2.635506868191062, 1.3554556938436502, MSpaaa, 0, 0, 0, 0, , 0, 0, 0, 0, 0, 
70, 1, 70, 70, -1, -5.6679844993012445, 1.0770232974211162, -3.530302546124086, 1.5019914445294498, ABaraapa, 0, 0, 0, 0, , 0, 0, 0, 0, 0, 
8, 1, 8, 8, -1, 12.588339159068333, -2.5578784284302944, 1.6844393930566022, 1.5579950503950002, Cppp, 0, 0, 0, 0, , 0, 0, 0, 0, 0, 
36, 1, 36, 36, -1, -7.738345588235122, -5.107017156862874, 1.2820196078433677, 1.5019914445294498, ABalppap, 0, 0, 0, 0, , 0, 0, 0, 0, 0, 
77, 1, 77, 77, -1, -1.556661592265823, 3.669450942060224, 3.5115119024749735, 1.5019914445294498, ABarppaa, 0, 0, 0, 0, , 0, 0, 0, 0, 0, 
19, 1, 19, 19, -1, -1.5180236465791503, 3.0839157646474633, 0.6729519511088503, 1.5019914445294498, ABarpapp, 0, 0, 0, 0, , 0, 0, 0, 0, 0, 
60, 1, 60, 60, -1, -6.822506084758597, 4.243397212653194, 1.9759119925754887, 1.5019914445294498, ABarpaaa, 0, 0, 0, 0, , 0, 0, 0, 0, 0, 
89, 1, 89, 89, -1, 3.2716818284485614, -0.7448306029170917, -3.4371498664534297, 1.3554556938436502, MSpapa, 0, 0, 0, 0, , 0, 0, 0, 0, 0, 
84, 1, 84, 84, -1, -8.336858208955368, -5.147174958540745, 1.7368781094530426, 1.5019914445294498, ABalppaa, 0, 0, 0, 0, , 0, 0, 0, 0, 0, 
29, 1, 29, 29, -1, 5.401250860688996, 5.839265618080507, 2.3142158064645235, 1.42872356918655, ABprapap, 0, 0, 0, 0, , 0, 0, 0, 0, 0, 
82, 1, 82, 82, -1, -10.903738573567594, 0.21195668147573127, -0.7178697149796417, 1.5019914445294498, ABalaaaa, 0, 0, 0, 0, , 0, 0, 0, 0, 0, 
31, 1, 31, 31, -1, -2.3987570685503217, 6.737534383251228, 1.081555521462546, 1.42872356918655, ABpraaap, 0, 0, 0, 0, , 0, 0, 0, 0, 0, 
91, 1, 91, 91, -1, -0.27482166686678483, -2.9885500780216856, -3.3575791292709707, 1.3554556938436502, MSaapa, 0, 0, 0, 0, , 0, 0, 0, 0, 0, 
22, 1, 22, 22, -1, -6.71039657259329, -4.602832284261528, -2.0201527729162287, 1.5019914445294498, ABalpapp, 0, 0, 0, 0, , 0, 0, 0, 0, 0, 
55, 1, 55, 55, -1, -3.2847986206387154, -0.6039685950725537, 3.924030552496221, 1.42872356918655, ABplapaa, 0, 0, 0, 0, , 0, 0, 0, 0, 0, 
54, 1, 54, 54, -1, 1.4788551826150371, 6.288553414610656, -0.04946273143839492, 1.42872356918655, ABpraapa, 0, 0, 0, 0, , 0, 0, 0, 0, 0, 
78, 1, 78, 78, -1, -5.579033364566909, 0.5281893366560011, 0.8470592765331622, 1.5019914445294498, ABalappa, 0, 0, 0, 0, , 0, 0, 0, 0, 0, 
38, 1, 38, 38, -1, -10.12990627091316, -1.9986543073244827, 0.9047253686392811, 1.5019914445294498, ABalpaap, 0, 0, 0, 0, , 0, 0, 0, 0, 0, 
