9, 1, 9, 9, -1, -3.5428142144134043, 1.0723218086311108, 1.3875455408703816, 1.5019914445294498, ABalappp, 0, 0, 0, 0, , 0, 0, 0, 0, 0, 
81, 1, 81, 81, -1, 2.817075776433993, 3.370268605824939, 2.9160983805721226, 1.5019914445294498, ABarpppa, 0, 0, 0, 0, , 0, 0, 0, 0, 0, 
42, 1, 42, 42, -1, -9.915692614206755, 1.7355867752435632, 0.8298885217238847, 1.5019914445294498, ABalaaap, 0, 0, 0, 0, , 0, 0, 0, 0, 0, 
77, 1, 77, 77, -1, -1.0561364918373257, 1.741457574583074, 3.677693173838941, 1.5019914445294498, ABarppaa, 0, 0, 0, 0, , 0, 0, 0, 0, 0, 
31, 1, 31, 31, -1, -2.5232634547640957, 6.49505544935502, 1.9002039835330697, 1.42872356918655, ABpraaap, 0, 0, 0, 0, , 0, 0, 0, 0, 0, 
4, 1, 4, 4, 124, 4.045114930551642, -4.267221225220894, -4.026630547879743, 1.7907989085000002, Z3, 0, 0, 0, 0, , 0, 0, 0, 0, 0, 
89, 1, 89, 89, -1, 2.1986271067619443, 0.07368336975288385, -3.483159395760195, 1.3554556938436502, MSpapa, 0, 0, 0, 0, , 0, 0, 0, 0, 0, 
75, 1, 75, 75, -1, -5.850522106297179, 3.8689636595782533, -3.4235371396669114, 1.5019914445294498, ABarapaa, 0, 0, 0, 0, , 0, 0, 0, 0, 0, 
100, 1, 100, 100, -1, 1.950658396303938, 3.75019073637921, -2.484830555909703, 1.3554556938436502, MSppaa, 0, 0, 0, 0, , 0, 0, 0, 0, 0, 
16, 1, 16, 16, -1, -2.715629330765328, -4.575560741469504, 2.5756072318777923, 1.42872356918655, ABplaapp, 0, 0, 0, 0, , 0, 0, 0, 0, 0, 
85, 1, 85, 85, -1, -7.7652256557477894, 1.144183193652521, -1.112804297165475, 1.5019914445294498, ABalaapa, 0, 0, 0, 0, , 0, 0, 0, 0, 0, 
10, 1, 10, 10, -1, 10.73930420221997, 2.752283105961105, 0.6030890196412387, 1.42872356918655, ABprappp, 0, 0, 0, 0, , 0, 0, 0, 0, 0, 
61, 1, 61, 61, -1, -8.628660289064154, -1.5031153424782777, 3.4085103877890583, 1.42872356918655, ABplaaaa, 0, 0, 0, 0, , 0, 0, 0, 0, 0, 
12, 1, 12, 12, -1, 0.27910345366018086, 5.000554037550724, -1.9224794804095793, 1.5019914445294498, ABarappp, 0, 0, 0, 0, , 0, 0, 0, 0, 0, 
48, 1, 48, 48, -1, -2.115165734043074, 1.3835255032714733, -2.260579930286729, 1.3554556938436502, MSpaap, 0, 0, 0, 0, , 0, 0, 0, 0, 0, 
52, 1, 52, 52, -1, 8.40987797837247, 1.8875373339748336, 4.028976995769424, 1.5579950503950002, Cpaa, 0, 0, 0, 0, , 0, 0, 0, 0, 0, 
6, 1, 6, 6, -1, -3.1480632397355297, -4.135095932703894, 0.22015398982082277, 1.5019914445294498, ABalpppp, 0, 0, 0, 0, , 0, 0, 0, 0, 0, 
80, 1, 80, 80, -1, -5.5773718375719, -4.103203614789333, 0.4015814455612832, 1.5019914445294498, ABalpppa, 0, 0, 0, 0, , 0, 0, 0, 0, 0, 
62, 1, 62, 62, -1, 10.703772286167464, 3.5744435000275203, -1.7441476847713613, 1.42872356918655, ABprpppa, 0, 0, 0, 0, , 0, 0, 0, 0, 0, 
7, 1, 7, 7, -1, 7.629867804096298, 1.8082334978086592, -0.45725959259511717, 1.7907989085000002, Epr, 0, 0, 0, 0, , 0, 0, 0, 0, 0, 
27, 1, 27, 27, -1, 8.990696760439949, -2.212797220789033, 3.097185573096295, 1.5579950503950002, Caap, 0, 0, 0, 0, , 0, 0, 0, 0, 0, 
57, 1, 57, 57, -1, -6.3184726063760746, -4.035379244179845, 3.3838569379594245, 1.42872356918655, ABplaapa, 0, 0, 0, 0, , 0, 0, 0, 0, 0, 
36, 1, 36, 36, -1, -7.242286764705982, -4.878134803921547, -0.48127450980378994, 1.5019914445294498, ABalppap, 0, 0, 0, 0, , 0, 0, 0, 0, 0, 
76, 1, 76, 76, -1, -10.730322983881589, -0.9768482425604357, -0.7346997281176725, 1.5019914445294498, ABalpaaa, 0, 0, 0, 0, , 0, 0, 0, 0, 0, 
84, 1, 84, 84, -1, -8.653873134329023, -4.972846600331621, 0.5915049751245802, 1.5019914445294498, ABalppaa, 0, 0, 0, 0, , 0, 0, 0, 0, 0, 
37, 1, 37, 37, -1, -3.5592070151433837, -6.590024713990666, 1.8144690259432226, 1.42872356918655, ABplpaap, 0, 0, 0, 0, , 0, 0, 0, 0, 0, 
43, 1, 43, 43, -1, 1.275404811328134, 1.184616128765126, 3.4252357535861537, 1.5019914445294498, ABarppap, 0, 0, 0, 0, , 0, 0, 0, 0, 0, 
104, 1, 104, 104, -1, 3.241444526637325, -5.2612049570020245, -2.599358276083906, 1.3554556938436502, MSappa, 0, 0, 0, 0, , 0, 0, 0, 0, 0, 
17, 1, 17, 17, -1, 6.90667475394873, 3.8397947746242522, -3.3467726377456053, 1.42872356918655, ABprpapp, 0, 0, 0, 0, , 0, 0, 0, 0, 0, 
59, 1, 59, 59, -1, 12.13198994967708, -0.8413975065794868, -0.29083290225078223, 1.5579950503950002, Cppa, 0, 0, 0, 0, , 0, 0, 0, 0, 0, 
44, 1, 44, 44, -1, 1.8877962084405215, -6.188183544107049, 1.792999599281244, 1.42872356918655, ABplppap, 0, 0, 0, 0, , 0, 0, 0, 0, 0, 
86, 1, 86, 86, -1, 5.049611878378721, -6.995191212128828, -0.3010640046670343, 1.42872356918655, ABplpppa, 0, 0, 0, 0, , 0, 0, 0, 0, 0, 
15, 1, 15, 15, -1, 10.214879191486583, -4.290615929382133, 1.3403620344755358, 1.5579950503950002, Capp, 0, 0, 0, 0, , 0, 0, 0, 0, 0, 
63, 1, 63, 63, -1, -9.416227186287006, -2.448638854325755, -2.2917462324397437, 1.5019914445294498, ABalpapa, 0, 0, 0, 0, , 0, 0, 0, 0, 0, 
23, 1, 23, 23, -1, -4.068913087130424, 0.9568069422168705, -3.8281193053916955, 1.5019914445294498, ABaraapp, 0, 0, 0, 0, , 0, 0, 0, 0, 0, 
22, 1, 22, 22, -1, -6.620612589344867, -3.568163995069138, -3.012657020369725, 1.5019914445294498, ABalpapp, 0, 0, 0, 0, , 0, 0, 0, 0, 0, 
39, 1, 39, 39, -1, -7.492933132171704, 3.9331258770239317, -1.955392076751177, 1.5019914445294498, ABaraaap, 0, 0, 0, 0, , 0, 0, 0, 0, 0, 
18, 1, 18, 18, -1, 3.6485689170961004, 5.959020007749834, 1.5113397635903707, 1.42872356918655, ABpraapp, 0, 0, 0, 0, , 0, 0, 0, 0, 0, 
40, 1, 40, 40, -1, -4.109684422357664, 2.9406427178555914, 3.274432166637516, 1.5019914445294498, ABarpaap, 0, 0, 0, 0, , 0, 0, 0, 0, 0, 
74, 1, 74, 74, -1, -1.8556511644030538, -6.592453768596642, -1.5069957436124304, 1.42872356918655, ABplpapa, 0, 0, 0, 0, , 0, 0, 0, 0, 0, 
2, 1, 2, 2, -1, 5.413993095005209, 2.578317408080271, 2.4456528922414322, 1.5019914445294498, ABarpppp, 0, 0, 0, 0, , 0, 0, 0, 0, 0, 
5, 1, 5, 5, -1, 6.327689522221811, -6.1719711723530635, -1.4234705095694626, 1.42872356918655, ABplpppp, 0, 0, 0, 0, , 0, 0, 0, 0, 0, 
50, 1, 50, 50, -1, 7.2790792882701485, -5.782476827565994, -1.2996329688458004, 1.7907989085000002, Da, 0, 0, 0, 0, , 0, 0, 0, 0, 0, 
30, 1, 30, 30, -1, -5.411360768015765, -1.1927031544926319, 3.88165033171773, 1.42872356918655, ABplaaap, 0, 0, 0, 0, , 0, 0, 0, 0, 0, 
51, 1, 51, 51, -1, 2.7448404514726343, 3.7049487230625946, -2.2414399443420385, 1.3554556938436502, MSppap, 0, 0, 0, 0, , 0, 0, 0, 0, 0, 
25, 1, 25, 25, -1, 0.8627520621700557, -2.6435425337406513, -3.5302813365589887, 1.3554556938436502, MSaapp, 0, 0, 0, 0, , 0, 0, 0, 0, 0, 
60, 1, 60, 60, -1, -7.189325586097706, 2.799733978700641, 2.627337745334479, 1.5019914445294498, ABarpaaa, 0, 0, 0, 0, , 0, 0, 0, 0, 0, 
21, 1, 21, 21, -1, 1.3121736552447776, -6.325177492761001, -2.063001278333666, 1.42872356918655, ABplpapp, 0, 0, 0, 0, , 0, 0, 0, 0, 0, 
82, 1, 82, 82, -1, -10.81027195927554, 0.14194616685162093, -0.5239366826792754, 1.5019914445294498, ABalaaaa, 0, 0, 0, 0, , 0, 0, 0, 0, 0, 
87, 1, 87, 87, -1, 0.10220575902062204, -6.596407508234299, 1.4915354920156725, 1.42872356918655, ABplppaa, 0, 0, 0, 0, , 0, 0, 0, 0, 0, 
101, 1, 101, 101, -1, -2.763569024049717, -4.765106781060623, -2.0857204909835456, 1.3554556938436502, MSapaa, 0, 0, 0, 0, , 0, 0, 0, 0, 0, 
102, 1, 102, 102, -1, 6.276004374660041, 0.41359318022918273, -3.162013589219952, 1.3554556938436502, MSpppa, 0, 0, 0, 0, , 0, 0, 0, 0, 0, 
83, 1, 83, 83, -1, -9.462033159520447, 1.143681695324895, 2.3053333173187074, 1.5019914445294498, ABalapaa, 0, 0, 0, 0, , 0, 0, 0, 0, 0, 
24, 1, 24, 24, -1, 10.468718992475354, -0.7928391045758256, -3.310294005935936, 1.7907989085000002, Dp, 0, 0, 0, 0, , 0, 0, 0, 0, 0, 
91, 1, 91, 91, -1, -0.6827492695661633, -2.6356424132187795, -3.324681652989629, 1.3554556938436502, MSaapa, 0, 0, 0, 0, , 0, 0, 0, 0, 0, 
14, 1, 14, 14, 125, 1.3650231792597904, 2.536212247415882, 0.8450779770714372, 1.5579950503950002, Earp, 0, 0, 0, 0, , 0, 0, 0, 0, 0, 
67, 1, 67, 67, -1, 8.626697911433796, -4.265842688993299, 0.8286214825663727, 1.5579950503950002, Capa, 0, 0, 0, 0, , 0, 0, 0, 0, 0, 
71, 1, 71, 71, -1, -5.55473322348732, -6.2722179293755795, 0.7026695331500239, 1.42872356918655, ABplpaaa, 0, 0, 0, 0, , 0, 0, 0, 0, 0, 
66, 1, 66, 66, -1, 3.9501791575910516, 5.238297397485602, -3.231337226077999, 1.42872356918655, ABprpapa, 0, 0, 0, 0, , 0, 0, 0, 0, 0, 
55, 1, 55, 55, -1, -2.3073331245804503, -2.520212929081561, 4.209749879338745, 1.42872356918655, ABplapaa, 0, 0, 0, 0, , 0, 0, 0, 0, 0, 
47, 1, 47, 47, -1, 4.758220359426254, -3.631286653811016, 0.7911374390969806, 1.7907989085000002, Epl, 0, 0, 0, 0, , 0, 0, 0, 0, 0, 
70, 1, 70, 70, -1, -7.283664245060553, 1.076502240742832, -3.3842644745473174, 1.5019914445294498, ABaraapa, 0, 0, 0, 0, , 0, 0, 0, 0, 0, 
19, 1, 19, 19, -1, -1.0241882928427744, 3.5813437854630323, 2.327704315208955, 1.5019914445294498, ABarpapp, 0, 0, 0, 0, , 0, 0, 0, 0, 0, 
33, 1, 33, 33, -1, 1.5586694698184125, -3.084035822361404, 3.5130698055452476, 1.42872356918655, ABplapap, 0, 0, 0, 0, , 0, 0, 0, 0, 0, 
68, 1, 68, 68, -1, -4.026581729443878, 3.757969045644257, 1.9405689831648045, 1.5019914445294498, ABarpapa, 0, 0, 0, 0, , 0, 0, 0, 0, 0, 
29, 1, 29, 29, -1, 6.652149239744978, 4.966848888531761, 3.2325822746391486, 1.42872356918655, ABprapap, 0, 0, 0, 0, , 0, 0, 0, 0, 0, 
65, 1, 65, 65, -1, 1.9520668550803464, -5.699374782906548, 2.2436700620572716, 1.42872356918655, ABplappa, 0, 0, 0, 0, , 0, 0, 0, 0, 0, 
34, 1, 34, 34, -1, 3.793015365950431, 6.999197660784469, -0.8872886137178926, 1.42872356918655, ABprpaap, 0, 0, 0, 0, , 0, 0, 0, 0, 0, 
88, 1, 88, 88, -1, -7.614951275530706, -0.6622615789650104, -1.9854127524479215, 1.3554556938436502, MSaaaa, 0, 0, 0, 0, , 0, 0, 0, 0, 0, 
45, 1, 45, 45, 126, 0.26843584365882306, -2.660735381290257, 0.22165199122631743, 1.7907989085000002, Eal, 0, 0, 0, 0, , 0, 0, 0, 0, 0, 
54, 1, 54, 54, -1, 0.1721011942380589, 6.500372102745724, 1.3386342794788497, 1.42872356918655, ABpraapa, 0, 0, 0, 0, , 0, 0, 0, 0, 0, 
92, 1, 92, 92, 127, 5.2682065126158735, -3.995876470568131, -4.118438923513777, 1.7907989085000002, Z2, 0, 0, 0, 0, , 0, 0, 0, 0, 0, 
56, 1, 56, 56, -1, 8.200210123064252, 5.453269308834867, 1.131225221123926, 1.42872356918655, ABprappa, 0, 0, 0, 0, , 0, 0, 0, 0, 0, 
32, 1, 32, 32, -1, 8.899174734437999, 4.578295494790724, -0.9035740171098836, 1.42872356918655, ABprppap, 0, 0, 0, 0, , 0, 0, 0, 0, 0, 
13, 1, 13, 13, -1, 3.6706039508595767, -5.4501411545653715, -2.288564228888729, 1.3554556938436502, MSappp, 0, 0, 0, 0, , 0, 0, 0, 0, 0, 
3, 1, 3, 3, -1, 6.782074621046118, 0.5525421432263117, -2.9600599661109532, 1.3554556938436502, MSpppp, 0, 0, 0, 0, , 0, 0, 0, 0, 0, 
38, 1, 38, 38, -1, -9.81124621464847, -1.941629493776013, 0.567002530992853, 1.5019914445294498, ABalpaap, 0, 0, 0, 0, , 0, 0, 0, 0, 0, 
115, 1, 115, 115, 128, 1.1385591381638898, 2.5886095076898594, 0.9508485250166508, 1.5579950503950002, Eara, 0, 0, 0, 0, , 0, 0, 0, 0, 0, 
73, 1, 73, 73, -1, -1.3718963618219087, 5.2433054171733415, -3.094403648579203, 1.5019914445294498, ABarappa, 0, 0, 0, 0, , 0, 0, 0, 0, 0, 
28, 1, 28, 28, -1, 11.766525696473916, -1.244924997445405, 3.0231173283567947, 1.5579950503950002, Cpap, 0, 0, 0, 0, , 0, 0, 0, 0, 0, 
69, 1, 69, 69, -1, 6.794565064726022, 6.000248813632511, -1.703311898384388, 1.42872356918655, ABprppaa, 0, 0, 0, 0, , 0, 0, 0, 0, 0, 
90, 1, 90, 90, -1, -3.65600612085376, 2.049394972935934, -1.7852746577552492, 1.3554556938436502, MSpaaa, 0, 0, 0, 0, , 0, 0, 0, 0, 0, 
20, 1, 20, 20, -1, -5.846037907879268, 1.795505096952627, -0.03348794283444266, 1.5019914445294498, ABalaapp, 0, 0, 0, 0, , 0, 0, 0, 0, 0, 
26, 1, 26, 26, -1, 3.6798694979526134, -0.1896826861672659, -3.5179021506142862, 1.3554556938436502, MSpapp, 0, 0, 0, 0, , 0, 0, 0, 0, 0, 
72, 1, 72, 72, -1, 0.9394912944881373, 7.069742075472891, -1.3854793648090316, 1.42872356918655, ABprpaaa, 0, 0, 0, 0, , 0, 0, 0, 0, 0, 
35, 1, 35, 35, -1, -3.2366567200363305, 4.248438052481658, -3.1935868971580974, 1.5019914445294498, ABarapap, 0, 0, 0, 0, , 0, 0, 0, 0, 0, 
1, 1, 1, 1, -1, 10.541223993973503, 1.5358681741975817, -3.0077014045942114, 1.42872356918655, ABprpppp, 0, 0, 0, 0, , 0, 0, 0, 0, 0, 
58, 1, 58, 58, -1, 2.990341837961407, 5.745777131995782, 3.248305121983483, 1.42872356918655, ABprapaa, 0, 0, 0, 0, , 0, 0, 0, 0, 0, 
46, 1, 46, 46, -1, -5.413217218058303, -1.2232652292448476, -2.400320201784972, 1.3554556938436502, MSaaap, 0, 0, 0, 0, , 0, 0, 0, 0, 0, 
41, 1, 41, 41, -1, -7.56523045585042, 1.0535309007570737, 2.9497747363405997, 1.5019914445294498, ABalapap, 0, 0, 0, 0, , 0, 0, 0, 0, 0, 
79, 1, 79, 79, -1, -9.656693160894404, 1.9505160062406577, -2.39513512446471, 1.5019914445294498, ABaraaaa, 0, 0, 0, 0, , 0, 0, 0, 0, 0, 
53, 1, 53, 53, -1, 5.214487766512172, -1.397998492540115, 3.5191685135847144, 1.5579950503950002, Caaa, 0, 0, 0, 0, , 0, 0, 0, 0, 0, 
49, 1, 49, 49, -1, -1.8856794108474952, -5.0025522071911075, -1.9940971524450979, 1.3554556938436502, MSapap, 0, 0, 0, 0, , 0, 0, 0, 0, 0, 
64, 1, 64, 64, -1, -4.874347939164172, 6.326772493340683, 0.28043918032310794, 1.42872356918655, ABpraaaa, 0, 0, 0, 0, , 0, 0, 0, 0, 0, 
8, 1, 8, 8, -1, 12.356200016886156, -1.923261637279504, 0.7273360523154033, 1.5579950503950002, Cppp, 0, 0, 0, 0, , 0, 0, 0, 0, 0, 
11, 1, 11, 11, -1, 5.197627486672405, -4.99115494167811, 1.6494882412368828, 1.42872356918655, ABplappp, 0, 0, 0, 0, , 0, 0, 0, 0, 0, 
78, 1, 78, 78, -1, -6.813069964973705, 0.9171502506191844, 1.600810604276919, 1.5019914445294498, ABalappa, 0, 0, 0, 0, , 0, 0, 0, 0, 0, 
