90, 1, 90, 90, 2165, -5.514619544033791, 2.6436162363622056, -0.017444055411329873, 1.1792464536439757, MSpaaap, 0, 0, 0, 0, , 0, 0, 0, 0, 0, 
228, 1, 228, 228, 2166, 7.832847132594804, 3.325130761063039, -3.5455226417116155, 1.2429895051922986, ABprppppa, 0, 0, 0, 0, , 0, 0, 0, 0, 0, 
1043, 1, 1043, 1043, 2167, -8.996186798182512, 0.6617481482430564, -0.06342983406737421, 1.1792464536439757, MSaaaaa, 0, 0, 0, 0, , 0, 0, 0, 0, 0, 
39, 1, 39, 39, 2168, -6.809462628152733, 3.939555949389608, -2.4456310664848293, 1.3067325567406214, ABaraaapp, 0, 0, 0, 0, , 0, 0, 0, 0, 0, 
355, 1, 355, 355, 2169, 2.0429199268012117, 3.294921651019167, 3.8422385166512725, 1.3067325567406214, ABarpppaa, 0, 0, 0, 0, , 0, 0, 0, 0, 0, 
389, 1, 389, 389, 2170, -2.588754546858471, 2.761388718227818, -3.762899986022095, 1.3067325567406214, ABarapapa, 0, 0, 0, 0, , 0, 0, 0, 0, 0, 
1663, 1, 1663, 1663, 2171, -3.7896266328273533, -0.2719859664150874, -0.8833317193666596, 1.1792464536439757, MSaaapa, 0, 0, 0, 0, , 0, 0, 0, 0, 0, 
147, 1, 147, 147, 2172, 7.073560114940477, 1.5310239113890574, 4.134720368458796, 1.3554556938436502, Cpaaa, 0, 0, 0, 0, , 0, 0, 0, 0, 0, 
286, 1, 286, 286, 2173, -8.134599229386069, -2.9543169785748105, 3.4693496715725827, 1.2429895051922986, ABplaaaaa, 0, 0, 0, 0, , 0, 0, 0, 0, 0, 
53, 1, 53, 53, 2174, 9.069814342971977, -2.0326978801146147, 2.4920372702766236, 1.3554556938436502, Caaap, 0, 0, 0, 0, , 0, 0, 0, 0, 0, 
139, 1, 139, 139, -1, 4.971849085857043, -4.613841730599277, -1.6020419190951816, 1.5579950503950002, Daa, 0, 0, 0, 0, , 0, 0, 0, 0, 0, 
309, 1, 309, 309, 2175, -8.700076802174099, 0.23601218738231544, -2.8671675711575575, 1.3067325567406214, ABaraapaa, 0, 0, 0, 0, , 0, 0, 0, 0, 0, 
27, 1, 27, 27, 2176, 11.904977289208194, -2.965444226522162, 1.0132842326085565, 1.3554556938436502, Caapp, 0, 0, 0, 0, , 0, 0, 0, 0, 0, 
601, 1, 601, 601, 2177, -6.338386119584195, -4.810301642862637, -2.7761166174453535, 1.3067325567406214, ABalppapa, 0, 0, 0, 0, , 0, 0, 0, 0, 0, 
154, 1, 154, 154, 2178, -1.7975635973068087, -6.2932978204383545, 2.6582943815842173, 1.2429895051922986, ABplaappa, 0, 0, 0, 0, , 0, 0, 0, 0, 0, 
71, 1, 71, 71, 2179, -5.40800738766918, -6.695304464498249, -1.1611264916757167, 1.2429895051922986, ABplpaaap, 0, 0, 0, 0, , 0, 0, 0, 0, 0, 
88, 1, 88, 88, 2180, -8.319630008058708, 0.5840617284899959, 0.35708621531534623, 1.1792464536439757, MSaaaap, 0, 0, 0, 0, , 0, 0, 0, 0, 0, 
892, 1, 892, 892, 2181, -10.582892577673272, -0.6564104340748793, -0.34441860763728455, 1.3067325567406214, ABalaaaal, 0, 0, 0, 0, , 0, 0, 0, 0, 0, 
523, 1, 523, 523, 2182, -3.2155724384047515, -6.292928338342688, -2.744324185160425, 1.2429895051922986, ABplpapaa, 0, 0, 0, 0, , 0, 0, 0, 0, 0, 
227, 1, 227, 227, 2183, -3.845116288081415, -2.9115281574888012, 4.240319716282024, 1.2429895051922986, ABplaaapa, 0, 0, 0, 0, , 0, 0, 0, 0, 0, 
43, 1, 43, 43, 2184, 5.050884817106137, -2.444453613429291, 3.3390278097667934, 1.3067325567406214, ABarppapp, 0, 0, 0, 0, , 0, 0, 0, 0, 0, 
92, 1, 92, 92, 2185, 7.015185755049928, -2.837181123790648, -3.4168518278295337, 1.7907989085000002, Z2, 0, 0, 0, 0, , 0, 0, 0, 0, 0, 
40, 1, 40, 40, 2186, -1.4527444149870417, 1.245861800654678, 4.057620120116567, 1.3067325567406214, ABarpaapp, 0, 0, 0, 0, , 0, 0, 0, 0, 0, 
42, 1, 42, 42, 2187, -9.454204963373419, 2.6902142311781976, 1.867776584284747, 1.3067325567406214, ABalaaapp, 0, 0, 0, 0, , 0, 0, 0, 0, 0, 
72, 1, 72, 72, 2188, -1.7191954732510462, 7.21774897119362, -0.9679598765432168, 1.2429895051922986, ABprpaaap, 0, 0, 0, 0, , 0, 0, 0, 0, 0, 
36, 1, 36, 36, 2189, -5.4836601936583005, -4.783037033809242, -2.6974536544824383, 1.3067325567406214, ABalppapp, 0, 0, 0, 0, , 0, 0, 0, 0, 0, 
516, 1, 516, 516, 2190, -7.773895511588086, -3.7168597724701065, 1.0365869639208247, 1.3067325567406214, ABalpppaa, 0, 0, 0, 0, , 0, 0, 0, 0, 0, 
82, 1, 82, 82, 2191, -10.871698750513383, 0.06162968938191259, -0.3851655212175303, 1.3067325567406214, ABalaaaar, 0, 0, 0, 0, , 0, 0, 0, 0, 0, 
1565, 1, 1565, 1565, 2192, -1.5163754759782309, -1.992723208214744, -3.0145844627244998, 1.1792464536439757, MSaapaa, 0, 0, 0, 0, , 0, 0, 0, 0, 0, 
419, 1, 419, 419, 2193, -2.871812985373566, 4.912134112564202, -3.236126019528115, 1.3067325567406214, ABarappaa, 0, 0, 0, 0, , 0, 0, 0, 0, 0, 
856, 1, 856, 856, 2194, -9.116048006880648, -4.680893528584471, -0.7431921129946335, 1.3067325567406214, ABalppaaa, 0, 0, 0, 0, , 0, 0, 0, 0, 0, 
310, 1, 310, 310, 2195, -4.459434547110634, 5.656489422120828, 2.3502750141931723, 1.2429895051922986, ABpraaapa, 0, 0, 0, 0, , 0, 0, 0, 0, 0, 
176, 1, 176, 176, 2196, 7.007942738033255, -1.967606522089792, 3.7314348011405847, 1.3554556938436502, Caaaa, 0, 0, 0, 0, , 0, 0, 0, 0, 0, 
65, 1, 65, 65, 2197, 4.7651869649523775, -6.620804069287392, 1.6763803623950868, 1.2429895051922986, ABplappap, 0, 0, 0, 0, , 0, 0, 0, 0, 0, 
89, 1, 89, 89, 2198, 0.4175912632312503, 1.3977368222296405, -3.406975463753657, 1.1792464536439757, MSpapap, 0, 0, 0, 0, , 0, 0, 0, 0, 0, 
517, 1, 517, 517, 2199, -4.429358581482636, 1.6636735605947555, 2.601616523860036, 1.3067325567406214, ABalapppa, 0, 0, 0, 0, , 0, 0, 0, 0, 0, 
343, 1, 343, 343, 2200, 0.7916146916638268, 6.026096962460058, -3.193929061479511, 1.2429895051922986, ABprpapaa, 0, 0, 0, 0, , 0, 0, 0, 0, 0, 
75, 1, 75, 75, 2201, -6.075101652695944, 2.712288883046935, -3.884710004809453, 1.3067325567406214, ABarapaap, 0, 0, 0, 0, , 0, 0, 0, 0, 0, 
29, 1, 29, 29, 2202, 9.085070550282952, 4.140315760270067, 2.6428083035023517, 1.2429895051922986, ABprapapp, 0, 0, 0, 0, , 0, 0, 0, 0, 0, 
338, 1, 338, 338, 2203, -9.287661616830126, -2.269497296260124, -3.276692442620907, 1.3067325567406214, ABalpapaa, 0, 0, 0, 0, , 0, 0, 0, 0, 0, 
49, 1, 49, 49, -1, -1.527845048104325, -4.308800295651799, -0.49704419132053035, 1.3554556938436502, MSapap, 0, 0, 0, 0, , 0, 0, 0, 0, 0, 
6, 1, 6, 6, 2204, -3.3000020813655553, -4.270608322658722, 1.0416181332631211, 1.3067325567406214, ABalppppp, 0, 0, 0, 0, , 0, 0, 0, 0, 0, 
62, 1, 62, 62, 2205, 9.761881263874699, 4.481990563717952, -2.602339997383265, 1.2429895051922986, ABprpppap, 0, 0, 0, 0, , 0, 0, 0, 0, 0, 
1459, 1, 1459, 1459, 2206, 0.1782147200213791, 1.3784748880732454, -3.350206122189828, 1.1792464536439757, MSpapaa, 0, 0, 0, 0, , 0, 0, 0, 0, 0, 
430, 1, 430, 430, 2207, -4.408555373546491, -3.6249776642225666, 1.1047014665965313, 1.3067325567406214, ABalppppa, 0, 0, 0, 0, , 0, 0, 0, 0, 0, 
22, 1, 22, 22, 2208, -4.5313560468011085, -2.2297055981093017, -3.3732367320797145, 1.3067325567406214, ABalpappp, 0, 0, 0, 0, , 0, 0, 0, 0, 0, 
455, 1, 455, 455, 2209, -6.236400391784292, -6.339027509765686, -1.0244454217168495, 1.2429895051922986, ABplpaaaa, 0, 0, 0, 0, , 0, 0, 0, 0, 0, 
79, 1, 79, 79, 2210, -10.239403065783845, 0.7171326840797994, -2.2371932294639527, 1.3067325567406214, ABaraaaap, 0, 0, 0, 0, , 0, 0, 0, 0, 0, 
4, 1, 4, 4, 2211, 3.129340365878608, -3.6992619190527605, -3.1251703557486534, 1.7907989085000002, Z3, 0, 0, 0, 0, , 0, 0, 0, 0, 0, 
281, 1, 281, 281, 2212, -3.3381857730116686, 1.066887932342026, 3.973559626289708, 1.3067325567406214, ABarpaapa, 0, 0, 0, 0, , 0, 0, 0, 0, 0, 
514, 1, 514, 514, 2213, -6.635419886322536, 5.896465385097241, 0.3346919292619635, 1.2429895051922986, ABpraaaaa, 0, 0, 0, 0, , 0, 0, 0, 0, 0, 
60, 1, 60, 60, 2214, -7.589599100843282, 0.24788206207620345, 3.830391351598568, 1.3067325567406214, ABarpaaap, 0, 0, 0, 0, , 0, 0, 0, 0, 0, 
85, 1, 85, 85, 2215, -8.604789343742219, 4.029583950481202, -0.45552842603519283, 1.3067325567406214, ABalaapap, 0, 0, 0, 0, , 0, 0, 0, 0, 0, 
104, 1, 104, 104, -1, 0.8480336154101802, -4.042620507308331, -2.3652399020326107, 1.3554556938436502, MSappa, 0, 0, 0, 0, , 0, 0, 0, 0, 0, 
3, 1, 3, 3, -1, 4.143743553309197, 3.4631578299058625, -1.275208315791922, 1.3554556938436502, MSpppp, 0, 0, 0, 0, , 0, 0, 0, 0, 0, 
747, 1, 747, 747, 2216, 5.8420188654867795, -5.577240004728263, -3.415947811714798, 1.2429895051922986, ABplppppa, 0, 0, 0, 0, , 0, 0, 0, 0, 0, 
247, 1, 247, 247, 2217, -5.671803577666083, -2.353986462306754, -3.8943478431911154, 1.3067325567406214, ABalpappa, 0, 0, 0, 0, , 0, 0, 0, 0, 0, 
86, 1, 86, 86, 2218, 5.253507060476301, -6.665383869749277, -1.870722022207943, 1.2429895051922986, ABplpppap, 0, 0, 0, 0, , 0, 0, 0, 0, 0, 
77, 1, 77, 77, 2219, 0.7461523357948091, -1.213946366503737, 3.9494295625852933, 1.3067325567406214, ABarppaap, 0, 0, 0, 0, , 0, 0, 0, 0, 0, 
178, 1, 178, 178, 2220, 5.5484483317145745, -4.9750322629430235, 3.2527395330991946, 1.2429895051922986, ABplapapa, 0, 0, 0, 0, , 0, 0, 0, 0, 0, 
54, 1, 54, 54, 2221, -1.3753944023563993, 6.433023399674233, 2.8030161871891455, 1.2429895051922986, ABpraapap, 0, 0, 0, 0, , 0, 0, 0, 0, 0, 
68, 1, 68, 68, 2222, -4.633253171460261, 3.5244153039210215, 3.64286536799065, 1.3067325567406214, ABarpapap, 0, 0, 0, 0, , 0, 0, 0, 0, 0, 
817, 1, 817, 817, 2223, -0.014478734164029328, -1.2255634446930828, 4.0041793568240776, 1.3067325567406214, ABarppaaa, 0, 0, 0, 0, , 0, 0, 0, 0, 0, 
16, 1, 16, 16, 2224, -0.08807100471426627, -6.207190413030919, 2.136935122324756, 1.2429895051922986, ABplaappp, 0, 0, 0, 0, , 0, 0, 0, 0, 0, 
1048, 1, 1048, 1048, 2225, 4.229033788299449, -2.570947440589839, 3.49207636943761, 1.3067325567406214, ABarppapa, 0, 0, 0, 0, , 0, 0, 0, 0, 0, 
31, 1, 31, 31, 2226, -3.0254271397032753, 6.199392302778886, 2.238704643822858, 1.2429895051922986, ABpraaapp, 0, 0, 0, 0, , 0, 0, 0, 0, 0, 
37, 1, 37, 37, 2227, -2.335880605820861, -7.150463619896655, 0.6411218637564257, 1.2429895051922986, ABplpaapp, 0, 0, 0, 0, , 0, 0, 0, 0, 0, 
48, 1, 48, 48, 2228, -1.8098488213435961, 1.2379894355362946, -1.4266331531047618, 1.1792464536439757, MSpaapp, 0, 0, 0, 0, , 0, 0, 0, 0, 0, 
477, 1, 477, 477, 2229, 11.611759182212058, -3.2366903170572487, 3.1611262079172433, 1.3554556938436502, Caapa, 0, 0, 0, 0, , 0, 0, 0, 0, 0, 
311, 1, 311, 311, 2230, -4.931711971362843, 1.0250112217344136, -3.0786058834150833, 1.3067325567406214, ABaraappa, 0, 0, 0, 0, , 0, 0, 0, 0, 0, 
102, 1, 102, 102, -1, 1.8966059455031221, 2.846173443753509, -2.171956513817057, 1.3554556938436502, MSpppa, 0, 0, 0, 0, , 0, 0, 0, 0, 0, 
173, 1, 173, 173, 2231, 5.861105638906336, 2.399340202879699, 0.6149359451653104, 1.5579950503950002, Epra, 0, 0, 0, 0, , 0, 0, 0, 0, 0, 
992, 1, 992, 992, 2232, -6.110574482305318, 2.7191759071440247, -0.30105640109035137, 1.1792464536439757, MSpaaaa, 0, 0, 0, 0, , 0, 0, 0, 0, 0, 
57, 1, 57, 57, 2233, -5.106461621636521, -4.864601379581442, 3.7105621761348866, 1.2429895051922986, ABplaapap, 0, 0, 0, 0, , 0, 0, 0, 0, 0, 
76, 1, 76, 76, 2234, -9.595440741568229, -0.8616408208928579, -2.392924217835177, 1.3067325567406214, ABalpaaap, 0, 0, 0, 0, , 0, 0, 0, 0, 0, 
52, 1, 52, 52, 2235, 9.814462378314175, 1.4844430471915053, 3.6794384754544525, 1.3554556938436502, Cpaap, 0, 0, 0, 0, , 0, 0, 0, 0, 0, 
577, 1, 577, 577, 2236, 2.9782382898480932, 6.542235467472154, -2.2959130925447426, 1.2429895051922986, ABprppaaa, 0, 0, 0, 0, , 0, 0, 0, 0, 0, 
23, 1, 23, 23, 2237, -3.6531860454369234, 1.0947457896356478, -3.0531836611930756, 1.3067325567406214, ABaraappp, 0, 0, 0, 0, , 0, 0, 0, 0, 0, 
50, 1, 50, 50, -1, 6.716986617260181, -4.204530148397066, -1.0895442002768605, 1.5579950503950002, Dap, 0, 0, 0, 0, , 0, 0, 0, 0, 0, 
688, 1, 688, 688, 2238, -6.27002759601211, 4.2286498995760935, 1.1705238878712916, 1.3067325567406214, ABalaappa, 0, 0, 0, 0, , 0, 0, 0, 0, 0, 
101, 1, 101, 101, -1, -5.4399153520979935, -3.250690954323786, -0.9053380547614278, 1.3554556938436502, MSapaa, 0, 0, 0, 0, , 0, 0, 0, 0, 0, 
148, 1, 148, 148, 2239, 12.735148375720437, 0.15970450113760204, 1.1272781113818804, 1.3554556938436502, Cpapa, 0, 0, 0, 0, , 0, 0, 0, 0, 0, 
28, 1, 28, 28, 2240, 12.477983766665254, -0.6328726593562941, -0.18118999561405139, 1.3554556938436502, Cpapp, 0, 0, 0, 0, , 0, 0, 0, 0, 0, 
81, 1, 81, 81, 2241, 3.0775172519042298, 3.019957453488249, 3.8597274055399264, 1.3067325567406214, ABarpppap, 0, 0, 0, 0, , 0, 0, 0, 0, 0, 
8, 1, 8, 8, 2242, 11.70264085550752, -0.6146258192444226, -0.9684478097436513, 1.3554556938436502, Cpppp, 0, 0, 0, 0, , 0, 0, 0, 0, 0, 
21, 1, 21, 21, 2243, 2.2929724938006486, -4.682810908974907, -3.634944008082969, 1.2429895051922986, ABplpappp, 0, 0, 0, 0, , 0, 0, 0, 0, 0, 
2006, 1, 2006, 2006, 2244, -1.8760829777222012, 1.2501727688696314, -1.3999395317055818, 1.1792464536439757, MSpaapa, 0, 0, 0, 0, , 0, 0, 0, 0, 0, 
753, 1, 753, 753, 2245, 4.521032780640963, -7.068712059050033, -1.7844720222080164, 1.2429895051922986, ABplpppaa, 0, 0, 0, 0, , 0, 0, 0, 0, 0, 
333, 1, 333, 333, 2246, -3.691279165491915, -7.0119689696915515, 0.6998551970897525, 1.2429895051922986, ABplpaapa, 0, 0, 0, 0, , 0, 0, 0, 0, 0, 
1, 1, 1, 1, 2247, 8.97892120666878, 2.113278909211348, -3.86552264171158, 1.2429895051922986, ABprppppp, 0, 0, 0, 0, , 0, 0, 0, 0, 0, 
394, 1, 394, 394, 2248, -2.7744742798354896, 6.843738683127471, -1.1552962962962794, 1.2429895051922986, ABprpaaaa, 0, 0, 0, 0, , 0, 0, 0, 0, 0, 
13, 1, 13, 13, -1, 2.8358834423766988, -4.917765654859621, -0.9256539158716366, 1.3554556938436502, MSappp, 0, 0, 0, 0, , 0, 0, 0, 0, 0, 
328, 1, 328, 328, 2249, 8.232626105839303, 4.667960204714131, 3.4152527479468686, 1.2429895051922986, ABprapapa, 0, 0, 0, 0, , 0, 0, 0, 0, 0, 
44, 1, 44, 44, 2250, 3.601485216509909, -6.495611955002482, -0.3464467481411166, 1.2429895051922986, ABplppapp, 0, 0, 0, 0, , 0, 0, 0, 0, 0, 
162, 1, 162, 162, 2251, 4.710819586267333, -2.4656251762369, 1.449287168609456, 1.5579950503950002, Epla, 0, 0, 0, 0, , 0, 0, 0, 0, 0, 
33, 1, 33, 33, 2252, 6.914069730891308, -4.791634732078692, 2.0298428252802334, 1.2429895051922986, ABplapapp, 0, 0, 0, 0, , 0, 0, 0, 0, 0, 
61, 1, 61, 61, 2253, -6.9986206285634776, -2.4832634806322784, 3.617478478157075, 1.2429895051922986, ABplaaaap, 0, 0, 0, 0, , 0, 0, 0, 0, 0, 
266, 1, 266, 266, 2254, 3.7152369649522394, -6.956697896447654, 1.425211432353911, 1.2429895051922986, ABplappaa, 0, 0, 0, 0, , 0, 0, 0, 0, 0, 
244, 1, 244, 244, 2255, -6.483622115463378, -4.875918252009944, 3.4420436576163853, 1.2429895051922986, ABplaapaa, 0, 0, 0, 0, , 0, 0, 0, 0, 0, 
26, 1, 26, 26, -1, 4.467282483263323, 0.978073010119365, -3.6846589180049274, 1.3554556938436502, MSpapp, 0, 0, 0, 0, , 0, 0, 0, 0, 0, 
51, 1, 51, 51, -1, -0.1009042520935161, 4.2719813648641605, 0.16218522583499637, 1.3554556938436502, MSppap, 0, 0, 0, 0, , 0, 0, 0, 0, 0, 
20, 1, 20, 20, 2256, -5.92679199930454, 4.246011010687041, 1.6315578384885427, 1.3067325567406214, ABalaappp, 0, 0, 0, 0, , 0, 0, 0, 0, 0, 
19, 1, 19, 19, 2257, -0.3302372951208924, 4.251275197445199, 3.9098945999199755, 1.3067325567406214, ABarpappp, 0, 0, 0, 0, , 0, 0, 0, 0, 0, 
200, 1, 200, 200, 2258, 1.6830365473326028, 6.55443050346211, 2.1439779781528467, 1.2429895051922986, ABpraappa, 0, 0, 0, 0, , 0, 0, 0, 0, 0, 
9, 1, 9, 9, 2259, -3.2499412975319277, 2.0813352889898544, 2.351339980650092, 1.3067325567406214, ABalapppp, 0, 0, 0, 0, , 0, 0, 0, 0, 0, 
30, 1, 30, 30, 2260, -2.66367184363677, -2.746783301521514, 3.9763649837713126, 1.2429895051922986, ABplaaapp, 0, 0, 0, 0, , 0, 0, 0, 0, 0, 
91, 1, 91, 91, 2261, -1.236116010957676, -1.9770357596550765, -3.121445985358308, 1.1792464536439757, MSaapap, 0, 0, 0, 0, , 0, 0, 0, 0, 0, 
271, 1, 271, 271, 2262, 8.629629823545729, 5.34351196289544, -2.3592354706344043, 1.2429895051922986, ABprpppaa, 0, 0, 0, 0, , 0, 0, 0, 0, 0, 
58, 1, 58, 58, 2263, 3.3069736608805624, 5.579741959317723, 3.434030037720105, 1.2429895051922986, ABprapaap, 0, 0, 0, 0, , 0, 0, 0, 0, 0, 
64, 1, 64, 64, 2264, -6.006265565334994, 6.106510446826105, 0.3096098304965561, 1.2429895051922986, ABpraaaap, 0, 0, 0, 0, , 0, 0, 0, 0, 0, 
1156, 1, 1156, 1156, 2265, -10.491306769487712, 0.9391079927217421, -2.4557240936615936, 1.3067325567406214, ABaraaaaa, 0, 0, 0, 0, , 0, 0, 0, 0, 0, 
392, 1, 392, 392, 2266, -5.624308521254149, 3.74068197058761, 3.763847878278788, 1.3067325567406214, ABarpapaa, 0, 0, 0, 0, , 0, 0, 0, 0, 0, 
46, 1, 46, 46, 2267, -3.472204410605162, -0.22243041085953547, -0.8347983860333341, 1.1792464536439757, MSaaapp, 0, 0, 0, 0, , 0, 0, 0, 0, 0, 
115, 1, 115, 115, 2268, -0.7011274672295658, 2.038002102340902, 1.5962465244049926, 1.5579950503950002, Eara, 0, 0, 0, 0, , 0, 0, 0, 0, 0, 
233, 1, 233, 233, 2269, 7.094632386746243, 6.565912515671883, 0.5027454523416384, 1.2429895051922986, ABprappaa, 0, 0, 0, 0, , 0, 0, 0, 0, 0, 
18, 1, 18, 18, 2270, 3.273822144040282, 6.472731738030395, 1.943560694202269, 1.2429895051922986, ABpraappp, 0, 0, 0, 0, , 0, 0, 0, 0, 0, 
73, 1, 73, 73, 2271, -1.9666395285833485, 5.436533495280598, -3.252031369322458, 1.3067325567406214, ABarappap, 0, 0, 0, 0, , 0, 0, 0, 0, 0, 
25, 1, 25, 25, -1, 3.133026708997386, -1.9242673313718788, -3.8768183130420026, 1.3554556938436502, MSaapp, 0, 0, 0, 0, , 0, 0, 0, 0, 0, 
5, 1, 5, 5, 2272, 6.633057548614276, -4.9725716919707805, -3.5867264125379106, 1.2429895051922986, ABplppppp, 0, 0, 0, 0, , 0, 0, 0, 0, 0, 
74, 1, 74, 74, 2273, -2.52214033963947, -5.85982710377512, -2.9801204814569977, 1.2429895051922986, ABplpapap, 0, 0, 0, 0, , 0, 0, 0, 0, 0, 
902, 1, 902, 902, 2274, -6.41675103541173, 2.482626331606693, -4.153773379295276, 1.3067325567406214, ABarapaaa, 0, 0, 0, 0, , 0, 0, 0, 0, 0, 
41, 1, 41, 41, 2275, -5.666612856638972, -1.1458670630991161, 3.6504108591024815, 1.3067325567406214, ABalapapp, 0, 0, 0, 0, , 0, 0, 0, 0, 0, 
989, 1, 989, 989, 2276, 10.889853813012566, -4.249728422484537, -0.5041591638439887, 1.3554556938436502, Cappa, 0, 0, 0, 0, , 0, 0, 0, 0, 0, 
530, 1, 530, 530, 2277, 6.36365072368807, 5.183753964039724, -1.2933018369255882, 1.2429895051922986, ABprppapa, 0, 0, 0, 0, , 0, 0, 0, 0, 0, 
1060, 1, 1060, 1060, 2278, 11.411961843162201, -0.10759907027324694, -0.6641268220893184, 1.3554556938436502, Cpppa, 0, 0, 0, 0, , 0, 0, 0, 0, 0, 
47, 1, 47, 47, 2279, 7.324700244703007, -2.5661393737678706, 0.6395468393914262, 1.5579950503950002, Eplp, 0, 0, 0, 0, , 0, 0, 0, 0, 0, 
427, 1, 427, 427, 2280, 2.310919134131505, 5.466367473720917, 3.8318849759919313, 1.2429895051922986, ABprapaaa, 0, 0, 0, 0, , 0, 0, 0, 0, 0, 
83, 1, 83, 83, 2281, -9.366148970664577, -1.2285153741439117, 2.691777005941221, 1.3067325567406214, ABalapaap, 0, 0, 0, 0, , 0, 0, 0, 0, 0, 
11, 1, 11, 11, 2282, 8.978625903317118, -5.8023350735909025, 0.015453374148507308, 1.2429895051922986, ABplapppp, 0, 0, 0, 0, , 0, 0, 0, 0, 0, 
14, 1, 14, 14, 2283, 2.041603697154111, 1.4034130612449522, 0.3152476659574339, 1.5579950503950002, Earp, 0, 0, 0, 0, , 0, 0, 0, 0, 0, 
663, 1, 663, 663, 2284, -10.413754527577026, -0.6244957591644693, -2.647577510016223, 1.3067325567406214, ABalpaaaa, 0, 0, 0, 0, , 0, 0, 0, 0, 0, 
87, 1, 87, 87, 2285, -0.47593173766702745, -7.383841511442559, -1.2494077876354381, 1.2429895051922986, ABplppaap, 0, 0, 0, 0, , 0, 0, 0, 0, 0, 
1471, 1, 1471, 1471, 2286, -8.844231730573608, 3.8136259257898844, -0.5451736935249095, 1.3067325567406214, ABalaapaa, 0, 0, 0, 0, , 0, 0, 0, 0, 0, 
7, 1, 7, 7, 2287, 8.36209823149941, 1.718968186418571, 0.23575240607065268, 1.5579950503950002, Eprp, 0, 0, 0, 0, , 0, 0, 0, 0, 0, 
499, 1, 499, 499, 2288, 0.6178348074873214, 7.151250155316469, 0.019811303360632887, 1.2429895051922986, ABprpaapa, 0, 0, 0, 0, , 0, 0, 0, 0, 0, 
59, 1, 59, 59, 2289, 11.415300138867114, 1.6053196967797165, -3.3431858821209053, 1.5579950503950002, Cppa, 0, 0, 0, 0, , 0, 0, 0, 0, 0, 
45, 1, 45, 45, 2290, 1.3145073398504603, -2.7227632370370953, 0.26943951333257055, 1.5579950503950002, Ealp, 0, 0, 0, 0, , 0, 0, 0, 0, 0, 
1073, 1, 1073, 1073, 2291, -9.112317401538139, 1.2727375214606296, 2.644200402989544, 1.3067325567406214, ABalappaa, 0, 0, 0, 0, , 0, 0, 0, 0, 0, 
84, 1, 84, 84, 2292, -8.686456237333168, -5.002368631465241, -0.9825272981798328, 1.3067325567406214, ABalppaap, 0, 0, 0, 0, , 0, 0, 0, 0, 0, 
10, 1, 10, 10, 2293, 11.3009981903128, 2.870412059184052, -0.8064797795474483, 1.2429895051922986, ABprapppp, 0, 0, 0, 0, , 0, 0, 0, 0, 0, 
473, 1, 473, 473, 2294, -1.7037954241587183, 5.220531838487112, -1.8100911009166756, 1.3067325567406214, ABarapppa, 0, 0, 0, 0, , 0, 0, 0, 0, 0, 
12, 1, 12, 12, 2295, -0.7333787574920784, 5.6146799866351245, -1.7002207305464347, 1.3067325567406214, ABarapppp, 0, 0, 0, 0, , 0, 0, 0, 0, 0, 
496, 1, 496, 496, 2296, -1.2934070482073214, 4.208258325016934, 4.151040278932546, 1.3067325567406214, ABarpappa, 0, 0, 0, 0, , 0, 0, 0, 0, 0, 
1270, 1, 1270, 1270, 2297, 3.1006802782382685, -6.614690967348168, -0.2754146493756807, 1.2429895051922986, ABplppapa, 0, 0, 0, 0, , 0, 0, 0, 0, 0, 
35, 1, 35, 35, 2298, -1.9203479624960391, 3.0944008581454914, -3.35688722882036, 1.3067325567406214, ABarapapp, 0, 0, 0, 0, , 0, 0, 0, 0, 0, 
56, 1, 56, 56, 2299, 8.251849670696076, 6.142623009498422, 0.8259448350576535, 1.2429895051922986, ABprappap, 0, 0, 0, 0, , 0, 0, 0, 0, 0, 
100, 1, 100, 100, -1, -3.6336451181885576, 4.4732303206511075, -0.9204833566553466, 1.3554556938436502, MSppaa, 0, 0, 0, 0, , 0, 0, 0, 0, 0, 
1575, 1, 1575, 1575, 2300, -7.854876055575733, 0.22902815261117893, 3.8203032857549863, 1.3067325567406214, ABarpaaaa, 0, 0, 0, 0, , 0, 0, 0, 0, 0, 
126, 1, 126, 126, 2301, -0.9313419752180259, -1.8996785718928795, 1.3103086153112506, 1.5579950503950002, Eala, 0, 0, 0, 0, , 0, 0, 0, 0, 0, 
264, 1, 264, 264, 2302, -0.47681384565606716, -4.704879575760364, 4.1204269948834105, 1.2429895051922986, ABplapaaa, 0, 0, 0, 0, , 0, 0, 0, 0, 0, 
728, 1, 728, 728, 2303, 8.470496479448865, -6.140886719681309, 0.2654718926670354, 1.2429895051922986, ABplapppa, 0, 0, 0, 0, , 0, 0, 0, 0, 0, 
656, 1, 656, 656, 2304, -6.845616560342259, -0.8450187091896473, 3.8340880195961553, 1.3067325567406214, ABalapapa, 0, 0, 0, 0, , 0, 0, 0, 0, 0, 
34, 1, 34, 34, 2305, 1.7781977704501626, 7.264961266427638, -0.07590351145418205, 1.2429895051922986, ABprpaapp, 0, 0, 0, 0, , 0, 0, 0, 0, 0, 
258, 1, 258, 258, 2306, -7.6425644800047605, 3.290207183957269, -2.4264273627810695, 1.3067325567406214, ABaraaapa, 0, 0, 0, 0, , 0, 0, 0, 0, 0, 
1751, 1, 1751, 1751, 2307, -0.6695860586546788, -7.413088425022752, -1.1644497629441057, 1.2429895051922986, ABplppaaa, 0, 0, 0, 0, , 0, 0, 0, 0, 0, 
315, 1, 315, 315, 2308, 10.636485227348853, 3.5713509480730403, -0.47500385362152814, 1.2429895051922986, ABprapppa, 0, 0, 0, 0, , 0, 0, 0, 0, 0, 
70, 1, 70, 70, 2309, -7.469156637564478, 0.07589531495431726, -2.583576624655516, 1.3067325567406214, ABaraapap, 0, 0, 0, 0, , 0, 0, 0, 0, 0, 
400, 1, 400, 400, 2310, -9.623097025711665, -1.9549574828212262, -0.5752647267347671, 1.3067325567406214, ABalpaapa, 0, 0, 0, 0, , 0, 0, 0, 0, 0, 
32, 1, 32, 32, 2311, 7.27447109405815, 4.8475636348215, -1.3450765282836414, 1.2429895051922986, ABprppapp, 0, 0, 0, 0, , 0, 0, 0, 0, 0, 
242, 1, 242, 242, 2312, 3.857184531954179, 3.7024275733175767, -3.690539573269418, 1.2429895051922986, ABprpappa, 0, 0, 0, 0, , 0, 0, 0, 0, 0, 
55, 1, 55, 55, 2313, 0.954336771627906, -4.742756118970069, 3.8506294640195415, 1.2429895051922986, ABplapaap, 0, 0, 0, 0, , 0, 0, 0, 0, 0, 
38, 1, 38, 38, 2314, -8.795227478387375, -2.70770521944672, -0.7562708995742766, 1.3067325567406214, ABalpaapp, 0, 0, 0, 0, , 0, 0, 0, 0, 0, 
15, 1, 15, 15, 2315, 11.275598257456759, -3.8149611385336524, -0.9508832379180614, 1.3554556938436502, Cappp, 0, 0, 0, 0, , 0, 0, 0, 0, 0, 
132, 1, 132, 132, -1, 6.682543826764333, 2.0148189640586174, -2.581450332777357, 1.5579950503950002, Dpa, 0, 0, 0, 0, , 0, 0, 0, 0, 0, 
80, 1, 80, 80, 2316, -7.005039132987405, -4.101499690165662, 0.9861956058961079, 1.3067325567406214, ABalpppap, 0, 0, 0, 0, , 0, 0, 0, 0, 0, 
69, 1, 69, 69, 2317, 4.038109894786411, 6.376194726731266, -2.653125849746534, 1.2429895051922986, ABprppaap, 0, 0, 0, 0, , 0, 0, 0, 0, 0, 
954, 1, 954, 954, 2318, 6.726399224361337, 1.9587868247960176, 3.241677598682171, 1.3067325567406214, ABarppppa, 0, 0, 0, 0, , 0, 0, 0, 0, 0, 
24, 1, 24, 24, -1, 8.249781974056171, 1.4810265223198318, -1.9858893622522524, 1.5579950503950002, Dpp, 0, 0, 0, 0, , 0, 0, 0, 0, 0, 
17, 1, 17, 17, 2319, 5.102153667757057, 3.563435803770198, -3.701063235820927, 1.2429895051922986, ABprpappp, 0, 0, 0, 0, , 0, 0, 0, 0, 0, 
294, 1, 294, 294, 2320, -2.5988215628502664, 6.358541095147792, 2.7571100143497365, 1.2429895051922986, ABpraapaa, 0, 0, 0, 0, , 0, 0, 0, 0, 0, 
78, 1, 78, 78, 2321, -8.877484479727432, 1.5835718836005739, 2.7583355881747114, 1.3067325567406214, ABalappap, 0, 0, 0, 0, , 0, 0, 0, 0, 0, 
736, 1, 736, 736, 2322, -9.772706815225533, 1.8839950953756763, 1.8418084772887746, 1.3067325567406214, ABalaaapa, 0, 0, 0, 0, , 0, 0, 0, 0, 0, 
710, 1, 710, 710, 2323, -9.68017777724832, -0.8057886251726938, 2.7058716561468312, 1.3067325567406214, ABalapaaa, 0, 0, 0, 0, , 0, 0, 0, 0, 0, 
2, 1, 2, 2, 2324, 7.477957249052695, 1.766476948252779, 3.165913401151221, 1.3067325567406214, ABarppppp, 0, 0, 0, 0, , 0, 0, 0, 0, 0, 
67, 1, 67, 67, -1, 8.851142919386286, -4.220041925694002, -2.5135395470434574, 1.5579950503950002, Capa, 0, 0, 0, 0, , 0, 0, 0, 0, 0, 
63, 1, 63, 63, 2325, -8.000040217652685, -2.202832687206739, -3.239124541386093, 1.3067325567406214, ABalpapap, 0, 0, 0, 0, , 0, 0, 0, 0, 0, 
325, 1, 325, 325, 2326, 0.835027637833582, -5.015133954241882, -3.520368287917994, 1.2429895051922986, ABplpappa, 0, 0, 0, 0, , 0, 0, 0, 0, 0, 
66, 1, 66, 66, 2327, 1.4968406175898716, 5.655161777275157, -3.465888320739001, 1.2429895051922986, ABprpapap, 0, 0, 0, 0, , 0, 0, 0, 0, 0, 
