311, 1, 311, 311, 3017, -5.261060831789679, 1.0688067901056768, -2.7887001804732106, 1.3067325567406214, ABaraappa, 0, 0, 0, 0, , 0, 0, 0, 0, 0, 
2, 1, 2, 2, 3018, 7.80951864401405, 2.156495706141072, 3.1143259924390816, 1.3067325567406214, ABarppppp, 0, 0, 0, 0, , 0, 0, 0, 0, 0, 
27, 1, 27, 27, 3019, 11.957543924033995, -2.7598522909102914, 0.2535790658728375, 1.3554556938436502, Caapp, 0, 0, 0, 0, , 0, 0, 0, 0, 0, 
21, 1, 21, 21, 3020, 2.820375468135605, -4.244931578608987, -3.788695157427763, 1.2429895051922986, ABplpappp, 0, 0, 0, 0, , 0, 0, 0, 0, 0, 
115, 1, 115, 115, 3021, -1.0690647883082587, 1.9278806212711106, 1.725326124282661, 1.5579950503950002, Eara, 0, 0, 0, 0, , 0, 0, 0, 0, 0, 
3, 1, 3, 3, -1, 3.6160773397619104, 4.04528096724174, -0.9382379857281538, 1.3554556938436502, MSpppp, 0, 0, 0, 0, , 0, 0, 0, 0, 0, 
473, 1, 473, 473, 3022, -2.3790575098958566, 5.068724300021092, -2.094038650301042, 1.3067325567406214, ABarapppa, 0, 0, 0, 0, , 0, 0, 0, 0, 0, 
69, 1, 69, 69, 3023, 3.9149759223757723, 6.172825574747754, -2.852958938537791, 1.2429895051922986, ABprppaap, 0, 0, 0, 0, , 0, 0, 0, 0, 0, 
36, 1, 36, 36, 3024, -4.9338283127578695, -4.868303676268711, -2.7425616186558015, 1.3067325567406214, ABalppapp, 0, 0, 0, 0, , 0, 0, 0, 0, 0, 
2006, 1, 2006, 2006, 3025, -2.2890595620051437, 1.3530207660791522, -1.1569433609842827, 1.1792464536439757, MSpaapa, 0, 0, 0, 0, , 0, 0, 0, 0, 0, 
37, 1, 37, 37, 3026, -1.8162781644093917, -7.282071698676976, 0.5192777326221735, 1.2429895051922986, ABplpaapp, 0, 0, 0, 0, , 0, 0, 0, 0, 0, 
7, 1, 7, 7, 3027, 8.552785251330214, 1.636463779370437, 0.4583891412716233, 1.5579950503950002, Eprp, 0, 0, 0, 0, , 0, 0, 0, 0, 0, 
178, 1, 178, 178, 3028, 6.26351773145948, -5.220844211901897, 3.190221789649742, 1.2429895051922986, ABplapapa, 0, 0, 0, 0, , 0, 0, 0, 0, 0, 
309, 1, 309, 309, 3029, -8.680295565949596, -0.0625714546193805, -2.730660464381162, 1.3067325567406214, ABaraapaa, 0, 0, 0, 0, , 0, 0, 0, 0, 0, 
87, 1, 87, 87, 3030, -0.024435436925267718, -7.201663303138585, -1.5265795431805074, 1.2429895051922986, ABplppaap, 0, 0, 0, 0, , 0, 0, 0, 0, 0, 
286, 1, 286, 286, 3031, -7.966991568458784, -3.087575001773956, 3.5025337002303116, 1.2429895051922986, ABplaaaaa, 0, 0, 0, 0, , 0, 0, 0, 0, 0, 
1043, 1, 1043, 1043, 3032, -9.1077550514686, 0.500340294591982, 0.12639393612349534, 1.1792464536439757, MSaaaaa, 0, 0, 0, 0, , 0, 0, 0, 0, 0, 
355, 1, 355, 355, 3033, 1.8782358257419358, 3.4722335832738205, 3.8885735409998374, 1.3067325567406214, ABarpppaa, 0, 0, 0, 0, , 0, 0, 0, 0, 0, 
20, 1, 20, 20, 3034, -6.296466459253916, 4.239942698661365, 1.777725510761899, 1.3067325567406214, ABalaappp, 0, 0, 0, 0, , 0, 0, 0, 0, 0, 
271, 1, 271, 271, 3035, 8.144627140294128, 5.418866423216094, -2.54895631278921, 1.2429895051922986, ABprpppaa, 0, 0, 0, 0, , 0, 0, 0, 0, 0, 
244, 1, 244, 244, 3036, -6.378491601729669, -5.0414598774625805, 3.3967198133612113, 1.2429895051922986, ABplaapaa, 0, 0, 0, 0, , 0, 0, 0, 0, 0, 
16, 1, 16, 16, 3037, 0.4768973787941418, -6.546236880425074, 2.034009847245132, 1.2429895051922986, ABplaappp, 0, 0, 0, 0, , 0, 0, 0, 0, 0, 
30, 1, 30, 30, 3038, -2.154981117367125, -2.9593108943100948, 3.967599814715144, 1.2429895051922986, ABplaaapp, 0, 0, 0, 0, , 0, 0, 0, 0, 0, 
91, 1, 91, 91, 3039, -1.033932166463257, -1.9261636793736931, -2.9386601361536715, 1.1792464536439757, MSaapap, 0, 0, 0, 0, , 0, 0, 0, 0, 0, 
1459, 1, 1459, 1459, 3040, -0.007614146678764875, 1.2331508081731122, -3.0914741768591245, 1.1792464536439757, MSpapaa, 0, 0, 0, 0, , 0, 0, 0, 0, 0, 
663, 1, 663, 663, 3041, -10.160090818232817, -0.7895382506689994, -2.9560046671166003, 1.3067325567406214, ABalpaaaa, 0, 0, 0, 0, , 0, 0, 0, 0, 0, 
76, 1, 76, 76, 3042, -8.955172093952147, -1.1387203494344262, -2.5810427329602565, 1.3067325567406214, ABalpaaap, 0, 0, 0, 0, , 0, 0, 0, 0, 0, 
68, 1, 68, 68, 3043, -4.487838748089157, 3.229897335313089, 3.7570348489065655, 1.3067325567406214, ABarpapap, 0, 0, 0, 0, , 0, 0, 0, 0, 0, 
84, 1, 84, 84, 3044, -8.44107204717281, -5.1658276737026645, -0.9714925030198407, 1.3067325567406214, ABalppaap, 0, 0, 0, 0, , 0, 0, 0, 0, 0, 
57, 1, 57, 57, 3045, -4.588182959754755, -5.026747943305528, 3.745793887435263, 1.2429895051922986, ABplaapap, 0, 0, 0, 0, , 0, 0, 0, 0, 0, 
496, 1, 496, 496, 3046, -1.5980128583679512, 4.254552567665349, 4.201962844211711, 1.3067325567406214, ABarpappa, 0, 0, 0, 0, , 0, 0, 0, 0, 0, 
310, 1, 310, 310, 3047, -5.07907161697249, 5.442566606941959, 2.266283754958733, 1.2429895051922986, ABpraaapa, 0, 0, 0, 0, , 0, 0, 0, 0, 0, 
40, 1, 40, 40, 3048, -0.8970521481643972, 1.0384800602084006, 4.073503168359061, 1.3067325567406214, ABarpaapp, 0, 0, 0, 0, , 0, 0, 0, 0, 0, 
173, 1, 173, 173, 3049, 5.422348214292436, 2.4880703637328554, 0.9330047791317221, 1.5579950503950002, Epra, 0, 0, 0, 0, , 0, 0, 0, 0, 0, 
2800, 1, 2800, 2800, 3050, 8.693293612886146, -4.151715205748351, -2.893903897273873, 1.3554556938436502, Capaa, 0, 0, 0, 0, , 0, 0, 0, 0, 0, 
523, 1, 523, 523, 3051, -2.7321681659563337, -6.298972335135869, -2.8121870898525647, 1.2429895051922986, ABplpapaa, 0, 0, 0, 0, , 0, 0, 0, 0, 0, 
477, 1, 477, 477, 3052, 11.547350508395784, -3.1393082579886307, 3.2582728930333995, 1.3554556938436502, Caapa, 0, 0, 0, 0, , 0, 0, 0, 0, 0, 
325, 1, 325, 325, 3053, 0.8573688837734318, -4.692378080665907, -3.6344280792379697, 1.2429895051922986, ABplpappa, 0, 0, 0, 0, , 0, 0, 0, 0, 0, 
65, 1, 65, 65, 3054, 5.43347563371605, -6.57783029157745, 1.591862162844333, 1.2429895051922986, ABplappap, 0, 0, 0, 0, , 0, 0, 0, 0, 0, 
90, 1, 90, 90, 3055, -5.474012522960389, 2.4891804545805356, 0.33436983206914894, 1.1792464536439757, MSpaaap, 0, 0, 0, 0, , 0, 0, 0, 0, 0, 
64, 1, 64, 64, 3056, -5.854676274540109, 6.173060970526764, 0.31722392475101613, 1.2429895051922986, ABpraaaap, 0, 0, 0, 0, , 0, 0, 0, 0, 0, 
42, 1, 42, 42, 3057, -9.621914410463722, 2.61245282621155, 1.7534613508146721, 1.3067325567406214, ABalaaapp, 0, 0, 0, 0, , 0, 0, 0, 0, 0, 
530, 1, 530, 530, 3058, 5.82110085608933, 5.434165453970426, -1.4566386470008201, 1.2429895051922986, ABprppapa, 0, 0, 0, 0, , 0, 0, 0, 0, 0, 
258, 1, 258, 258, 3059, -7.87809626614236, 2.960661206936052, -2.639412043418421, 1.3067325567406214, ABaraaapa, 0, 0, 0, 0, , 0, 0, 0, 0, 0, 
499, 1, 499, 499, 3060, -0.10450845473864226, 7.126929475005473, -0.0013501646394815656, 1.2429895051922986, ABprpaapa, 0, 0, 0, 0, , 0, 0, 0, 0, 0, 
33, 1, 33, 33, 3061, 7.971114439278031, -4.991520755111606, 1.6610905139295382, 1.2429895051922986, ABplapapp, 0, 0, 0, 0, , 0, 0, 0, 0, 0, 
954, 1, 954, 954, 3062, 6.569935927964668, 2.4736821258942405, 3.239287720834285, 1.3067325567406214, ABarppppa, 0, 0, 0, 0, , 0, 0, 0, 0, 0, 
43, 1, 43, 43, 3063, 5.831744674111249, -2.668708335581331, 3.2523636458098646, 1.3067325567406214, ABarppapp, 0, 0, 0, 0, , 0, 0, 0, 0, 0, 
517, 1, 517, 517, 3064, -5.066317016764345, 1.6932600482960163, 2.819279150365258, 1.3067325567406214, ABalapppa, 0, 0, 0, 0, , 0, 0, 0, 0, 0, 
2639, 1, 2639, 2639, 3065, -0.6478624893376229, 4.338066670153037, 0.38581188836105074, 1.1792464536439757, MSppapa, 0, 0, 0, 0, , 0, 0, 0, 0, 0, 
989, 1, 989, 989, 3066, 10.456593024357057, -4.231690839657968, -0.4189611057737871, 1.3554556938436502, Cappa, 0, 0, 0, 0, , 0, 0, 0, 0, 0, 
394, 1, 394, 394, 3067, -3.1460174897120687, 6.669417695473074, -1.3175185185184985, 1.2429895051922986, ABprpaaaa, 0, 0, 0, 0, , 0, 0, 0, 0, 0, 
62, 1, 62, 62, 3068, 9.631076111487218, 4.2878388511989325, -2.8681102222540855, 1.2429895051922986, ABprpppap, 0, 0, 0, 0, , 0, 0, 0, 0, 0, 
54, 1, 54, 54, 3069, -1.5264906730819807, 6.350978406256703, 2.903436750320388, 1.2429895051922986, ABpraapap, 0, 0, 0, 0, , 0, 0, 0, 0, 0, 
338, 1, 338, 338, 3070, -8.878867815495587, -2.657445707414539, -3.428120629730866, 1.3067325567406214, ABalpapaa, 0, 0, 0, 0, , 0, 0, 0, 0, 0, 
70, 1, 70, 70, 3071, -7.011844537142242, -0.27960190729429163, -2.3462670487433237, 1.3067325567406214, ABaraapap, 0, 0, 0, 0, , 0, 0, 0, 0, 0, 
31, 1, 31, 31, 3072, -3.159508654009592, 6.169296648093717, 2.1169356068106597, 1.2429895051922986, ABpraaapp, 0, 0, 0, 0, , 0, 0, 0, 0, 0, 
58, 1, 58, 58, 3073, 3.6626674448899323, 5.733306423953892, 3.098482230496592, 1.2429895051922986, ABprapaap, 0, 0, 0, 0, , 0, 0, 0, 0, 0, 
315, 1, 315, 315, 3074, 10.353123180590824, 3.9257269503277596, -0.8222621043547015, 1.2429895051922986, ABprapppa, 0, 0, 0, 0, , 0, 0, 0, 0, 0, 
10, 1, 10, 10, 3075, 11.254117625036603, 2.9753436169942913, -1.2717009932435914, 1.2429895051922986, ABprapppp, 0, 0, 0, 0, , 0, 0, 0, 0, 0, 
227, 1, 227, 227, 3076, -3.698092228478408, -3.174487849042878, 4.312357016361788, 1.2429895051922986, ABplaaapa, 0, 0, 0, 0, , 0, 0, 0, 0, 0, 
728, 1, 728, 728, 3077, 8.488565419310536, -6.117953450064111, -0.005874590132807323, 1.2429895051922986, ABplapppa, 0, 0, 0, 0, , 0, 0, 0, 0, 0, 
44, 1, 44, 44, 3078, 3.9883029086555, -6.505682278489048, -0.5660509631063798, 1.2429895051922986, ABplppapp, 0, 0, 0, 0, , 0, 0, 0, 0, 0, 
753, 1, 753, 753, 3079, 4.668601603178866, -6.941561860821079, -1.9856625307458127, 1.2429895051922986, ABplpppaa, 0, 0, 0, 0, , 0, 0, 0, 0, 0, 
48, 1, 48, 48, 3080, -1.7607266401944102, 1.2558374327457915, -1.3698715502847183, 1.1792464536439757, MSpaapp, 0, 0, 0, 0, , 0, 0, 0, 0, 0, 
29, 1, 29, 29, 3081, 9.546168146013871, 4.12090661079311, 2.1563507740957375, 1.2429895051922986, ABprapapp, 0, 0, 0, 0, , 0, 0, 0, 0, 0, 
81, 1, 81, 81, 3082, 3.307215866894389, 3.092454570928067, 3.9127290965550685, 1.3067325567406214, ABarpppap, 0, 0, 0, 0, , 0, 0, 0, 0, 0, 
430, 1, 430, 430, 3083, -4.711593860059388, -3.8060934446966947, 1.3058607971530642, 1.3067325567406214, ABalppppa, 0, 0, 0, 0, , 0, 0, 0, 0, 0, 
2623, 1, 2623, 2623, 3084, -4.437835970803428, 4.485415174208599, -0.7510319063533991, 1.1792464536439757, MSppaaa, 0, 0, 0, 0, , 0, 0, 0, 0, 0, 
83, 1, 83, 83, 3085, -9.38094987863528, -1.7483322645566948, 2.5789538912853853, 1.3067325567406214, ABalapaap, 0, 0, 0, 0, , 0, 0, 0, 0, 0, 
104, 1, 104, 104, -1, 0.3693514331647201, -3.798903617369702, -2.3184162272223516, 1.3554556938436502, MSappa, 0, 0, 0, 0, , 0, 0, 0, 0, 0, 
162, 1, 162, 162, 3086, 4.775692479375947, -2.0974806498079293, 1.6157689288597703, 1.5579950503950002, Epla, 0, 0, 0, 0, , 0, 0, 0, 0, 0, 
2289, 1, 2289, 2289, 3087, 10.720950324855398, 1.803587943124117, -3.3221866849976633, 1.3554556938436502, Cppaa, 0, 0, 0, 0, , 0, 0, 0, 0, 0, 
61, 1, 61, 61, 3088, -6.470766054055931, -2.467138787781995, 3.6976378154568206, 1.2429895051922986, ABplaaaap, 0, 0, 0, 0, , 0, 0, 0, 0, 0, 
1048, 1, 1048, 1048, 3089, 4.4443998181439595, -2.882239199778953, 3.5107208474560134, 1.3067325567406214, ABarppapa, 0, 0, 0, 0, , 0, 0, 0, 0, 0, 
66, 1, 66, 66, 3090, 1.5766401132373418, 5.394436964698161, -3.5201487599030568, 1.2429895051922986, ABprpapap, 0, 0, 0, 0, , 0, 0, 0, 0, 0, 
50, 1, 50, 50, -1, 6.6381624346724255, -3.8342002386434513, -1.0380666387617263, 1.5579950503950002, Dap, 0, 0, 0, 0, , 0, 0, 0, 0, 0, 
14, 1, 14, 14, 3091, 2.1769198007329753, 1.1768532240107663, 0.2092816037346409, 1.5579950503950002, Earp, 0, 0, 0, 0, , 0, 0, 0, 0, 0, 
514, 1, 514, 514, 3092, -6.7609910893547625, 5.870485044600163, 0.35335540623246203, 1.2429895051922986, ABpraaaaa, 0, 0, 0, 0, , 0, 0, 0, 0, 0, 
419, 1, 419, 419, 3093, -3.011979614455017, 4.500311400572975, -3.369627645443393, 1.3067325567406214, ABarappaa, 0, 0, 0, 0, , 0, 0, 0, 0, 0, 
1270, 1, 1270, 1270, 3094, 3.055769575322101, -6.727415611822395, -0.43378429643970795, 1.2429895051922986, ABplppapa, 0, 0, 0, 0, , 0, 0, 0, 0, 0, 
74, 1, 74, 74, 3095, -1.7473780424997623, -5.683895791926466, -3.1470574602233277, 1.2429895051922986, ABplpapap, 0, 0, 0, 0, , 0, 0, 0, 0, 0, 
148, 1, 148, 148, 3096, 12.854595145921651, 0.6028278055656967, 0.7024425462191737, 1.3554556938436502, Cpapa, 0, 0, 0, 0, , 0, 0, 0, 0, 0, 
892, 1, 892, 892, 3097, -10.523664137353558, -1.090861830981671, -0.403059808309506, 1.3067325567406214, ABalaaaal, 0, 0, 0, 0, , 0, 0, 0, 0, 0, 
34, 1, 34, 34, 3098, 1.5056075946439538, 7.284714660190738, -0.1341637448863954, 1.2429895051922986, ABprpaapp, 0, 0, 0, 0, , 0, 0, 0, 0, 0, 
176, 1, 176, 176, 3099, 7.352214810274114, -2.014710224939075, 3.7837231262264654, 1.3554556938436502, Caaaa, 0, 0, 0, 0, , 0, 0, 0, 0, 0, 
22, 1, 22, 22, 3100, -3.9261231948427766, -2.0425044195599895, -3.277186893747091, 1.3067325567406214, ABalpappp, 0, 0, 0, 0, , 0, 0, 0, 0, 0, 
2619, 1, 2619, 2619, 3101, -5.888659585040737, -3.0955216153143494, -0.7392587407146705, 1.1792464536439757, MSapaaa, 0, 0, 0, 0, , 0, 0, 0, 0, 0, 
51, 1, 51, 51, 3102, -0.5454032300783639, 4.333266670153133, 0.5173970735462359, 1.1792464536439757, MSppapp, 0, 0, 0, 0, , 0, 0, 0, 0, 0, 
1565, 1, 1565, 1565, 3103, -1.665981754940575, -1.9615424859580477, -2.697662811050648, 1.1792464536439757, MSaapaa, 0, 0, 0, 0, , 0, 0, 0, 0, 0, 
71, 1, 71, 71, 3104, -4.739639335605041, -6.852768297429075, -1.256711428289685, 1.2429895051922986, ABplpaaap, 0, 0, 0, 0, , 0, 0, 0, 0, 0, 
53, 1, 53, 53, 3105, 9.940074069533939, -2.096406521235478, 2.228152755856392, 1.3554556938436502, Caaap, 0, 0, 0, 0, , 0, 0, 0, 0, 0, 
86, 1, 86, 86, 3106, 5.783236376841336, -6.327801572754712, -2.1169125307457013, 1.2429895051922986, ABplpppap, 0, 0, 0, 0, , 0, 0, 0, 0, 0, 
55, 1, 55, 55, 3107, 1.751004987315439, -4.978808046499493, 3.6663839463843795, 1.2429895051922986, ABplapaap, 0, 0, 0, 0, , 0, 0, 0, 0, 0, 
82, 1, 82, 82, 3108, -10.991853026243428, 0.07316594679610082, -0.46911536386505964, 1.3067325567406214, ABalaaaar, 0, 0, 0, 0, , 0, 0, 0, 0, 0, 
11, 1, 11, 11, 3109, 9.25638620120345, -5.606377112615745, -0.38367088642911407, 1.2429895051922986, ABplapppp, 0, 0, 0, 0, , 0, 0, 0, 0, 0, 
577, 1, 577, 577, 3110, 2.404733947067065, 6.40942187104426, -2.3439560578791476, 1.2429895051922986, ABprppaaa, 0, 0, 0, 0, , 0, 0, 0, 0, 0, 
747, 1, 747, 747, 3111, 5.507412957083006, -5.435035433771691, -3.4473763516961022, 1.2429895051922986, ABplppppa, 0, 0, 0, 0, , 0, 0, 0, 0, 0, 
516, 1, 516, 516, 3112, -7.826551100191032, -4.020066233627738, 1.0836190228794207, 1.3067325567406214, ABalpppaa, 0, 0, 0, 0, , 0, 0, 0, 0, 0, 
328, 1, 328, 328, 3113, 8.39773604724956, 4.831760931780252, 3.1970050950834894, 1.2429895051922986, ABprapapa, 0, 0, 0, 0, , 0, 0, 0, 0, 0, 
63, 1, 63, 63, 3114, -7.159641478046378, -2.5684354193487953, -3.377960135903377, 1.3067325567406214, ABalpapap, 0, 0, 0, 0, , 0, 0, 0, 0, 0, 
5, 1, 5, 5, 3115, 6.699315837741328, -4.523947367927646, -3.704698162395792, 1.2429895051922986, ABplppppp, 0, 0, 0, 0, , 0, 0, 0, 0, 0, 
75, 1, 75, 75, 3116, -5.888406920783259, 2.526894375792458, -3.795208961304317, 1.3067325567406214, ABarapaap, 0, 0, 0, 0, , 0, 0, 0, 0, 0, 
902, 1, 902, 902, 3117, -6.430241488684077, 2.162663923117699, -4.221926656777895, 1.3067325567406214, ABarapaaa, 0, 0, 0, 0, , 0, 0, 0, 0, 0, 
392, 1, 392, 392, 3118, -5.8454990361545205, 3.526164001979669, 3.9227704456144834, 1.3067325567406214, ABarpapaa, 0, 0, 0, 0, , 0, 0, 0, 0, 0, 
18, 1, 18, 18, 3119, 3.1112887319972176, 6.628591679714472, 1.79344020117886, 1.2429895051922986, ABpraappp, 0, 0, 0, 0, , 0, 0, 0, 0, 0, 
281, 1, 281, 281, 3120, -3.372308321003779, 0.8035185375747937, 3.963146378235999, 1.3067325567406214, ABarpaapa, 0, 0, 0, 0, , 0, 0, 0, 0, 0, 
17, 1, 17, 17, 3121, 4.917207524189158, 3.3247800077761953, -3.777739706301324, 1.2429895051922986, ABprpappp, 0, 0, 0, 0, , 0, 0, 0, 0, 0, 
1663, 1, 1663, 1663, 3122, -4.091845246265393, -0.39692011730735705, -0.6710238983142552, 1.1792464536439757, MSaaapa, 0, 0, 0, 0, , 0, 0, 0, 0, 0, 
1073, 1, 1073, 1073, 3123, -9.437407336274727, 1.118274661811678, 2.5914939893342983, 1.3067325567406214, ABalappaa, 0, 0, 0, 0, , 0, 0, 0, 0, 0, 
60, 1, 60, 60, 3124, -7.28370050127546, 0.22086809372635796, 3.9075960023833916, 1.3067325567406214, ABarpaaap, 0, 0, 0, 0, , 0, 0, 0, 0, 0, 
24, 1, 24, 24, -1, 7.777287360294062, 1.9416261670449888, -1.6774064850851813, 1.5579950503950002, Dpp, 0, 0, 0, 0, , 0, 0, 0, 0, 0, 
126, 1, 126, 126, 3125, -1.1746933283323553, -1.7450707773074754, 1.5296895148825704, 1.5579950503950002, Eala, 0, 0, 0, 0, , 0, 0, 0, 0, 0, 
139, 1, 139, 139, -1, 4.511435064041196, -4.333011437945211, -1.6626265409951322, 1.5579950503950002, Daa, 0, 0, 0, 0, , 0, 0, 0, 0, 0, 
46, 1, 46, 46, 3126, -3.3335588265123395, -0.2785374012579767, -0.5550831575735471, 1.1792464536439757, MSaaapp, 0, 0, 0, 0, , 0, 0, 0, 0, 0, 
39, 1, 39, 39, 3127, -6.771846266142127, 3.8229112069362214, -2.6649120434185183, 1.3067325567406214, ABaraaapp, 0, 0, 0, 0, , 0, 0, 0, 0, 0, 
102, 1, 102, 102, 3128, 1.0207262596716733, 3.3326894964583307, -1.9739450987364693, 1.3554556938436502, MSpppa, 0, 0, 0, 0, , 0, 0, 0, 0, 0, 
455, 1, 455, 455, 3129, -5.9066125866336865, -6.350874058745874, -1.0641661607999207, 1.2429895051922986, ABplpaaaa, 0, 0, 0, 0, , 0, 0, 0, 0, 0, 
6, 1, 6, 6, 3130, -3.1637195802241838, -4.707588300663792, 1.2177774638196235, 1.3067325567406214, ABalppppp, 0, 0, 0, 0, , 0, 0, 0, 0, 0, 
38, 1, 38, 38, 3131, -8.53455525674412, -3.005328931520256, -1.1220556440429434, 1.3067325567406214, ABalpaapp, 0, 0, 0, 0, , 0, 0, 0, 0, 0, 
15, 1, 15, 15, 3132, 11.101226357689969, -3.5051334322501138, -1.1654999946626736, 1.3554556938436502, Cappp, 0, 0, 0, 0, , 0, 0, 0, 0, 0, 
85, 1, 85, 85, 3133, -8.445250505504347, 4.19251772855606, -0.5741454392572483, 1.3067325567406214, ABalaapap, 0, 0, 0, 0, , 0, 0, 0, 0, 0, 
389, 1, 389, 389, 3134, -2.717652635406573, 2.357261072895132, -3.8615462768477276, 1.3067325567406214, ABarapapa, 0, 0, 0, 0, , 0, 0, 0, 0, 0, 
45, 1, 45, 45, 3135, 1.52732037029775, -2.7353358077484176, 0.2774048877897567, 1.5579950503950002, Ealp, 0, 0, 0, 0, , 0, 0, 0, 0, 0, 
78, 1, 78, 78, 3136, -9.039117624340559, 1.6454670486429988, 2.7850736189638976, 1.3067325567406214, ABalappap, 0, 0, 0, 0, , 0, 0, 0, 0, 0, 
19, 1, 19, 19, 3137, -0.25613940157783543, 4.314483020340639, 3.866002350384238, 1.3067325567406214, ABarpappp, 0, 0, 0, 0, , 0, 0, 0, 0, 0, 
9, 1, 9, 9, 3138, -3.3871466463939406, 2.287897085333051, 2.462953224439236, 1.3067325567406214, ABalapppp, 0, 0, 0, 0, , 0, 0, 0, 0, 0, 
88, 1, 88, 88, 3139, -7.967803199616162, 0.3694439982957295, 0.8349346768642311, 1.1792464536439757, MSaaaap, 0, 0, 0, 0, , 0, 0, 0, 0, 0, 
601, 1, 601, 601, 3140, -6.192998683128193, -4.908469519889959, -2.8584468038409163, 1.3067325567406214, ABalppapa, 0, 0, 0, 0, , 0, 0, 0, 0, 0, 
35, 1, 35, 35, 3141, -1.8067769152416153, 2.8110756819486, -3.308249569028676, 1.3067325567406214, ABarapapp, 0, 0, 0, 0, , 0, 0, 0, 0, 0, 
242, 1, 242, 242, 3142, 3.285201351349239, 3.5069816538668004, -3.7639444388115217, 1.2429895051922986, ABprpappa, 0, 0, 0, 0, , 0, 0, 0, 0, 0, 
41, 1, 41, 41, 3143, -5.471074727451816, -1.5411336277336716, 3.491602031323093, 1.3067325567406214, ABalapapp, 0, 0, 0, 0, , 0, 0, 0, 0, 0, 
1751, 1, 1751, 1751, 3144, -0.6390774122338995, -7.2944904636322425, -1.2569301604645393, 1.2429895051922986, ABplppaaa, 0, 0, 0, 0, , 0, 0, 0, 0, 0, 
400, 1, 400, 400, 3145, -9.663103816413795, -1.9791861331663745, -0.8753087304626955, 1.3067325567406214, ABalpaapa, 0, 0, 0, 0, , 0, 0, 0, 0, 0, 
992, 1, 992, 992, 3146, -6.488671164935565, 2.6178265451153893, -0.1485017728691327, 1.1792464536439757, MSpaaaa, 0, 0, 0, 0, , 0, 0, 0, 0, 0, 
12, 1, 12, 12, 3147, -1.0280852876736992, 5.617440349403619, -1.9410818601777438, 1.3067325567406214, ABarapppp, 0, 0, 0, 0, , 0, 0, 0, 0, 0, 
333, 1, 333, 333, 3148, -3.633219933957058, -7.096416554644936, 0.5980110659554981, 1.2429895051922986, ABplpaapa, 0, 0, 0, 0, , 0, 0, 0, 0, 0, 
233, 1, 233, 233, 3149, 6.844707872014107, 6.671782635657301, 0.278465071984022, 1.2429895051922986, ABprappaa, 0, 0, 0, 0, , 0, 0, 0, 0, 0, 
2451, 1, 2451, 2451, 3150, 4.331612070932825, 1.1010297301927627, -3.725321084757009, 1.1792464536439757, MSpappa, 0, 0, 0, 0, , 0, 0, 0, 0, 0, 
8, 1, 8, 8, 3151, 11.485961425755777, -0.3597192128736809, -1.1567598581610563, 1.3554556938436502, Cpppp, 0, 0, 0, 0, , 0, 0, 0, 0, 0, 
154, 1, 154, 154, 3152, -1.6578421273786308, -6.6537640409189365, 2.685060464529335, 1.2429895051922986, ABplaappa, 0, 0, 0, 0, , 0, 0, 0, 0, 0, 
23, 1, 23, 23, 3153, -3.5354978688267256, 1.1629240740563203, -2.754389069362389, 1.3067325567406214, ABaraappp, 0, 0, 0, 0, , 0, 0, 0, 0, 0, 
1471, 1, 1471, 1471, 3154, -8.925742275051899, 3.7591522964573767, -0.7540376203272036, 1.3067325567406214, ABalaapaa, 0, 0, 0, 0, , 0, 0, 0, 0, 0, 
817, 1, 817, 817, 3155, 0.19348151182699747, -1.465585340252755, 4.062835793463637, 1.3067325567406214, ABarppaaa, 0, 0, 0, 0, , 0, 0, 0, 0, 0, 
32, 1, 32, 32, 3156, 7.1391434486815015, 4.9476664827768415, -1.53156148650704, 1.2429895051922986, ABprppapp, 0, 0, 0, 0, , 0, 0, 0, 0, 0, 
1060, 1, 1060, 1060, 3157, 10.990097228225528, 0.5052087706653923, -0.6376240556919002, 1.3554556938436502, Cpppa, 0, 0, 0, 0, , 0, 0, 0, 0, 0, 
52, 1, 52, 52, 3158, 10.139884868761733, 1.4002702286359552, 3.59096624032301, 1.3554556938436502, Cpaap, 0, 0, 0, 0, , 0, 0, 0, 0, 0, 
294, 1, 294, 294, 3159, -3.1595474632054965, 6.251557830125427, 2.8421602071106413, 1.2429895051922986, ABpraapaa, 0, 0, 0, 0, , 0, 0, 0, 0, 0, 
13, 1, 13, 13, -1, 2.668939340680123, -4.811290554918471, -0.653071853268204, 1.3554556938436502, MSappp, 0, 0, 0, 0, , 0, 0, 0, 0, 0, 
28, 1, 28, 28, 3160, 12.536442882545082, -0.37771231789115833, -0.9163342027520607, 1.3554556938436502, Cpapp, 0, 0, 0, 0, , 0, 0, 0, 0, 0, 
89, 1, 89, 89, 3161, 0.5225031372718422, 1.2758078040579224, -3.217194135706956, 1.1792464536439757, MSpapap, 0, 0, 0, 0, , 0, 0, 0, 0, 0, 
736, 1, 736, 736, 3162, -10.103194040093747, 1.3941966533720236, 1.714221638880408, 1.3067325567406214, ABalaaapa, 0, 0, 0, 0, , 0, 0, 0, 0, 0, 
49, 1, 49, 49, 3163, -1.487350700505628, -4.184011824347038, -0.18950660254998308, 1.1792464536439757, MSapapp, 0, 0, 0, 0, , 0, 0, 0, 0, 0, 
79, 1, 79, 79, 3164, -10.04386326027574, 0.5793582403364002, -2.072514916130975, 1.3067325567406214, ABaraaaap, 0, 0, 0, 0, , 0, 0, 0, 0, 0, 
80, 1, 80, 80, 3165, -6.721460153689178, -4.5729160278665315, 1.0111906278176557, 1.3067325567406214, ABalpppap, 0, 0, 0, 0, , 0, 0, 0, 0, 0, 
688, 1, 688, 688, 3166, -6.804455142381119, 4.214248254217163, 1.0953952638483673, 1.3067325567406214, ABalaappa, 0, 0, 0, 0, , 0, 0, 0, 0, 0, 
132, 1, 132, 132, -1, 5.873250184214753, 2.5901304515643093, -2.4009533375282883, 1.5579950503950002, Dpa, 0, 0, 0, 0, , 0, 0, 0, 0, 0, 
72, 1, 72, 72, 3167, -1.6974670781893086, 7.182810699588719, -1.06036728395063, 1.2429895051922986, ABprpaaap, 0, 0, 0, 0, , 0, 0, 0, 0, 0, 
47, 1, 47, 47, 3168, 8.020437335342356, -2.222254106598185, 0.6105965008763271, 1.5579950503950002, Eplp, 0, 0, 0, 0, , 0, 0, 0, 0, 0, 
67, 1, 67, 67, 3169, 8.83002406556101, -4.137410678999384, -2.89100677793229, 1.3554556938436502, Capap, 0, 0, 0, 0, , 0, 0, 0, 0, 0, 
73, 1, 73, 73, 3170, -1.7555098613684663, 5.228229301808023, -3.391705834743949, 1.3067325567406214, ABarappap, 0, 0, 0, 0, , 0, 0, 0, 0, 0, 
100, 1, 100, 100, 3171, -4.235125476976257, 4.512542334702375, -0.7771238816620402, 1.1792464536439757, MSppaap, 0, 0, 0, 0, , 0, 0, 0, 0, 0, 
656, 1, 656, 656, 3172, -7.228967320043788, -1.0925692244414973, 3.7654643770018765, 1.3067325567406214, ABalapapa, 0, 0, 0, 0, , 0, 0, 0, 0, 0, 
101, 1, 101, 101, 3173, -5.593886745534568, -3.132351244943986, -0.7898315802208522, 1.1792464536439757, MSapaap, 0, 0, 0, 0, , 0, 0, 0, 0, 0, 
1, 1, 1, 1, 3174, 8.672406674695878, 2.046997499168314, -3.9883751638112948, 1.2429895051922986, ABprppppp, 0, 0, 0, 0, , 0, 0, 0, 0, 0, 
1156, 1, 1156, 1156, 3175, -10.498915112127888, 0.9803458946573289, -2.4672803482299392, 1.3067325567406214, ABaraaaaa, 0, 0, 0, 0, , 0, 0, 0, 0, 0, 
856, 1, 856, 856, 3176, -9.128935421658655, -4.651080965883556, -0.5882684289457425, 1.3067325567406214, ABalppaaa, 0, 0, 0, 0, , 0, 0, 0, 0, 0, 
25, 1, 25, 25, 3177, 3.296338699124879, -2.035386838888537, -3.7659201222135437, 1.1792464536439757, MSaappp, 0, 0, 0, 0, , 0, 0, 0, 0, 0, 
26, 1, 26, 26, 3178, 4.482992317846411, 1.1386235573532564, -3.5751741711767644, 1.1792464536439757, MSpappp, 0, 0, 0, 0, , 0, 0, 0, 0, 0, 
56, 1, 56, 56, 3179, 8.360196760901895, 6.117443746767599, 0.7017261830951047, 1.2429895051922986, ABprappap, 0, 0, 0, 0, , 0, 0, 0, 0, 0, 
2333, 1, 2333, 2333, 3180, 3.0224907567379673, -1.8841469211930693, -3.914777941143552, 1.1792464536439757, MSaappa, 0, 0, 0, 0, , 0, 0, 0, 0, 0, 
710, 1, 710, 710, 3181, -9.866892265465596, -1.0941857624990508, 2.600764590873629, 1.3067325567406214, ABalapaaa, 0, 0, 0, 0, , 0, 0, 0, 0, 0, 
247, 1, 247, 247, 3182, -5.407002824473398, -2.2038840491895173, -3.953853560414134, 1.3067325567406214, ABalpappa, 0, 0, 0, 0, , 0, 0, 0, 0, 0, 
2934, 1, 2934, 2934, 3183, -1.5286560502998716, -4.200821700890235, -0.2331782074882548, 1.1792464536439757, MSapapa, 0, 0, 0, 0, , 0, 0, 0, 0, 0, 
4, 1, 4, 4, 3184, 2.9461854529439946, -3.5856700578191965, -2.9448783173224315, 1.7907989085000002, Z3, 0, 0, 0, 0, , 0, 0, 0, 0, 0, 
200, 1, 200, 200, 3185, 1.0589599254130357, 6.7339941488497805, 2.0520056332776337, 1.2429895051922986, ABpraappa, 0, 0, 0, 0, , 0, 0, 0, 0, 0, 
427, 1, 427, 427, 3186, 2.254452424313679, 5.573018358110131, 3.6609667983980607, 1.2429895051922986, ABprapaaa, 0, 0, 0, 0, , 0, 0, 0, 0, 0, 
147, 1, 147, 147, 3187, 6.7560813708203185, 1.457777018759438, 4.153038256784177, 1.3554556938436502, Cpaaa, 0, 0, 0, 0, , 0, 0, 0, 0, 0, 
343, 1, 343, 343, 3188, 0.629068508298929, 5.892841285685434, -3.1547327105200305, 1.2429895051922986, ABprpapaa, 0, 0, 0, 0, , 0, 0, 0, 0, 0, 
264, 1, 264, 264, 3189, -0.13496044478337904, -4.928894466252805, 4.021922217988885, 1.2429895051922986, ABplapaaa, 0, 0, 0, 0, , 0, 0, 0, 0, 0, 
1575, 1, 1575, 1575, 3190, -7.88336017205722, 0.17824875216257052, 3.8847918871571436, 1.3067325567406214, ABarpaaaa, 0, 0, 0, 0, , 0, 0, 0, 0, 0, 
228, 1, 228, 228, 3191, 7.16818445247354, 3.637553054723658, -3.568375163811341, 1.2429895051922986, ABprppppa, 0, 0, 0, 0, , 0, 0, 0, 0, 0, 
92, 1, 92, 92, 3192, 7.364581603536739, -2.6054420544351515, -3.2765344086927075, 1.7907989085000002, Z2, 0, 0, 0, 0, , 0, 0, 0, 0, 0, 
266, 1, 266, 266, 3193, 4.038525633715799, -7.0240944891080055, 1.2581623686056185, 1.2429895051922986, ABplappaa, 0, 0, 0, 0, , 0, 0, 0, 0, 0, 
77, 1, 77, 77, 3194, 1.3623224583290412, -1.447733694162134, 3.978703283175544, 1.3067325567406214, ABarppaap, 0, 0, 0, 0, , 0, 0, 0, 0, 0, 
59, 1, 59, 59, 3195, 11.028016991522062, 1.751113869050035, -3.3058014998124827, 1.3554556938436502, Cppap, 0, 0, 0, 0, , 0, 0, 0, 0, 0, 
