12, 1, 12, 12, 5029, -1.6764396540732653, 5.623513147494307, -2.4709763453666236, 1.3067325567406214, ABarapppp, 0, 0, 0, 0, , 0, 0, 0, 0, 0, 
89, 1, 89, 89, 5030, 0.7533092601611443, 1.0075639640801426, -2.799675214004214, 1.1792464536439757, MSpapap, 0, 0, 0, 0, , 0, 0, 0, 0, 0, 
45, 1, 45, 45, 5031, 1.9955090372817874, -2.7629954633133265, 0.2949287115955662, 1.5579950503950002, Ealp, 0, 0, 0, 0, , 0, 0, 0, 0, 0, 
710, 1, 710, 710, 5032, -10.277664139543605, -1.7286594646170854, 2.369529047272584, 1.3067325567406214, ABalapaaa, 0, 0, 0, 0, , 0, 0, 0, 0, 0, 
1751, 1, 1751, 1751, 5033, -0.5719583901081849, -7.033574948573121, -1.4603870350094932, 1.2429895051922986, ABplppaaa, 0, 0, 0, 0, , 0, 0, 0, 0, 0, 
343, 1, 343, 343, 5034, 0.2714669048961539, 5.599678796781261, -3.068500738409173, 1.2429895051922986, ABprpapaa, 0, 0, 0, 0, , 0, 0, 0, 0, 0, 
1575, 1, 1575, 1575, 5035, -7.94602522831649, 0.06653407117563204, 4.026666810241889, 1.3067325567406214, ABarpaaaa, 0, 0, 0, 0, , 0, 0, 0, 0, 0, 
514, 1, 514, 514, 5036, -7.037247736025661, 5.813328295506591, 0.3944150555675588, 1.2429895051922986, ABpraaaaa, 0, 0, 0, 0, , 0, 0, 0, 0, 0, 
173, 1, 173, 173, 5037, 4.457081880141855, 2.6832767176098, 1.6327562138578278, 1.5579950503950002, Epra, 0, 0, 0, 0, , 0, 0, 0, 0, 0, 
15, 1, 15, 15, 5038, 10.717608178203031, -2.823512478426329, -1.6376568595008205, 1.3554556938436502, Cappp, 0, 0, 0, 0, , 0, 0, 0, 0, 0, 
11, 1, 11, 11, 5039, 9.867458856553379, -5.1752695984704, -1.2617442596998831, 1.2429895051922986, ABplapppp, 0, 0, 0, 0, , 0, 0, 0, 0, 0, 
315, 1, 315, 315, 5040, 9.72972667772316, 4.705354155287877, -1.5862302559676267, 1.2429895051922986, ABprapppa, 0, 0, 0, 0, , 0, 0, 0, 0, 0, 
3128, 1, 3128, 3128, 5041, 0.47309162853516584, 3.3031398109180152, -1.7736892628974843, 1.1792464536439757, MSpppaa, 0, 0, 0, 0, , 0, 0, 0, 0, 0, 
104, 1, 104, 104, 5042, 0.19370406734344403, -3.540639609526024, -2.2213085752221957, 1.1792464536439757, MSappap, 0, 0, 0, 0, , 0, 0, 0, 0, 0, 
9, 1, 9, 9, 5043, -3.688998413890369, 2.742333037288083, 2.708502360775352, 1.3067325567406214, ABalapppp, 0, 0, 0, 0, , 0, 0, 0, 0, 0, 
74, 1, 74, 74, 5044, -0.04290098879230625, -5.296846905859428, -3.5143188135092536, 1.2429895051922986, ABplpapap, 0, 0, 0, 0, , 0, 0, 0, 0, 0, 
2623, 1, 2623, 2623, 5045, -5.2952233064267284, 4.1260392441880125, -0.7964855968387344, 1.1792464536439757, MSppaaa, 0, 0, 0, 0, , 0, 0, 0, 0, 0, 
753, 1, 753, 753, 5046, 4.993253012762251, -6.6618314247173815, -2.428281649528823, 1.2429895051922986, ABplpppaa, 0, 0, 0, 0, , 0, 0, 0, 0, 0, 
62, 1, 62, 62, 5047, 9.34330477623476, 3.8607050836570895, -3.4528047169698906, 1.2429895051922986, ABprpppap, 0, 0, 0, 0, , 0, 0, 0, 0, 0, 
13, 1, 13, 13, 5048, 2.337670620959851, -4.568344377018548, 0.059677818527069874, 1.1792464536439757, MSapppp, 0, 0, 0, 0, , 0, 0, 0, 0, 0, 
154, 1, 154, 154, 5049, -1.3504548935366394, -7.446789725976217, 2.743945847008594, 1.2429895051922986, ABplaappa, 0, 0, 0, 0, , 0, 0, 0, 0, 0, 
25, 1, 25, 25, 5050, 3.4499276499092235, -2.460241440038737, -3.3944506348504717, 1.1792464536439757, MSaappp, 0, 0, 0, 0, , 0, 0, 0, 0, 0, 
50, 1, 50, 50, 5051, 6.466973389640057, -3.036656251898854, -0.9153472429661645, 1.3554556938436502, Dapp, 0, 0, 0, 0, , 0, 0, 0, 0, 0, 
499, 1, 499, 499, 5052, -1.6936636316357832, 7.073423978321281, -0.047905394239733355, 1.2429895051922986, ABprpaapa, 0, 0, 0, 0, , 0, 0, 0, 0, 0, 
4821, 1, 4821, 4821, 5053, 6.728492257186187, 2.9240837983331316, -1.0089526368283708, 1.3554556938436502, Dppa, 0, 0, 0, 0, , 0, 0, 0, 0, 0, 
91, 1, 91, 91, 5054, -0.5891277085755351, -1.8142451027546498, -2.5365312679034715, 1.1792464536439757, MSaapap, 0, 0, 0, 0, , 0, 0, 0, 0, 0, 
49, 1, 49, 49, 5055, -1.7757267649629442, -4.079084054183794, 0.5858014333908692, 1.1792464536439757, MSapapp, 0, 0, 0, 0, , 0, 0, 0, 0, 0, 
81, 1, 81, 81, 5056, 3.812552819872739, 3.251948229295667, 4.029332816788455, 1.3067325567406214, ABarpppap, 0, 0, 0, 0, , 0, 0, 0, 0, 0, 
29, 1, 29, 29, 5057, 10.560582856621894, 4.0782064819438055, 1.0861442094011862, 1.2429895051922986, ABprapapp, 0, 0, 0, 0, , 0, 0, 0, 0, 0, 
728, 1, 728, 728, 5058, 8.528317087006211, -6.067500256906276, -0.6028368522924574, 1.2429895051922986, ABplapppa, 0, 0, 0, 0, , 0, 0, 0, 0, 0, 
244, 1, 244, 244, 5059, -6.14720447151551, -5.405651453458381, 3.2970073559998285, 1.2429895051922986, ABplaapaa, 0, 0, 0, 0, , 0, 0, 0, 0, 0, 
19, 1, 19, 19, 5060, -0.09312403578311193, 4.453540230710605, 3.7694394014056156, 1.3067325567406214, ABarpappp, 0, 0, 0, 0, , 0, 0, 0, 0, 0, 
23, 1, 23, 23, 5061, -3.2765838802842904, 1.3129162997817996, -2.097040967334878, 1.3067325567406214, ABaraappp, 0, 0, 0, 0, , 0, 0, 0, 0, 0, 
57, 1, 57, 57, 5062, -3.4479699036148705, -5.383470383498517, 3.823303652296091, 1.2429895051922986, ABplaapap, 0, 0, 0, 0, , 0, 0, 0, 0, 0, 
338, 1, 338, 338, 5063, -7.979521452559586, -3.5109322119542523, -3.761262641372775, 1.3067325567406214, ABalpapaa, 0, 0, 0, 0, , 0, 0, 0, 0, 0, 
80, 1, 80, 80, 5064, -6.097586399233079, -5.6100319708084445, 1.0661796760450608, 1.3067325567406214, ABalpppap, 0, 0, 0, 0, , 0, 0, 0, 0, 0, 
3810, 1, 3810, 3810, 5065, -0.1973946980886524, -3.642292284423097, -1.971302402382824, 1.1792464536439757, MSappaa, 0, 0, 0, 0, , 0, 0, 0, 0, 0, 
1048, 1, 1048, 1048, 5066, 4.918205083801882, -3.567081069995004, 3.5517386990965014, 1.3067325567406214, ABarppapa, 0, 0, 0, 0, , 0, 0, 0, 0, 0, 
2333, 1, 2333, 2333, 5067, 2.3798698309788686, -1.8692731272814442, -3.976110922916187, 1.1792464536439757, MSaappa, 0, 0, 0, 0, , 0, 0, 0, 0, 0, 
989, 1, 989, 989, 5068, 9.503419289314936, -4.192008157439517, -0.2315253780193453, 1.3554556938436502, Cappa, 0, 0, 0, 0, , 0, 0, 0, 0, 0, 
856, 1, 856, 856, 5069, -9.15728773417027, -4.585493327941543, -0.24743632403818241, 1.3067325567406214, ABalppaaa, 0, 0, 0, 0, , 0, 0, 0, 0, 0, 
200, 1, 200, 200, 5070, -0.3140086428100756, 7.129034168702655, 1.8496664745521652, 1.2429895051922986, ABpraappa, 0, 0, 0, 0, , 0, 0, 0, 0, 0, 
2800, 1, 2800, 2800, 5071, 7.575619567841193, -3.776563466181914, -2.636047616152899, 1.3554556938436502, Capaa, 0, 0, 0, 0, , 0, 0, 0, 0, 0, 
178, 1, 178, 178, 5072, 7.836670410898272, -5.76163049961142, 3.0526827540609456, 1.2429895051922986, ABplapapa, 0, 0, 0, 0, , 0, 0, 0, 0, 0, 
7, 1, 7, 7, 5073, 8.972296694957983, 1.4549540838645423, 0.9481899587137251, 1.5579950503950002, Eprp, 0, 0, 0, 0, , 0, 0, 0, 0, 0, 
247, 1, 247, 247, 5074, -4.824441167449493, -1.8736587403315963, -4.084766138304774, 1.3067325567406214, ABalpappa, 0, 0, 0, 0, , 0, 0, 0, 0, 0, 
14, 1, 14, 14, 5075, 2.4746152286064764, 0.6784215820956045, -0.02384373315551375, 1.5579950503950002, Earp, 0, 0, 0, 0, , 0, 0, 0, 0, 0, 
6, 1, 6, 6, 5076, -2.8638980777131664, -5.668944252274946, 1.6053279910439286, 1.3067325567406214, ABalppppp, 0, 0, 0, 0, , 0, 0, 0, 0, 0, 
72, 1, 72, 72, 5077, -1.649664609053486, 7.105946502057938, -1.2636635802469391, 1.2429895051922986, ABprpaaap, 0, 0, 0, 0, , 0, 0, 0, 0, 0, 
48, 1, 48, 48, 5078, -1.652657841666201, 1.2951030266066847, -1.2449960240806226, 1.1792464536439757, MSpaapp, 0, 0, 0, 0, , 0, 0, 0, 0, 0, 
34, 1, 34, 34, 5079, 0.9059092078702944, 7.328172126469558, -0.2623362584372725, 1.2429895051922986, ABprpaapp, 0, 0, 0, 0, , 0, 0, 0, 0, 0, 
266, 1, 266, 266, 5080, 4.7497607049958885, -7.172366992960779, 0.8906544283593751, 1.2429895051922986, ABplappaa, 0, 0, 0, 0, , 0, 0, 0, 0, 0, 
1156, 1, 1156, 1156, 5081, -10.515653465936273, 1.0710692789156775, -2.4927041082802996, 1.3067325567406214, ABaraaaaa, 0, 0, 0, 0, , 0, 0, 0, 0, 0, 
419, 1, 419, 419, 5082, -3.3203461984342084, 3.5943014341924053, -3.663331222457004, 1.3067325567406214, ABarappaa, 0, 0, 0, 0, , 0, 0, 0, 0, 0, 
85, 1, 85, 85, 5083, -8.09426506138103, 4.550972040320749, -0.8351028683457702, 1.3067325567406214, ABalaapap, 0, 0, 0, 0, , 0, 0, 0, 0, 0, 
992, 1, 992, 992, 5084, -7.320483866722108, 2.3948579486523913, 0.18711840921755282, 1.1792464536439757, MSpaaaa, 0, 0, 0, 0, , 0, 0, 0, 0, 0, 
530, 1, 530, 530, 5085, 4.6274911473721, 5.98507073181797, -1.8159796291663304, 1.2429895051922986, ABprppapa, 0, 0, 0, 0, , 0, 0, 0, 0, 0, 
16, 1, 16, 16, 5086, 1.7198278225126502, -7.292139108692215, 1.8075742420699594, 1.2429895051922986, ABplaappp, 0, 0, 0, 0, , 0, 0, 0, 0, 0, 
747, 1, 747, 747, 5087, 4.771279958594705, -5.122185377667232, -3.5165191396549713, 1.2429895051922986, ABplppppa, 0, 0, 0, 0, , 0, 0, 0, 0, 0, 
101, 1, 101, 101, 5088, -4.864989769010232, -3.3887255610176146, -0.8733133718023467, 1.1792464536439757, MSapaap, 0, 0, 0, 0, , 0, 0, 0, 0, 0, 
30, 1, 30, 30, 5089, -1.0358615195739063, -3.426871598444972, 3.9483164427915733, 1.2429895051922986, ABplaaapp, 0, 0, 0, 0, , 0, 0, 0, 0, 0, 
84, 1, 84, 84, 5090, -7.901226828820022, -5.525437566624997, -0.9472159536678582, 1.3067325567406214, ABalppaap, 0, 0, 0, 0, , 0, 0, 0, 0, 0, 
31, 1, 31, 31, 5091, -3.454487985483489, 6.103086207786344, 1.8490437253838237, 1.2429895051922986, ABpraaapp, 0, 0, 0, 0, , 0, 0, 0, 0, 0, 
82, 1, 82, 82, 5092, -11.256192432849526, 0.09854571310731457, -0.6538050176896547, 1.3067325567406214, ABalaaaar, 0, 0, 0, 0, , 0, 0, 0, 0, 0, 
4400, 1, 4400, 4400, 5093, 2.0240601271327407, -4.703863512820957, -0.1661061320902128, 1.1792464536439757, MSapppa, 0, 0, 0, 0, , 0, 0, 0, 0, 0, 
68, 1, 68, 68, 5094, -4.167927016672728, 2.5819578043756377, 4.00820770692158, 1.3067325567406214, ABarpapap, 0, 0, 0, 0, , 0, 0, 0, 0, 0, 
176, 1, 176, 176, 5095, 8.109613369203919, -2.118338371207497, 3.898757441415403, 1.3554556938436502, Caaaa, 0, 0, 0, 0, , 0, 0, 0, 0, 0, 
8, 1, 8, 8, 5096, 11.009266680301943, 0.20107532114194016, -1.5710463646793473, 1.3554556938436502, Cpppp, 0, 0, 0, 0, , 0, 0, 0, 0, 0, 
139, 1, 139, 139, -1, 3.4985242160461874, -3.7151847941064005, -1.7959127091750235, 1.5579950503950002, Daa, 0, 0, 0, 0, , 0, 0, 0, 0, 0, 
1060, 1, 1060, 1060, 5097, 10.061995075364846, 1.8533860207303625, -0.5793179696175801, 1.3554556938436502, Cpppa, 0, 0, 0, 0, , 0, 0, 0, 0, 0, 
1, 1, 1, 1, 5098, 7.998074704355494, 1.9011783970735392, -4.258650712430386, 1.2429895051922986, ABprppppp, 0, 0, 0, 0, , 0, 0, 0, 0, 0, 
902, 1, 902, 902, 5099, -6.45992048588324, 1.4587466244417993, -4.371863867239656, 1.3067325567406214, ABarapaaa, 0, 0, 0, 0, , 0, 0, 0, 0, 0, 
1073, 1, 1073, 1073, 5100, -10.152605192695223, 0.778456370584032, 2.4755398792927577, 1.3067325567406214, ABalappaa, 0, 0, 0, 0, , 0, 0, 0, 0, 0, 
2006, 1, 2006, 2006, 5101, -3.197608047427617, 1.5792863599400981, -0.6223517853974766, 1.1792464536439757, MSpaapa, 0, 0, 0, 0, , 0, 0, 0, 0, 0, 
83, 1, 83, 83, 5102, -9.413511876170825, -2.8919294234647035, 2.330743039042547, 1.3067325567406214, ABalapaap, 0, 0, 0, 0, , 0, 0, 0, 0, 0, 
1270, 1, 1270, 1270, 5103, 2.956966028906532, -6.975409829665694, -0.7821975199805679, 1.2429895051922986, ABplppapa, 0, 0, 0, 0, , 0, 0, 0, 0, 0, 
892, 1, 892, 892, 5104, -10.393361568650187, -2.0466549041765623, -0.532070449788384, 1.3067325567406214, ABalaaaal, 0, 0, 0, 0, , 0, 0, 0, 0, 0, 
477, 1, 477, 477, 5105, 11.40565142599998, -2.925067728037671, 3.471995600288943, 1.3554556938436502, Caapa, 0, 0, 0, 0, , 0, 0, 0, 0, 0, 
61, 1, 61, 61, 5106, -5.309485990139327, -2.4316644635113716, 3.873988357516261, 1.2429895051922986, ABplaaaap, 0, 0, 0, 0, , 0, 0, 0, 0, 0, 
473, 1, 473, 473, 5107, -3.864634098517561, 4.734747715395848, -2.718723258946747, 1.3067325567406214, ABarapppa, 0, 0, 0, 0, , 0, 0, 0, 0, 0, 
2289, 1, 2289, 2289, 5108, 8.962480529444978, 2.1178037179350064, -3.011372538028616, 1.3554556938436502, Cppaa, 0, 0, 0, 0, , 0, 0, 0, 0, 0, 
333, 1, 333, 333, 5109, -3.505489624580372, -7.282201241542381, 0.3739539774601591, 1.2429895051922986, ABplpaapa, 0, 0, 0, 0, , 0, 0, 0, 0, 0, 
954, 1, 954, 954, 5110, 6.225716675891995, 3.6064517883103426, 3.234029989568936, 1.3067325567406214, ABarppppa, 0, 0, 0, 0, , 0, 0, 0, 0, 0, 
1459, 1, 1459, 1459, 5111, -0.4164376534190778, 0.9134378323928192, -2.5222638971315767, 1.1792464536439757, MSpapaa, 0, 0, 0, 0, , 0, 0, 0, 0, 0, 
132, 1, 132, 132, -1, 4.092804170605677, 3.8558157240768316, -2.003859947980337, 1.5579950503950002, Dpa, 0, 0, 0, 0, , 0, 0, 0, 0, 0, 
66, 1, 66, 66, 5112, 1.752199003661776, 4.820842377028771, -3.639521726063979, 1.2429895051922986, ABprpapap, 0, 0, 0, 0, , 0, 0, 0, 0, 0, 
271, 1, 271, 271, 5113, 7.077621237140099, 5.584646235921531, -2.966342165529783, 1.2429895051922986, ABprpppaa, 0, 0, 0, 0, , 0, 0, 0, 0, 0, 
54, 1, 54, 54, 5114, -1.8589024686782598, 6.170479420738139, 3.124361989209122, 1.2429895051922986, ABpraapap, 0, 0, 0, 0, , 0, 0, 0, 0, 0, 
10, 1, 10, 10, 5115, 11.150980381428969, 3.206193044176818, -2.2951876633751063, 1.2429895051922986, ABprapppp, 0, 0, 0, 0, , 0, 0, 0, 0, 0, 
17, 1, 17, 17, 5116, 4.5103260083397805, 2.799737256589389, -3.946427941358197, 1.2429895051922986, ABprpappp, 0, 0, 0, 0, , 0, 0, 0, 0, 0, 
28, 1, 28, 28, 5117, 12.665052937480702, 0.1836404333321252, -2.5336514584556276, 1.3554556938436502, Cpapp, 0, 0, 0, 0, , 0, 0, 0, 0, 0, 
56, 1, 56, 56, 5118, 8.598560359354694, 6.062049368759787, 0.4284451487774974, 1.2429895051922986, ABprappap, 0, 0, 0, 0, , 0, 0, 0, 0, 0, 
258, 1, 258, 258, 5119, -8.39626619564508, 2.235660057489374, -3.107978340820594, 1.3067325567406214, ABaraaapa, 0, 0, 0, 0, , 0, 0, 0, 0, 0, 
242, 1, 242, 242, 5120, 2.0268383540183703, 3.0770006310750926, -3.92543514300415, 1.2429895051922986, ABprpappa, 0, 0, 0, 0, , 0, 0, 0, 0, 0, 
228, 1, 228, 228, 5121, 5.705926556206759, 4.324882100776882, -3.618650712430737, 1.2429895051922986, ABprppppa, 0, 0, 0, 0, , 0, 0, 0, 0, 0, 
86, 1, 86, 86, 5122, 6.948640872844414, -5.585120519366669, -2.658531649528769, 1.2429895051922986, ABplpppap, 0, 0, 0, 0, , 0, 0, 0, 0, 0, 
281, 1, 281, 281, 5123, -3.4473779265864217, 0.2241058690868829, 3.9402372325178394, 1.3067325567406214, ABarpaapa, 0, 0, 0, 0, , 0, 0, 0, 0, 0, 
37, 1, 37, 37, 5124, -0.6731527933042536, -7.571609471993682, 0.2512206441268527, 1.2429895051922986, ABplpaapp, 0, 0, 0, 0, , 0, 0, 0, 0, 0, 
53, 1, 53, 53, 5125, 11.854645467970254, -2.236565531701377, 1.647606824131882, 1.3554556938436502, Caaap, 0, 0, 0, 0, , 0, 0, 0, 0, 0, 
100, 1, 100, 100, 5126, -4.055389355809381, 4.291956528138315, -0.9560713993078646, 1.1792464536439757, MSppaap, 0, 0, 0, 0, , 0, 0, 0, 0, 0, 
63, 1, 63, 63, 5127, -5.310764250912502, -3.372761430061319, -3.683398443841401, 1.3067325567406214, ABalpapap, 0, 0, 0, 0, , 0, 0, 0, 0, 0, 
42, 1, 42, 42, 5128, -9.990875194062388, 2.4413777352849255, 1.5019678371805076, 1.3067325567406214, ABalaaapp, 0, 0, 0, 0, , 0, 0, 0, 0, 0, 
601, 1, 601, 601, 5129, -5.87314632292499, -5.124438849350067, -3.0395732139111544, 1.3067325567406214, ABalppapa, 0, 0, 0, 0, , 0, 0, 0, 0, 0, 
1043, 1, 1043, 1043, 5130, -9.353205208697991, 0.1452430165596497, 0.5440062305434021, 1.1792464536439757, MSaaaaa, 0, 0, 0, 0, , 0, 0, 0, 0, 0, 
115, 1, 115, 115, 5131, -1.8785268946813831, 1.6856133629175694, 2.0093012440135314, 1.5579950503950002, Eara, 0, 0, 0, 0, , 0, 0, 0, 0, 0, 
496, 1, 496, 496, 5132, -2.268145640721395, 4.356399901491861, 4.3139924878258755, 1.3067325567406214, ABarpappa, 0, 0, 0, 0, , 0, 0, 0, 0, 0, 
4154, 1, 4154, 4154, 5133, 2.4107107488661232, 4.839733776046294, -0.41803409455818674, 1.1792464536439757, MSppppa, 0, 0, 0, 0, , 0, 0, 0, 0, 0, 
309, 1, 309, 309, 5134, -8.636776846255689, -0.7194554670231041, -2.4303448294730914, 1.3067325567406214, ABaraapaa, 0, 0, 0, 0, , 0, 0, 0, 0, 0, 
5, 1, 5, 5, 5135, 6.845084073820844, -3.536973855032751, -3.964236012083131, 1.2429895051922986, ABplppppp, 0, 0, 0, 0, , 0, 0, 0, 0, 0, 
64, 1, 64, 64, 5136, -5.521179834791363, 6.3194721226682145, 0.3339749321108282, 1.2429895051922986, ABpraaaap, 0, 0, 0, 0, , 0, 0, 0, 0, 0, 
18, 1, 18, 18, 5137, 2.753715225502476, 6.9714835514194435, 1.46317511652736, 1.2429895051922986, ABpraappp, 0, 0, 0, 0, , 0, 0, 0, 0, 0, 
60, 1, 60, 60, 5138, -6.610723582226251, 0.1614373633566979, 4.077446234110137, 1.3067325567406214, ABarpaaap, 0, 0, 0, 0, , 0, 0, 0, 0, 0, 
400, 1, 400, 400, 5139, -9.75111875595848, -2.0324891639257903, -1.5354055386640786, 1.3067325567406214, ABalpaapa, 0, 0, 0, 0, , 0, 0, 0, 0, 0, 
51, 1, 51, 51, 5140, -1.2262185704756867, 4.343872093468679, 0.9997233777717691, 1.1792464536439757, MSppapp, 0, 0, 0, 0, , 0, 0, 0, 0, 0, 
1471, 1, 1471, 1471, 5141, -9.10506547290414, 3.63931031192586, -1.2135382592922845, 1.3067325567406214, ABalaapaa, 0, 0, 0, 0, , 0, 0, 0, 0, 0, 
430, 1, 430, 430, 5142, -5.37827853038776, -4.204548161739927, 1.7484113243774366, 1.3067325567406214, ABalppppa, 0, 0, 0, 0, , 0, 0, 0, 0, 0, 
328, 1, 328, 328, 5143, 8.760977918352127, 5.192122531325719, 2.716860258784055, 1.2429895051922986, ABprapapa, 0, 0, 0, 0, , 0, 0, 0, 0, 0, 
2619, 1, 2619, 2619, 5144, -6.633626806047249, -3.167747783239796, -0.5698763347652562, 1.1792464536439757, MSapaaa, 0, 0, 0, 0, , 0, 0, 0, 0, 0, 
389, 1, 389, 389, 5145, -3.0012284302123966, 1.468180253163223, -4.078568116664013, 1.3067325567406214, ABarapapa, 0, 0, 0, 0, , 0, 0, 0, 0, 0, 
148, 1, 148, 148, 5146, 13.117378040364324, 1.5776990753075293, -0.23219569713875463, 1.3554556938436502, Cpapa, 0, 0, 0, 0, , 0, 0, 0, 0, 0, 
2639, 1, 2639, 2639, 5147, -1.7982827680065496, 4.370672093468141, 0.2650394271544544, 1.1792464536439757, MSppapa, 0, 0, 0, 0, , 0, 0, 0, 0, 0, 
663, 1, 663, 663, 5148, -9.602030657675556, -1.1526317319789656, -3.63454441273743, 1.3067325567406214, ABalpaaaa, 0, 0, 0, 0, , 0, 0, 0, 0, 0, 
817, 1, 817, 817, 5149, 0.6509940530072492, -1.993633510484034, 4.191879954070667, 1.3067325567406214, ABarppaaa, 0, 0, 0, 0, , 0, 0, 0, 0, 0, 
577, 1, 577, 577, 5150, 1.1430243929488029, 6.1172319589028925, -2.4496505816148386, 1.2429895051922986, ABprppaaa, 0, 0, 0, 0, , 0, 0, 0, 0, 0, 
736, 1, 736, 736, 5151, -10.830265934803819, 0.31664008096398755, 1.4335305943820011, 1.3067325567406214, ABalaaapa, 0, 0, 0, 0, , 0, 0, 0, 0, 0, 
2, 1, 2, 2, 5152, 8.53895371292903, 3.0145369734954044, 3.000833693272375, 1.3067325567406214, ABarppppp, 0, 0, 0, 0, , 0, 0, 0, 0, 0, 
264, 1, 264, 264, 5153, 0.6171170371365413, -5.421727225336175, 3.805211708821192, 1.2429895051922986, ABplapaaa, 0, 0, 0, 0, , 0, 0, 0, 0, 0, 
286, 1, 286, 286, 5154, -7.598254714419227, -3.3807426528120756, 3.5755385632773153, 1.2429895051922986, ABplaaaaa, 0, 0, 0, 0, , 0, 0, 0, 0, 0, 
1565, 1, 1565, 1565, 5155, -1.9951155686577324, -1.892944896993316, -2.0004351773681748, 1.1792464536439757, MSaapaa, 0, 0, 0, 0, , 0, 0, 0, 0, 0, 
233, 1, 233, 233, 5156, 6.2948739396034075, 6.904696899625222, -0.21495176480273412, 1.2429895051922986, ABprappaa, 0, 0, 0, 0, , 0, 0, 0, 0, 0, 
126, 1, 126, 126, 5157, -1.71006630518388, -1.4049336292195864, 2.012327493939474, 1.5579950503950002, Eala, 0, 0, 0, 0, , 0, 0, 0, 0, 0, 
41, 1, 41, 41, 5158, -5.0408908432400725, -2.4107200699296936, 3.142222610208438, 1.3067325567406214, ABalapapp, 0, 0, 0, 0, , 0, 0, 0, 0, 0, 
43, 1, 43, 43, 5159, 7.549636359522495, -3.162068724315818, 3.0617024851046213, 1.3067325567406214, ABarppapp, 0, 0, 0, 0, , 0, 0, 0, 0, 0, 
38, 1, 38, 38, 5160, -7.961076369128921, -3.660101098082035, -1.9267820818740105, 1.3067325567406214, ABalpaapp, 0, 0, 0, 0, , 0, 0, 0, 0, 0, 
310, 1, 310, 310, 5161, -6.442273170668573, 4.971936413548448, 2.0815029846429662, 1.2429895051922986, ABpraaapa, 0, 0, 0, 0, , 0, 0, 0, 0, 0, 
88, 1, 88, 88, 5162, -7.193784221042561, -0.10271500813167038, 1.8862012922717668, 1.1792464536439757, MSaaaap, 0, 0, 0, 0, , 0, 0, 0, 0, 0, 
73, 1, 73, 73, 5163, -1.2910245934957256, 4.769960076168358, -3.698989658671229, 1.3067325567406214, ABarappap, 0, 0, 0, 0, , 0, 0, 0, 0, 0, 
227, 1, 227, 227, 5164, -3.3746392973517927, -3.7529991704618464, 4.470839076537268, 1.2429895051922986, ABplaaapa, 0, 0, 0, 0, , 0, 0, 0, 0, 0, 
22, 1, 22, 22, 5165, -2.5946109205347034, -1.6306618267515027, -3.065877249415319, 1.3067325567406214, ABalpappp, 0, 0, 0, 0, , 0, 0, 0, 0, 0, 
427, 1, 427, 427, 5166, 2.1302256627144613, 5.807650303766403, 3.2849468076915453, 1.2429895051922986, ABprapaaa, 0, 0, 0, 0, , 0, 0, 0, 0, 0, 
147, 1, 147, 147, 5167, 6.057628133755969, 1.2966338549742757, 4.193337611100015, 1.3554556938436502, Cpaaa, 0, 0, 0, 0, , 0, 0, 0, 0, 0, 
24, 1, 24, 24, 5168, 6.797563244840501, 2.8867016995676997, -0.9950674516431866, 1.3554556938436502, Dppp, 0, 0, 0, 0, , 0, 0, 0, 0, 0, 
294, 1, 294, 294, 5169, -4.393144443987002, 6.016194647076225, 3.029270631184632, 1.2429895051922986, ABpraapaa, 0, 0, 0, 0, , 0, 0, 0, 0, 0, 
162, 1, 162, 162, 5170, 4.918412844214898, -1.2875626916643228, 1.982028801410462, 1.5579950503950002, Epla, 0, 0, 0, 0, , 0, 0, 0, 0, 0, 
21, 1, 21, 21, 5171, 3.9806620116725084, -3.2815970518037436, -4.1269476859862, 1.2429895051922986, ABplpappp, 0, 0, 0, 0, , 0, 0, 0, 0, 0, 
78, 1, 78, 78, 5172, -9.394710542489438, 1.7816364117363335, 2.8438972867001073, 1.3067325567406214, ABalappap, 0, 0, 0, 0, , 0, 0, 0, 0, 0, 
71, 1, 71, 71, 5173, -3.2692296210639356, -7.1991887298768935, -1.4669982888404152, 1.2429895051922986, ABplpaaap, 0, 0, 0, 0, , 0, 0, 0, 0, 0, 
76, 1, 76, 76, 5174, -7.546581069196955, -1.7482953122258766, -2.994903466235432, 1.3067325567406214, ABalpaaap, 0, 0, 0, 0, , 0, 0, 0, 0, 0, 
75, 1, 75, 75, 5175, -5.477678510575354, 2.1190264598326083, -3.5983066655930185, 1.3067325567406214, ABarapaap, 0, 0, 0, 0, , 0, 0, 0, 0, 0, 
33, 1, 33, 33, 5176, 10.2966127977294, -5.4312700057840155, 0.8498354289580088, 1.2429895051922986, ABplapapp, 0, 0, 0, 0, , 0, 0, 0, 0, 0, 
523, 1, 523, 523, 5177, -1.6686787665698146, -6.312269128080868, -2.961485480175272, 1.2429895051922986, ABplpapaa, 0, 0, 0, 0, , 0, 0, 0, 0, 0, 
5012, 1, 5012, 5012, 5178, 6.460697052191501, -3.0361628362609956, -0.9213383952295392, 1.3554556938436502, Dapa, 0, 0, 0, 0, , 0, 0, 0, 0, 0, 
40, 1, 40, 40, 5179, 0.32547083884546263, 0.5822402312266574, 4.108445874492546, 1.3067325567406214, ABarpaapp, 0, 0, 0, 0, , 0, 0, 0, 0, 0, 
102, 1, 102, 102, 5180, 1.2684842211278038, 3.231164502275851, -1.960825065366575, 1.1792464536439757, MSpppap, 0, 0, 0, 0, , 0, 0, 0, 0, 0, 
392, 1, 392, 392, 5181, -6.332118168935337, 3.054224471042198, 4.272400093752784, 1.3067325567406214, ABarpapaa, 0, 0, 0, 0, , 0, 0, 0, 0, 0, 
69, 1, 69, 69, 5182, 3.644081183072368, 5.725413440384027, -3.2925917338785564, 1.2429895051922986, ABprppaap, 0, 0, 0, 0, , 0, 0, 0, 0, 0, 
311, 1, 311, 311, 5183, -5.9856283247287205, 1.1651570405224558, -2.1509076340010904, 1.3067325567406214, ABaraappa, 0, 0, 0, 0, , 0, 0, 0, 0, 0, 
52, 1, 52, 52, 5184, 10.85581434774636, 1.2150900278137449, 3.396327323033836, 1.3554556938436502, Cpaap, 0, 0, 0, 0, , 0, 0, 0, 0, 0, 
516, 1, 516, 516, 5185, -7.942393395117512, -4.687120448174803, 1.1870895525883318, 1.3067325567406214, ABalpppaa, 0, 0, 0, 0, , 0, 0, 0, 0, 0, 
67, 1, 67, 67, 5186, 8.53273273656547, -3.6764317789391434, -2.6157677807618196, 1.3554556938436502, Capap, 0, 0, 0, 0, , 0, 0, 0, 0, 0, 
65, 1, 65, 65, 5187, 6.903710704996129, -6.483287980615576, 1.4059221238326747, 1.2429895051922986, ABplappap, 0, 0, 0, 0, , 0, 0, 0, 0, 0, 
325, 1, 325, 325, 5188, 0.9065196248411013, -3.982315158798769, -3.8853596201419167, 1.2429895051922986, ABplpappa, 0, 0, 0, 0, , 0, 0, 0, 0, 0, 
27, 1, 27, 27, 5189, 12.073190520650758, -2.307550032564176, -1.4177723009457488, 1.3554556938436502, Caapp, 0, 0, 0, 0, , 0, 0, 0, 0, 0, 
2451, 1, 2451, 2451, 5190, 3.8065378105995267, 1.2860480173634334, -3.820428912682807, 1.1792464536439757, MSpappa, 0, 0, 0, 0, , 0, 0, 0, 0, 0, 
55, 1, 55, 55, 5191, 3.50367506182789, -5.498122287064225, 3.261043807587023, 1.2429895051922986, ABplapaap, 0, 0, 0, 0, , 0, 0, 0, 0, 0, 
39, 1, 39, 39, 5192, -6.689090269718793, 3.5662927735387706, -3.147330192672634, 1.3067325567406214, ABaraaapp, 0, 0, 0, 0, , 0, 0, 0, 0, 0, 
36, 1, 36, 36, 5193, -3.724198174776854, -5.055890289679544, -2.8417991398372004, 1.3067325567406214, ABalppapp, 0, 0, 0, 0, , 0, 0, 0, 0, 0, 
59, 1, 59, 59, 5194, 10.073769418333857, 1.927897545095526, -2.952073772596534, 1.3554556938436502, Cppap, 0, 0, 0, 0, , 0, 0, 0, 0, 0, 
688, 1, 688, 688, 5195, -7.98019574439294, 4.182564634427517, 0.9301122909979338, 1.3067325567406214, ABalaappa, 0, 0, 0, 0, , 0, 0, 0, 0, 0, 
92, 1, 92, 92, 5196, 8.133252470207621, -2.095616101853059, -2.96783608659169, 1.7907989085000002, Z2, 0, 0, 0, 0, , 0, 0, 0, 0, 0, 
90, 1, 90, 90, 5197, -5.384677076598904, 2.1494217346608617, 1.1083603845262124, 1.1792464536439757, MSpaaap, 0, 0, 0, 0, , 0, 0, 0, 0, 0, 
77, 1, 77, 77, 5198, 2.7178967279043516, -1.962065815010607, 4.043105468474095, 1.3067325567406214, ABarppaap, 0, 0, 0, 0, , 0, 0, 0, 0, 0, 
58, 1, 58, 58, 5199, 4.44519376971038, 6.071148246153464, 2.3602770546048637, 1.2429895051922986, ABprapaap, 0, 0, 0, 0, , 0, 0, 0, 0, 0, 
355, 1, 355, 355, 5200, 1.5159308034115289, 3.862319834234058, 3.9905105945666803, 1.3067325567406214, ABarpppaa, 0, 0, 0, 0, , 0, 0, 0, 0, 0, 
2934, 1, 2934, 2934, 5201, -2.409674090065834, -4.337079115911998, -0.08446276413999215, 1.1792464536439757, MSapapa, 0, 0, 0, 0, , 0, 0, 0, 0, 0, 
44, 1, 44, 44, 5202, 4.839301831375801, -6.527836990159494, -1.0491802360299516, 1.2429895051922986, ABplppapp, 0, 0, 0, 0, , 0, 0, 0, 0, 0, 
46, 1, 46, 46, 5203, -3.02853854150813, -0.40197278013454746, 0.06029034503801565, 1.1792464536439757, MSaaapp, 0, 0, 0, 0, , 0, 0, 0, 0, 0, 
394, 1, 394, 394, 5204, -3.963412551440543, 6.2859115226334, -1.6744074074073807, 1.2429895051922986, ABprpaaaa, 0, 0, 0, 0, , 0, 0, 0, 0, 0, 
87, 1, 87, 87, 5205, 0.9688564247066043, -6.800871244869843, -2.13635740537966, 1.2429895051922986, ABplppaap, 0, 0, 0, 0, , 0, 0, 0, 0, 0, 
20, 1, 20, 20, 5206, -7.109750271142544, 4.226592412204879, 2.099294389763328, 1.3067325567406214, ABalaappp, 0, 0, 0, 0, , 0, 0, 0, 0, 0, 
4, 1, 4, 4, 5207, 2.5432446444878454, -3.3357679631053556, -2.5482358327847434, 1.7907989085000002, Z3, 0, 0, 0, 0, , 0, 0, 0, 0, 0, 
455, 1, 455, 455, 5208, -5.181079415302355, -6.376936466502287, -1.1515517867826772, 1.2429895051922986, ABplpaaaa, 0, 0, 0, 0, , 0, 0, 0, 0, 0, 
26, 1, 26, 26, 5209, 4.4079674402291795, 1.435407276622692, -3.223899283053186, 1.1792464536439757, MSpappp, 0, 0, 0, 0, , 0, 0, 0, 0, 0, 
517, 1, 517, 517, 5210, -6.467625574384106, 1.75835032123879, 3.2981369286767457, 1.3067325567406214, ABalapppa, 0, 0, 0, 0, , 0, 0, 0, 0, 0, 
1663, 1, 1663, 1663, 5211, -4.756726195829284, -0.6717752492703274, -0.20394669199898718, 1.1792464536439757, MSaaapa, 0, 0, 0, 0, , 0, 0, 0, 0, 0, 
79, 1, 79, 79, 5212, -9.61367568815791, 0.2762544641008948, -1.7102226267985414, 1.3067325567406214, ABaraaaap, 0, 0, 0, 0, , 0, 0, 0, 0, 0, 
35, 1, 35, 35, 5213, -1.556920611281883, 2.187760294315439, -3.201246717486972, 1.3067325567406214, ABarapapp, 0, 0, 0, 0, , 0, 0, 0, 0, 0, 
70, 1, 70, 70, 5214, -6.005757916213323, -1.0616957962412217, -1.82418598173655, 1.3067325567406214, ABaraapap, 0, 0, 0, 0, , 0, 0, 0, 0, 0, 
656, 1, 656, 656, 5215, -8.07233899138715, -1.6371803579956132, 3.614492363294463, 1.3067325567406214, ABalapapa, 0, 0, 0, 0, , 0, 0, 0, 0, 0, 
47, 1, 47, 47, 5216, 9.551058934748921, -1.4657065188248763, 0.5469057561431091, 1.5579950503950002, Eplp, 0, 0, 0, 0, , 0, 0, 0, 0, 0, 
3, 1, 3, 3, 5217, 2.6487675389895924, 4.7443897431244535, -0.14154191348822925, 1.1792464536439757, MSppppp, 0, 0, 0, 0, , 0, 0, 0, 0, 0, 
32, 1, 32, 32, 5218, 6.841422628852875, 5.167892748278592, -1.9418283945985166, 1.2429895051922986, ABprppapp, 0, 0, 0, 0, , 0, 0, 0, 0, 0, 
