4034, 1, 4034, 4034, 7547, 0.5327282608527022, -4.8782419741763485, 0.17237331086782898, 1.1792464536439757, MSapppa, 0, 0, 0, 0, , 0, 0, 0, 0, 0, 
78, 1, 78, 78, 7548, 2.4970797736680406, -6.183482048450107, -3.075124374761823, 1.2429895051922986, ABplppaap, 0, 0, 0, 0, , 0, 0, 0, 0, 0, 
87, 1, 87, 87, 7549, -11.54121256647363, 0.12557637405821614, -0.8521268696274784, 1.3067325567406214, ABalaaaar, 0, 0, 0, 0, , 0, 0, 0, 0, 0, 
542, 1, 542, 542, 7550, 1.1158862756013916, 4.294903278805535, 4.101624285242895, 1.3067325567406214, ABarpppaa, 0, 0, 0, 0, , 0, 0, 0, 0, 0, 
475, 1, 475, 475, 7551, -6.5054086803589435, 0.3932989867462796, -4.599333923798914, 1.3067325567406214, ABarapaaa, 0, 0, 0, 0, , 0, 0, 0, 0, 0, 
2064, 1, 2064, 2064, 7552, -3.8259061933585796, -4.575726514140814, 0.10925296672479465, 1.1792464536439757, MSapapa, 0, 0, 0, 0, , 0, 0, 0, 0, 0, 
29, 1, 29, 29, 7553, -7.183929233821576, -4.5467670142822945, -3.01724102096026, 1.3067325567406214, ABalpaapp, 0, 0, 0, 0, , 0, 0, 0, 0, 0, 
36, 1, 36, 36, 7554, -4.329448111391484, -3.8278700738276825, 2.5931327286841066, 1.3067325567406214, ABalapapp, 0, 0, 0, 0, , 0, 0, 0, 0, 0, 
18, 1, 18, 18, 7555, -0.8481021508189093, -1.1031436502418326, -2.7768704777858604, 1.3067325567406214, ABalpappp, 0, 0, 0, 0, , 0, 0, 0, 0, 0, 
102, 1, 102, 102, 7556, -6.599698374586462, -0.4624637694915088, 2.7042195999109055, 1.1792464536439757, MSaaaap, 0, 0, 0, 0, , 0, 0, 0, 0, 0, 
1260, 1, 1260, 1260, 7557, -10.983107114896564, 0.3963324997320723, 2.3529854587317445, 1.3067325567406214, ABalappaa, 0, 0, 0, 0, , 0, 0, 0, 0, 0, 
3, 1, 3, 3, 7558, 1.833035902724277, 4.556348362375445, 0.9077886233400192, 1.1792464536439757, MSppppp, 0, 0, 0, 0, , 0, 0, 0, 0, 0, 
933, 1, 933, 933, 7559, 6.023619086615201, 7.0383590498071555, -0.4477007573464579, 1.2429895051922986, ABprappaa, 0, 0, 0, 0, , 0, 0, 0, 0, 0, 
83, 1, 83, 83, 7560, 9.122187993900639, 3.5327543329950517, -3.9019570089329236, 1.2429895051922986, ABprpppap, 0, 0, 0, 0, , 0, 0, 0, 0, 0, 
54, 1, 54, 54, 7561, -5.650590359878527, 0.078826048914491, 4.318727708484101, 1.3067325567406214, ABarpaaap, 0, 0, 0, 0, , 0, 0, 0, 0, 0, 
692, 1, 692, 692, 7562, -9.38162770932695, 4.152702695719639, 0.7371936485338186, 1.3067325567406214, ABalaappa, 0, 0, 0, 0, , 0, 0, 0, 0, 0, 
20, 1, 20, 20, 7563, 2.855643875350547, -7.971807915120124, 1.5987938225925529, 1.2429895051922986, ABplaappp, 0, 0, 0, 0, , 0, 0, 0, 0, 0, 
14, 1, 14, 14, 7564, 2.9001421958755946, -0.024077239646754196, -0.35596540665077764, 1.5579950503950002, Earp, 0, 0, 0, 0, , 0, 0, 0, 0, 0, 
4307, 1, 4307, 4307, 7565, 0.8914680014895747, 4.9334553582603355, -0.18579985402624627, 1.1792464536439757, MSppppa, 0, 0, 0, 0, , 0, 0, 0, 0, 0, 
607, 1, 607, 607, 7566, 6.2579106276461225, 5.712160917358541, -3.2869710007026898, 1.2429895051922986, ABprpppaa, 0, 0, 0, 0, , 0, 0, 0, 0, 0, 
1149, 1, 1149, 1149, 7567, -10.252048780466529, -3.0795882349951795, -0.6702420959648624, 1.3067325567406214, ABalaaaal, 0, 0, 0, 0, , 0, 0, 0, 0, 0, 
352, 1, 352, 352, 7568, -9.410162926205786, -2.5314155470787894, 3.38465803732659, 1.3067325567406214, ABalapapa, 0, 0, 0, 0, , 0, 0, 0, 0, 0, 
1039, 1, 1039, 1039, 7569, 8.382870027588808, -4.145972310449501, -0.008000858358550024, 1.3554556938436502, Cappa, 0, 0, 0, 0, , 0, 0, 0, 0, 0, 
12, 1, 12, 12, 7570, -4.103838734081313, 3.3775289886049378, 3.0547795427054005, 1.3067325567406214, ABalapppp, 0, 0, 0, 0, , 0, 0, 0, 0, 0, 
6, 1, 6, 6, 7571, 7.08112597160674, -1.9484888940791183, -4.4027727236866845, 1.2429895051922986, ABplppppp, 0, 0, 0, 0, , 0, 0, 0, 0, 0, 
365, 1, 365, 365, 7572, 5.501952133955452, -6.220454078385991, -3.140494648748784, 1.2429895051922986, ABplpppaa, 0, 0, 0, 0, , 0, 0, 0, 0, 0, 
11, 1, 11, 11, 7573, 11.084996201826481, 3.36297771237208, -2.9967988352344697, 1.2429895051922986, ABprapppp, 0, 0, 0, 0, , 0, 0, 0, 0, 0, 
1137, 1, 1137, 1137, 7574, -0.4708831892950146, -6.631722789190027, -1.7730503006879297, 1.2429895051922986, ABplppaaa, 0, 0, 0, 0, , 0, 0, 0, 0, 0, 
28, 1, 28, 28, 7575, 12.764353746032127, 0.6557695255833361, -3.8702200352634586, 1.3554556938436502, Cpapp, 0, 0, 0, 0, , 0, 0, 0, 0, 0, 
2522, 1, 2522, 2522, 7576, 7.051145139679635, 2.4452618599039218, -2.654041465542221, 1.3554556938436502, Cppaa, 0, 0, 0, 0, , 0, 0, 0, 0, 0, 
37, 1, 37, 37, 7577, 6.368795207928088, -6.568725750968188, -1.9220736540572738, 1.2429895051922986, ABplppapp, 0, 0, 0, 0, , 0, 0, 0, 0, 0, 
169, 1, 169, 169, 7578, 3.3790071644674167, 4.304566568730352, -1.80270372646062, 1.3554556938436502, Dpap, 0, 0, 0, 0, , 0, 0, 0, 0, 0, 
866, 1, 866, 866, 7579, -9.024163400267101, -1.5209309721184243, -4.358419681220233, 1.3067325567406214, ABalpaaaa, 0, 0, 0, 0, , 0, 0, 0, 0, 0, 
34, 1, 34, 34, 7580, -2.272479682114613, -5.280974313733384, -2.960945002435588, 1.3067325567406214, ABalppapp, 0, 0, 0, 0, , 0, 0, 0, 0, 0, 
532, 1, 532, 532, 7581, -5.575560102965864, 4.350965922180005, -3.436958868770495, 1.3067325567406214, ABarapppa, 0, 0, 0, 0, , 0, 0, 0, 0, 0, 
24, 1, 24, 24, 7582, -2.9616112545338935, 1.4946395018360914, -1.2990131832146299, 1.3067325567406214, ABaraappp, 0, 0, 0, 0, , 0, 0, 0, 0, 0, 
1407, 1, 1407, 1407, 7583, -0.9158077713435138, 0.47246734864399165, -1.780045794380117, 1.1792464536439757, MSpapaa, 0, 0, 0, 0, , 0, 0, 0, 0, 0, 
38, 1, 38, 38, 7584, -10.359884750427183, 2.2757172123099014, 1.2556301144116557, 1.3067325567406214, ABalaaapp, 0, 0, 0, 0, , 0, 0, 0, 0, 0, 
86, 1, 86, 86, 7585, -5.264634429558214, 6.4324146719619835, 0.34696484972169933, 1.2429895051922986, ABpraaaap, 0, 0, 0, 0, , 0, 0, 0, 0, 0, 
112, 1, 112, 112, 7586, 1.6805749219169075, 3.047490360813513, -1.9671385774637022, 1.1792464536439757, MSpppap, 0, 0, 0, 0, , 0, 0, 0, 0, 0, 
49, 1, 49, 49, 7587, -2.778410222905736, -0.5333478529809736, 0.60497548490532, 1.1792464536439757, MSaaapp, 0, 0, 0, 0, , 0, 0, 0, 0, 0, 
48, 1, 48, 48, 7588, 6.404567946104721, -3.0877088049766046, -0.28959109006266126, 1.3554556938436502, Dapp, 0, 0, 0, 0, , 0, 0, 0, 0, 0, 
60, 1, 60, 60, 7589, 1.9754312120134563, 4.121000729289863, -3.783917818657014, 1.2429895051922986, ABprpapap, 0, 0, 0, 0, , 0, 0, 0, 0, 0, 
655, 1, 655, 655, 7590, -8.601413069362632, -1.308641296281192, -2.160618206178817, 1.3067325567406214, ABaraapaa, 0, 0, 0, 0, , 0, 0, 0, 0, 0, 
2982, 1, 2982, 2982, 7591, -7.556150175649153, -3.1635002442368316, -0.3306243902438803, 1.1792464536439757, MSapaaa, 0, 0, 0, 0, , 0, 0, 0, 0, 0, 
55, 1, 55, 55, 7592, 11.500796796379984, 1.0477532154614184, 3.221366022555067, 1.3554556938436502, Cpaap, 0, 0, 0, 0, , 0, 0, 0, 0, 0, 
242, 1, 242, 242, 7593, 0.9677942216977493, -2.9252601341035094, -4.281294245689282, 1.2429895051922986, ABplpappa, 0, 0, 0, 0, , 0, 0, 0, 0, 0, 
15, 1, 15, 15, 7594, 10.26585521277664, -2.0236854791735643, -2.1886539447783244, 1.3554556938436502, Cappp, 0, 0, 0, 0, , 0, 0, 0, 0, 0, 
213, 1, 213, 213, 7595, 9.463243085148575, -6.303571852840831, 2.9075458662499907, 1.2429895051922986, ABplapapa, 0, 0, 0, 0, , 0, 0, 0, 0, 0, 
1052, 1, 1052, 1052, 7596, -11.563355120794602, -0.7706099481838419, 1.1575087152350432, 1.3067325567406214, ABalaaapa, 0, 0, 0, 0, , 0, 0, 0, 0, 0, 
641, 1, 641, 641, 7597, 8.57885304031189, -6.001106460924485, -1.3821426267622428, 1.2429895051922986, ABplapppa, 0, 0, 0, 0, , 0, 0, 0, 0, 0, 
56, 1, 56, 56, 7598, 5.3001526319006995, -6.019606951743492, 2.8421488930077228, 1.2429895051922986, ABplapaap, 0, 0, 0, 0, , 0, 0, 0, 0, 0, 
101, 1, 101, 101, 7599, -5.310878766023479, 1.8369001534606189, 1.8358190075074081, 1.1792464536439757, MSpaaap, 0, 0, 0, 0, , 0, 0, 0, 0, 0, 
17, 1, 17, 17, 7600, 3.894702429036009, 2.075014055738147, -4.1882832733178885, 1.2429895051922986, ABprpappp, 0, 0, 0, 0, , 0, 0, 0, 0, 0, 
69, 1, 69, 69, 7601, -9.465002071752602, -4.7438111208853835, 1.9361292520926603, 1.3067325567406214, ABalapaap, 0, 0, 0, 0, , 0, 0, 0, 0, 0, 
2, 1, 2, 2, 7602, 9.374745762828988, 3.978641298822522, 2.8772320481959106, 1.3067325567406214, ABarppppp, 0, 0, 0, 0, , 0, 0, 0, 0, 0, 
4, 1, 4, 4, 7603, 0.9695846351206503, -2.58387060294511, -1.59600431196007, 1.7907989085000002, Z3, 0, 0, 0, 0, , 0, 0, 0, 0, 0, 
338, 1, 338, 338, 7604, -6.865734711323997, 1.2816971150046566, -1.376642812844611, 1.3067325567406214, ABaraappa, 0, 0, 0, 0, , 0, 0, 0, 0, 0, 
77, 1, 77, 77, 7605, -0.8873036617257467, 4.368308418093548, -3.970568172651877, 1.3067325567406214, ABarappap, 0, 0, 0, 0, , 0, 0, 0, 0, 0, 
88, 1, 88, 88, 7606, 10.008854138665818, -0.5784947164209401, -2.2745149502581885, 1.7907989085000002, Z2, 0, 0, 0, 0, , 0, 0, 0, 0, 0, 
2043, 1, 2043, 2043, 7607, -3.458010743884922, 4.415428234832486, 0.08459286295649063, 1.1792464536439757, MSppapa, 0, 0, 0, 0, , 0, 0, 0, 0, 0, 
747, 1, 747, 747, 7608, -5.489161163595556, -5.3835821326630375, -3.256985743176149, 1.3067325567406214, ABalppapa, 0, 0, 0, 0, , 0, 0, 0, 0, 0, 
622, 1, 622, 622, 7609, 4.51846463778598, 4.882986520850884, -3.659424909063454, 1.2429895051922986, ABprppppa, 0, 0, 0, 0, , 0, 0, 0, 0, 0, 
76, 1, 76, 76, 7610, -2.160036333690077, 6.00728452808355, 3.324674170667472, 1.2429895051922986, ABpraapap, 0, 0, 0, 0, , 0, 0, 0, 0, 0, 
73, 1, 73, 73, 7611, 4.372172901115339, 3.429482291150831, 4.1566687296877, 1.3067325567406214, ABarpppap, 0, 0, 0, 0, , 0, 0, 0, 0, 0, 
84, 1, 84, 84, 7612, -9.178488663415685, -0.03126739020908553, -1.3435930923120494, 1.3067325567406214, ABaraaaap, 0, 0, 0, 0, , 0, 0, 0, 0, 0, 
25, 1, 25, 25, 7613, 4.305675617245774, 1.772190779085684, -2.800246298158651, 1.1792464536439757, MSpappp, 0, 0, 0, 0, , 0, 0, 0, 0, 0, 
429, 1, 429, 429, 7614, 9.175854912606953, 5.5946638847489085, 2.1793430888201986, 1.2429895051922986, ABprapapa, 0, 0, 0, 0, , 0, 0, 0, 0, 0, 
1552, 1, 1552, 1552, 7615, -10.532809651070885, 1.1621482476510274, -2.5184902116542043, 1.3067325567406214, ABaraaaaa, 0, 0, 0, 0, , 0, 0, 0, 0, 0, 
75, 1, 75, 75, 7616, -5.407620183139219, -6.762501052971121, 1.1286984989683901, 1.3067325567406214, ABalpppap, 0, 0, 0, 0, , 0, 0, 0, 0, 0, 
22, 1, 22, 22, 7617, 2.420304968092873, 7.292374571417464, 1.1610993410238528, 1.2429895051922986, ABpraappp, 0, 0, 0, 0, , 0, 0, 0, 0, 0, 
53, 1, 53, 53, 7618, -2.7261482627776683, -4.496347216856684, -4.1110682223811486, 1.3067325567406214, ABalpapap, 0, 0, 0, 0, , 0, 0, 0, 0, 0, 
65, 1, 65, 65, 7619, 5.452209766106158, 6.503427239643014, 1.4144761823575656, 1.2429895051922986, ABprapaap, 0, 0, 0, 0, , 0, 0, 0, 0, 0, 
100, 1, 100, 100, 7620, -3.8311801572504645, 3.9861254257564545, -1.1987197068029953, 1.1792464536439757, MSppaap, 0, 0, 0, 0, , 0, 0, 0, 0, 0, 
217, 1, 217, 217, 7621, 5.429666137945514, 1.1509303759546634, 4.229820755065754, 1.3554556938436502, Cpaaa, 0, 0, 0, 0, , 0, 0, 0, 0, 0, 
64, 1, 64, 64, 7622, -4.857217322333327, 1.501241373577911, -3.3013133476664165, 1.3067325567406214, ABarapaap, 0, 0, 0, 0, , 0, 0, 0, 0, 0, 
66, 1, 66, 66, 7623, -6.083388503149775, -2.373159367180162, -3.443271944594804, 1.3067325567406214, ABalpaaap, 0, 0, 0, 0, , 0, 0, 0, 0, 0, 
3145, 1, 3145, 3145, 7624, -0.11155964598433507, 3.209661142706307, -1.5454945445416748, 1.1792464536439757, MSpppaa, 0, 0, 0, 0, , 0, 0, 0, 0, 0, 
2481, 1, 2481, 2481, 7625, 3.1648686213609567, 1.4888823428716962, -3.9317588495989635, 1.1792464536439757, MSpappa, 0, 0, 0, 0, , 0, 0, 0, 0, 0, 
85, 1, 85, 85, 7626, 3.4100850508538194, 5.3636925990701005, -3.6546638003695917, 1.2429895051922986, ABprppaap, 0, 0, 0, 0, , 0, 0, 0, 0, 0, 
23, 1, 23, 23, 7627, 6.214541557558012, 3.3673774056868995, -0.2436128021528752, 1.3554556938436502, Dppp, 0, 0, 0, 0, , 0, 0, 0, 0, 0, 
164, 1, 164, 164, 7628, 5.076631714293029, -0.43004097157824667, 2.3669897574432404, 1.5579950503950002, Epla, 0, 0, 0, 0, , 0, 0, 0, 0, 0, 
5, 1, 5, 5, 7629, -2.4868584370662066, -6.877835999267272, 2.0925609633195914, 1.3067325567406214, ABalppppp, 0, 0, 0, 0, , 0, 0, 0, 0, 0, 
52, 1, 52, 52, 7630, 13.630569893402482, -2.321932640377635, 1.090363193406262, 1.3554556938436502, Caaap, 0, 0, 0, 0, , 0, 0, 0, 0, 0, 
741, 1, 741, 741, 7631, 1.2389871438350388, -2.6712469934891137, 4.3577544348938435, 1.3067325567406214, ABarppaaa, 0, 0, 0, 0, , 0, 0, 0, 0, 0, 
7, 1, 7, 7, 7632, 9.580808723298578, 1.2494504995110078, 1.6217333265947211, 1.5579950503950002, Eprp, 0, 0, 0, 0, , 0, 0, 0, 0, 0, 
30, 1, 30, 30, 7633, 12.718848023419216, -5.866357038025688, -0.007807220169855292, 1.2429895051922986, ABplapapp, 0, 0, 0, 0, , 0, 0, 0, 0, 0, 
366, 1, 366, 366, 7634, -1.5981979125652956, 7.498754818332396, 1.6673758842335662, 1.2429895051922986, ABpraappa, 0, 0, 0, 0, , 0, 0, 0, 0, 0, 
1436, 1, 1436, 1436, 7635, -8.105028148739164, 2.1911635279467583, 0.5060955507172645, 1.1792464536439757, MSpaaaa, 0, 0, 0, 0, , 0, 0, 0, 0, 0, 
5345, 1, 5345, 5345, 7636, 5.5478563723728955, 3.7281959242054157, -0.37763502437508834, 1.3554556938436502, Dppa, 0, 0, 0, 0, , 0, 0, 0, 0, 0, 
435, 1, 435, 435, 7637, -6.216693622251099, -4.705548962230097, 2.3048109633193867, 1.3067325567406214, ABalppppa, 0, 0, 0, 0, , 0, 0, 0, 0, 0, 
41, 1, 41, 41, 7638, -1.2457951155531561, 1.392362504709261, -3.061113343687761, 1.3067325567406214, ABarapapp, 0, 0, 0, 0, , 0, 0, 0, 0, 0, 
57, 1, 57, 57, 7639, -3.682408299227404, 1.5360520381803386, 4.482412833477339, 1.3067325567406214, ABarpapap, 0, 0, 0, 0, , 0, 0, 0, 0, 0, 
26, 1, 26, 26, 7640, 3.62985641821191, -2.7965795530208553, -3.093927807363989, 1.1792464536439757, MSaappp, 0, 0, 0, 0, , 0, 0, 0, 0, 0, 
378, 1, 378, 378, 7641, -8.410044495397802, 1.8525917458067804, 3.968571723775606, 1.3067325567406214, ABalapppa, 0, 0, 0, 0, , 0, 0, 0, 0, 0, 
45, 1, 45, 45, 7642, 2.625440088735654, -2.800734791924427, 0.3137775207829068, 1.5579950503950002, Ealp, 0, 0, 0, 0, , 0, 0, 0, 0, 0, 
1496, 1, 1496, 1496, 7643, -9.19681918110497, -4.519589225453614, -0.005286141880072037, 1.3067325567406214, ABalppaaa, 0, 0, 0, 0, , 0, 0, 0, 0, 0, 
856, 1, 856, 856, 7644, -3.603995019750705, 2.794431874884694, -3.922831547137161, 1.3067325567406214, ABarappaa, 0, 0, 0, 0, , 0, 0, 0, 0, 0, 
72, 1, 72, 72, 7645, -9.815480777447968, 1.9418499894437888, 2.9204836068798037, 1.3067325567406214, ABalappap, 0, 0, 0, 0, , 0, 0, 0, 0, 0, 
135, 1, 135, 135, 7646, -2.4166968975658074, -0.9528344875098167, 2.650623791711207, 1.5579950503950002, Eala, 0, 0, 0, 0, , 0, 0, 0, 0, 0, 
308, 1, 308, 308, 7647, -9.86999507744034, -2.1044377961754113, -2.4299570703430526, 1.3067325567406214, ABalpaapa, 0, 0, 0, 0, , 0, 0, 0, 0, 0, 
40, 1, 40, 40, 7648, 11.70950923359587, 4.026387341537881, -0.11653345438988898, 1.2429895051922986, ABprapapp, 0, 0, 0, 0, , 0, 0, 0, 0, 0, 
2564, 1, 2564, 2564, 7649, -3.972357939302798, 1.7699686015667446, -0.1474492724325956, 1.1792464536439757, MSpaapa, 0, 0, 0, 0, , 0, 0, 0, 0, 0, 
99, 1, 99, 99, 7650, 1.086426796557701, 0.6335813404135362, -2.254885712075088, 1.1792464536439757, MSpapap, 0, 0, 0, 0, , 0, 0, 0, 0, 0, 
672, 1, 672, 672, 7651, -8.076201870382398, -5.427475332805929, 1.3035991162524292, 1.3067325567406214, ABalpppaa, 0, 0, 0, 0, , 0, 0, 0, 0, 0, 
63, 1, 63, 63, 7652, 2.4749894921052045, -4.714192860326482, -4.077132622121073, 1.2429895051922986, ABplpapap, 0, 0, 0, 0, , 0, 0, 0, 0, 0, 
313, 1, 313, 313, 7653, -4.015111279829956, 6.998299016667293, -0.10461148373312038, 1.2429895051922986, ABprpaapa, 0, 0, 0, 0, , 0, 0, 0, 0, 0, 
70, 1, 70, 70, 7654, 4.4611237693494425, -2.6220354708553613, 4.1258268628766, 1.3067325567406214, ABarppaap, 0, 0, 0, 0, , 0, 0, 0, 0, 0, 
47, 1, 47, 47, 7655, -1.5540410668750073, 1.325135268233286, -1.1220768444490505, 1.1792464536439757, MSpaapp, 0, 0, 0, 0, , 0, 0, 0, 0, 0, 
6431, 1, 6431, 6431, 7656, 3.07648761714237, 4.514114922639779, -1.5936638087651098, 1.3554556938436502, Dpaa, 0, 0, 0, 0, , 0, 0, 0, 0, 0, 
2183, 1, 2183, 2183, 7657, -5.401552198214772, -0.9428694579192644, 0.20390141083122781, 1.1792464536439757, MSaaapa, 0, 0, 0, 0, , 0, 0, 0, 0, 0, 
889, 1, 889, 889, 7658, 9.307443732688046, 5.237968453112086, -2.1101105636296484, 1.2429895051922986, ABprapppa, 0, 0, 0, 0, , 0, 0, 0, 0, 0, 
223, 1, 223, 223, 7659, -5.875388702481294, -5.881087927831243, 3.1793873816356317, 1.2429895051922986, ABplaapaa, 0, 0, 0, 0, , 0, 0, 0, 0, 0, 
403, 1, 403, 403, 7660, -8.919942987234972, 1.5026187657244643, -3.5816019736039264, 1.3067325567406214, ABaraaapa, 0, 0, 0, 0, , 0, 0, 0, 0, 0, 
35, 1, 35, 35, 7661, 0.7557541342609078, -7.934955275171384, -0.08887623150867772, 1.2429895051922986, ABplpaapp, 0, 0, 0, 0, , 0, 0, 0, 0, 0, 
113, 1, 113, 113, 7662, 0.605714478793288, -3.433258078477162, -2.1115432706683213, 1.1792464536439757, MSappap, 0, 0, 0, 0, , 0, 0, 0, 0, 0, 
1, 1, 1, 1, 7663, 7.4505041439574775, 1.7826655331969747, -4.478091575730551, 1.2429895051922986, ABprppppp, 0, 0, 0, 0, , 0, 0, 0, 0, 0, 
67, 1, 67, 67, 7664, -1.3601797245560867, -7.650761769824947, -1.7486103599118794, 1.2429895051922986, ABplpaaap, 0, 0, 0, 0, , 0, 0, 0, 0, 0, 
62, 1, 62, 62, 7665, -1.6057868027756697, 6.999204520578143, -1.5463563349382974, 1.2429895051922986, ABprpaaap, 0, 0, 0, 0, , 0, 0, 0, 0, 0, 
51, 1, 51, 51, 7666, -2.205730908494163, 4.356761568165435, 1.692856237442153, 1.1792464536439757, MSppapp, 0, 0, 0, 0, , 0, 0, 0, 0, 0, 
173, 1, 173, 173, 7667, 2.8567199198639823, -3.2225586061881732, -1.9048899061301365, 1.3554556938436502, Daap, 0, 0, 0, 0, , 0, 0, 0, 0, 0, 
46, 1, 46, 46, 7668, 11.166631714292501, -0.6642259030850318, 0.4804007163473629, 1.5579950503950002, Eplp, 0, 0, 0, 0, , 0, 0, 0, 0, 0, 
229, 1, 229, 229, 7669, -1.0807250546906086, -8.170083429523611, 2.7993034933749112, 1.2429895051922986, ABplaappa, 0, 0, 0, 0, , 0, 0, 0, 0, 0, 
3918, 1, 3918, 3918, 7670, -0.5197916940462037, -3.725794703991432, -1.392074134865751, 1.1792464536439757, MSappaa, 0, 0, 0, 0, , 0, 0, 0, 0, 0, 
27, 1, 27, 27, 7671, 12.204371880944057, -1.7214077396555534, -3.5539269451880244, 1.3554556938436502, Caapp, 0, 0, 0, 0, , 0, 0, 0, 0, 0, 
413, 1, 413, 413, 7672, 5.483032952671401, -7.314637410278559, 0.5106725883377878, 1.2429895051922986, ABplappaa, 0, 0, 0, 0, , 0, 0, 0, 0, 0, 
1020, 1, 1020, 1020, 7673, 0.09836159406356476, 5.882511117589079, -2.5385004258835404, 1.2429895051922986, ABprppaaa, 0, 0, 0, 0, , 0, 0, 0, 0, 0, 
601, 1, 601, 601, 7674, 5.63954358377565, -4.610662792093608, 3.6145174543390435, 1.3067325567406214, ABarppapa, 0, 0, 0, 0, , 0, 0, 0, 0, 0, 
6838, 1, 6838, 6838, 7675, 2.692569919863998, -3.2918586061882076, -1.760651017241268, 1.3554556938436502, Daaa, 0, 0, 0, 0, , 0, 0, 0, 0, 0, 
105, 1, 105, 105, 7676, -0.008521274437352382, -1.6890702190209934, -2.0292378999769447, 1.1792464536439757, MSaapap, 0, 0, 0, 0, , 0, 0, 0, 0, 0, 
650, 1, 650, 650, 7677, -7.586468197554593, 4.577037685401463, 1.925911772792918, 1.2429895051922986, ABpraaapa, 0, 0, 0, 0, , 0, 0, 0, 0, 0, 
606, 1, 606, 606, 7678, -5.509441271961686, 5.803372593928014, 3.1989957756060097, 1.2429895051922986, ABpraapaa, 0, 0, 0, 0, , 0, 0, 0, 0, 0, 
1107, 1, 1107, 1107, 7679, 5.84470049534042, 4.881914961373946, 3.2330941881130464, 1.3067325567406214, ABarppppa, 0, 0, 0, 0, , 0, 0, 0, 0, 0, 
8, 1, 8, 8, 7680, 10.537351368110901, 0.7599873060572305, -1.9879258572944873, 1.3554556938436502, Cpppp, 0, 0, 0, 0, , 0, 0, 0, 0, 0, 
348, 1, 348, 348, 7681, 3.5909350251051815, -4.616383544284393, -3.6492698430279518, 1.2429895051922986, ABplppppa, 0, 0, 0, 0, , 0, 0, 0, 0, 0, 
384, 1, 384, 384, 7682, 1.3841970763449671, -5.915968062855071, 3.5803766707851485, 1.2429895051922986, ABplapaaa, 0, 0, 0, 0, , 0, 0, 0, 0, 0, 
44, 1, 44, 44, 7683, -3.7020237531095104, 6.0476549693531885, 1.6236895505707851, 1.2429895051922986, ABpraaapp, 0, 0, 0, 0, , 0, 0, 0, 0, 0, 
452, 1, 452, 452, 7684, -4.24262622661503, -6.41107329245851, -1.2730198249322402, 1.2429895051922986, ABplpaaaa, 0, 0, 0, 0, , 0, 0, 0, 0, 0, 
330, 1, 330, 330, 7685, -3.2111117386478023, 4.499871989787356, 4.472214639732404, 1.3067325567406214, ABarpappa, 0, 0, 0, 0, , 0, 0, 0, 0, 0, 
80, 1, 80, 80, 7686, -5.106999900639422, -1.7631910905199584, -1.3555424860144374, 1.3067325567406214, ABaraapap, 0, 0, 0, 0, , 0, 0, 0, 0, 0, 
19, 1, 19, 19, 7687, -8.078430795746975, 4.218619362385684, 2.487647352237398, 1.3067325567406214, ABalaappp, 0, 0, 0, 0, , 0, 0, 0, 0, 0, 
243, 1, 243, 243, 7688, 13.32767637977575, 2.391920760151364, -1.0040025455515216, 1.3554556938436502, Cpapa, 0, 0, 0, 0, , 0, 0, 0, 0, 0, 
387, 1, 387, 387, 7689, -3.373865897445568, 0.3321195005941115, -4.35377548360574, 1.3067325567406214, ABarapapa, 0, 0, 0, 0, , 0, 0, 0, 0, 0, 
81, 1, 81, 81, 7690, 8.703490691551563, 6.05810966709166, 0.3007609710486449, 1.2429895051922986, ABprappap, 0, 0, 0, 0, , 0, 0, 0, 0, 0, 
287, 1, 287, 287, 7691, -5.147853057920108, 5.743830858028078, -2.1751551003702763, 1.2429895051922986, ABprpaaaa, 0, 0, 0, 0, , 0, 0, 0, 0, 0, 
768, 1, 768, 768, 7692, 3.4426671739468118, 6.534911904633438, -2.174644461814911, 1.2429895051922986, ABprppapa, 0, 0, 0, 0, , 0, 0, 0, 0, 0, 
1117, 1, 1117, 1117, 7693, -9.350743160939185, 3.4758347336277597, -1.843291117594001, 1.3067325567406214, ABalaapaa, 0, 0, 0, 0, , 0, 0, 0, 0, 0, 
3201, 1, 3201, 3201, 7694, 1.89870312603097, -1.8405034213334033, -4.034945297076352, 1.1792464536439757, MSaappa, 0, 0, 0, 0, , 0, 0, 0, 0, 0, 
404, 1, 404, 404, 7695, 1.963958120015923, 6.106381972152956, 2.8077916144564536, 1.2429895051922986, ABprapaaa, 0, 0, 0, 0, , 0, 0, 0, 0, 0, 
1816, 1, 1816, 1816, 7696, -9.546890967179515, -0.12404895467673545, 0.8723825628737768, 1.1792464536439757, MSaaaaa, 0, 0, 0, 0, , 0, 0, 0, 0, 0, 
79, 1, 79, 79, 7697, -7.444015888926307, -5.831259184299998, -0.9818120678060347, 1.3067325567406214, ABalppaap, 0, 0, 0, 0, , 0, 0, 0, 0, 0, 
108, 1, 108, 108, 7698, -4.242188858776762, -3.5775545652245624, -0.8991857071162928, 1.1792464536439757, MSapaap, 0, 0, 0, 0, , 0, 0, 0, 0, 0, 
43, 1, 43, 43, 7699, 6.551130136908916, 5.3875559375568844, -2.3513419926788948, 1.2429895051922986, ABprppapp, 0, 0, 0, 0, , 0, 0, 0, 0, 0, 
1426, 1, 1426, 1426, 7700, 9.145511861936173, 3.187750680542774, -0.5307653634674511, 1.3554556938436502, Cpppa, 0, 0, 0, 0, , 0, 0, 0, 0, 0, 
58, 1, 58, 58, 7701, -2.019339319764136, -5.849400685033925, 3.9312392334874353, 1.2429895051922986, ABplaapap, 0, 0, 0, 0, , 0, 0, 0, 0, 0, 
420, 1, 420, 420, 7702, -10.937728409198256, -2.761315236111609, 2.002230075138361, 1.3067325567406214, ABalapaaa, 0, 0, 0, 0, , 0, 0, 0, 0, 0, 
1505, 1, 1505, 1505, 7703, -2.3936583114744554, -1.8225776264283722, -1.1197971592356657, 1.1792464536439757, MSaapaa, 0, 0, 0, 0, , 0, 0, 0, 0, 0, 
74, 1, 74, 74, 7704, 9.038548843383321, 2.1056379915911125, -2.5479929058714688, 1.3554556938436502, Cppap, 0, 0, 0, 0, , 0, 0, 0, 0, 0, 
375, 1, 375, 375, 7705, -0.15155603078479885, 5.239754844515344, -2.9636787240061118, 1.2429895051922986, ABprpapaa, 0, 0, 0, 0, , 0, 0, 0, 0, 0, 
1143, 1, 1143, 1143, 7706, -8.034739125310415, -0.09062148194968844, 4.228062276386155, 1.3067325567406214, ABarpaaaa, 0, 0, 0, 0, , 0, 0, 0, 0, 0, 
39, 1, 39, 39, 7707, -6.605467678592509, 3.3066018932958814, -3.6349525908881564, 1.3067325567406214, ABaraaapp, 0, 0, 0, 0, , 0, 0, 0, 0, 0, 
42, 1, 42, 42, 7708, 10.176689057026453, -3.912335631600155, 2.769591116890293, 1.3067325567406214, ABarppapp, 0, 0, 0, 0, , 0, 0, 0, 0, 0, 
211, 1, 211, 211, 7709, 0.20881971298717625, 2.486516113350376, -4.157126688955228, 1.2429895051922986, ABprpappa, 0, 0, 0, 0, , 0, 0, 0, 0, 0, 
13, 1, 13, 13, 7710, 2.0094764090009516, -4.240101233435888, 1.2355584960530173, 1.1792464536439757, MSapppp, 0, 0, 0, 0, , 0, 0, 0, 0, 0, 
33, 1, 33, 33, 7711, 0.3436591705804679, -4.001215943074452, 3.9237237880959244, 1.2429895051922986, ABplaaapp, 0, 0, 0, 0, , 0, 0, 0, 0, 0, 
71, 1, 71, 71, 7712, 8.792353985807067, -4.408633708016369, -3.5279446487488006, 1.2429895051922986, ABplpppap, 0, 0, 0, 0, , 0, 0, 0, 0, 0, 
82, 1, 82, 82, 7713, -7.612777111558843, 5.04334214103583, -1.1926108706802925, 1.3067325567406214, ABalaapap, 0, 0, 0, 0, , 0, 0, 0, 0, 0, 
61, 1, 61, 61, 7714, 8.429332952671185, -6.372074447316248, 1.2154861685847678, 1.2429895051922986, ABplappap, 0, 0, 0, 0, , 0, 0, 0, 0, 0, 
1239, 1, 1239, 1239, 7715, -7.252799038611357, 5.768659939450214, 0.426225755071535, 1.2429895051922986, ABpraaaaa, 0, 0, 0, 0, , 0, 0, 0, 0, 0, 
31, 1, 31, 31, 7716, 0.020673082310076685, 7.393790374689793, -0.4375110722104721, 1.2429895051922986, ABprpaapp, 0, 0, 0, 0, , 0, 0, 0, 0, 0, 
132, 1, 132, 132, 7717, 3.033077558914015, 3.0307004995107913, 2.6144559293344263, 1.5579950503950002, Epra, 0, 0, 0, 0, , 0, 0, 0, 0, 0, 
2333, 1, 2333, 2333, 7718, -6.516701350665997, 3.6267431212291723, -0.8530515998071229, 1.1792464536439757, MSppaaa, 0, 0, 0, 0, , 0, 0, 0, 0, 0, 
221, 1, 221, 221, 7719, -4.060646389501837, -1.4532323333695203, -4.244796403711345, 1.3067325567406214, ABalpappa, 0, 0, 0, 0, , 0, 0, 0, 0, 0, 
290, 1, 290, 290, 7720, -0.10935618690671561, -6.328313847981923, -3.198345585084131, 1.2429895051922986, ABplpapaa, 0, 0, 0, 0, , 0, 0, 0, 0, 0, 
117, 1, 117, 117, 7721, -3.04999079499193, 1.3526122580701105, 2.423057804917052, 1.5579950503950002, Eara, 0, 0, 0, 0, , 0, 0, 0, 0, 0, 
68, 1, 68, 68, 7722, 8.070253527244585, -2.9737988825946235, -2.042099065981164, 1.3554556938436502, Capap, 0, 0, 0, 0, , 0, 0, 0, 0, 0, 
239, 1, 239, 239, 7723, -6.722809991174037, -4.703268204510883, -4.227675629788286, 1.3067325567406214, ABalpapaa, 0, 0, 0, 0, , 0, 0, 0, 0, 0, 
59, 1, 59, 59, 7724, -3.8908155860880784, -2.3819906565289948, 4.089694464665822, 1.2429895051922986, ABplaaaap, 0, 0, 0, 0, , 0, 0, 0, 0, 0, 
16, 1, 16, 16, 7725, 0.13662900209279133, 4.649388039171051, 3.6340516767697904, 1.3067325567406214, ABarpappp, 0, 0, 0, 0, , 0, 0, 0, 0, 0, 
552, 1, 552, 552, 7726, 2.7840104342652823, -7.42109879623573, -1.4136226252506439, 1.2429895051922986, ABplppapa, 0, 0, 0, 0, , 0, 0, 0, 0, 0, 
222, 1, 222, 222, 7727, -3.5568815992831717, -0.5667274717240082, 3.903606563622006, 1.3067325567406214, ABarpaapa, 0, 0, 0, 0, , 0, 0, 0, 0, 0, 
50, 1, 50, 50, 7728, -2.2455275925356033, -3.9325660203141295, 1.7801665469717673, 1.1792464536439757, MSapapp, 0, 0, 0, 0, , 0, 0, 0, 0, 0, 
283, 1, 283, 283, 7729, -7.147447684854155, -3.732410409615831, 3.665037674541992, 1.2429895051922986, ABplaaaaa, 0, 0, 0, 0, , 0, 0, 0, 0, 0, 
228, 1, 228, 228, 7730, 8.777457136201605, -2.1687244099251854, 4.007584592582661, 1.3554556938436502, Caaaa, 0, 0, 0, 0, , 0, 0, 0, 0, 0, 
394, 1, 394, 394, 7731, 11.207742251318114, -2.643355887804066, 3.7464508325898227, 1.3554556938436502, Caapa, 0, 0, 0, 0, , 0, 0, 0, 0, 0, 
2157, 1, 2157, 2157, 7732, 5.8552201939117765, -3.2055322159278923, -2.0890323993140134, 1.3554556938436502, Capaa, 0, 0, 0, 0, , 0, 0, 0, 0, 0, 
329, 1, 329, 329, 7733, -3.3473650015411134, -7.515698485049918, 0.08892376849131915, 1.2429895051922986, ABplpaapa, 0, 0, 0, 0, , 0, 0, 0, 0, 0, 
214, 1, 214, 214, 7734, -7.178597393878548, 2.298985371513588, 4.909208100966036, 1.3067325567406214, ABarpapaa, 0, 0, 0, 0, , 0, 0, 0, 0, 0, 
5646, 1, 5646, 5646, 7735, 6.0633634193559045, -3.0608849366636717, -0.615291913107938, 1.3554556938436502, Dapa, 0, 0, 0, 0, , 0, 0, 0, 0, 0, 
21, 1, 21, 21, 7736, 5.683387225812649, -1.850390792540309, -4.651879225113369, 1.2429895051922986, ABplpappp, 0, 0, 0, 0, , 0, 0, 0, 0, 0, 
32, 1, 32, 32, 7737, 2.0031060550373594, -0.038950516991366674, 4.1514929833742045, 1.3067325567406214, ABarpaapp, 0, 0, 0, 0, , 0, 0, 0, 0, 0, 
9, 1, 9, 9, 7738, 10.664174645249915, -4.611718189320073, -2.408198182317871, 1.2429895051922986, ABplapppp, 0, 0, 0, 0, , 0, 0, 0, 0, 0, 
10, 1, 10, 10, 7739, -2.42329158444759, 5.631303370739235, -3.080059691815877, 1.3067325567406214, ABarapppp, 0, 0, 0, 0, , 0, 0, 0, 0, 0, 
252, 1, 252, 252, 7740, -2.9800574960868556, -4.464686930728137, 4.6662984794540625, 1.2429895051922986, ABplaaapa, 0, 0, 0, 0, , 0, 0, 0, 0, 0, 
