3, 1, 3, 3, -1, 4.485328575351958, 6.836508876947615, 2.095481648106548, 3.219, EMS, 0, 0, 0, 0, , 0, 0, 0, 0, 0, 
2, 1, 2, 2, -1, -3.3059999999999996, 3.6975, 2.52, 3.5669999999999997, ABa, 0, 0, 0, 0, , 0, 0, 0, 0, 0, 
4, 1, 4, 4, -1, 10.175432005744312, 4.03837457727977, 2.2105248840065537, 3.219, P2, 0, 0, 0, 0, , 0, 0, 0, 0, 0, 
1, 1, 1, 1, -1, 5.133, -0.8264999999999999, 2.016, 3.393, ABp, 0, 0, 0, 0, , 0, 0, 0, 0, 0, 
