6, 1, 6, 6, -1, 2.507610676649951, -1.2990586175576881, -5.162645591834684, 2.95191, ABpl, 0, 0, 0, 0, , 0, 0, 0, 0, 0, 
4, 1, 4, 4, -1, 10.175432005744312, 4.03837457727977, 2.2105248840065537, 3.219, P2, 0, 0, 0, 0, , 0, 0, 0, 0, 0, 
2, 1, 2, 2, -1, -3.6828153774403165, 1.5651471391454195, 5.795121555142915, 3.10329, ABar, 0, 0, 0, 0, , 0, 0, 0, 0, 0, 
3, 1, 3, 3, -1, 2.2036093353431148, 6.7738047261456265, 2.95300809463437, 2.8005299999999997, MS, 0, 0, 0, 0, , 0, 0, 0, 0, 0, 
1, 1, 1, 1, -1, 4.781513129120709, -2.679798606993771, 5.5272224609907035, 2.95191, ABpr, 0, 0, 0, 0, , 0, 0, 0, 0, 0, 
5, 1, 5, 5, -1, -4.640332544054014, 6.427950556316467, -2.5332876567793936, 3.10329, ABal, 0, 0, 0, 0, , 0, 0, 0, 0, 0, 
7, 1, 7, 7, -1, 6.044509893037425, 6.60943284288752, 1.3574703912418025, 2.8005299999999997, E, 0, 0, 0, 0, , 0, 0, 0, 0, 0, 
