2, 1, 2, 2, -1, -5.260236168430963, -0.04935798706100607, 6.604840751407835, 3.10329, ABar, 0, 0, 0, 0, , 0, 0, 0, 0, 0, 
8, 1, 8, 8, -1, 9.487745866976903, 1.525460979917839, 1.2681602423908376, 2.8005299999999997, C, 0, 0, 0, 0, , 0, 0, 0, 0, 0, 
6, 1, 6, 6, -1, 2.1643566101312763, -2.948905586063946, -6.289186424976175, 2.95191, ABpl, 0, 0, 0, 0, , 0, 0, 0, 0, 0, 
4, 1, 4, 4, -1, 9.8819132666308, 4.280472521192663, 2.2737030816013766, 2.8005299999999997, P3, 0, 0, 0, 0, , 0, 0, 0, 0, 0, 
5, 1, 5, 5, -1, -5.360742367877512, 5.789596893910292, -3.426729974429313, 3.10329, ABal, 0, 0, 0, 0, , 0, 0, 0, 0, 0, 
3, 1, 3, 3, -1, 0.31994448799002995, 6.52951295066728, 3.5706378545479263, 2.8005299999999997, MS, 0, 0, 0, 0, , 0, 0, 0, 0, 0, 
1, 1, 1, 1, -1, 4.159757582590214, -3.870141643245028, 5.860691268616969, 2.95191, ABpr, 0, 0, 0, 0, , 0, 0, 0, 0, 0, 
7, 1, 7, 7, -1, 7.419659811477383, 5.97235116946352, -0.12851410563369156, 2.8005299999999997, E, 0, 0, 0, 0, , 0, 0, 0, 0, 0, 
