1, 1, 1, 1, -1, 3.8197254942726144, -3.9636729872200513, 5.8777798015969145, 2.95191, ABpr, 0, 0, 0, 0, , 0, 0, 0, 0, 0, 
7, 1, 7, 7, -1, 7.0282135234979926, 6.129644557458511, -0.4570508504305497, 2.8005299999999997, E, 0, 0, 0, 0, , 0, 0, 0, 0, 0, 
2, 1, 2, 2, -1, -5.48461099497873, -0.4028938352532907, 6.680338768015164, 3.10329, ABar, 0, 0, 0, 0, , 0, 0, 0, 0, 0, 
4, 1, 4, 4, -1, 9.60944485713649, 4.482282557010165, 2.3242345980384083, 2.8005299999999997, P3, 0, 0, 0, 0, , 0, 0, 0, 0, 0, 
8, 1, 8, 8, -1, 9.435804101909545, 0.9634282422057419, 1.0652106330615854, 2.8005299999999997, C, 0, 0, 0, 0, , 0, 0, 0, 0, 0, 
5, 1, 5, 5, -1, -5.465401172667949, 5.616712376923856, -3.6489520240713547, 3.10329, ABal, 0, 0, 0, 0, , 0, 0, 0, 0, 0, 
3, 1, 3, 3, -1, -0.09225501880623113, 6.441698039888369, 3.734135007101656, 2.8005299999999997, MS, 0, 0, 0, 0, , 0, 0, 0, 0, 0, 
6, 1, 6, 6, -1, 1.7835776040615265, -3.1573980091374034, -6.656232717991776, 2.95191, ABpl, 0, 0, 0, 0, , 0, 0, 0, 0, 0, 
