12, 1, 12, 12, -1, 1.4935943812195127, -6.519154154644924, -3.488174247180388, 2.2343006789999995, ABplap, 0, 0, 0, 0, , 0, 0, 0, 0, 0, 
1, 1, 1, 1, -1, 8.241684325612098, -1.7621558373956134, 5.300950496303412, 2.2343006789999995, ABprpp, 0, 0, 0, 0, , 0, 0, 0, 0, 0, 
7, 1, 7, 7, -1, 7.0327157628380546, 4.394981203041567, -4.297352829748172, 2.4364611, Ep, 0, 0, 0, 0, , 0, 0, 0, 0, 0, 
22, 1, 22, 22, -1, 12.386911482743539, -0.0963741235601118, 0.6025356101004393, 2.4364611, D, 0, 0, 0, 0, , 0, 0, 0, 0, 0, 
10, 1, 10, 10, -1, -4.017555269439838, -1.2486940696978017, -6.944297146744423, 2.348880201, ABalap, 0, 0, 0, 0, , 0, 0, 0, 0, 0, 
19, 1, 19, 19, -1, -3.418797375224586, -6.709774950944037, 2.4929333489079646, 2.2343006789999995, ABpraa, 0, 0, 0, 0, , 0, 0, 0, 0, 0, 
21, 1, 21, 21, -1, -5.1036548722477795, -5.956648940855414, -3.277879262358263, 2.2343006789999995, ABplaa, 0, 0, 0, 0, , 0, 0, 0, 0, 0, 
5, 1, 5, 5, -1, -3.6432945926892506, 5.368589230367831, -4.672856781072248, 2.348880201, ABalpp, 0, 0, 0, 0, , 0, 0, 0, 0, 0, 
11, 1, 11, 11, -1, 2.8483306071283585, -6.609988758308463, 3.002130993461066, 2.2343006789999995, ABprap, 0, 0, 0, 0, , 0, 0, 0, 0, 0, 
2, 1, 2, 2, -1, -3.014204268948281, 0.4443581410761988, 0.5170543140472095, 2.348880201, ABarpp, 0, 0, 0, 0, , 0, 0, 0, 0, 0, 
6, 1, 6, 6, -1, 6.723727523066587, -2.023773974952642, -5.931314945432295, 2.2343006789999995, ABplpp, 0, 0, 0, 0, , 0, 0, 0, 0, 0, 
8, 1, 8, 8, -1, 8.408184893542145, -5.479824389382812, -0.29132466893765185, 2.4364611, Cp, 0, 0, 0, 0, , 0, 0, 0, 0, 0, 
15, 1, 15, 15, -1, 4.387939722165188, -0.9434079592949881, 0.7388220925382915, 2.4364611, Ca, 0, 0, 0, 0, , 0, 0, 0, 0, 0, 
14, 1, 14, 14, -1, 1.8000939106024054, 7.278851384532858, -1.1454346817867629, 2.4364611, Ea, 0, 0, 0, 0, , 0, 0, 0, 0, 0, 
16, 1, 16, 16, -1, -9.149214705275881, -3.522714485862367, 1.421603653154143, 2.348880201, ABarpa, 0, 0, 0, 0, , 0, 0, 0, 0, 0, 
25, 1, 25, 25, -1, -0.8405988342048943, 5.35317788732136, 4.938471101209922, 2.119721157, MSpa, 0, 0, 0, 0, , 0, 0, 0, 0, 0, 
3, 1, 3, 3, -1, 4.375337086044569, 5.035409508909625, 5.124276235231986, 2.119721157, MSpp, 0, 0, 0, 0, , 0, 0, 0, 0, 0, 
17, 1, 17, 17, -1, -7.92549072364403, 1.5397887189580768, 5.533110461191501, 2.348880201, ABaraa, 0, 0, 0, 0, , 0, 0, 0, 0, 0, 
4, 1, 4, 4, -1, 8.758307900013087, 4.863818562990617, 2.068591492746935, 2.4364611, P4, 0, 0, 0, 0, , 0, 0, 0, 0, 0, 
20, 1, 20, 20, -1, -9.065989788902206, 5.035132534645493, 0.7355265533023411, 2.348880201, ABalpa, 0, 0, 0, 0, , 0, 0, 0, 0, 0, 
24, 1, 24, 24, -1, 1.2676245947125513, 0.046916191036811716, -4.338536661155565, 2.2343006789999995, ABplpa, 0, 0, 0, 0, , 0, 0, 0, 0, 0, 
23, 1, 23, 23, -1, -8.54518300443948, 0.831086895828097, -3.5535502919705797, 2.348880201, ABalaa, 0, 0, 0, 0, , 0, 0, 0, 0, 0, 
13, 1, 13, 13, 26, -4.018257936583287, 5.9700405023121075, 3.7435490138997785, 2.4364611, MSa, 0, 0, 0, 0, , 0, 0, 0, 0, 0, 
9, 1, 9, 9, -1, -3.1912385959815683, -2.1330045702602294, 6.4576323481037265, 2.348880201, ABarap, 0, 0, 0, 0, , 0, 0, 0, 0, 0, 
18, 1, 18, 18, -1, 2.617452414915475, -0.6359447639194353, 7.251066489789647, 2.2343006789999995, ABprpa, 0, 0, 0, 0, , 0, 0, 0, 0, 0, 
