27, 1, 27, 27, -1, 1.1867876744362682, -2.5283528282496777, 0.48581406120434806, 2.119721157, Caa, 0, 0, 0, 0, , 0, 0, 0, 0, 0, 
23, 1, 23, 23, -1, -9.890219633529071, -0.3992348791187858, -4.486003146871688, 2.348880201, ABalaa, 0, 0, 0, 0, , 0, 0, 0, 0, 0, 
1, 1, 1, 1, -1, 8.667328422330009, -1.6833366502900606, 5.064067973909955, 2.2343006789999995, ABprpp, 0, 0, 0, 0, , 0, 0, 0, 0, 0, 
17, 1, 17, 17, -1, -8.683102082127341, -1.1170705759058992, 5.211146410287671, 2.348880201, ABaraa, 0, 0, 0, 0, , 0, 0, 0, 0, 0, 
11, 1, 11, 11, -1, 2.7362574417412144, -6.491055586244503, 3.2813563079819095, 2.2343006789999995, ABprap, 0, 0, 0, 0, , 0, 0, 0, 0, 0, 
3, 1, 3, 3, -1, 5.83549706687992, 4.580718773856698, 4.733928390584468, 2.119721157, MSpp, 0, 0, 0, 0, , 0, 0, 0, 0, 0, 
2, 1, 2, 2, -1, -4.201382592813981, 0.12611923861098223, 0.17546163151432131, 2.348880201, ABarpp, 0, 0, 0, 0, , 0, 0, 0, 0, 0, 
16, 1, 16, 16, -1, -9.686955752553098, -4.650196410866214, 0.3082851702192891, 2.348880201, ABarpa, 0, 0, 0, 0, , 0, 0, 0, 0, 0, 
7, 1, 7, 7, -1, 7.010931688960876, 3.208217239028157, -5.253000989222898, 2.4364611, Ep, 0, 0, 0, 0, , 0, 0, 0, 0, 0, 
24, 1, 24, 24, -1, 1.5381474572595049, 0.5902879982532409, -4.728923143922176, 2.2343006789999995, ABplpa, 0, 0, 0, 0, , 0, 0, 0, 0, 0, 
6, 1, 6, 6, -1, 6.503817074851399, -2.8911898303275767, -5.652282066130999, 2.2343006789999995, ABplpp, 0, 0, 0, 0, , 0, 0, 0, 0, 0, 
14, 1, 14, 14, -1, 2.918844929087404, 6.811226377578547, -2.450472394604188, 2.4364611, Ea, 0, 0, 0, 0, , 0, 0, 0, 0, 0, 
13, 1, 13, 13, -1, -1.6178290048765425, 7.195617018460089, 1.655937732524146, 2.119721157, MSap, 0, 0, 0, 0, , 0, 0, 0, 0, 0, 
5, 1, 5, 5, -1, -3.6596886713711574, 5.566853676167512, -4.443685714289931, 2.348880201, ABalpp, 0, 0, 0, 0, , 0, 0, 0, 0, 0, 
19, 1, 19, 19, -1, -3.1837368481088983, -6.969883373912145, 1.7929786915284351, 2.2343006789999995, ABpraa, 0, 0, 0, 0, , 0, 0, 0, 0, 0, 
12, 1, 12, 12, -1, 1.2365166569694566, -6.531535412641114, -3.508907827064669, 2.2343006789999995, ABplap, 0, 0, 0, 0, , 0, 0, 0, 0, 0, 
18, 1, 18, 18, -1, 2.8837635193906235, -1.6206344821210898, 7.062559317125856, 2.2343006789999995, ABprpa, 0, 0, 0, 0, , 0, 0, 0, 0, 0, 
28, 1, 28, 28, -1, 6.250799671506421, -6.61489855957973, -0.8020622339570307, 2.119721157, Cpa, 0, 0, 0, 0, , 0, 0, 0, 0, 0, 
25, 1, 25, 25, -1, 0.01050682987962595, 3.738333975701631, 6.440495731235696, 2.119721157, MSpa, 0, 0, 0, 0, , 0, 0, 0, 0, 0, 
22, 1, 22, 22, -1, 12.311578427461216, -0.9103674045190769, -0.3455988781042023, 2.4364611, D, 0, 0, 0, 0, , 0, 0, 0, 0, 0, 
21, 1, 21, 21, -1, -5.233216301378711, -5.5904007787577035, -3.7985547951040917, 2.2343006789999995, ABplaa, 0, 0, 0, 0, , 0, 0, 0, 0, 0, 
20, 1, 20, 20, -1, -9.236147799186305, 4.901649895505013, -0.9187831086487634, 2.348880201, ABalpa, 0, 0, 0, 0, , 0, 0, 0, 0, 0, 
15, 1, 15, 15, -1, 5.707424967033643, 0.45544294885658876, 1.0401073324894188, 2.119721157, Cap, 0, 0, 0, 0, , 0, 0, 0, 0, 0, 
8, 1, 8, 8, -1, 9.239723041647066, -4.228433068295922, 0.4729571013290785, 2.119721157, Cpp, 0, 0, 0, 0, , 0, 0, 0, 0, 0, 
10, 1, 10, 10, -1, -4.008783249831046, -0.535288051682529, -7.0332325594748815, 2.348880201, ABalap, 0, 0, 0, 0, , 0, 0, 0, 0, 0, 
26, 1, 26, 26, -1, -6.14496830784324, 4.443616877547476, 4.707351964285483, 2.119721157, MSaa, 0, 0, 0, 0, , 0, 0, 0, 0, 0, 
9, 1, 9, 9, -1, -3.033331843471831, -3.10143803319917, 6.527802626146423, 2.348880201, ABarap, 0, 0, 0, 0, , 0, 0, 0, 0, 0, 
4, 1, 4, 4, -1, 9.831454014702594, 4.556209694996997, -0.008662419557254712, 2.4364611, P4, 0, 0, 0, 0, , 0, 0, 0, 0, 0, 
