62, 1, 62, 62, -1, 5.384642835638223, -4.9224417822855475, 4.867099983687795, 1.6911421839350995, ABprappa, 0, 0, 0, 0, , 0, 0, 0, 0, 0, 
25, 1, 25, 25, -1, -0.03658349866273817, 3.107875518685667, 6.768000332593637, 1.84415740659, MSpap, 0, 0, 0, 0, , 0, 0, 0, 0, 0, 
65, 1, 65, 65, -1, -7.335916482855033, -4.745105963053076, -3.6953964460312596, 1.6911421839350995, ABplaaaa, 0, 0, 0, 0, , 0, 0, 0, 0, 0, 
39, 1, 39, 39, -1, -9.949977006976917, 2.1609174658241193, 1.3570898095007384, 1.7778674241369, ABarppap, 0, 0, 0, 0, , 0, 0, 0, 0, 0, 
56, 1, 56, 56, -1, -7.139793188414103, -3.889258412546615, 4.809500750566114, 1.7778674241369, ABarapaa, 0, 0, 0, 0, , 0, 0, 0, 0, 0, 
3, 1, 3, 3, -1, 5.566868337419484, 6.380450804308786, 1.9173173411084257, 1.84415740659, MSppp, 0, 0, 0, 0, , 0, 0, 0, 0, 0, 
51, 1, 51, 51, -1, -1.709537248050106, 7.376617120943269, -0.1580331603836234, 1.84415740659, MSapa, 0, 0, 0, 0, , 0, 0, 0, 0, 0, 
26, 1, 26, 26, -1, -3.232870589311606, 5.367078262093545, 4.7845787275783564, 1.84415740659, MSaap, 0, 0, 0, 0, , 0, 0, 0, 0, 0, 
47, 1, 47, 47, -1, -2.8242332317042793, 0.9325628955056109, 4.10146918356346, 1.84415740659, MSpaa, 0, 0, 0, 0, , 0, 0, 0, 0, 0, 
6, 1, 6, 6, -1, 7.235356612716885, -4.5648711986569825, -3.9851469648475035, 1.9438415907299995, ABplppp, 0, 0, 0, 0, , 0, 0, 0, 0, 0, 
42, 1, 42, 42, -1, 3.7340192791811435, -3.307599543544096, -6.291102666297865, 1.9438415907299995, ABplppa, 0, 0, 0, 0, , 0, 0, 0, 0, 0, 
16, 1, 16, 16, 80, -6.974673818283881, -1.259701550784349, 1.6585219766760981, 2.04352577487, ABarpap, 0, 0, 0, 0, , 0, 0, 0, 0, 0, 
48, 1, 48, 48, -1, 11.040067294752701, 0.6727883521445717, -3.3442052312748904, 2.119721157, Da, 0, 0, 0, 0, , 0, 0, 0, 0, 0, 
63, 1, 63, 63, -1, -5.005429428627897, 1.4963559416417078, 0.21443805832839388, 1.7778674241369, ABarpppa, 0, 0, 0, 0, , 0, 0, 0, 0, 0, 
79, 1, 79, 79, -1, 6.572331192709424, 0.5678679619505894, -0.7195788406513283, 1.84415740659, Capa, 0, 0, 0, 0, , 0, 0, 0, 0, 0, 
28, 1, 28, 28, -1, 7.053104215377525, -4.508535913641159, 0.9384217496921851, 1.84415740659, Cpap, 0, 0, 0, 0, , 0, 0, 0, 0, 0, 
29, 1, 29, 29, -1, -4.682392853043259, -4.030273684185858, 5.203349440607571, 1.7778674241369, ABarapap, 0, 0, 0, 0, , 0, 0, 0, 0, 0, 
40, 1, 40, 40, -1, 0.8716263799627604, -5.656591650886344, -4.253292400720413, 1.6911421839350995, ABplapap, 0, 0, 0, 0, , 0, 0, 0, 0, 0, 
37, 1, 37, 37, -1, -5.174235067617032, 4.956901952916145, -4.611075786961682, 2.04352577487, ABalppa, 0, 0, 0, 0, , 0, 0, 0, 0, 0, 
73, 1, 73, 73, -1, -3.778133890964581, -7.308141555655857, -0.07574891999489772, 1.6911421839350995, ABpraaaa, 0, 0, 0, 0, , 0, 0, 0, 0, 0, 
43, 1, 43, 43, -1, -10.148715279481245, -2.340885657442418, -3.5985378184241648, 2.04352577487, ABalaaa, 0, 0, 0, 0, , 0, 0, 0, 0, 0, 
59, 1, 59, 59, -1, 10.331932223455167, -4.380230089504085, -0.9301702969229079, 1.84415740659, Cppa, 0, 0, 0, 0, , 0, 0, 0, 0, 0, 
71, 1, 71, 71, -1, -12.2806731535494, 1.0349758779844962, 1.8180144463685486, 1.7778674241369, ABarppaa, 0, 0, 0, 0, , 0, 0, 0, 0, 0, 
54, 1, 54, 54, -1, -2.4671111652711626, -5.702281208904723, -4.554595875260497, 1.6911421839350995, ABplapaa, 0, 0, 0, 0, , 0, 0, 0, 0, 0, 
5, 1, 5, 5, -1, -0.3728511855112191, 6.11680795559923, -4.1742533305486775, 1.7778674241369, ABalpppp, 0, 0, 0, 0, , 0, 0, 0, 0, 0, 
22, 1, 22, 22, -1, 12.034040490998672, 0.9632978672874815, 1.5951335782509304, 2.119721157, Dp, 0, 0, 0, 0, , 0, 0, 0, 0, 0, 
27, 1, 27, 27, -1, 4.478655890564935, -0.36199934764927993, 2.7217663264894534, 1.84415740659, Caap, 0, 0, 0, 0, , 0, 0, 0, 0, 0, 
31, 1, 31, 31, -1, -5.075209962402315, -5.242230364998177, -4.332518944451727, 1.6911421839350995, ABplaaap, 0, 0, 0, 0, , 0, 0, 0, 0, 0, 
21, 1, 21, 21, -1, -2.2590936562056028, -2.175533282072998, -1.5746302590988803, 1.6911421839350995, ABplaapp, 0, 0, 0, 0, , 0, 0, 0, 0, 0, 
57, 1, 57, 57, -1, -3.903004360807727, -5.031045173869003, 2.7936045538070737, 1.6911421839350995, ABpraapa, 0, 0, 0, 0, , 0, 0, 0, 0, 0, 
77, 1, 77, 77, -1, 8.842604436283494, -1.4650949197679708, 5.311213011780835, 1.6911421839350995, ABprppaa, 0, 0, 0, 0, , 0, 0, 0, 0, 0, 
11, 1, 11, 11, -1, 6.520461058844519, -3.192424463768352, 4.451609011386791, 1.6911421839350995, ABprappp, 0, 0, 0, 0, , 0, 0, 0, 0, 0, 
1, 1, 1, 1, -1, 8.489055746849138, 3.702065860039882, 3.988721866023381, 1.9438415907299995, ABprppp, 0, 0, 0, 0, , 0, 0, 0, 0, 0, 
44, 1, 44, 44, -1, -4.076255529527377, -1.5692466585861162, -6.958995947325426, 1.7778674241369, ABalapap, 0, 0, 0, 0, , 0, 0, 0, 0, 0, 
33, 1, 33, 33, -1, 2.4837276076137353, 0.8103165895161205, -7.270251375446906, 1.6911421839350995, ABplpaap, 0, 0, 0, 0, , 0, 0, 0, 0, 0, 
78, 1, 78, 78, -1, 3.8206335893882315, 1.020156684620344, 6.724143311849206, 1.6911421839350995, ABprpapa, 0, 0, 0, 0, , 0, 0, 0, 0, 0, 
64, 1, 64, 64, -1, -8.573703094652666, 5.652593628940804, -0.25820623568184803, 1.7778674241369, ABalpapa, 0, 0, 0, 0, , 0, 0, 0, 0, 0, 
70, 1, 70, 70, -1, -1.3582485219800664, 6.015979825446766, -4.478099960470187, 1.7778674241369, ABalpppa, 0, 0, 0, 0, , 0, 0, 0, 0, 0, 
69, 1, 69, 69, -1, -5.1254804759201456, -1.582110181023505, -6.4304304678602255, 1.7778674241369, ABalapaa, 0, 0, 0, 0, , 0, 0, 0, 0, 0, 
61, 1, 61, 61, -1, -8.207544508532516, -5.802694983086537, 0.7174382322210929, 1.7778674241369, ABarpaaa, 0, 0, 0, 0, , 0, 0, 0, 0, 0, 
45, 1, 45, 45, -1, 2.5618138030336044, 7.189815354084192, -1.1698483183926303, 2.119721157, Eal, 0, 0, 0, 0, , 0, 0, 0, 0, 0, 
49, 1, 49, 49, -1, -7.441042774190915, 4.411812125417591, 4.011493417943006, 1.84415740659, MSaaa, 0, 0, 0, 0, , 0, 0, 0, 0, 0, 
7, 1, 7, 7, -1, 7.298702667865977, -0.34586542839960305, -5.787534462786369, 2.119721157, Epr, 0, 0, 0, 0, , 0, 0, 0, 0, 0, 
20, 1, 20, 20, -1, -5.535811533027795, 6.525329783810172, 0.11083020435728352, 1.7778674241369, ABalpapp, 0, 0, 0, 0, , 0, 0, 0, 0, 0, 
15, 1, 15, 15, -1, 7.645815252869198, 0.5526568451400616, -0.3172101879313505, 1.84415740659, Capp, 0, 0, 0, 0, , 0, 0, 0, 0, 0, 
75, 1, 75, 75, -1, 1.9306677135838985, 0.9293962481450027, -7.282406802700999, 1.6911421839350995, ABplpaaa, 0, 0, 0, 0, , 0, 0, 0, 0, 0, 
32, 1, 32, 32, -1, -10.050301945018012, -3.101251069760286, 2.4497246300236957, 1.7778674241369, ABaraaap, 0, 0, 0, 0, , 0, 0, 0, 0, 0, 
30, 1, 30, 30, -1, 1.9612267636476401, -5.339193105483057, 3.9300843462363995, 1.6911421839350995, ABprapap, 0, 0, 0, 0, , 0, 0, 0, 0, 0, 
46, 1, 46, 46, -1, 5.324081386714766, 3.7805403526526886, -5.569763846284787, 2.119721157, Epl, 0, 0, 0, 0, , 0, 0, 0, 0, 0, 
55, 1, 55, 55, -1, -5.613082569156268, -1.970002844147816, -2.4703739213558276, 1.6911421839350995, ABplaapa, 0, 0, 0, 0, , 0, 0, 0, 0, 0, 
10, 1, 10, 10, -1, -1.8808695402959916, 1.9440993926638492, -5.728598305884406, 2.04352577487, ABalapp, 0, 0, 0, 0, , 0, 0, 0, 0, 0, 
35, 1, 35, 35, -1, -7.148022862143128, -5.430878949248345, -0.5938526156326269, 1.7778674241369, ABarpaap, 0, 0, 0, 0, , 0, 0, 0, 0, 0, 
18, 1, 18, 18, -1, 5.022569471661297, 2.9707524690474445, 6.371475473606531, 1.6911421839350995, ABprpapp, 0, 0, 0, 0, , 0, 0, 0, 0, 0, 
2, 1, 2, 2, -1, -1.9733467668868083, 3.2815085608533243, -0.9368652891499264, 1.7778674241369, ABarpppp, 0, 0, 0, 0, , 0, 0, 0, 0, 0, 
41, 1, 41, 41, -1, 3.2989102347869967, -2.222351412791341, 6.832151080442607, 1.9438415907299995, ABprpaa, 0, 0, 0, 0, , 0, 0, 0, 0, 0, 
58, 1, 58, 58, -1, 0.1950312920222548, -1.0944543936776547, -3.2310319866853723, 1.6911421839350995, ABplpapa, 0, 0, 0, 0, , 0, 0, 0, 0, 0, 
76, 1, 76, 76, -1, -7.823361782075902, 0.1103230866071609, 6.028103396021945, 1.7778674241369, ABaraapa, 0, 0, 0, 0, , 0, 0, 0, 0, 0, 
74, 1, 74, 74, -1, -10.776141593023704, -2.4665888751163374, 3.2594434861118557, 1.7778674241369, ABaraaaa, 0, 0, 0, 0, , 0, 0, 0, 0, 0, 
60, 1, 60, 60, 81, 10.516623948298657, 3.8700778558411724, -1.1273030462724354, 2.119721157, Z2, 0, 0, 0, 0, , 0, 0, 0, 0, 0, 
19, 1, 19, 19, -1, -2.1622409032186867, -3.010410734196746, 1.4339823977460704, 1.6911421839350995, ABpraapp, 0, 0, 0, 0, , 0, 0, 0, 0, 0, 
34, 1, 34, 34, 82, -9.804474429416922, 3.534752050543475, -2.9031909112415066, 2.04352577487, ABalpaa, 0, 0, 0, 0, , 0, 0, 0, 0, 0, 
17, 1, 17, 17, -1, -6.511816210161114, 0.5562559021913899, 5.826333973358623, 1.7778674241369, ABaraapp, 0, 0, 0, 0, , 0, 0, 0, 0, 0, 
24, 1, 24, 24, -1, 3.4992270203841724, -1.6549922993136594, -2.0301482360880647, 1.6911421839350995, ABplpapp, 0, 0, 0, 0, , 0, 0, 0, 0, 0, 
36, 1, 36, 36, -1, 9.850573691600022, -0.3195888322328906, 4.379780880733505, 1.6911421839350995, ABprppap, 0, 0, 0, 0, , 0, 0, 0, 0, 0, 
12, 1, 12, 12, 83, 0.6384788198392468, -6.122671297284942, -0.4927800498107567, 1.9438415907299995, ABplapp, 0, 0, 0, 0, , 0, 0, 0, 0, 0, 
13, 1, 13, 13, -1, 0.608080499691481, 6.72279243580023, 3.1905061807154693, 1.84415740659, MSapp, 0, 0, 0, 0, , 0, 0, 0, 0, 0, 
8, 1, 8, 8, -1, 10.764251616921273, -1.9533048853822073, -0.4339233395522406, 1.84415740659, Cppp, 0, 0, 0, 0, , 0, 0, 0, 0, 0, 
23, 1, 23, 23, 84, -7.031454588450567, 1.234698626637776, -3.544204992057335, 2.04352577487, ABalaap, 0, 0, 0, 0, , 0, 0, 0, 0, 0, 
66, 1, 66, 66, -1, -2.9481014420287344, -3.1161750877799825, 6.749934114566906, 1.7778674241369, ABarappa, 0, 0, 0, 0, , 0, 0, 0, 0, 0, 
53, 1, 53, 53, -1, 4.260000222679619, -6.9878392963804234, 0.26716812581363963, 1.84415740659, Cpaa, 0, 0, 0, 0, , 0, 0, 0, 0, 0, 
14, 1, 14, 14, -1, 2.1316282354446425, 2.8353914823526307, -2.582284142338692, 2.119721157, Ear, 0, 0, 0, 0, , 0, 0, 0, 0, 0, 
67, 1, 67, 67, -1, 0.6222186292722304, -6.151820390138322, 4.540385725927302, 1.6911421839350995, ABprapaa, 0, 0, 0, 0, , 0, 0, 0, 0, 0, 
38, 1, 38, 38, -1, -3.0863444718580366, -7.00500108237596, -0.9343288081440142, 1.6911421839350995, ABpraaap, 0, 0, 0, 0, , 0, 0, 0, 0, 0, 
9, 1, 9, 9, -1, -0.42961018365541653, -1.7015213666850133, 6.707757244244831, 1.7778674241369, ABarappp, 0, 0, 0, 0, , 0, 0, 0, 0, 0, 
50, 1, 50, 50, -1, 2.7113726098197035, 3.3301278075243763, 2.1910468762519217, 1.84415740659, MSppa, 0, 0, 0, 0, , 0, 0, 0, 0, 0, 
52, 1, 52, 52, -1, 1.5575161215546949, -2.5879398215309806, 1.4302897622474782, 1.84415740659, Caaa, 0, 0, 0, 0, , 0, 0, 0, 0, 0, 
4, 1, 4, 4, 85, 7.039229613361148, 5.795983705765061, -1.966849244068208, 2.119721157, Z3, 0, 0, 0, 0, , 0, 0, 0, 0, 0, 
