41, 1, 41, 41, -1, 4.368656210146389, -2.194817958373225, 6.00795636042948, 1.6911421839350995, ABprpaap, 0, 0, 0, 0, , 0, 0, 0, 0, 0, 
64, 1, 64, 64, -1, -7.891815759168626, 5.744863537689599, -0.19595570646739074, 1.7778674241369, ABalpapa, 0, 0, 0, 0, , 0, 0, 0, 0, 0, 
63, 1, 63, 63, -1, -5.048362017489792, 3.2555181422698847, -0.4462238233040633, 1.7778674241369, ABarpppa, 0, 0, 0, 0, , 0, 0, 0, 0, 0, 
31, 1, 31, 31, -1, -3.702750786547697, -5.109593669254405, -4.942332715745169, 1.6911421839350995, ABplaaap, 0, 0, 0, 0, , 0, 0, 0, 0, 0, 
93, 1, 93, 93, -1, -11.362043107889159, -1.7482899602460742, -1.2456232552046056, 1.7778674241369, ABalaaaa, 0, 0, 0, 0, , 0, 0, 0, 0, 0, 
26, 1, 26, 26, -1, -3.118739594905994, 5.745567030701909, 4.350216880114569, 1.84415740659, MSaap, 0, 0, 0, 0, , 0, 0, 0, 0, 0, 
59, 1, 59, 59, -1, 10.097314216778825, -4.339480622359936, -0.0888219063953861, 1.84415740659, Cppa, 0, 0, 0, 0, , 0, 0, 0, 0, 0, 
61, 1, 61, 61, -1, -7.51762841284674, -5.532823302334807, 2.1186789316089687, 1.7778674241369, ABarpaaa, 0, 0, 0, 0, , 0, 0, 0, 0, 0, 
24, 1, 24, 24, -1, 3.5070839030839367, -2.323615356130311, -2.650474340112162, 1.6911421839350995, ABplpapp, 0, 0, 0, 0, , 0, 0, 0, 0, 0, 
84, 1, 84, 84, -1, -9.75223249147815, 0.6240881597797503, -2.8190494499913665, 1.7778674241369, ABalaapa, 0, 0, 0, 0, , 0, 0, 0, 0, 0, 
58, 1, 58, 58, -1, 0.650396333078512, -0.24998798287532034, -3.802650636140784, 1.6911421839350995, ABplpapa, 0, 0, 0, 0, , 0, 0, 0, 0, 0, 
76, 1, 76, 76, -1, -7.105659185028399, 0.24761474525202123, 6.107832821930662, 1.7778674241369, ABaraapa, 0, 0, 0, 0, , 0, 0, 0, 0, 0, 
2, 1, 2, 2, -1, -1.3465204955661576, 3.784055052928628, -1.1002861802531079, 1.7778674241369, ABarpppp, 0, 0, 0, 0, , 0, 0, 0, 0, 0, 
20, 1, 20, 20, -1, -4.53274670832623, 6.899730410370645, 0.701167973191521, 1.7778674241369, ABalpapp, 0, 0, 0, 0, , 0, 0, 0, 0, 0, 
51, 1, 51, 51, -1, -0.9819815794539636, 7.42849003468093, -0.07181852348465309, 1.84415740659, MSapa, 0, 0, 0, 0, , 0, 0, 0, 0, 0, 
79, 1, 79, 79, -1, 4.94051140364988, 0.8376131813815816, -1.2836632730286583, 1.84415740659, Capa, 0, 0, 0, 0, , 0, 0, 0, 0, 0, 
73, 1, 73, 73, -1, -4.143102998689463, -6.846831250474974, 1.5559843882227515, 1.6911421839350995, ABpraaaa, 0, 0, 0, 0, , 0, 0, 0, 0, 0, 
28, 1, 28, 28, -1, 6.754499867929204, -4.422857315210065, 0.2212331086293953, 1.84415740659, Cpap, 0, 0, 0, 0, , 0, 0, 0, 0, 0, 
83, 1, 83, 83, -1, -0.9508805102658316, -6.704948555536735, -0.4675354686939967, 1.6911421839350995, ABplappa, 0, 0, 0, 0, , 0, 0, 0, 0, 0, 
66, 1, 66, 66, -1, -2.096830444982355, -2.3416279634313164, 6.961781241357446, 1.7778674241369, ABarappa, 0, 0, 0, 0, , 0, 0, 0, 0, 0, 
27, 1, 27, 27, -1, 4.7206408002181135, 0.8953240668592741, 3.14522517815983, 1.84415740659, Caap, 0, 0, 0, 0, , 0, 0, 0, 0, 0, 
82, 1, 82, 82, -1, -11.484220179041861, 2.7234912592466207, -0.8272686567211975, 1.7778674241369, ABalpaaa, 0, 0, 0, 0, , 0, 0, 0, 0, 0, 
40, 1, 40, 40, -1, 2.68585635679219, -5.844657796305984, -3.686611903681342, 1.6911421839350995, ABplapap, 0, 0, 0, 0, , 0, 0, 0, 0, 0, 
48, 1, 48, 48, -1, 10.23170380941535, 1.6596704385568335, -3.8814032320774916, 2.119721157, Da, 0, 0, 0, 0, , 0, 0, 0, 0, 0, 
33, 1, 33, 33, -1, 4.642517462605401, 1.3283722666832976, -6.781751445414879, 1.6911421839350995, ABplpaap, 0, 0, 0, 0, , 0, 0, 0, 0, 0, 
13, 1, 13, 13, -1, 0.8241816862236561, 6.633411432495284, 3.356851203687588, 1.84415740659, MSapp, 0, 0, 0, 0, , 0, 0, 0, 0, 0, 
16, 1, 16, 16, -1, -3.956879713091685, -0.18872011483027162, 0.6978715805958907, 1.7778674241369, ABarpapp, 0, 0, 0, 0, , 0, 0, 0, 0, 0, 
22, 1, 22, 22, -1, 11.642235376412355, 2.102004903309369, 1.5189472328626954, 2.119721157, Dp, 0, 0, 0, 0, , 0, 0, 0, 0, 0, 
3, 1, 3, 3, -1, 5.067405669649778, 6.457420925983922, 2.1261235629660855, 1.84415740659, MSppp, 0, 0, 0, 0, , 0, 0, 0, 0, 0, 
17, 1, 17, 17, -1, -3.513269115636226, 1.8859051822964858, 5.744192537237464, 1.7778674241369, ABaraapp, 0, 0, 0, 0, , 0, 0, 0, 0, 0, 
92, 1, 92, 92, -1, 0.5968720031972093, -3.275596415190188, -6.679182526561611, 1.6911421839350995, ABplppaa, 0, 0, 0, 0, , 0, 0, 0, 0, 0, 
62, 1, 62, 62, -1, 4.195992734908998, -5.289012101349738, 4.5992746094854455, 1.6911421839350995, ABprappa, 0, 0, 0, 0, , 0, 0, 0, 0, 0, 
96, 1, 96, 96, -1, -3.8061034126749598, 2.0432920372419634, -4.890936036760803, 1.7778674241369, ABalappa, 0, 0, 0, 0, , 0, 0, 0, 0, 0, 
74, 1, 74, 74, -1, -10.252513319018764, -1.142122211261249, 4.053064064853299, 1.7778674241369, ABaraaaa, 0, 0, 0, 0, , 0, 0, 0, 0, 0, 
43, 1, 43, 43, -1, -9.571287934544511, -2.4477836275761398, -4.067066436540669, 1.7778674241369, ABalaaap, 0, 0, 0, 0, , 0, 0, 0, 0, 0, 
49, 1, 49, 49, -1, -6.700096728671694, 4.381770089294278, 4.490332492110379, 1.84415740659, MSaaa, 0, 0, 0, 0, , 0, 0, 0, 0, 0, 
9, 1, 9, 9, -1, 0.21499091415657173, 0.3919802506008501, 6.625107241914239, 1.7778674241369, ABarappp, 0, 0, 0, 0, , 0, 0, 0, 0, 0, 
29, 1, 29, 29, -1, -4.601095500204564, -4.159529865180197, 5.533897662564193, 1.7778674241369, ABarapap, 0, 0, 0, 0, , 0, 0, 0, 0, 0, 
46, 1, 46, 46, -1, 5.396765869426216, 4.4979089716828184, -4.97683765224957, 2.119721157, Epl, 0, 0, 0, 0, , 0, 0, 0, 0, 0, 
35, 1, 35, 35, -1, -6.682981603716889, -5.027955364536245, -1.0900261929571444, 1.7778674241369, ABarpaap, 0, 0, 0, 0, , 0, 0, 0, 0, 0, 
12, 1, 12, 12, -1, 1.9436450335966036, -4.968868638331604, -0.43498430846930075, 1.6911421839350995, ABplappp, 0, 0, 0, 0, , 0, 0, 0, 0, 0, 
18, 1, 18, 18, -1, 4.999163569066288, 4.147551207438056, 5.4085561496725045, 1.6911421839350995, ABprpapp, 0, 0, 0, 0, , 0, 0, 0, 0, 0, 
60, 1, 60, 60, 103, 9.815914694370283, 4.430513971674957, -1.098702476429686, 2.119721157, Z2, 0, 0, 0, 0, , 0, 0, 0, 0, 0, 
77, 1, 77, 77, -1, 7.60420900129456, -1.196175593105426, 5.772688104345439, 1.6911421839350995, ABprppaa, 0, 0, 0, 0, , 0, 0, 0, 0, 0, 
34, 1, 34, 34, -1, -9.268973763839435, 3.9084033188242207, -3.0609081416390245, 1.7778674241369, ABalpaap, 0, 0, 0, 0, , 0, 0, 0, 0, 0, 
52, 1, 52, 52, -1, 3.187095051813849, -1.717019840762886, 1.008335080720027, 1.84415740659, Caaa, 0, 0, 0, 0, , 0, 0, 0, 0, 0, 
37, 1, 37, 37, -1, -3.5199378805399117, 5.563563637265233, -4.267941093534777, 1.7778674241369, ABalppap, 0, 0, 0, 0, , 0, 0, 0, 0, 0, 
25, 1, 25, 25, -1, -0.16878552183929543, 4.110261659925818, 6.204621356655007, 1.84415740659, MSpap, 0, 0, 0, 0, , 0, 0, 0, 0, 0, 
53, 1, 53, 53, -1, 4.507788312284419, -6.919634493175601, 0.5222387708146494, 1.84415740659, Cpaa, 0, 0, 0, 0, , 0, 0, 0, 0, 0, 
39, 1, 39, 39, -1, -8.51433615458099, 2.447544802482828, 1.6981689730310952, 1.7778674241369, ABarppap, 0, 0, 0, 0, , 0, 0, 0, 0, 0, 
80, 1, 80, 80, -1, -7.403961735903296, -1.2379567437331926, 1.6525864498673848, 1.7778674241369, ABarpapa, 0, 0, 0, 0, , 0, 0, 0, 0, 0, 
65, 1, 65, 65, -1, -6.887362595452972, -4.3811539010187355, -4.386039274184606, 1.6911421839350995, ABplaaaa, 0, 0, 0, 0, , 0, 0, 0, 0, 0, 
15, 1, 15, 15, -1, 8.224622775747045, 1.1584404431923632, 0.43746258810784966, 1.84415740659, Capp, 0, 0, 0, 0, , 0, 0, 0, 0, 0, 
87, 1, 87, 87, -1, 5.657585175973961, -4.657123655790616, -4.605206414195797, 1.6911421839350995, ABplpppa, 0, 0, 0, 0, , 0, 0, 0, 0, 0, 
70, 1, 70, 70, -1, -0.22352468858581195, 5.7960920731635275, -4.669230415044093, 1.7778674241369, ABalpppa, 0, 0, 0, 0, , 0, 0, 0, 0, 0, 
55, 1, 55, 55, -1, -5.515224519130968, -1.9446174335925168, -2.20274988809855, 1.6911421839350995, ABplaapa, 0, 0, 0, 0, , 0, 0, 0, 0, 0, 
44, 1, 44, 44, -1, -2.514590055722488, -1.309829478988047, -7.170304146009804, 1.7778674241369, ABalapap, 0, 0, 0, 0, , 0, 0, 0, 0, 0, 
75, 1, 75, 75, -1, 1.2408688637666898, 0.46866699336365203, -7.392170069857993, 1.6911421839350995, ABplpaaa, 0, 0, 0, 0, , 0, 0, 0, 0, 0, 
14, 1, 14, 14, -1, 2.076646845179169, 2.9071465137152845, -2.4579141560715145, 2.119721157, Ear, 0, 0, 0, 0, , 0, 0, 0, 0, 0, 
8, 1, 8, 8, -1, 11.201916273435392, -0.7893699984806682, -0.928731038144284, 1.84415740659, Cppp, 0, 0, 0, 0, , 0, 0, 0, 0, 0, 
78, 1, 78, 78, -1, 3.6978850647084127, 1.1905082421996642, 7.012394774132807, 1.6911421839350995, ABprpapa, 0, 0, 0, 0, , 0, 0, 0, 0, 0, 
1, 1, 1, 1, -1, 7.761710163555911, 4.843394500827694, 3.2136998421127694, 1.6911421839350995, ABprpppp, 0, 0, 0, 0, , 0, 0, 0, 0, 0, 
21, 1, 21, 21, -1, -1.9397069738646602, -2.6940844525758045, -2.7623026181727934, 1.6911421839350995, ABplaapp, 0, 0, 0, 0, , 0, 0, 0, 0, 0, 
86, 1, 86, 86, -1, 1.1985945860276161, -3.170273805049803, 6.697337520583978, 1.6911421839350995, ABprpaaa, 0, 0, 0, 0, , 0, 0, 0, 0, 0, 
5, 1, 5, 5, -1, 2.743005012040099, 6.467565136571333, -3.298524180621388, 1.7778674241369, ABalpppp, 0, 0, 0, 0, , 0, 0, 0, 0, 0, 
45, 1, 45, 45, -1, 2.6796797048646765, 7.275628098956783, -0.05934067827905763, 2.119721157, Eal, 0, 0, 0, 0, , 0, 0, 0, 0, 0, 
54, 1, 54, 54, -1, -0.5449714842799048, -5.983576866130504, -4.428094024094829, 1.6911421839350995, ABplapaa, 0, 0, 0, 0, , 0, 0, 0, 0, 0, 
6, 1, 6, 6, -1, 8.628620507619543, -4.357215387554593, -3.1109549169407607, 1.6911421839350995, ABplpppp, 0, 0, 0, 0, , 0, 0, 0, 0, 0, 
67, 1, 67, 67, -1, -1.1157477214181257, -5.844839776499536, 4.561480168572292, 1.6911421839350995, ABprapaa, 0, 0, 0, 0, , 0, 0, 0, 0, 0, 
4, 1, 4, 4, 104, 6.334623538383222, 6.211620298137072, -1.5884715552530162, 2.119721157, Z3, 0, 0, 0, 0, , 0, 0, 0, 0, 0, 
36, 1, 36, 36, -1, 10.759098762428009, -0.9300322862068596, 3.614375393480934, 1.6911421839350995, ABprppap, 0, 0, 0, 0, , 0, 0, 0, 0, 0, 
32, 1, 32, 32, -1, -10.465621366708378, -3.7139011705108302, 1.5140888774826176, 1.7778674241369, ABaraaap, 0, 0, 0, 0, , 0, 0, 0, 0, 0, 
10, 1, 10, 10, -1, -0.7428810732704494, 2.556898803159127, -5.873777395066574, 1.7778674241369, ABalappp, 0, 0, 0, 0, , 0, 0, 0, 0, 0, 
11, 1, 11, 11, -1, 6.363869855683741, -3.085505481357003, 3.277157737293459, 1.6911421839350995, ABprappp, 0, 0, 0, 0, , 0, 0, 0, 0, 0, 
91, 1, 91, 91, -1, 8.231211304776181, 1.648066651979379, 4.12853325367141, 1.6911421839350995, ABprpppa, 0, 0, 0, 0, , 0, 0, 0, 0, 0, 
42, 1, 42, 42, -1, 4.146318257084419, -2.192200314735365, -6.6740210070345425, 1.6911421839350995, ABplppap, 0, 0, 0, 0, , 0, 0, 0, 0, 0, 
56, 1, 56, 56, -1, -7.82519824029549, -3.3795818110352864, 4.699623296623389, 1.7778674241369, ABarapaa, 0, 0, 0, 0, , 0, 0, 0, 0, 0, 
23, 1, 23, 23, -1, -6.601493777993663, 1.0789607454726338, -3.5225737725335904, 1.7778674241369, ABalaapp, 0, 0, 0, 0, , 0, 0, 0, 0, 0, 
19, 1, 19, 19, -1, -0.49488007715228755, -1.5686839753070423, 0.4852538654572183, 1.6911421839350995, ABpraapp, 0, 0, 0, 0, , 0, 0, 0, 0, 0, 
71, 1, 71, 71, -1, -11.96551534757956, 0.7531027523359064, 1.8694662988841964, 1.7778674241369, ABarppaa, 0, 0, 0, 0, , 0, 0, 0, 0, 0, 
69, 1, 69, 69, -1, -6.1361576250383045, -1.307463078416181, -6.344088869448882, 1.7778674241369, ABalapaa, 0, 0, 0, 0, , 0, 0, 0, 0, 0, 
47, 1, 47, 47, -1, -0.7147112304189215, 1.5323249758936814, 2.9493639482554084, 1.84415740659, MSpaa, 0, 0, 0, 0, , 0, 0, 0, 0, 0, 
88, 1, 88, 88, -1, -6.457313700467631, 4.1248401362039155, -4.84234620496608, 1.7778674241369, ABalppaa, 0, 0, 0, 0, , 0, 0, 0, 0, 0, 
57, 1, 57, 57, -1, -2.909902623804738, -3.603027600973971, 2.435369820273899, 1.6911421839350995, ABpraapa, 0, 0, 0, 0, , 0, 0, 0, 0, 0, 
50, 1, 50, 50, -1, 2.3565932849826012, 3.5445741440412233, 1.4224114665202163, 1.84415740659, MSppa, 0, 0, 0, 0, , 0, 0, 0, 0, 0, 
38, 1, 38, 38, -1, -3.937248454010657, -6.771196479186169, -2.008788964181799, 1.6911421839350995, ABpraaap, 0, 0, 0, 0, , 0, 0, 0, 0, 0, 
30, 1, 30, 30, -1, 1.4394273139337077, -4.4455989054411225, 2.85904691441888, 1.6911421839350995, ABprapap, 0, 0, 0, 0, , 0, 0, 0, 0, 0, 
7, 1, 7, 7, -1, 7.782787480552831, -0.8358589059996172, -5.744229955468032, 2.119721157, Epr, 0, 0, 0, 0, , 0, 0, 0, 0, 0, 
