44, 1, 44, 44, -1, -3.286752244112691, -2.0111748509281497, -6.89854213151667, 1.7778674241369, ABalapap, 0, 0, 0, 0, , 0, 0, 0, 0, 0, 
35, 1, 35, 35, -1, -6.524731039484034, -6.070634244781118, -1.487546473869817, 1.7778674241369, ABarpaap, 0, 0, 0, 0, , 0, 0, 0, 0, 0, 
15, 1, 15, 15, -1, 7.774217321605809, -0.4400182218726247, -0.054406154994435366, 1.84415740659, Capp, 0, 0, 0, 0, , 0, 0, 0, 0, 0, 
14, 1, 14, 14, 177, 2.237882852303929, 2.576103868155982, -3.006307862940449, 1.84415740659, Earp, 0, 0, 0, 0, , 0, 0, 0, 0, 0, 
78, 1, 78, 78, -1, 4.892097581279837, 0.9052500340907539, 6.781708052025778, 1.6911421839350995, ABprpapa, 0, 0, 0, 0, , 0, 0, 0, 0, 0, 
26, 1, 26, 26, -1, -1.8932519715426, 4.928943437180079, 5.4677388443506105, 1.6044169437333, MSaapp, 0, 0, 0, 0, , 0, 0, 0, 0, 0, 
24, 1, 24, 24, -1, 3.3181927169592695, -3.15358287800615, -2.6943594912550353, 1.6911421839350995, ABplpapp, 0, 0, 0, 0, , 0, 0, 0, 0, 0, 
34, 1, 34, 34, -1, -7.327228456700092, 4.686760372962058, -3.780522526563986, 1.7778674241369, ABalpaap, 0, 0, 0, 0, , 0, 0, 0, 0, 0, 
63, 1, 63, 63, -1, -6.337243139177541, 2.8754490625850786, -0.7903775653443762, 1.7778674241369, ABarpppa, 0, 0, 0, 0, , 0, 0, 0, 0, 0, 
150, 1, 150, 150, -1, 7.6745714478484075, 1.7908238713749922, -2.8970366139340733, 1.84415740659, Daa, 0, 0, 0, 0, , 0, 0, 0, 0, 0, 
79, 1, 79, 79, -1, 4.637010403496277, 0.08111107205364278, -2.480560423964584, 1.84415740659, Capa, 0, 0, 0, 0, , 0, 0, 0, 0, 0, 
18, 1, 18, 18, -1, 5.181839449868833, 4.160067801879407, 5.345886027134843, 1.6911421839350995, ABprpapp, 0, 0, 0, 0, , 0, 0, 0, 0, 0, 
7, 1, 7, 7, 178, 8.227329828941395, -0.3915290134747982, -5.822464670772917, 1.84415740659, Eprp, 0, 0, 0, 0, , 0, 0, 0, 0, 0, 
165, 1, 165, 165, 179, 6.084636285687185, -1.7115521123177466, -5.421866093812005, 1.84415740659, Epra, 0, 0, 0, 0, , 0, 0, 0, 0, 0, 
61, 1, 61, 61, -1, -6.569225879301295, -5.919765679832708, 2.2111692676011745, 1.7778674241369, ABarpaaa, 0, 0, 0, 0, , 0, 0, 0, 0, 0, 
91, 1, 91, 91, -1, 9.221183392550312, 1.9767274085834758, 4.590249982116224, 1.6911421839350995, ABprpppa, 0, 0, 0, 0, , 0, 0, 0, 0, 0, 
5, 1, 5, 5, -1, 3.78143146430901, 5.736997275819964, -4.173545213271694, 1.7778674241369, ABalpppp, 0, 0, 0, 0, , 0, 0, 0, 0, 0, 
54, 1, 54, 54, -1, 0.980472059526872, -6.4676212989382895, -3.6458535900130236, 1.6911421839350995, ABplapaa, 0, 0, 0, 0, , 0, 0, 0, 0, 0, 
36, 1, 36, 36, -1, 10.318201371840962, -2.1426187481354244, 3.554691802798068, 1.6911421839350995, ABprppap, 0, 0, 0, 0, , 0, 0, 0, 0, 0, 
64, 1, 64, 64, -1, -10.122899206132447, 3.9474703729689224, 1.7858730580121396, 1.7778674241369, ABalpapa, 0, 0, 0, 0, , 0, 0, 0, 0, 0, 
45, 1, 45, 45, 180, 4.529350858120468, 6.864995186366404, -0.9848269861113798, 1.84415740659, Ealp, 0, 0, 0, 0, , 0, 0, 0, 0, 0, 
148, 1, 148, 148, 181, 1.4095826542327266, 5.752495216595207, -1.7366811111941336, 1.84415740659, Eala, 0, 0, 0, 0, , 0, 0, 0, 0, 0, 
67, 1, 67, 67, -1, -0.16585313818942876, -6.715986027233536, 3.2330630437489525, 1.6911421839350995, ABprapaa, 0, 0, 0, 0, , 0, 0, 0, 0, 0, 
76, 1, 76, 76, -1, -7.448514528985858, -0.4949882884940612, 5.936993608983676, 1.7778674241369, ABaraapa, 0, 0, 0, 0, , 0, 0, 0, 0, 0, 
8, 1, 8, 8, -1, 12.020744972518544, -1.4364254077842347, -1.1942498287550953, 1.84415740659, Cppp, 0, 0, 0, 0, , 0, 0, 0, 0, 0, 
28, 1, 28, 28, -1, 6.061864372970655, -4.075191903960553, -0.36492918531217833, 1.84415740659, Cpap, 0, 0, 0, 0, , 0, 0, 0, 0, 0, 
160, 1, 160, 160, -1, 10.727783532552975, -0.026887340085437385, 1.9851811889213329, 1.84415740659, Dpa, 0, 0, 0, 0, , 0, 0, 0, 0, 0, 
1, 1, 1, 1, -1, 8.873195719474118, 4.765252993550519, 2.1238961443896986, 1.6911421839350995, ABprpppp, 0, 0, 0, 0, , 0, 0, 0, 0, 0, 
48, 1, 48, 48, -1, 10.641312959344129, 0.8643688905048109, -3.7392268602999765, 1.84415740659, Dap, 0, 0, 0, 0, , 0, 0, 0, 0, 0, 
57, 1, 57, 57, -1, -3.5119202604054394, -3.467653152165165, 1.872470702465081, 1.6911421839350995, ABpraapa, 0, 0, 0, 0, , 0, 0, 0, 0, 0, 
112, 1, 112, 112, -1, -3.3275265244296897, 0.9852324581609893, 3.5524896148193554, 1.6044169437333, MSpaaa, 0, 0, 0, 0, , 0, 0, 0, 0, 0, 
84, 1, 84, 84, -1, -10.309067635106459, 0.5935098971375481, -4.1226322535516715, 1.7778674241369, ABalaapa, 0, 0, 0, 0, , 0, 0, 0, 0, 0, 
62, 1, 62, 62, -1, 5.014823913483169, -5.509058884869519, 4.014320813067911, 1.6911421839350995, ABprappa, 0, 0, 0, 0, , 0, 0, 0, 0, 0, 
83, 1, 83, 83, -1, 0.3063647741460587, -7.443642489991638, -0.25738390445424486, 1.6911421839350995, ABplappa, 0, 0, 0, 0, , 0, 0, 0, 0, 0, 
21, 1, 21, 21, -1, -0.5685366803881394, -3.4857372829593642, -2.268965253424797, 1.6911421839350995, ABplaapp, 0, 0, 0, 0, , 0, 0, 0, 0, 0, 
111, 1, 111, 111, -1, -1.3678060711288103, 1.8153111022455621, 7.176530488472018, 1.6044169437333, MSpapa, 0, 0, 0, 0, , 0, 0, 0, 0, 0, 
80, 1, 80, 80, -1, -6.966348640844417, -2.349299482780951, 1.8950112218728836, 1.7778674241369, ABarpapa, 0, 0, 0, 0, , 0, 0, 0, 0, 0, 
130, 1, 130, 130, -1, -4.934056283594796, 6.592018080762336, -1.8186070697868342, 1.6044169437333, MSapaa, 0, 0, 0, 0, , 0, 0, 0, 0, 0, 
13, 1, 13, 13, -1, 1.2594734466632105, 7.199822192125185, 1.747386722179673, 1.6044169437333, MSappp, 0, 0, 0, 0, , 0, 0, 0, 0, 0, 
32, 1, 32, 32, -1, -9.549284079692027, -4.75846569495202, 0.33102813304695194, 1.7778674241369, ABaraaap, 0, 0, 0, 0, , 0, 0, 0, 0, 0, 
82, 1, 82, 82, -1, -10.409734680381971, 3.594804450344236, -1.91459786265194, 1.7778674241369, ABalpaaa, 0, 0, 0, 0, , 0, 0, 0, 0, 0, 
20, 1, 20, 20, -1, -7.274026213664003, 5.973517259243197, 0.846173341383215, 1.7778674241369, ABalpapp, 0, 0, 0, 0, , 0, 0, 0, 0, 0, 
17, 1, 17, 17, -1, -4.017440243139084, -0.6197254045054834, 7.019710346005111, 1.7778674241369, ABaraapp, 0, 0, 0, 0, , 0, 0, 0, 0, 0, 
39, 1, 39, 39, -1, -8.659235867916612, 0.729757937421466, 1.0111414860271415, 1.7778674241369, ABarppap, 0, 0, 0, 0, , 0, 0, 0, 0, 0, 
6, 1, 6, 6, -1, 9.68853303209644, -4.1165522094242935, -2.1997028685881985, 1.6911421839350995, ABplpppp, 0, 0, 0, 0, , 0, 0, 0, 0, 0, 
22, 1, 22, 22, -1, 12.160719519982276, 1.8690978874773247, 0.7927887076610044, 1.84415740659, Dpp, 0, 0, 0, 0, , 0, 0, 0, 0, 0, 
93, 1, 93, 93, -1, -11.646608200208641, -2.223542668222356, -1.359016780725361, 1.7778674241369, ABalaaaa, 0, 0, 0, 0, , 0, 0, 0, 0, 0, 
55, 1, 55, 55, -1, -4.105211610099833, -2.6993066938021792, -2.183180510408434, 1.6911421839350995, ABplaapa, 0, 0, 0, 0, , 0, 0, 0, 0, 0, 
43, 1, 43, 43, -1, -9.2086339786839, -2.9609335152330947, -4.0244574141810325, 1.7778674241369, ABalaaap, 0, 0, 0, 0, , 0, 0, 0, 0, 0, 
86, 1, 86, 86, -1, 1.6268115972953647, -4.752683408735427, 5.657149840112926, 1.6911421839350995, ABprpaaa, 0, 0, 0, 0, , 0, 0, 0, 0, 0, 
3, 1, 3, 3, -1, 5.4445336326390255, 6.2367853121632635, 2.432837557282152, 1.6044169437333, MSpppp, 0, 0, 0, 0, , 0, 0, 0, 0, 0, 
132, 1, 132, 132, 182, -1.3834656919355799, 2.8507028743764566, -2.5911485479563092, 1.84415740659, Eara, 0, 0, 0, 0, , 0, 0, 0, 0, 0, 
9, 1, 9, 9, -1, 1.5124837008330807, -0.298368924340265, 6.767574360072276, 1.7778674241369, ABarappp, 0, 0, 0, 0, , 0, 0, 0, 0, 0, 
70, 1, 70, 70, -1, 0.27852215434418953, 5.322780551723767, -5.2134211729780375, 1.7778674241369, ABalpppa, 0, 0, 0, 0, , 0, 0, 0, 0, 0, 
33, 1, 33, 33, -1, 3.0366428969597132, 1.235382676897916, -7.117952565515702, 1.6911421839350995, ABplpaap, 0, 0, 0, 0, , 0, 0, 0, 0, 0, 
96, 1, 96, 96, -1, -3.5181219935309294, 0.33737211471378636, -4.118127549116132, 1.7778674241369, ABalappa, 0, 0, 0, 0, , 0, 0, 0, 0, 0, 
124, 1, 124, 124, -1, 2.727523395797186, 3.846772382200391, 2.632164303452415, 1.6044169437333, MSpppa, 0, 0, 0, 0, , 0, 0, 0, 0, 0, 
25, 1, 25, 25, -1, 1.6135105491130928, 4.1083218794762315, 6.131571798951294, 1.6044169437333, MSpapp, 0, 0, 0, 0, , 0, 0, 0, 0, 0, 
41, 1, 41, 41, -1, 4.466598249592215, -2.6299690374007523, 6.130554445174673, 1.6911421839350995, ABprpaap, 0, 0, 0, 0, , 0, 0, 0, 0, 0, 
11, 1, 11, 11, -1, 5.995604013922109, -2.108300695017929, 2.7091972163919094, 1.6911421839350995, ABprappp, 0, 0, 0, 0, , 0, 0, 0, 0, 0, 
66, 1, 66, 66, -1, -1.1208569996920574, -2.7653759201038466, 6.887343217397396, 1.7778674241369, ABarappa, 0, 0, 0, 0, , 0, 0, 0, 0, 0, 
12, 1, 12, 12, -1, 1.7514799349317982, -4.027587602061553, 0.4594238177797623, 1.6911421839350995, ABplappp, 0, 0, 0, 0, , 0, 0, 0, 0, 0, 
69, 1, 69, 69, -1, -6.793653777647122, -1.0809980125179333, -6.144855261000041, 1.7778674241369, ABalapaa, 0, 0, 0, 0, , 0, 0, 0, 0, 0, 
65, 1, 65, 65, -1, -5.956262832255242, -4.465482774201583, -4.774371282802694, 1.6911421839350995, ABplaaaa, 0, 0, 0, 0, , 0, 0, 0, 0, 0, 
29, 1, 29, 29, -1, -2.9719869868370563, -5.230198380507286, 4.994566738621706, 1.7778674241369, ABarapap, 0, 0, 0, 0, , 0, 0, 0, 0, 0, 
4, 1, 4, 4, 183, 7.675489329645315, 5.66111547044447, -1.505079789845731, 2.119721157, Z3, 0, 0, 0, 0, , 0, 0, 0, 0, 0, 
30, 1, 30, 30, -1, 1.0900521334661695, -1.9758619187867006, 3.377033202893181, 1.6911421839350995, ABprapap, 0, 0, 0, 0, , 0, 0, 0, 0, 0, 
71, 1, 71, 71, -1, -12.282831289287472, 0.5923456376713754, 0.9577300052538692, 1.7778674241369, ABarppaa, 0, 0, 0, 0, , 0, 0, 0, 0, 0, 
75, 1, 75, 75, -1, 0.012680311837746398, -0.6726080387924349, -7.4187812247379235, 1.6911421839350995, ABplpaaa, 0, 0, 0, 0, , 0, 0, 0, 0, 0, 
123, 1, 123, 123, -1, 0.7239932507212238, 1.9675751785697075, 0.24655051581377058, 1.6044169437333, MSppaa, 0, 0, 0, 0, , 0, 0, 0, 0, 0, 
60, 1, 60, 60, 184, 10.479043757047023, 3.721705936464088, -1.4874548532927794, 2.119721157, Z2, 0, 0, 0, 0, , 0, 0, 0, 0, 0, 
52, 1, 52, 52, -1, 3.270900126237209, -0.6026374060828067, 0.8219159445215941, 1.84415740659, Caaa, 0, 0, 0, 0, , 0, 0, 0, 0, 0, 
2, 1, 2, 2, -1, -2.9526335972360984, 3.5355356918527283, 0.7880811534859362, 1.7778674241369, ABarpppp, 0, 0, 0, 0, , 0, 0, 0, 0, 0, 
38, 1, 38, 38, -1, -2.704690492567516, -6.932531626826875, -2.171983460485582, 1.6911421839350995, ABpraaap, 0, 0, 0, 0, , 0, 0, 0, 0, 0, 
116, 1, 116, 116, -1, -5.432894898285387, 5.453176548526167, 3.8959930931126117, 1.6044169437333, MSaapa, 0, 0, 0, 0, , 0, 0, 0, 0, 0, 
158, 1, 158, 158, 185, 4.806118182321548, 2.732508561078219, -5.393422021248167, 1.84415740659, Epla, 0, 0, 0, 0, , 0, 0, 0, 0, 0, 
46, 1, 46, 46, 186, 6.737258488228827, 3.450432066756697, -5.503200618560969, 1.84415740659, Eplp, 0, 0, 0, 0, , 0, 0, 0, 0, 0, 
10, 1, 10, 10, -1, -1.693630411747044, 2.629458373917567, -6.898769170256178, 1.7778674241369, ABalappp, 0, 0, 0, 0, , 0, 0, 0, 0, 0, 
23, 1, 23, 23, -1, -7.040011619781364, -0.32674420092043766, -2.525299230971498, 1.7778674241369, ABalaapp, 0, 0, 0, 0, , 0, 0, 0, 0, 0, 
92, 1, 92, 92, -1, 0.8607879977906133, -4.0005698657306334, -6.266317734626065, 1.6911421839350995, ABplppaa, 0, 0, 0, 0, , 0, 0, 0, 0, 0, 
40, 1, 40, 40, -1, 4.408695654620603, -6.486276498497119, -2.5397940228760665, 1.6911421839350995, ABplapap, 0, 0, 0, 0, , 0, 0, 0, 0, 0, 
88, 1, 88, 88, -1, -5.532110616119245, 2.5802700753570043, -6.148883534994646, 1.7778674241369, ABalppaa, 0, 0, 0, 0, , 0, 0, 0, 0, 0, 
109, 1, 109, 109, -1, -8.368862248254727, 2.799316821434107, 4.744646307492165, 1.6044169437333, MSaaaa, 0, 0, 0, 0, , 0, 0, 0, 0, 0, 
73, 1, 73, 73, -1, -3.2374777215888417, -7.054847719376517, 1.3940726347813153, 1.6911421839350995, ABpraaaa, 0, 0, 0, 0, , 0, 0, 0, 0, 0, 
56, 1, 56, 56, -1, -6.2943402521840435, -3.8320618368484274, 5.1476096872021, 1.7778674241369, ABarapaa, 0, 0, 0, 0, , 0, 0, 0, 0, 0, 
87, 1, 87, 87, -1, 6.690684103422697, -4.530090851637259, -4.3473618822073306, 1.6911421839350995, ABplpppa, 0, 0, 0, 0, , 0, 0, 0, 0, 0, 
74, 1, 74, 74, -1, -10.458122173277713, -1.6838063750139158, 3.649822216237779, 1.7778674241369, ABaraaaa, 0, 0, 0, 0, , 0, 0, 0, 0, 0, 
42, 1, 42, 42, -1, 3.8550573777528014, -2.0865829651484984, -6.763169990581952, 1.6911421839350995, ABplppap, 0, 0, 0, 0, , 0, 0, 0, 0, 0, 
16, 1, 16, 16, -1, -4.574359871786497, -0.11323599983004269, 0.3215235192814407, 1.7778674241369, ABarpapp, 0, 0, 0, 0, , 0, 0, 0, 0, 0, 
47, 1, 47, 47, -1, 0.2521425050563437, 1.5217688524590547, 3.881969788614243, 1.6044169437333, MSpaap, 0, 0, 0, 0, , 0, 0, 0, 0, 0, 
59, 1, 59, 59, -1, 9.16245283193302, -4.8410966079099, 1.3918771212415015, 1.84415740659, Cppa, 0, 0, 0, 0, , 0, 0, 0, 0, 0, 
50, 1, 50, 50, -1, 5.050031111428913, 3.2120203876462057, -0.505518220561267, 1.6044169437333, MSppap, 0, 0, 0, 0, , 0, 0, 0, 0, 0, 
77, 1, 77, 77, -1, 7.686171950290522, -1.0811668449659342, 5.754770878807028, 1.6911421839350995, ABprppaa, 0, 0, 0, 0, , 0, 0, 0, 0, 0, 
27, 1, 27, 27, -1, 5.847416359426126, 1.593551836569194, 2.7404801389657467, 1.84415740659, Caap, 0, 0, 0, 0, , 0, 0, 0, 0, 0, 
128, 1, 128, 128, -1, -2.4285190015581035, 6.871849485176119, 2.4798878396408184, 1.6044169437333, MSappa, 0, 0, 0, 0, , 0, 0, 0, 0, 0, 
31, 1, 31, 31, -1, -2.4185779893894437, -5.084669427768662, -5.249734131153639, 1.6911421839350995, ABplaaap, 0, 0, 0, 0, , 0, 0, 0, 0, 0, 
37, 1, 37, 37, -1, -3.3723016612413157, 5.261078591414005, -4.865013759101303, 1.7778674241369, ABalppap, 0, 0, 0, 0, , 0, 0, 0, 0, 0, 
53, 1, 53, 53, -1, 3.720702657897142, -7.039767861256665, 0.9831978069179871, 1.84415740659, Cpaa, 0, 0, 0, 0, , 0, 0, 0, 0, 0, 
19, 1, 19, 19, -1, -1.0916823493010015, -1.161250382143761, 0.46424834327798453, 1.6911421839350995, ABpraapp, 0, 0, 0, 0, , 0, 0, 0, 0, 0, 
51, 1, 51, 51, -1, -1.5086223569854977, 7.335802578586887, -0.9471108969068273, 1.6044169437333, MSapap, 0, 0, 0, 0, , 0, 0, 0, 0, 0, 
49, 1, 49, 49, -1, -5.078549996319024, 2.735503027837141, 6.223356205073875, 1.6044169437333, MSaaap, 0, 0, 0, 0, , 0, 0, 0, 0, 0, 
58, 1, 58, 58, -1, 1.0043920548875922, -0.6814236527270038, -3.943090864994162, 1.6911421839350995, ABplpapa, 0, 0, 0, 0, , 0, 0, 0, 0, 0, 
