8, 1, 8, 8, -1, 11.987401730370582, -1.8127269856580344, -0.7426928730214, 1.84415740659, Cppp, 0, 0, 0, 0, , 0, 0, 0, 0, 0, 
56, 1, 56, 56, -1, -6.749768359917922, -3.782584165897701, 4.9787689763973955, 1.7778674241369, ABarapaa, 0, 0, 0, 0, , 0, 0, 0, 0, 0, 
111, 1, 111, 111, -1, -1.8463368853786013, 1.4551278607802702, 7.231787445697562, 1.6044169437333, MSpapa, 0, 0, 0, 0, , 0, 0, 0, 0, 0, 
76, 1, 76, 76, -1, -7.939360203816037, -0.4674526470683407, 5.707603858538893, 1.7778674241369, ABaraapa, 0, 0, 0, 0, , 0, 0, 0, 0, 0, 
21, 1, 21, 21, 232, -0.9825753888204103, -3.319058232439665, -2.329984764967157, 1.4712937000235367, ABplaappp, 0, 0, 0, 0, , 0, 0, 0, 0, 0, 
123, 1, 123, 123, -1, -0.1965738330834803, 2.3364264832755546, 1.0463979502385639, 1.6044169437333, MSppaa, 0, 0, 0, 0, , 0, 0, 0, 0, 0, 
109, 1, 109, 109, -1, -8.298705287812636, 2.9660076081406377, 4.683913562310656, 1.6044169437333, MSaaaa, 0, 0, 0, 0, , 0, 0, 0, 0, 0, 
45, 1, 45, 45, 233, 3.5778613807221618, 7.126532864851596, -0.36343868689989695, 1.84415740659, Ealp, 0, 0, 0, 0, , 0, 0, 0, 0, 0, 
32, 1, 32, 32, -1, -9.661527487766122, -4.687603594112939, -0.0854054187697129, 1.7778674241369, ABaraaap, 0, 0, 0, 0, , 0, 0, 0, 0, 0, 
148, 1, 148, 148, 234, 0.6043259695835494, 5.605473226193601, -1.733530684368886, 1.84415740659, Eala, 0, 0, 0, 0, , 0, 0, 0, 0, 0, 
92, 1, 92, 92, -1, -0.20077427829783837, -4.219961842594057, -6.137901560285664, 1.6911421839350995, ABplppaa, 0, 0, 0, 0, , 0, 0, 0, 0, 0, 
23, 1, 23, 23, -1, -7.004069960008288, -0.41906127661999776, -2.3563500729920093, 1.7778674241369, ABalaapp, 0, 0, 0, 0, , 0, 0, 0, 0, 0, 
39, 1, 39, 39, -1, -8.588929490270221, 0.9676455201936094, 0.5626588427708271, 1.7778674241369, ABarppap, 0, 0, 0, 0, , 0, 0, 0, 0, 0, 
37, 1, 37, 37, -1, -3.186424563877001, 5.133374313329252, -5.05219137213505, 1.7778674241369, ABalppap, 0, 0, 0, 0, , 0, 0, 0, 0, 0, 
20, 1, 20, 20, 235, -7.184643056200971, 6.045089538171144, 0.6760144151168705, 1.546744658999103, ABalpappp, 0, 0, 0, 0, , 0, 0, 0, 0, 0, 
1, 1, 1, 1, -1, 9.10891567337223, 4.77852121660511, 1.6979400321319023, 1.6911421839350995, ABprpppp, 0, 0, 0, 0, , 0, 0, 0, 0, 0, 
150, 1, 150, 150, -1, 7.432176226561684, 1.272003315092946, -2.0692174312643474, 1.84415740659, Daa, 0, 0, 0, 0, , 0, 0, 0, 0, 0, 
59, 1, 59, 59, -1, 8.348476091547056, -5.395779381325228, 1.1417047908091482, 1.84415740659, Cppa, 0, 0, 0, 0, , 0, 0, 0, 0, 0, 
16, 1, 16, 16, -1, -4.788134420169861, 0.04780254099325019, 0.42904790959382044, 1.7778674241369, ABarpapp, 0, 0, 0, 0, , 0, 0, 0, 0, 0, 
231, 1, 231, 231, 236, -7.2203343318542625, 6.031668441916492, 0.6747114435363993, 1.546744658999103, ABalpappa, 0, 0, 0, 0, , 0, 0, 0, 0, 0, 
61, 1, 61, 61, -1, -6.957223194423811, -5.838049617822574, 2.0198783676599272, 1.7778674241369, ABarpaaa, 0, 0, 0, 0, , 0, 0, 0, 0, 0, 
50, 1, 50, 50, -1, 4.563666017985061, 3.205696035759018, -0.683379723134677, 1.6044169437333, MSppap, 0, 0, 0, 0, , 0, 0, 0, 0, 0, 
77, 1, 77, 77, -1, 7.244457925873042, -0.4800701673057737, 6.0344581367393495, 1.6911421839350995, ABprppaa, 0, 0, 0, 0, , 0, 0, 0, 0, 0, 
64, 1, 64, 64, -1, -10.017840193318412, 4.058882202988792, 1.7246585305894544, 1.7778674241369, ABalpapa, 0, 0, 0, 0, , 0, 0, 0, 0, 0, 
71, 1, 71, 71, -1, -12.114526014237587, 0.9982177443137864, 1.326039318367083, 1.7778674241369, ABarppaa, 0, 0, 0, 0, , 0, 0, 0, 0, 0, 
210, 1, 210, 210, 237, 1.7021596533535246, -0.7473087316453386, 0.6165139041447787, 1.6044169437333, Caaaa, 0, 0, 0, 0, , 0, 0, 0, 0, 0, 
52, 1, 52, 52, 238, 4.106813583936664, 0.110999066154351, 1.3300157017701977, 1.6044169437333, Caaap, 0, 0, 0, 0, , 0, 0, 0, 0, 0, 
43, 1, 43, 43, -1, -9.961557911995701, -2.413477833362667, -3.7339428962261376, 1.7778674241369, ABalaaap, 0, 0, 0, 0, , 0, 0, 0, 0, 0, 
165, 1, 165, 165, 239, 6.001321567970739, -2.1209231942528377, -4.715495735283441, 1.84415740659, Epra, 0, 0, 0, 0, , 0, 0, 0, 0, 0, 
17, 1, 17, 17, -1, -4.560707586309939, -0.8650440235475184, 6.872391726704996, 1.7778674241369, ABaraapp, 0, 0, 0, 0, , 0, 0, 0, 0, 0, 
66, 1, 66, 66, -1, -1.5867467066362073, -2.8804149512215624, 6.804355178841671, 1.7778674241369, ABarappa, 0, 0, 0, 0, , 0, 0, 0, 0, 0, 
54, 1, 54, 54, -1, 0.038157187019090925, -6.603499668945851, -3.457628741544576, 1.6911421839350995, ABplapaa, 0, 0, 0, 0, , 0, 0, 0, 0, 0, 
86, 1, 86, 86, -1, 1.4503011527850542, -4.628014649421575, 5.785959984602406, 1.6911421839350995, ABprpaaa, 0, 0, 0, 0, , 0, 0, 0, 0, 0, 
12, 1, 12, 12, -1, 1.2728599436962913, -4.251393421178876, 0.37408006949816053, 1.6911421839350995, ABplappp, 0, 0, 0, 0, , 0, 0, 0, 0, 0, 
28, 1, 28, 28, 240, 5.012356952177585, -4.24868536302666, -0.05196050895208846, 1.84415740659, Cpap, 0, 0, 0, 0, , 0, 0, 0, 0, 0, 
22, 1, 22, 22, -1, 11.688687922982659, 2.495551677545064, 0.338861018884576, 1.84415740659, Dpp, 0, 0, 0, 0, , 0, 0, 0, 0, 0, 
44, 1, 44, 44, -1, -4.507174548764082, -2.1395830492952808, -6.597917883627247, 1.7778674241369, ABalapap, 0, 0, 0, 0, , 0, 0, 0, 0, 0, 
19, 1, 19, 19, 241, -1.5169049101387553, -1.3715795901421062, 0.6551890325968596, 1.6911421839350995, ABpraapp, 0, 0, 0, 0, , 0, 0, 0, 0, 0, 
62, 1, 62, 62, -1, 4.538805070594256, -5.464549389977992, 4.273774732356527, 1.6911421839350995, ABprappa, 0, 0, 0, 0, , 0, 0, 0, 0, 0, 
7, 1, 7, 7, 242, 8.458565980324673, 0.4141170779959591, -5.4391297286409, 1.84415740659, Eprp, 0, 0, 0, 0, , 0, 0, 0, 0, 0, 
83, 1, 83, 83, -1, -0.18230988717134053, -7.454544050055644, 0.012569285484120153, 1.6911421839350995, ABplappa, 0, 0, 0, 0, , 0, 0, 0, 0, 0, 
93, 1, 93, 93, -1, -11.930896584788632, -1.9510163303883017, -0.735803864639682, 1.7778674241369, ABalaaaa, 0, 0, 0, 0, , 0, 0, 0, 0, 0, 
78, 1, 78, 78, -1, 4.189759965905347, 1.1442344555072397, 6.9189429604839265, 1.6911421839350995, ABprpapa, 0, 0, 0, 0, , 0, 0, 0, 0, 0, 
5, 1, 5, 5, -1, 3.530166812719285, 6.050948392724005, -3.795253701442115, 1.7778674241369, ABalpppp, 0, 0, 0, 0, , 0, 0, 0, 0, 0, 
25, 1, 25, 25, -1, 1.635609973762669, 4.306613599109392, 5.992129129491245, 1.6044169437333, MSpapp, 0, 0, 0, 0, , 0, 0, 0, 0, 0, 
2, 1, 2, 2, -1, -3.6562693034197165, 3.462642680513211, 1.5047563407567, 1.7778674241369, ABarpppp, 0, 0, 0, 0, , 0, 0, 0, 0, 0, 
4, 1, 4, 4, 243, 6.8436675339776984, 6.05095438560569, -1.403583989923975, 2.119721157, Z3, 0, 0, 0, 0, , 0, 0, 0, 0, 0, 
14, 1, 14, 14, 244, 1.375622656793955, 2.12984153484939, -2.2329175788252185, 1.84415740659, Earp, 0, 0, 0, 0, , 0, 0, 0, 0, 0, 
96, 1, 96, 96, -1, -3.371472109840082, 0.051618244616616335, -3.7649013229118324, 1.7778674241369, ABalappa, 0, 0, 0, 0, , 0, 0, 0, 0, 0, 
65, 1, 65, 65, -1, -6.913269648694548, -4.1483126985101295, -4.586603267257086, 1.6911421839350995, ABplaaaa, 0, 0, 0, 0, , 0, 0, 0, 0, 0, 
70, 1, 70, 70, -1, 0.4065072598909691, 5.172863774544737, -5.3605529045511755, 1.7778674241369, ABalpppa, 0, 0, 0, 0, , 0, 0, 0, 0, 0, 
31, 1, 31, 31, -1, -3.4631716420105745, -5.1498637564037235, -4.958209124613286, 1.6911421839350995, ABplaaap, 0, 0, 0, 0, , 0, 0, 0, 0, 0, 
48, 1, 48, 48, -1, 11.21245248164792, 0.833339168337627, -3.107038879891256, 1.84415740659, Dap, 0, 0, 0, 0, , 0, 0, 0, 0, 0, 
130, 1, 130, 130, -1, -5.434530030369815, 6.220166841423483, -2.4759789145747617, 1.6044169437333, MSapaa, 0, 0, 0, 0, , 0, 0, 0, 0, 0, 
30, 1, 30, 30, -1, 0.8279197154615583, -2.1273085412362156, 3.5831870991356154, 1.6911421839350995, ABprapap, 0, 0, 0, 0, , 0, 0, 0, 0, 0, 
63, 1, 63, 63, -1, -6.137885086162381, 2.9729739966636837, -1.1516745176558794, 1.7778674241369, ABarpppa, 0, 0, 0, 0, , 0, 0, 0, 0, 0, 
27, 1, 27, 27, -1, 6.295500410788849, 1.9916100148208877, 2.849869227454086, 1.84415740659, Caap, 0, 0, 0, 0, , 0, 0, 0, 0, 0, 
51, 1, 51, 51, -1, -2.4370344502028227, 7.268201412902098, -0.7719402523105662, 1.6044169437333, MSapap, 0, 0, 0, 0, , 0, 0, 0, 0, 0, 
18, 1, 18, 18, -1, 5.139346405765158, 4.204266703232589, 5.3343320009330695, 1.6911421839350995, ABprpapp, 0, 0, 0, 0, , 0, 0, 0, 0, 0, 
80, 1, 80, 80, -1, -7.5305137037111445, -2.2528581449715825, 1.7846349562800377, 1.7778674241369, ABarpapa, 0, 0, 0, 0, , 0, 0, 0, 0, 0, 
112, 1, 112, 112, -1, -3.106276618975964, 0.4991490071225904, 3.7290938038543477, 1.6044169437333, MSpaaa, 0, 0, 0, 0, , 0, 0, 0, 0, 0, 
74, 1, 74, 74, -1, -10.63456213534012, -1.615484197718734, 3.509458744860055, 1.7778674241369, ABaraaaa, 0, 0, 0, 0, , 0, 0, 0, 0, 0, 
160, 1, 160, 160, -1, 10.429435983168297, -0.30694920146163707, 2.1883025685204682, 1.84415740659, Dpa, 0, 0, 0, 0, , 0, 0, 0, 0, 0, 
60, 1, 60, 60, 245, 9.734087802827393, 4.046472377078849, -2.255778460460998, 2.119721157, Z2, 0, 0, 0, 0, , 0, 0, 0, 0, 0, 
67, 1, 67, 67, -1, -0.45408905768180985, -6.57978350939557, 3.475154759260124, 1.6911421839350995, ABprapaa, 0, 0, 0, 0, , 0, 0, 0, 0, 0, 
73, 1, 73, 73, -1, -3.528879223266244, -6.94949816887821, 1.6953114081047795, 1.6911421839350995, ABpraaaa, 0, 0, 0, 0, , 0, 0, 0, 0, 0, 
3, 1, 3, 3, -1, 5.749538456046972, 6.163788941113406, 2.3609823014589972, 1.6044169437333, MSpppp, 0, 0, 0, 0, , 0, 0, 0, 0, 0, 
33, 1, 33, 33, -1, 2.0245855275005415, 0.6287888432135866, -7.323021693772764, 1.6911421839350995, ABplpaap, 0, 0, 0, 0, , 0, 0, 0, 0, 0, 
69, 1, 69, 69, -1, -7.5596942392344, -0.3866064473085063, -5.895286815348905, 1.7778674241369, ABalapaa, 0, 0, 0, 0, , 0, 0, 0, 0, 0, 
35, 1, 35, 35, -1, -6.672168573095675, -6.088373700868191, -1.5696214697244277, 1.7778674241369, ABarpaap, 0, 0, 0, 0, , 0, 0, 0, 0, 0, 
158, 1, 158, 158, 246, 3.7651308513095105, 2.627359867058708, -4.887957579629308, 1.84415740659, Epla, 0, 0, 0, 0, , 0, 0, 0, 0, 0, 
227, 1, 227, 227, 247, -1.0880502778403447, -3.342473082537013, -2.349920442386061, 1.4712937000235367, ABplaappa, 0, 0, 0, 0, , 0, 0, 0, 0, 0, 
11, 1, 11, 11, -1, 5.728203059361065, -2.265826605817747, 3.3673889782590023, 1.6911421839350995, ABprappp, 0, 0, 0, 0, , 0, 0, 0, 0, 0, 
57, 1, 57, 57, -1, -4.131642257777623, -3.4361258228534344, 1.8806157408254445, 1.6911421839350995, ABpraapa, 0, 0, 0, 0, , 0, 0, 0, 0, 0, 
132, 1, 132, 132, 248, -2.247245264329959, 3.174319236759491, -1.9818781775896623, 1.84415740659, Eara, 0, 0, 0, 0, , 0, 0, 0, 0, 0, 
34, 1, 34, 34, -1, -7.435868874878485, 3.9598275221043573, -4.4625484999192375, 1.7778674241369, ABalpaap, 0, 0, 0, 0, , 0, 0, 0, 0, 0, 
29, 1, 29, 29, -1, -3.465538549867264, -5.2289405372002165, 4.8795709683964805, 1.7778674241369, ABarapap, 0, 0, 0, 0, , 0, 0, 0, 0, 0, 
24, 1, 24, 24, -1, 2.6611789158478256, -3.4139253340735958, -2.9708558760461465, 1.6911421839350995, ABplpapp, 0, 0, 0, 0, , 0, 0, 0, 0, 0, 
82, 1, 82, 82, -1, -9.952189209614803, 4.04132980008153, -1.886664587948664, 1.7778674241369, ABalpaaa, 0, 0, 0, 0, , 0, 0, 0, 0, 0, 
26, 1, 26, 26, -1, -1.9231595664631103, 4.699607973160184, 5.668875642401812, 1.6044169437333, MSaapp, 0, 0, 0, 0, , 0, 0, 0, 0, 0, 
38, 1, 38, 38, -1, -3.190144922498727, -6.950337991481192, -1.878764349127481, 1.6911421839350995, ABpraaap, 0, 0, 0, 0, , 0, 0, 0, 0, 0, 
40, 1, 40, 40, 249, 3.3685270685108497, -6.844273702231706, -2.132327218922103, 1.6911421839350995, ABplapap, 0, 0, 0, 0, , 0, 0, 0, 0, 0, 
124, 1, 124, 124, -1, 2.8051190401679196, 3.94182645706726, 2.4936509328076037, 1.6044169437333, MSpppa, 0, 0, 0, 0, , 0, 0, 0, 0, 0, 
55, 1, 55, 55, -1, -4.639348169325455, -3.1245240385737896, -1.972387969725687, 1.6911421839350995, ABplaapa, 0, 0, 0, 0, , 0, 0, 0, 0, 0, 
58, 1, 58, 58, -1, 0.6310865781446892, -0.7441460660429464, -4.260294052106092, 1.6911421839350995, ABplpapa, 0, 0, 0, 0, , 0, 0, 0, 0, 0, 
84, 1, 84, 84, -1, -10.254066612799495, 1.1655824755787472, -4.035707591934524, 1.7778674241369, ABalaapa, 0, 0, 0, 0, , 0, 0, 0, 0, 0, 
49, 1, 49, 49, -1, -5.082552592750866, 2.703288909346342, 6.236772498240212, 1.6044169437333, MSaaap, 0, 0, 0, 0, , 0, 0, 0, 0, 0, 
15, 1, 15, 15, -1, 7.563830327510992, -1.577734240587956, 0.24601425848924055, 1.84415740659, Capp, 0, 0, 0, 0, , 0, 0, 0, 0, 0, 
88, 1, 88, 88, -1, -5.062717593801532, 2.1444605149944844, -6.458153459124037, 1.7778674241369, ABalppaa, 0, 0, 0, 0, , 0, 0, 0, 0, 0, 
36, 1, 36, 36, -1, 9.10008377201903, -3.122221918475827, 4.009102713619077, 1.6911421839350995, ABprppap, 0, 0, 0, 0, , 0, 0, 0, 0, 0, 
75, 1, 75, 75, -1, -1.1954873730551823, -0.9899665067566442, -7.345507923481928, 1.6911421839350995, ABplpaaa, 0, 0, 0, 0, , 0, 0, 0, 0, 0, 
6, 1, 6, 6, -1, 9.619739850331005, -4.189290410163462, -2.150002596084305, 1.6911421839350995, ABplpppp, 0, 0, 0, 0, , 0, 0, 0, 0, 0, 
13, 1, 13, 13, -1, 0.9326235879827887, 7.128872145485097, 2.0807993728134493, 1.6044169437333, MSappp, 0, 0, 0, 0, , 0, 0, 0, 0, 0, 
41, 1, 41, 41, -1, 4.1708864988362535, -2.448335606429159, 6.577459900627787, 1.6911421839350995, ABprpaap, 0, 0, 0, 0, , 0, 0, 0, 0, 0, 
91, 1, 91, 91, -1, 9.051651683528059, 2.2332918175557706, 4.599383204147202, 1.6911421839350995, ABprpppa, 0, 0, 0, 0, , 0, 0, 0, 0, 0, 
47, 1, 47, 47, -1, 0.44448846323490365, 1.305471159776415, 4.465851263512821, 1.6044169437333, MSpaap, 0, 0, 0, 0, , 0, 0, 0, 0, 0, 
79, 1, 79, 79, -1, 4.134826118948571, -0.18598761163013228, -2.304283736192575, 1.84415740659, Capa, 0, 0, 0, 0, , 0, 0, 0, 0, 0, 
53, 1, 53, 53, 250, 3.1157429326530974, -7.060260066322138, 1.4446159195372061, 1.84415740659, Cpaa, 0, 0, 0, 0, , 0, 0, 0, 0, 0, 
46, 1, 46, 46, 251, 7.19286213573108, 3.736489519303992, -4.7937781402036554, 1.84415740659, Eplp, 0, 0, 0, 0, , 0, 0, 0, 0, 0, 
42, 1, 42, 42, -1, 3.044756023108476, -2.7601695147884224, -6.678517723014666, 1.6911421839350995, ABplppap, 0, 0, 0, 0, , 0, 0, 0, 0, 0, 
87, 1, 87, 87, -1, 6.446089493577424, -5.4138388843260845, -3.3509707263189057, 1.6911421839350995, ABplpppa, 0, 0, 0, 0, , 0, 0, 0, 0, 0, 
116, 1, 116, 116, -1, -5.716293352271288, 5.351909945830822, 3.883255066115831, 1.6044169437333, MSaapa, 0, 0, 0, 0, , 0, 0, 0, 0, 0, 
128, 1, 128, 128, -1, -2.5855632474863603, 6.7347389293984765, 2.7815104983025556, 1.6044169437333, MSappa, 0, 0, 0, 0, , 0, 0, 0, 0, 0, 
9, 1, 9, 9, -1, 1.168224399774495, -0.6903450654598547, 7.381276966179521, 1.7778674241369, ABarappp, 0, 0, 0, 0, , 0, 0, 0, 0, 0, 
10, 1, 10, 10, -1, -1.5108121508173245, 2.5630343648339875, -6.941055809548636, 1.7778674241369, ABalappp, 0, 0, 0, 0, , 0, 0, 0, 0, 0, 
