260, 1, 260, 260, 504, -4.286888846179497, -5.551061294367736, 4.244828302269536, 1.546744658999103, ABarapapa, 0, 0, 0, 0, , 0, 0, 0, 0, 0, 
124, 1, 124, 124, -1, 2.8859970513597655, 3.919845915487227, 1.8731004079884075, 1.6044169437333, MSpppa, 0, 0, 0, 0, , 0, 0, 0, 0, 0, 
497, 1, 497, 497, 505, -6.087379198661314, 1.0163860371786964, 0.7719761907828923, 1.546744658999103, ABarpappa, 0, 0, 0, 0, , 0, 0, 0, 0, 0, 
160, 1, 160, 160, -1, 11.425200600641435, -0.23542443977852248, 2.9091011019396626, 1.84415740659, Dpa, 0, 0, 0, 0, , 0, 0, 0, 0, 0, 
29, 1, 29, 29, 506, -1.6298780765346053, -4.979654326495511, 4.782285113219187, 1.546744658999103, ABarapapp, 0, 0, 0, 0, , 0, 0, 0, 0, 0, 
61, 1, 61, 61, -1, -6.331796994471313, -6.206484318868747, 1.6197865255776323, 1.7778674241369, ABarpaaa, 0, 0, 0, 0, , 0, 0, 0, 0, 0, 
28, 1, 28, 28, 507, 6.051969166310034, -3.397746352161232, 1.2810371543834564, 1.6044169437333, Cpapp, 0, 0, 0, 0, , 0, 0, 0, 0, 0, 
439, 1, 439, 439, 508, 9.146766764440219, 4.692247302460402, 1.1799577878285072, 1.4712937000235367, ABprppppa, 0, 0, 0, 0, , 0, 0, 0, 0, 0, 
92, 1, 92, 92, -1, -0.05434261187144359, -3.4774159458292138, -6.583336129335849, 1.6911421839350995, ABplppaa, 0, 0, 0, 0, , 0, 0, 0, 0, 0, 
87, 1, 87, 87, -1, 7.026455986640698, -5.120040555880545, -3.413027861908308, 1.6911421839350995, ABplpppa, 0, 0, 0, 0, , 0, 0, 0, 0, 0, 
34, 1, 34, 34, 509, -6.022616136906877, 5.0180911303399744, -4.158097434339645, 1.546744658999103, ABalpaapp, 0, 0, 0, 0, , 0, 0, 0, 0, 0, 
111, 1, 111, 111, -1, -2.6627553251161893, 2.6182336790096103, 6.787273807334754, 1.6044169437333, MSpapa, 0, 0, 0, 0, , 0, 0, 0, 0, 0, 
116, 1, 116, 116, -1, -6.2659807494966975, 5.342288394890618, 3.5766529897277457, 1.6044169437333, MSaapa, 0, 0, 0, 0, , 0, 0, 0, 0, 0, 
17, 1, 17, 17, 510, -3.4724356314974654, -0.36047993699300274, 7.002035636056011, 1.546744658999103, ABaraappp, 0, 0, 0, 0, , 0, 0, 0, 0, 0, 
130, 1, 130, 130, -1, -4.133617118423437, 6.621411146666216, -2.3367539907677024, 1.6044169437333, MSapaa, 0, 0, 0, 0, , 0, 0, 0, 0, 0, 
392, 1, 392, 392, 511, -6.015336533088529, -2.246827962298367, -6.113947565659657, 1.546744658999103, ABalapapa, 0, 0, 0, 0, , 0, 0, 0, 0, 0, 
26, 1, 26, 26, -1, -3.262478784197485, 5.227116852762581, 4.936281130335157, 1.6044169437333, MSaapp, 0, 0, 0, 0, , 0, 0, 0, 0, 0, 
45, 1, 45, 45, 512, 3.1229010838180016, 7.191935869902382, -0.5289212306608536, 1.84415740659, Ealp, 0, 0, 0, 0, , 0, 0, 0, 0, 0, 
79, 1, 79, 79, -1, 5.092367970418717, 0.03652089414894089, -2.4268685197279267, 1.84415740659, Capa, 0, 0, 0, 0, , 0, 0, 0, 0, 0, 
500, 1, 500, 500, 513, 1.4949057017309342, 1.340709078503558, -7.2766237401584135, 1.4712937000235367, ABplpaapa, 0, 0, 0, 0, , 0, 0, 0, 0, 0, 
249, 1, 249, 249, 514, 1.2316952065126974, -7.0735569009236405, -2.210466100999968, 1.4712937000235367, ABplapapa, 0, 0, 0, 0, , 0, 0, 0, 0, 0, 
6, 1, 6, 6, -1, 9.959024175717406, -4.0767053646050275, -1.7832968007568513, 1.6911421839350995, ABplpppp, 0, 0, 0, 0, , 0, 0, 0, 0, 0, 
27, 1, 27, 27, 515, 6.7821427584122125, 2.83693138113254, 2.4463176507929236, 1.84415740659, Caap, 0, 0, 0, 0, , 0, 0, 0, 0, 0, 
62, 1, 62, 62, 516, 5.5611317600683705, -4.55151918801951, 4.59233826711247, 1.4712937000235367, ABprappap, 0, 0, 0, 0, , 0, 0, 0, 0, 0, 
30, 1, 30, 30, 517, 2.5896704819892413, -0.7622281690309376, 3.9274009851524676, 1.4712937000235367, ABprapapp, 0, 0, 0, 0, , 0, 0, 0, 0, 0, 
1, 1, 1, 1, 518, 9.274720853190733, 4.934240190102585, 1.198626946710701, 1.4712937000235367, ABprppppp, 0, 0, 0, 0, , 0, 0, 0, 0, 0, 
96, 1, 96, 96, -1, -4.178453359909074, 0.3354967409698352, -3.4878722291957627, 1.7778674241369, ABalappa, 0, 0, 0, 0, , 0, 0, 0, 0, 0, 
86, 1, 86, 86, 519, 1.7005577301982746, -4.4871834744190515, 5.897943523083994, 1.4712937000235367, ABprpaaap, 0, 0, 0, 0, , 0, 0, 0, 0, 0, 
48, 1, 48, 48, -1, 11.257505055540605, 0.8192479104326651, -3.064271396519843, 1.84415740659, Dap, 0, 0, 0, 0, , 0, 0, 0, 0, 0, 
15, 1, 15, 15, -1, 8.879957537570514, -1.3859697971645335, 0.7878445794143114, 1.84415740659, Capp, 0, 0, 0, 0, , 0, 0, 0, 0, 0, 
91, 1, 91, 91, 520, 9.559834061552163, 2.2537425861918896, 4.53704219727293, 1.4712937000235367, ABprpppap, 0, 0, 0, 0, , 0, 0, 0, 0, 0, 
31, 1, 31, 31, 521, -2.9146733729602765, -4.623795837974917, -5.2834693421189245, 1.4712937000235367, ABplaaapp, 0, 0, 0, 0, , 0, 0, 0, 0, 0, 
49, 1, 49, 49, -1, -5.677355849983948, 2.993441929535129, 5.916126363833161, 1.6044169437333, MSaaap, 0, 0, 0, 0, , 0, 0, 0, 0, 0, 
44, 1, 44, 44, 522, -4.002656532931787, -1.6064943270876113, -6.868734533214511, 1.546744658999103, ABalapapp, 0, 0, 0, 0, , 0, 0, 0, 0, 0, 
42, 1, 42, 42, -1, 3.111361412621499, -2.0766765505446987, -6.904960779469431, 1.6911421839350995, ABplppap, 0, 0, 0, 0, , 0, 0, 0, 0, 0, 
54, 1, 54, 54, -1, -0.014931275853141489, -5.785115085938319, -4.691714955526458, 1.6911421839350995, ABplapaa, 0, 0, 0, 0, , 0, 0, 0, 0, 0, 
57, 1, 57, 57, 523, -2.5914664180392313, -3.802782363224645, 1.7262939289946237, 1.4712937000235367, ABpraapap, 0, 0, 0, 0, , 0, 0, 0, 0, 0, 
22, 1, 22, 22, -1, 11.792245812462749, 2.320263366216215, 0.2971875066528857, 1.84415740659, Dpp, 0, 0, 0, 0, , 0, 0, 0, 0, 0, 
50, 1, 50, 50, -1, 5.145453324680615, 3.1097132785482184, -0.6928377722231586, 1.6044169437333, MSppap, 0, 0, 0, 0, , 0, 0, 0, 0, 0, 
55, 1, 55, 55, 524, -5.170720291939885, -2.2977623955070503, -1.7637477401033386, 1.4712937000235367, ABplaapap, 0, 0, 0, 0, , 0, 0, 0, 0, 0, 
320, 1, 320, 320, 525, -4.275335553197285, -6.646920957664784, -2.1817346416437524, 1.4712937000235367, ABpraaapa, 0, 0, 0, 0, , 0, 0, 0, 0, 0, 
25, 1, 25, 25, -1, -0.3302183340556339, 4.459708590979802, 5.957856757344215, 1.6044169437333, MSpapp, 0, 0, 0, 0, , 0, 0, 0, 0, 0, 
21, 1, 21, 21, 526, 0.022206432574758392, -2.7491056469952206, -0.8140747824933309, 1.4712937000235367, ABplaappp, 0, 0, 0, 0, , 0, 0, 0, 0, 0, 
84, 1, 84, 84, -1, -10.296777333203359, 1.0214442596330164, -4.043353104311054, 1.7778674241369, ABalaapa, 0, 0, 0, 0, , 0, 0, 0, 0, 0, 
293, 1, 293, 293, 527, -7.866113507195684, -5.524288784371638, -1.6455049910029498, 1.546744658999103, ABarpaapa, 0, 0, 0, 0, , 0, 0, 0, 0, 0, 
63, 1, 63, 63, 528, -5.726174772794274, 3.8732691603470957, -1.1117889906624847, 1.546744658999103, ABarpppap, 0, 0, 0, 0, , 0, 0, 0, 0, 0, 
269, 1, 269, 269, 529, -0.6853517926257008, -0.046466062645926884, 6.916963847173438, 1.546744658999103, ABarapppa, 0, 0, 0, 0, , 0, 0, 0, 0, 0, 
65, 1, 65, 65, 530, -6.835359832999535, -4.140854396302147, -4.557465019759077, 1.4712937000235367, ABplaaaap, 0, 0, 0, 0, , 0, 0, 0, 0, 0, 
10, 1, 10, 10, 531, -1.3353940600870038, 2.26435364525893, -7.0519502467003035, 1.7778674241369, ABalappp, 0, 0, 0, 0, , 0, 0, 0, 0, 0, 
287, 1, 287, 287, 532, 1.5020506259865098, -3.1172567423916235, -3.6760054730958824, 1.4712937000235367, ABplpappa, 0, 0, 0, 0, , 0, 0, 0, 0, 0, 
35, 1, 35, 35, 533, -5.8323505519560355, -5.716794849189686, -0.9676945340423524, 1.546744658999103, ABarpaapp, 0, 0, 0, 0, , 0, 0, 0, 0, 0, 
158, 1, 158, 158, 534, 4.080616598668832, 2.781278077386192, -4.266553891102394, 1.84415740659, Epla, 0, 0, 0, 0, , 0, 0, 0, 0, 0, 
3, 1, 3, 3, -1, 5.656052967637888, 6.375267788496576, 1.825483079062264, 1.6044169437333, MSpppp, 0, 0, 0, 0, , 0, 0, 0, 0, 0, 
7, 1, 7, 7, 535, 8.62673664766985, 1.3533473517285182, -5.1847350392224, 1.84415740659, Eprp, 0, 0, 0, 0, , 0, 0, 0, 0, 0, 
41, 1, 41, 41, -1, 4.342047385046467, -2.6511746498818, 6.4522275047393025, 1.6911421839350995, ABprpaap, 0, 0, 0, 0, , 0, 0, 0, 0, 0, 
51, 1, 51, 51, -1, -1.5968922658911495, 7.3568384810831455, -0.6845188963952893, 1.6044169437333, MSapap, 0, 0, 0, 0, , 0, 0, 0, 0, 0, 
16, 1, 16, 16, 536, -5.6142855672204215, 1.1201371614214892, 0.7939883368128299, 1.546744658999103, ABarpappp, 0, 0, 0, 0, , 0, 0, 0, 0, 0, 
82, 1, 82, 82, -1, -9.878688706545363, 3.932550465298883, -2.251141381953667, 1.7778674241369, ABalpaaa, 0, 0, 0, 0, , 0, 0, 0, 0, 0, 
59, 1, 59, 59, -1, 8.287053339473248, -5.476584709999748, 0.9673607856144218, 1.84415740659, Cppa, 0, 0, 0, 0, , 0, 0, 0, 0, 0, 
43, 1, 43, 43, -1, -9.94245018262837, -2.216566091431903, -3.881894243955903, 1.7778674241369, ABalaaap, 0, 0, 0, 0, , 0, 0, 0, 0, 0, 
344, 1, 344, 344, 537, -3.381634405779004, -2.94773413007027, 6.527002005301384, 1.546744658999103, ABarappaa, 0, 0, 0, 0, , 0, 0, 0, 0, 0, 
499, 1, 499, 499, 538, 0.7995321976720173, -4.505253779047273, 5.84739631743216, 1.4712937000235367, ABprpaaaa, 0, 0, 0, 0, , 0, 0, 0, 0, 0, 
336, 1, 336, 336, 539, -8.033084800280907, -2.664664801408285, -1.2535227757381266, 1.4712937000235367, ABplaapaa, 0, 0, 0, 0, , 0, 0, 0, 0, 0, 
19, 1, 19, 19, 540, -0.09691283998962177, -0.06748177914443079, 1.020806884124942, 1.4712937000235367, ABpraappp, 0, 0, 0, 0, , 0, 0, 0, 0, 0, 
46, 1, 46, 46, 541, 7.190061196144767, 4.12745194196492, -4.455145917996509, 1.84415740659, Eplp, 0, 0, 0, 0, , 0, 0, 0, 0, 0, 
404, 1, 404, 404, 542, 2.247556577489711, 5.885774215119936, -3.700165204403695, 1.546744658999103, ABalppppa, 0, 0, 0, 0, , 0, 0, 0, 0, 0, 
24, 1, 24, 24, 543, 4.686341493475798, -2.9812552286528153, -4.163315187113224, 1.4712937000235367, ABplpappp, 0, 0, 0, 0, , 0, 0, 0, 0, 0, 
71, 1, 71, 71, -1, -12.308290244927479, 0.36495607993877205, 0.9589354459211716, 1.7778674241369, ABarppaa, 0, 0, 0, 0, , 0, 0, 0, 0, 0, 
4, 1, 4, 4, 544, 7.071360303776061, 6.015937523744665, -1.1704021622416096, 2.119721157, Z3, 0, 0, 0, 0, , 0, 0, 0, 0, 0, 
83, 1, 83, 83, -1, -1.195164287928098, -7.40759269272674, -0.36732070971817543, 1.6911421839350995, ABplappa, 0, 0, 0, 0, , 0, 0, 0, 0, 0, 
128, 1, 128, 128, -1, -2.283649152297526, 6.923239564985465, 2.3993343517449373, 1.6044169437333, MSappa, 0, 0, 0, 0, , 0, 0, 0, 0, 0, 
20, 1, 20, 20, 545, -5.163459512992907, 6.72699645553678, 0.7890898590830735, 1.546744658999103, ABalpappp, 0, 0, 0, 0, , 0, 0, 0, 0, 0, 
463, 1, 463, 463, 546, -0.3263297877722632, 4.634445866638052, -5.482236527248023, 1.546744658999103, ABalpppaa, 0, 0, 0, 0, , 0, 0, 0, 0, 0, 
109, 1, 109, 109, -1, -8.537912556578052, 2.8660596630006934, 4.585682623823469, 1.6044169437333, MSaaaa, 0, 0, 0, 0, , 0, 0, 0, 0, 0, 
23, 1, 23, 23, -1, -7.370016763562791, 0.45792193728485303, -2.636080226541482, 1.7778674241369, ABalaapp, 0, 0, 0, 0, , 0, 0, 0, 0, 0, 
326, 1, 326, 326, 547, -7.542993216219666, 2.7933302717473483, -5.2138456502763075, 1.546744658999103, ABalpaapa, 0, 0, 0, 0, , 0, 0, 0, 0, 0, 
165, 1, 165, 165, 548, 7.227762578035017, -1.5234434838316029, -5.538809629581468, 1.84415740659, Epra, 0, 0, 0, 0, , 0, 0, 0, 0, 0, 
53, 1, 53, 53, 549, 5.31089286432617, -6.537471692364761, 1.6212200859777905, 1.6044169437333, Cpaap, 0, 0, 0, 0, , 0, 0, 0, 0, 0, 
39, 1, 39, 39, -1, -9.167085485043518, 0.9632759912205417, 0.16835884727708117, 1.7778674241369, ABarppap, 0, 0, 0, 0, , 0, 0, 0, 0, 0, 
2, 1, 2, 2, -1, -3.7608315212920655, 3.794440442610171, 1.7072854962680033, 1.7778674241369, ABarpppp, 0, 0, 0, 0, , 0, 0, 0, 0, 0, 
80, 1, 80, 80, 550, -7.332352547500445, -1.5935899188315252, 1.6403714682138415, 1.546744658999103, ABarpapap, 0, 0, 0, 0, , 0, 0, 0, 0, 0, 
37, 1, 37, 37, -1, -3.2503008738714967, 4.987919031705668, -5.182027492393443, 1.7778674241369, ABalppap, 0, 0, 0, 0, , 0, 0, 0, 0, 0, 
52, 1, 52, 52, 551, 5.372336477156599, 0.19485280363792634, 1.2411345929217275, 1.6044169437333, Caaap, 0, 0, 0, 0, , 0, 0, 0, 0, 0, 
375, 1, 375, 375, 552, -4.611679472743707, -4.595823091084938, -5.44718070533096, 1.4712937000235367, ABplaaapa, 0, 0, 0, 0, , 0, 0, 0, 0, 0, 
38, 1, 38, 38, 553, -2.2316371386112324, -6.394036138178213, -3.0599568036516738, 1.4712937000235367, ABpraaapp, 0, 0, 0, 0, , 0, 0, 0, 0, 0, 
12, 1, 12, 12, -1, 2.0599904931418527, -3.979183472204477, 1.6341924813196846, 1.6911421839350995, ABplappp, 0, 0, 0, 0, , 0, 0, 0, 0, 0, 
70, 1, 70, 70, 554, 0.9259563492545041, 5.077717876031449, -5.627469253229142, 1.546744658999103, ABalpppap, 0, 0, 0, 0, , 0, 0, 0, 0, 0, 
352, 1, 352, 352, 555, -10.572379273571414, -3.9037629706961545, -0.11436399933705077, 1.546744658999103, ABaraaapa, 0, 0, 0, 0, , 0, 0, 0, 0, 0, 
280, 1, 280, 280, 556, -9.218065314161358, -1.1113535324403114, 4.862934464468926, 1.546744658999103, ABaraapaa, 0, 0, 0, 0, , 0, 0, 0, 0, 0, 
475, 1, 475, 475, 557, -11.433634542635753, 3.0066321414219908, 1.2987820344826586, 1.546744658999103, ABalpapaa, 0, 0, 0, 0, , 0, 0, 0, 0, 0, 
298, 1, 298, 298, 558, 2.4921938204463525, 1.509550198031641, 6.789048038238574, 1.4712937000235367, ABprpapaa, 0, 0, 0, 0, , 0, 0, 0, 0, 0, 
231, 1, 231, 231, 559, -8.232865638014813, 5.5257484585899705, 0.7796430540409446, 1.546744658999103, ABalpappa, 0, 0, 0, 0, , 0, 0, 0, 0, 0, 
325, 1, 325, 325, 560, -1.0704822751351826, -0.5899795424792764, -4.143575892313781, 1.4712937000235367, ABplpapaa, 0, 0, 0, 0, , 0, 0, 0, 0, 0, 
64, 1, 64, 64, 561, -10.164147615196717, 3.5792645305884943, 2.2523779437190363, 1.546744658999103, ABalpapap, 0, 0, 0, 0, , 0, 0, 0, 0, 0, 
397, 1, 397, 397, 562, -5.692107365420171, -0.7930247562176387, 6.5760069038706375, 1.546744658999103, ABaraappa, 0, 0, 0, 0, , 0, 0, 0, 0, 0, 
498, 1, 498, 498, 563, -7.244198890994664, 3.4020956338497363, -1.270335783870722, 1.546744658999103, ABarpppaa, 0, 0, 0, 0, , 0, 0, 0, 0, 0, 
11, 1, 11, 11, -1, 5.7247561943320475, -1.7171315790975186, 3.813487448592377, 1.6911421839350995, ABprappp, 0, 0, 0, 0, , 0, 0, 0, 0, 0, 
33, 1, 33, 33, 564, 2.9771844530289866, 1.4615855259111836, -7.0922240347225305, 1.4712937000235367, ABplpaapp, 0, 0, 0, 0, , 0, 0, 0, 0, 0, 
240, 1, 240, 240, 565, 4.155016553160453, -3.794218557458702, -1.0879278360440725, 1.6044169437333, Cpapa, 0, 0, 0, 0, , 0, 0, 0, 0, 0, 
75, 1, 75, 75, 566, 0.22308761344113706, -0.6020538242005498, -7.419205688370905, 1.4712937000235367, ABplpaaap, 0, 0, 0, 0, , 0, 0, 0, 0, 0, 
93, 1, 93, 93, -1, -11.912942698235382, -1.4342256911649243, -1.5667562002169035, 1.7778674241369, ABalaaaa, 0, 0, 0, 0, , 0, 0, 0, 0, 0, 
148, 1, 148, 148, 567, 0.403374830054287, 5.043603747893587, -1.3294827292384628, 1.84415740659, Eala, 0, 0, 0, 0, , 0, 0, 0, 0, 0, 
5, 1, 5, 5, 568, 4.705211998746649, 5.938789878778345, -3.4909240197888383, 1.546744658999103, ABalppppp, 0, 0, 0, 0, , 0, 0, 0, 0, 0, 
9, 1, 9, 9, 569, 1.8401629374375499, -1.380520986387768, 7.240092570557944, 1.546744658999103, ABarapppp, 0, 0, 0, 0, , 0, 0, 0, 0, 0, 
484, 1, 484, 484, 570, 8.54174834380759, 1.2781617063303161, 4.668074151892837, 1.4712937000235367, ABprpppaa, 0, 0, 0, 0, , 0, 0, 0, 0, 0, 
323, 1, 323, 323, 571, -2.0034580526973977, -0.7358703106689698, -7.310415343444524, 1.4712937000235367, ABplpaaaa, 0, 0, 0, 0, , 0, 0, 0, 0, 0, 
69, 1, 69, 69, -1, -7.753530583598173, 0.0023988765653324765, -5.824429289671339, 1.7778674241369, ABalapaa, 0, 0, 0, 0, , 0, 0, 0, 0, 0, 
73, 1, 73, 73, -1, -3.3782237994874698, -6.96838792425498, 1.7003547441981746, 1.6911421839350995, ABpraaaa, 0, 0, 0, 0, , 0, 0, 0, 0, 0, 
47, 1, 47, 47, -1, -0.08374000713760121, 1.5636076058186943, 4.055721617533227, 1.6044169437333, MSpaap, 0, 0, 0, 0, , 0, 0, 0, 0, 0, 
13, 1, 13, 13, -1, 1.2466956947021093, 6.976275939141111, 2.504134291335143, 1.6044169437333, MSappp, 0, 0, 0, 0, , 0, 0, 0, 0, 0, 
66, 1, 66, 66, 572, -0.7912557161954978, -2.849816077716849, 6.8635672700591766, 1.546744658999103, ABarappap, 0, 0, 0, 0, , 0, 0, 0, 0, 0, 
74, 1, 74, 74, -1, -11.091856228651055, -1.7376465809125297, 2.8724279679675364, 1.7778674241369, ABaraaaa, 0, 0, 0, 0, , 0, 0, 0, 0, 0, 
112, 1, 112, 112, -1, -3.4822612584430557, 0.5002799233960721, 3.551898091295271, 1.6044169437333, MSpaaa, 0, 0, 0, 0, , 0, 0, 0, 0, 0, 
88, 1, 88, 88, -1, -4.666896711567284, 1.7541161894338406, -6.676118970788072, 1.7778674241369, ABalppaa, 0, 0, 0, 0, , 0, 0, 0, 0, 0, 
256, 1, 256, 256, 573, -0.282633052098153, -2.2588862615263445, 3.4712641355231324, 1.4712937000235367, ABprapapa, 0, 0, 0, 0, , 0, 0, 0, 0, 0, 
40, 1, 40, 40, 574, 4.259148249638591, -6.607151129230343, -2.301405083319385, 1.4712937000235367, ABplapapp, 0, 0, 0, 0, , 0, 0, 0, 0, 0, 
132, 1, 132, 132, 575, -2.4404850530611704, 3.075155214864362, -2.0967474630989784, 1.84415740659, Eara, 0, 0, 0, 0, , 0, 0, 0, 0, 0, 
18, 1, 18, 18, 576, 5.489363147007893, 4.742123550147284, 4.705950689474674, 1.4712937000235367, ABprpappp, 0, 0, 0, 0, , 0, 0, 0, 0, 0, 
241, 1, 241, 241, 577, -3.1377016535756956, -0.906555435555941, 0.32012161637234937, 1.4712937000235367, ABpraappa, 0, 0, 0, 0, , 0, 0, 0, 0, 0, 
461, 1, 461, 461, 578, -9.251667912902915, -1.8048089280366266, 2.0879025724524833, 1.546744658999103, ABarpapaa, 0, 0, 0, 0, , 0, 0, 0, 0, 0, 
210, 1, 210, 210, 579, 2.7484049717553436, -1.0325010190749349, -0.18882850087839292, 1.6044169437333, Caaaa, 0, 0, 0, 0, , 0, 0, 0, 0, 0, 
36, 1, 36, 36, -1, 9.075200873327956, -3.2061486085267004, 3.9616471756005254, 1.6911421839350995, ABprppap, 0, 0, 0, 0, , 0, 0, 0, 0, 0, 
60, 1, 60, 60, 580, 9.714433125240394, 4.11077487893408, -2.1454286977694625, 2.119721157, Z2, 0, 0, 0, 0, , 0, 0, 0, 0, 0, 
56, 1, 56, 56, 581, -5.763734065509488, -3.5183242733242945, 5.565876424479277, 1.546744658999103, ABarapaap, 0, 0, 0, 0, , 0, 0, 0, 0, 0, 
32, 1, 32, 32, 582, -8.44471048131703, -4.866857752574596, 0.6625993618321515, 1.546744658999103, ABaraaapp, 0, 0, 0, 0, , 0, 0, 0, 0, 0, 
76, 1, 76, 76, 583, -7.536211376284883, 0.30240848774717966, 5.654251548151579, 1.546744658999103, ABaraapap, 0, 0, 0, 0, , 0, 0, 0, 0, 0, 
250, 1, 250, 250, 584, 2.310500672406578, -7.285605098487216, 0.7499159829394608, 1.6044169437333, Cpaaa, 0, 0, 0, 0, , 0, 0, 0, 0, 0, 
77, 1, 77, 77, -1, 7.217349892558865, -0.5036909797583462, 6.04395894104816, 1.6911421839350995, ABprppaa, 0, 0, 0, 0, , 0, 0, 0, 0, 0, 
58, 1, 58, 58, 585, 2.175840546424808, 0.07517366100987176, -4.202193793466907, 1.4712937000235367, ABplpapap, 0, 0, 0, 0, , 0, 0, 0, 0, 0, 
292, 1, 292, 292, 586, -5.701819032760195, -3.6397766470969026, 2.7024372945820234, 1.4712937000235367, ABpraapaa, 0, 0, 0, 0, , 0, 0, 0, 0, 0, 
227, 1, 227, 227, 587, -2.594581024705804, -3.491951699069955, -2.5664564901029, 1.4712937000235367, ABplaappa, 0, 0, 0, 0, , 0, 0, 0, 0, 0, 
503, 1, 503, 503, 588, -7.68177198976199, -4.3818000465606515, -4.11676989105635, 1.4712937000235367, ABplaaaaa, 0, 0, 0, 0, , 0, 0, 0, 0, 0, 
14, 1, 14, 14, 589, 1.8895066808876844, 2.000727904460936, -1.4294372590304991, 1.84415740659, Earp, 0, 0, 0, 0, , 0, 0, 0, 0, 0, 
123, 1, 123, 123, -1, -0.4859517111057963, 3.157946421483514, 1.1668749992624095, 1.6044169437333, MSppaa, 0, 0, 0, 0, , 0, 0, 0, 0, 0, 
150, 1, 150, 150, -1, 8.19908460527673, 1.1109178394651598, -1.5638775954597788, 1.84415740659, Daa, 0, 0, 0, 0, , 0, 0, 0, 0, 0, 
78, 1, 78, 78, 590, 5.436097271545626, 1.8522320087411683, 6.437994944190086, 1.4712937000235367, ABprpapap, 0, 0, 0, 0, , 0, 0, 0, 0, 0, 
364, 1, 364, 364, 591, 3.2502603789338202, -5.761232908643601, 4.308941142308349, 1.4712937000235367, ABprappaa, 0, 0, 0, 0, , 0, 0, 0, 0, 0, 
67, 1, 67, 67, -1, 0.10292967420969246, -6.844884224313118, 2.934043840905716, 1.6911421839350995, ABprapaa, 0, 0, 0, 0, , 0, 0, 0, 0, 0, 
330, 1, 330, 330, 592, -8.124194755952015, -3.5473174505186496, 4.379968210554243, 1.546744658999103, ABarapaaa, 0, 0, 0, 0, , 0, 0, 0, 0, 0, 
360, 1, 360, 360, 593, 2.6350567295319274, 4.1444414104229015, 5.375975517445981, 1.4712937000235367, ABprpappa, 0, 0, 0, 0, , 0, 0, 0, 0, 0, 
8, 1, 8, 8, -1, 12.113074085186682, -1.556307074600824, -0.6085961581618382, 1.84415740659, Cppp, 0, 0, 0, 0, , 0, 0, 0, 0, 0, 
