28, 1, 28, 28, 1365, 5.981919643845745, -3.750272043471356, -0.05268180803231825, 1.6044169437333, Cpapp, 0, 0, 0, 0, , 0, 0, 0, 0, 0, 
716, 1, 716, 716, 1366, 4.680786194235851, -0.7934245791400737, 5.531210774923089, 1.4712937000235367, ABprppaaa, 0, 0, 0, 0, , 0, 0, 0, 0, 0, 
31, 1, 31, 31, 1367, -2.5485395488921707, -3.9963463190506623, -5.206531691788927, 1.4712937000235367, ABplaaapp, 0, 0, 0, 0, , 0, 0, 0, 0, 0, 
352, 1, 352, 352, 1368, -10.818711383688575, -3.546183128863215, -0.888658899990017, 1.546744658999103, ABaraaapa, 0, 0, 0, 0, , 0, 0, 0, 0, 0, 
47, 1, 47, 47, -1, 0.2952358723074783, 2.1993771991552205, 3.1809213046435665, 1.6044169437333, MSpaap, 0, 0, 0, 0, , 0, 0, 0, 0, 0, 
1279, 1, 1279, 1279, 1369, -10.642087276924814, 0.44449466080246686, -3.945227355738685, 1.546744658999103, ABalaapaa, 0, 0, 0, 0, , 0, 0, 0, 0, 0, 
250, 1, 250, 250, 1370, 3.4234915583397836, -7.152466048937843, 0.2987242563421959, 1.6044169437333, Cpaaa, 0, 0, 0, 0, , 0, 0, 0, 0, 0, 
111, 1, 111, 111, 1371, -1.5799998965036075, 3.6808906004353195, 6.291709999974854, 1.395842741047971, MSpapap, 0, 0, 0, 0, , 0, 0, 0, 0, 0, 
484, 1, 484, 484, 1372, 8.577487030732994, 0.9493042049766044, 3.728555296743575, 1.4712937000235367, ABprpppaa, 0, 0, 0, 0, , 0, 0, 0, 0, 0, 
696, 1, 696, 696, 1373, -1.0153389948442002, -6.600499660113262, 3.3886969165331147, 1.4712937000235367, ABprapaaa, 0, 0, 0, 0, , 0, 0, 0, 0, 0, 
2, 1, 2, 2, 1374, -1.8642145374523578, 4.141329566932677, 2.2337992248181413, 1.546744658999103, ABarppppp, 0, 0, 0, 0, , 0, 0, 0, 0, 0, 
475, 1, 475, 475, 1375, -11.395336834220839, 2.8790043907786633, 0.7549433035238347, 1.546744658999103, ABalpapaa, 0, 0, 0, 0, , 0, 0, 0, 0, 0, 
148, 1, 148, 148, 1376, 0.36128661343498103, 4.827337656817234, -2.0707798326571734, 1.84415740659, Eala, 0, 0, 0, 0, , 0, 0, 0, 0, 0, 
1047, 1, 1047, 1047, 1377, -7.1442100520538565, 5.12346262102427, 3.300242413545343, 1.395842741047971, MSaapaa, 0, 0, 0, 0, , 0, 0, 0, 0, 0, 
1053, 1, 1053, 1053, 1378, -7.873305907893126, -5.3708883128019504, 2.0877852456005677, 1.546744658999103, ABarpaaaa, 0, 0, 0, 0, , 0, 0, 0, 0, 0, 
619, 1, 619, 619, 1379, -12.383820688696858, 0.011911241968168304, 0.558026185323164, 1.546744658999103, ABarppaaa, 0, 0, 0, 0, , 0, 0, 0, 0, 0, 
109, 1, 109, 109, 1380, -8.269982737828842, 3.1082980203218615, 4.527075157503337, 1.395842741047971, MSaaaap, 0, 0, 0, 0, , 0, 0, 0, 0, 0, 
26, 1, 26, 26, -1, -2.745185774889657, 5.5172045852699565, 4.728343774693584, 1.6044169437333, MSaapp, 0, 0, 0, 0, , 0, 0, 0, 0, 0, 
4, 1, 4, 4, 1381, 6.757477857953872, 6.161060210798828, -1.0423572333525801, 2.119721157, Z3, 0, 0, 0, 0, , 0, 0, 0, 0, 0, 
58, 1, 58, 58, 1382, 1.949946427325789, 0.48034446282076954, -4.384577696669963, 1.4712937000235367, ABplpapap, 0, 0, 0, 0, , 0, 0, 0, 0, 0, 
18, 1, 18, 18, 1383, 5.0961554922853445, 5.338415357805618, 4.2030085274426074, 1.4712937000235367, ABprpappp, 0, 0, 0, 0, , 0, 0, 0, 0, 0, 
75, 1, 75, 75, 1384, 0.9909525034013889, -0.0356051263956574, -7.42029913922976, 1.4712937000235367, ABplpaaap, 0, 0, 0, 0, , 0, 0, 0, 0, 0, 
67, 1, 67, 67, 1385, 1.570861190309593, -6.852634351709411, 2.420359400455524, 1.4712937000235367, ABprapaap, 0, 0, 0, 0, , 0, 0, 0, 0, 0, 
5, 1, 5, 5, 1386, 5.3845483218386905, 5.681840760228064, -3.5726271133256655, 1.546744658999103, ABalppppp, 0, 0, 0, 0, , 0, 0, 0, 0, 0, 
697, 1, 697, 697, 1387, 11.6939867567312, -2.2259668207153855, -1.1619799072322423, 1.6044169437333, Cpppa, 0, 0, 0, 0, , 0, 0, 0, 0, 0, 
16, 1, 16, 16, 1388, -2.7528262201215794, 1.4899672400314337, 0.7005734195617728, 1.546744658999103, ABarpappp, 0, 0, 0, 0, , 0, 0, 0, 0, 0, 
32, 1, 32, 32, 1389, -10.09541603581243, -4.001274507573749, 1.6203459209125788, 1.546744658999103, ABaraaapp, 0, 0, 0, 0, , 0, 0, 0, 0, 0, 
240, 1, 240, 240, 1390, 2.854223221184756, -3.621924584158034, -0.8649743495583445, 1.6044169437333, Cpapa, 0, 0, 0, 0, , 0, 0, 0, 0, 0, 
124, 1, 124, 124, -1, 2.929627819538183, 3.9813630077214777, 1.5500636147633942, 1.6044169437333, MSpppa, 0, 0, 0, 0, , 0, 0, 0, 0, 0, 
280, 1, 280, 280, 1391, -8.438502222573305, -1.167437324188777, 5.339200536966684, 1.546744658999103, ABaraapaa, 0, 0, 0, 0, , 0, 0, 0, 0, 0, 
660, 1, 660, 660, 1392, 2.8905099241031964, -2.594348880667267, -6.764773001590267, 1.4712937000235367, ABplppapa, 0, 0, 0, 0, , 0, 0, 0, 0, 0, 
754, 1, 754, 754, 1393, -8.240912243768015, -0.35754978266289783, -2.3822430672243335, 1.546744658999103, ABalaappa, 0, 0, 0, 0, , 0, 0, 0, 0, 0, 
39, 1, 39, 39, 1394, -7.799938302456705, 1.6217066056072877, -0.4561369208832657, 1.546744658999103, ABarppapp, 0, 0, 0, 0, , 0, 0, 0, 0, 0, 
49, 1, 49, 49, -1, -5.891123931289202, 3.124811967857544, 5.763176268315435, 1.6044169437333, MSaaap, 0, 0, 0, 0, , 0, 0, 0, 0, 0, 
287, 1, 287, 287, 1395, 1.7262486583134808, -2.91641232601, -3.911286032283849, 1.4712937000235367, ABplpappa, 0, 0, 0, 0, , 0, 0, 0, 0, 0, 
439, 1, 439, 439, 1396, 8.51662701276231, 2.185305107150729, 0.9072632230307921, 1.4712937000235367, ABprppppa, 0, 0, 0, 0, , 0, 0, 0, 0, 0, 
241, 1, 241, 241, 1397, -2.524459875869534, -1.3635250491462207, -0.4696224507666519, 1.4712937000235367, ABpraappa, 0, 0, 0, 0, , 0, 0, 0, 0, 0, 
260, 1, 260, 260, 1398, -5.022469517350108, -4.729464680598448, 4.9037109138419215, 1.546744658999103, ABarapapa, 0, 0, 0, 0, , 0, 0, 0, 0, 0, 
17, 1, 17, 17, 1399, -2.3703402860039917, 0.9047650172423543, 7.253427519042957, 1.546744658999103, ABaraappp, 0, 0, 0, 0, , 0, 0, 0, 0, 0, 
622, 1, 622, 622, 1400, -8.282360538297167, -0.686496524845274, -5.182529324553974, 1.546744658999103, ABalapaaa, 0, 0, 0, 0, , 0, 0, 0, 0, 0, 
693, 1, 693, 693, 1401, -2.48290668958376, -7.1186268057827995, -1.6187700781966148, 1.4712937000235367, ABplappaa, 0, 0, 0, 0, , 0, 0, 0, 0, 0, 
500, 1, 500, 500, 1402, 3.537017483337355, 1.4691105286461537, -6.987496164559381, 1.4712937000235367, ABplpaapa, 0, 0, 0, 0, , 0, 0, 0, 0, 0, 
647, 1, 647, 647, 1403, 1.8219184940580335, -2.8865331891106307, 6.133335037969977, 1.4712937000235367, ABprpaapa, 0, 0, 0, 0, , 0, 0, 0, 0, 0, 
344, 1, 344, 344, 1404, -3.423511258219043, -2.9763987834862817, 6.518448038119711, 1.546744658999103, ABarappaa, 0, 0, 0, 0, , 0, 0, 0, 0, 0, 
73, 1, 73, 73, 1405, -2.3760456195756703, -7.235301088143124, 1.0670788188895028, 1.4712937000235367, ABpraaaap, 0, 0, 0, 0, , 0, 0, 0, 0, 0, 
497, 1, 497, 497, 1406, -5.763404341904333, 1.2128010363036308, 1.428720143936123, 1.546744658999103, ABarpappa, 0, 0, 0, 0, , 0, 0, 0, 0, 0, 
12, 1, 12, 12, 1407, 2.6254152986415202, -4.082553502386435, 2.154178821924204, 1.4712937000235367, ABplapppp, 0, 0, 0, 0, , 0, 0, 0, 0, 0, 
13, 1, 13, 13, -1, 1.5552983942616687, 6.8782046312197975, 2.6932434921163857, 1.6044169437333, MSappp, 0, 0, 0, 0, , 0, 0, 0, 0, 0, 
1273, 1, 1273, 1273, 1408, -3.039358371031403, 0.6362895017317791, -4.2618070028748205, 1.546744658999103, ABalappaa, 0, 0, 0, 0, , 0, 0, 0, 0, 0, 
29, 1, 29, 29, 1409, -2.4081452941911925, -4.364301654558754, 4.199526244801795, 1.546744658999103, ABarapapp, 0, 0, 0, 0, , 0, 0, 0, 0, 0, 
3, 1, 3, 3, -1, 5.39593786542663, 6.537402862778654, 1.529521951935209, 1.6044169437333, MSpppp, 0, 0, 0, 0, , 0, 0, 0, 0, 0, 
61, 1, 61, 61, 1410, -5.962135035565272, -5.873058107412454, 1.4415155234109769, 1.546744658999103, ABarpaaap, 0, 0, 0, 0, , 0, 0, 0, 0, 0, 
57, 1, 57, 57, 1411, -2.473002670500284, -3.7688125520162337, 1.4864340862155825, 1.4712937000235367, ABpraapap, 0, 0, 0, 0, , 0, 0, 0, 0, 0, 
515, 1, 515, 515, 1412, 5.263963201676447, 1.7618181963627886, 0.47266847403611234, 1.6044169437333, Caapa, 0, 0, 0, 0, , 0, 0, 0, 0, 0, 
70, 1, 70, 70, 1413, 3.064351283425073, 4.988489613767429, -5.224275869289651, 1.546744658999103, ABalpppap, 0, 0, 0, 0, , 0, 0, 0, 0, 0, 
330, 1, 330, 330, 1414, -8.292515918599522, -3.6429017863055866, 4.177298365386831, 1.546744658999103, ABarapaaa, 0, 0, 0, 0, , 0, 0, 0, 0, 0, 
112, 1, 112, 112, 1415, -3.1564492825609918, 0.15906714982798495, 3.863954453617614, 1.6044169437333, MSpaaa, 0, 0, 0, 0, , 0, 0, 0, 0, 0, 
20, 1, 20, 20, 1416, -4.34580621867062, 6.909039344406667, 1.0149796368801576, 1.546744658999103, ABalpappp, 0, 0, 0, 0, , 0, 0, 0, 0, 0, 
44, 1, 44, 44, 1417, -3.6150399379255544, -1.6311237512793608, -6.935850020226752, 1.546744658999103, ABalapapp, 0, 0, 0, 0, , 0, 0, 0, 0, 0, 
88, 1, 88, 88, 1418, -4.291287627542489, 1.5918972299924938, -6.808832935930359, 1.7778674241369, ABalppaa, 0, 0, 0, 0, , 0, 0, 0, 0, 0, 
83, 1, 83, 83, 1419, 0.24843574216393852, -7.445931403759151, -0.07279118352888997, 1.4712937000235367, ABplappap, 0, 0, 0, 0, , 0, 0, 0, 0, 0, 
76, 1, 76, 76, 1420, -7.047829391906734, 0.8529023272686227, 6.074524275030736, 1.546744658999103, ABaraapap, 0, 0, 0, 0, , 0, 0, 0, 0, 0, 
499, 1, 499, 499, 1421, -0.7258088117598914, -3.9177830584166786, 6.318338511116752, 1.4712937000235367, ABprpaaaa, 0, 0, 0, 0, , 0, 0, 0, 0, 0, 
375, 1, 375, 375, 1422, -4.901996657995857, -4.721497751983036, -4.9539463185746415, 1.4712937000235367, ABplaaapa, 0, 0, 0, 0, , 0, 0, 0, 0, 0, 
231, 1, 231, 231, 1423, -7.102844887926177, 6.084944645390917, 0.5640458274061939, 1.546744658999103, ABalpappa, 0, 0, 0, 0, , 0, 0, 0, 0, 0, 
1330, 1, 1330, 1330, 1424, -1.456796796646566, -2.6817667387789825, -6.964791938312623, 1.4712937000235367, ABplppaaa, 0, 0, 0, 0, , 0, 0, 0, 0, 0, 
30, 1, 30, 30, 1425, 2.300627418451748, -0.32518083159471173, 3.3984299742514956, 1.4712937000235367, ABprapapp, 0, 0, 0, 0, , 0, 0, 0, 0, 0, 
256, 1, 256, 256, 1426, -0.439552967544234, -1.9677047772994338, 3.8905624986899543, 1.4712937000235367, ABprapapa, 0, 0, 0, 0, , 0, 0, 0, 0, 0, 
1122, 1, 1122, 1122, 1427, -10.591833292345514, -2.2467519608781785, -3.1784286154422214, 1.546744658999103, ABalaaapa, 0, 0, 0, 0, , 0, 0, 0, 0, 0, 
130, 1, 130, 130, -1, -3.2114995633243097, 7.007411012562868, -1.6529847583142658, 1.6044169437333, MSapaa, 0, 0, 0, 0, , 0, 0, 0, 0, 0, 
43, 1, 43, 43, 1428, -9.10293336989872, -2.83633533931535, -3.8172095000515, 1.546744658999103, ABalaaapp, 0, 0, 0, 0, , 0, 0, 0, 0, 0, 
8, 1, 8, 8, 1429, 12.384091936679937, -0.08041261023685974, 0.6085718379272385, 1.6044169437333, Cpppp, 0, 0, 0, 0, , 0, 0, 0, 0, 0, 
69, 1, 69, 69, 1430, -6.923971021145796, 1.54861061722275, -5.986574381348063, 1.546744658999103, ABalapaap, 0, 0, 0, 0, , 0, 0, 0, 0, 0, 
92, 1, 92, 92, 1431, 0.14318166856001374, -2.604274053871464, -6.95914192484801, 1.4712937000235367, ABplppaap, 0, 0, 0, 0, , 0, 0, 0, 0, 0, 
78, 1, 78, 78, 1432, 6.211916106483711, 2.4237131495483646, 5.973358939010059, 1.4712937000235367, ABprpapap, 0, 0, 0, 0, , 0, 0, 0, 0, 0, 
80, 1, 80, 80, 1433, -5.901430852456975, -1.4333284684572862, 0.5140066944569998, 1.546744658999103, ABarpapap, 0, 0, 0, 0, , 0, 0, 0, 0, 0, 
40, 1, 40, 40, 1434, 3.833519722265174, -6.64103430275794, -2.478913445195408, 1.4712937000235367, ABplapapp, 0, 0, 0, 0, , 0, 0, 0, 0, 0, 
21, 1, 21, 21, 1435, -0.2636600640610558, -3.220704200519285, -1.8344437084157939, 1.4712937000235367, ABplaappp, 0, 0, 0, 0, , 0, 0, 0, 0, 0, 
326, 1, 326, 326, 1436, -7.309356612395607, 4.010745670341432, -4.487812464192817, 1.546744658999103, ABalpaapa, 0, 0, 0, 0, , 0, 0, 0, 0, 0, 
6, 1, 6, 6, 1437, 9.791536280862275, -4.385989982527149, -1.3544162553053363, 1.4712937000235367, ABplppppp, 0, 0, 0, 0, , 0, 0, 0, 0, 0, 
808, 1, 808, 808, 1438, 4.963168903890697, -4.064388641313184, -3.044211962415156, 1.4712937000235367, ABplpppaa, 0, 0, 0, 0, , 0, 0, 0, 0, 0, 
48, 1, 48, 48, -1, 11.554764802541285, 0.650063181668691, -2.6661149338762002, 1.84415740659, Dap, 0, 0, 0, 0, , 0, 0, 0, 0, 0, 
10, 1, 10, 10, 1439, 0.6356738718009647, 2.6550533387521784, -6.9502585937619745, 1.546744658999103, ABalapppp, 0, 0, 0, 0, , 0, 0, 0, 0, 0, 
292, 1, 292, 292, 1440, -5.732768209757586, -3.3167065285926824, 2.5896157657957617, 1.4712937000235367, ABpraapaa, 0, 0, 0, 0, , 0, 0, 0, 0, 0, 
249, 1, 249, 249, 1441, 0.9730247988705056, -6.875189412182479, -2.8058474753213347, 1.4712937000235367, ABplapapa, 0, 0, 0, 0, , 0, 0, 0, 0, 0, 
1195, 1, 1195, 1195, 1442, -3.411418145817974, 3.3031029600010258, 6.355086815778036, 1.395842741047971, MSpapaa, 0, 0, 0, 0, , 0, 0, 0, 0, 0, 
77, 1, 77, 77, 1443, 7.411588163436852, -0.28532516797024093, 5.978369107337959, 1.4712937000235367, ABprppaap, 0, 0, 0, 0, , 0, 0, 0, 0, 0, 
1178, 1, 1178, 1178, 1444, -11.549550944659448, -1.4640558048585708, 2.312016554429159, 1.546744658999103, ABaraaaaa, 0, 0, 0, 0, , 0, 0, 0, 0, 0, 
14, 1, 14, 14, 1445, 1.8850872745050842, 2.1530942167894445, -1.9183432806221388, 1.84415740659, Earp, 0, 0, 0, 0, , 0, 0, 0, 0, 0, 
842, 1, 842, 842, 1446, -4.6856367985385585, 3.8010048732391737, 1.328817173452053, 1.546744658999103, ABarppppa, 0, 0, 0, 0, , 0, 0, 0, 0, 0, 
82, 1, 82, 82, 1447, -8.771375386293814, 5.038251487634149, -1.5552071632577358, 1.546744658999103, ABalpaaap, 0, 0, 0, 0, , 0, 0, 0, 0, 0, 
19, 1, 19, 19, 1448, -0.23564405441651726, -0.2005970256705175, 1.3283392655626, 1.4712937000235367, ABpraappp, 0, 0, 0, 0, , 0, 0, 0, 0, 0, 
498, 1, 498, 498, 1449, -6.244500895832082, 3.6974504254695324, -1.5253448166062546, 1.546744658999103, ABarpppaa, 0, 0, 0, 0, , 0, 0, 0, 0, 0, 
165, 1, 165, 165, 1450, 8.369063140019591, -2.019903871785313, -5.1250903379185715, 1.84415740659, Epra, 0, 0, 0, 0, , 0, 0, 0, 0, 0, 
65, 1, 65, 65, 1451, -7.069267948193431, -3.5570516238370824, -4.991219423169843, 1.4712937000235367, ABplaaaap, 0, 0, 0, 0, , 0, 0, 0, 0, 0, 
600, 1, 600, 600, 1452, -4.591332350963592, 4.198262655983753, -5.499448030328924, 1.546744658999103, ABalppapa, 0, 0, 0, 0, , 0, 0, 0, 0, 0, 
9, 1, 9, 9, 1453, 1.919329369777952, -0.3718939118948705, 7.352006362567238, 1.546744658999103, ABarapppp, 0, 0, 0, 0, , 0, 0, 0, 0, 0, 
64, 1, 64, 64, 1454, -9.458189886009986, 4.387424092420856, 2.0255283308264627, 1.546744658999103, ABalpapap, 0, 0, 0, 0, , 0, 0, 0, 0, 0, 
22, 1, 22, 22, -1, 11.451074083076989, 2.878897841243001, -0.03627232657081308, 1.84415740659, Dpp, 0, 0, 0, 0, , 0, 0, 0, 0, 0, 
56, 1, 56, 56, 1455, -6.230730770383345, -2.565227496208633, 5.908196915435631, 1.546744658999103, ABarapaap, 0, 0, 0, 0, , 0, 0, 0, 0, 0, 
37, 1, 37, 37, 1456, -2.4398586033142995, 5.493270068136507, -4.020308627963921, 1.546744658999103, ABalppapp, 0, 0, 0, 0, , 0, 0, 0, 0, 0, 
84, 1, 84, 84, 1457, -10.412769527677343, 0.3518083543971762, -3.989815657101199, 1.546744658999103, ABalaapap, 0, 0, 0, 0, , 0, 0, 0, 0, 0, 
7, 1, 7, 7, 1458, 9.243254555067727, 0.9551745335159356, -4.890754559768101, 1.84415740659, Eprp, 0, 0, 0, 0, , 0, 0, 0, 0, 0, 
11, 1, 11, 11, 1459, 6.167464022390247, -0.2964642441309346, 3.13859611312756, 1.4712937000235367, ABprapppp, 0, 0, 0, 0, , 0, 0, 0, 0, 0, 
325, 1, 325, 325, 1460, -0.6007289798102247, -1.1002204442339225, -4.449175159354976, 1.4712937000235367, ABplpapaa, 0, 0, 0, 0, , 0, 0, 0, 0, 0, 
1, 1, 1, 1, 1461, 8.526454162097801, 5.303423580067582, 1.1320026859608543, 1.4712937000235367, ABprppppp, 0, 0, 0, 0, , 0, 0, 0, 0, 0, 
35, 1, 35, 35, 1462, -4.23759450530997, -4.82678646097713, -0.40327553399815613, 1.546744658999103, ABarpaapp, 0, 0, 0, 0, , 0, 0, 0, 0, 0, 
392, 1, 392, 392, 1463, -6.059520487241613, -1.6250285354547067, -6.293069270916, 1.546744658999103, ABalapapa, 0, 0, 0, 0, , 0, 0, 0, 0, 0, 
364, 1, 364, 364, 1464, 4.013828340208068, -6.134144158925199, 3.482619942208162, 1.4712937000235367, ABprappaa, 0, 0, 0, 0, , 0, 0, 0, 0, 0, 
816, 1, 816, 816, 1465, 5.084960632207216, -2.834936528206251, 2.676466496666032, 1.4712937000235367, ABprapppa, 0, 0, 0, 0, , 0, 0, 0, 0, 0, 
41, 1, 41, 41, 1466, 4.475532841502483, -3.5680123857832435, 5.96859657355463, 1.4712937000235367, ABprpaapp, 0, 0, 0, 0, , 0, 0, 0, 0, 0, 
227, 1, 227, 227, 1467, -2.948904536059111, -3.65081983165117, -2.5207581168392474, 1.4712937000235367, ABplaappa, 0, 0, 0, 0, , 0, 0, 0, 0, 0, 
59, 1, 59, 59, -1, 8.679460744298966, -5.186245955751294, 1.2203723131650592, 1.84415740659, Cppa, 0, 0, 0, 0, , 0, 0, 0, 0, 0, 
62, 1, 62, 62, 1468, 6.2932651008337945, -4.789604345100421, 4.274160093722776, 1.4712937000235367, ABprappap, 0, 0, 0, 0, , 0, 0, 0, 0, 0, 
615, 1, 615, 615, 1469, 7.807268536713463, -2.087731210482393, -1.8671242294625028, 1.4712937000235367, ABplppppa, 0, 0, 0, 0, , 0, 0, 0, 0, 0, 
74, 1, 74, 74, 1470, -10.399296569214014, -1.419101676726318, 3.730880507986671, 1.546744658999103, ABaraaaap, 0, 0, 0, 0, , 0, 0, 0, 0, 0, 
158, 1, 158, 158, 1471, 4.320251194781355, 2.445706262636565, -4.271362899145558, 1.84415740659, Epla, 0, 0, 0, 0, , 0, 0, 0, 0, 0, 
36, 1, 36, 36, 1472, 10.603743472759634, -1.4982531844391174, 3.581157563363041, 1.4712937000235367, ABprppapp, 0, 0, 0, 0, , 0, 0, 0, 0, 0, 
60, 1, 60, 60, 1473, 9.412017825084497, 4.4846080898897815, -1.878814382468842, 2.119721157, Z2, 0, 0, 0, 0, , 0, 0, 0, 0, 0, 
503, 1, 503, 503, 1474, -8.285775020291073, -4.870942014608073, -2.6628963358373134, 1.4712937000235367, ABplaaaaa, 0, 0, 0, 0, , 0, 0, 0, 0, 0, 
86, 1, 86, 86, 1475, 1.4469919740588455, -5.494283407113717, 4.952391307961021, 1.4712937000235367, ABprpaaap, 0, 0, 0, 0, , 0, 0, 0, 0, 0, 
761, 1, 761, 761, 1476, -9.826166533151216, 3.0776853967155215, -3.354546258065393, 1.546744658999103, ABalpaaaa, 0, 0, 0, 0, , 0, 0, 0, 0, 0, 
66, 1, 66, 66, 1477, -0.7584199985827358, -1.332425856784992, 7.309931703344823, 1.546744658999103, ABarappap, 0, 0, 0, 0, , 0, 0, 0, 0, 0, 
360, 1, 360, 360, 1478, 2.5728248346780354, 4.0447767760002735, 4.941219923100363, 1.4712937000235367, ABprpappa, 0, 0, 0, 0, , 0, 0, 0, 0, 0, 
79, 1, 79, 79, -1, 5.583018528523421, 0.6510742352202339, -2.2372314690750774, 1.84415740659, Capa, 0, 0, 0, 0, , 0, 0, 0, 0, 0, 
27, 1, 27, 27, 1479, 6.233312550706892, 2.863634738302829, 3.0479756299269725, 1.6044169437333, Caapp, 0, 0, 0, 0, , 0, 0, 0, 0, 0, 
397, 1, 397, 397, 1480, -4.744625498891769, -0.44015994078091975, 6.86834242660027, 1.546744658999103, ABaraappa, 0, 0, 0, 0, , 0, 0, 0, 0, 0, 
42, 1, 42, 42, 1481, 5.543249431405013, -1.8359319169857786, -6.407819166194956, 1.4712937000235367, ABplppapp, 0, 0, 0, 0, , 0, 0, 0, 0, 0, 
463, 1, 463, 463, 1482, 0.12475952549987195, 4.97273129095654, -5.277333994544927, 1.546744658999103, ABalpppaa, 0, 0, 0, 0, , 0, 0, 0, 0, 0, 
128, 1, 128, 128, -1, -1.480498975731687, 7.112321766767157, 2.0707633320934145, 1.6044169437333, MSappa, 0, 0, 0, 0, , 0, 0, 0, 0, 0, 
52, 1, 52, 52, 1483, 4.57596899860033, -1.12395207141447, 0.19075804198103427, 1.6044169437333, Caaap, 0, 0, 0, 0, , 0, 0, 0, 0, 0, 
116, 1, 116, 116, 1484, -5.113608124204238, 5.557704773785497, 3.481627796584336, 1.395842741047971, MSaapap, 0, 0, 0, 0, , 0, 0, 0, 0, 0, 
988, 1, 988, 988, 1485, 0.23581895245940812, -3.384637362080552, 0.9134184010214594, 1.4712937000235367, ABplapppa, 0, 0, 0, 0, , 0, 0, 0, 0, 0, 
46, 1, 46, 46, 1486, 7.727556788438925, 3.761522296726556, -4.458444322803357, 1.84415740659, Eplp, 0, 0, 0, 0, , 0, 0, 0, 0, 0, 
24, 1, 24, 24, 1487, 4.198089630494824, -1.4034658287216153, -3.869368462150327, 1.4712937000235367, ABplpappp, 0, 0, 0, 0, , 0, 0, 0, 0, 0, 
132, 1, 132, 132, 1488, -1.1542670536159976, 2.2783760730267613, -2.587444574830301, 1.84415740659, Eara, 0, 0, 0, 0, , 0, 0, 0, 0, 0, 
598, 1, 598, 598, 1489, 8.623252336462356, -3.46384784998412, 3.561583438044466, 1.4712937000235367, ABprppapa, 0, 0, 0, 0, , 0, 0, 0, 0, 0, 
53, 1, 53, 53, 1490, 6.023062162658927, -6.367975478701757, 1.3763808859297275, 1.6044169437333, Cpaap, 0, 0, 0, 0, , 0, 0, 0, 0, 0, 
50, 1, 50, 50, -1, 4.37567513934988, 3.75940261752846, -1.5385381911217595, 1.6044169437333, MSppap, 0, 0, 0, 0, , 0, 0, 0, 0, 0, 
293, 1, 293, 293, 1491, -7.254818566037426, -6.012587369208907, -0.6870458575628462, 1.546744658999103, ABarpaapa, 0, 0, 0, 0, , 0, 0, 0, 0, 0, 
51, 1, 51, 51, -1, -0.3747131601439428, 7.416098423004464, -0.7140260423246511, 1.6044169437333, MSapap, 0, 0, 0, 0, , 0, 0, 0, 0, 0, 
776, 1, 776, 776, 1492, -10.571433265490008, 1.25659497902417, -1.3197661390987736, 1.546744658999103, ABarppapa, 0, 0, 0, 0, , 0, 0, 0, 0, 0, 
298, 1, 298, 298, 1493, 3.4145353793855753, 2.0681909723786873, 6.859148137974719, 1.4712937000235367, ABprpapaa, 0, 0, 0, 0, , 0, 0, 0, 0, 0, 
160, 1, 160, 160, -1, 11.247074663820465, 1.1297973043558598, 2.955338410912626, 1.84415740659, Dpa, 0, 0, 0, 0, , 0, 0, 0, 0, 0, 
55, 1, 55, 55, 1494, -5.263295784748098, -1.9880546750737633, -2.214514508174578, 1.4712937000235367, ABplaapap, 0, 0, 0, 0, , 0, 0, 0, 0, 0, 
71, 1, 71, 71, 1495, -9.7597063094865, 0.6315901525915318, 1.2951138644836517, 1.546744658999103, ABarppaap, 0, 0, 0, 0, , 0, 0, 0, 0, 0, 
54, 1, 54, 54, 1496, 2.95467394856178, -5.34765038673422, -4.874010805049173, 1.4712937000235367, ABplapaap, 0, 0, 0, 0, , 0, 0, 0, 0, 0, 
38, 1, 38, 38, 1497, -1.5574610708195538, -6.215490134067576, -4.000315433071402, 1.4712937000235367, ABpraaapp, 0, 0, 0, 0, , 0, 0, 0, 0, 0, 
210, 1, 210, 210, 1498, 1.7579519425253043, -0.7536609028196992, -0.9701263870644813, 1.6044169437333, Caaaa, 0, 0, 0, 0, , 0, 0, 0, 0, 0, 
96, 1, 96, 96, 1499, -3.039358371031403, 0.6362895017317791, -4.2618070028748205, 1.546744658999103, ABalappap, 0, 0, 0, 0, , 0, 0, 0, 0, 0, 
336, 1, 336, 336, 1500, -7.939076964519285, -2.720203269042514, -0.9057333170166365, 1.4712937000235367, ABplaapaa, 0, 0, 0, 0, , 0, 0, 0, 0, 0, 
93, 1, 93, 93, 1501, -12.00348681751919, -1.0959451583471949, -1.5675267329379627, 1.7778674241369, ABalaaaa, 0, 0, 0, 0, , 0, 0, 0, 0, 0, 
269, 1, 269, 269, 1502, 0.38023048667894377, 1.6827011552104083, 6.210094121830315, 1.546744658999103, ABarapppa, 0, 0, 0, 0, , 0, 0, 0, 0, 0, 
320, 1, 320, 320, 1503, -4.9309379519326155, -6.2907136013609986, -2.6645422962398135, 1.4712937000235367, ABpraaapa, 0, 0, 0, 0, , 0, 0, 0, 0, 0, 
15, 1, 15, 15, 1504, 8.661501494670325, -1.0276310698969875, 1.0614443079301743, 1.84415740659, Capp, 0, 0, 0, 0, , 0, 0, 0, 0, 0, 
25, 1, 25, 25, -1, 0.11785184465317688, 5.565074052025795, 4.949557690569158, 1.6044169437333, MSpapp, 0, 0, 0, 0, , 0, 0, 0, 0, 0, 
404, 1, 404, 404, 1505, 2.5781569344415223, 6.710772457047962, -2.844499021440773, 1.546744658999103, ABalppppa, 0, 0, 0, 0, , 0, 0, 0, 0, 0, 
123, 1, 123, 123, -1, -0.014935268705094634, 2.9323293644992985, 0.22451325398213157, 1.6044169437333, MSppaa, 0, 0, 0, 0, , 0, 0, 0, 0, 0, 
689, 1, 689, 689, 1506, -3.9169750749194017, -6.352961837235714, 3.0962121314014466, 1.4712937000235367, ABpraaaaa, 0, 0, 0, 0, , 0, 0, 0, 0, 0, 
34, 1, 34, 34, 1507, -5.536614114649897, 5.940966104311991, -3.0464125073165382, 1.546744658999103, ABalpaapp, 0, 0, 0, 0, , 0, 0, 0, 0, 0, 
33, 1, 33, 33, 1508, 6.491299944248953, 1.416057906827149, -6.187958032139942, 1.4712937000235367, ABplpaapp, 0, 0, 0, 0, , 0, 0, 0, 0, 0, 
461, 1, 461, 461, 1509, -8.388089508433396, -1.7825752966648016, 1.7656369324504202, 1.546744658999103, ABarpapaa, 0, 0, 0, 0, , 0, 0, 0, 0, 0, 
63, 1, 63, 63, 1510, -3.2526797155954252, 4.008750291349147, -1.3039459265415825, 1.546744658999103, ABarpppap, 0, 0, 0, 0, , 0, 0, 0, 0, 0, 
531, 1, 531, 531, 1511, -2.0420843377405253, 3.1647622045170607, -6.626268836848728, 1.546744658999103, ABalapppa, 0, 0, 0, 0, , 0, 0, 0, 0, 0, 
638, 1, 638, 638, 1512, 0.20793090600175076, -4.928981264592122, -5.578711244667242, 1.4712937000235367, ABplapaaa, 0, 0, 0, 0, , 0, 0, 0, 0, 0, 
91, 1, 91, 91, 1513, 9.031097512406744, 3.7124869214068497, 3.5339058474323517, 1.4712937000235367, ABprpppap, 0, 0, 0, 0, , 0, 0, 0, 0, 0, 
87, 1, 87, 87, 1514, 7.7373086856869815, -4.771385776103664, -3.3370797014655076, 1.4712937000235367, ABplpppap, 0, 0, 0, 0, , 0, 0, 0, 0, 0, 
150, 1, 150, 150, -1, 8.619081203591481, 0.8841012565153602, -1.8697935697537318, 1.84415740659, Daa, 0, 0, 0, 0, , 0, 0, 0, 0, 0, 
1307, 1, 1307, 1307, 1515, -8.537019658597957, 3.017060173764991, 4.658353735821831, 1.395842741047971, MSaaaaa, 0, 0, 0, 0, , 0, 0, 0, 0, 0, 
323, 1, 323, 323, 1516, -1.783691115022027, 0.46373457961502584, -7.359368662531388, 1.4712937000235367, ABplpaaaa, 0, 0, 0, 0, , 0, 0, 0, 0, 0, 
45, 1, 45, 45, 1517, 2.908776880610824, 7.242043986565884, 0.08078096210885402, 1.84415740659, Ealp, 0, 0, 0, 0, , 0, 0, 0, 0, 0, 
23, 1, 23, 23, 1518, -5.480802755885556, 0.982663233088602, -2.550673031813045, 1.546744658999103, ABalaappp, 0, 0, 0, 0, , 0, 0, 0, 0, 0, 
