91, 1, 91, 91, 2996, 8.008920099417768, 4.218495880573201, 3.8194974164099835, 1.4712937000235367, ABprpppap, 0, 0, 0, 0, , 0, 0, 0, 0, 0, 
14, 1, 14, 14, 2997, 1.5154906241984483, 1.3979341711628215, -1.7513291741522299, 1.84415740659, Earp, 0, 0, 0, 0, , 0, 0, 0, 0, 0, 
375, 1, 375, 375, 2998, -2.382255826780002, -5.101656916214811, -5.22932466112338, 1.4712937000235367, ABplaaapa, 0, 0, 0, 0, , 0, 0, 0, 0, 0, 
776, 1, 776, 776, 2999, -9.652377904778175, 0.6425059303178734, -0.8590881268268912, 1.546744658999103, ABarppapa, 0, 0, 0, 0, , 0, 0, 0, 0, 0, 
82, 1, 82, 82, 3000, -8.350840583552726, 5.362767639812227, -1.3039543237253726, 1.546744658999103, ABalpaaap, 0, 0, 0, 0, , 0, 0, 0, 0, 0, 
24, 1, 24, 24, 3001, 3.7759948914322305, -0.737749848500368, -4.423914663444012, 1.4712937000235367, ABplpappp, 0, 0, 0, 0, , 0, 0, 0, 0, 0, 
2479, 1, 2479, 2479, 3002, -3.7928980881460217, 5.051728439555211, 4.981806149497199, 1.395842741047971, MSaappa, 0, 0, 0, 0, , 0, 0, 0, 0, 0, 
988, 1, 988, 988, 3003, 0.958114354477107, -2.586064816264001, 1.456225060588828, 1.4712937000235367, ABplapppa, 0, 0, 0, 0, , 0, 0, 0, 0, 0, 
61, 1, 61, 61, 3004, -4.677067553004805, -5.791131959861752, 1.5505554850766858, 1.546744658999103, ABarpaaap, 0, 0, 0, 0, , 0, 0, 0, 0, 0, 
231, 1, 231, 231, 3005, -5.518550718406239, 6.528898238188468, -1.3611551531926667, 1.546744658999103, ABalpappa, 0, 0, 0, 0, , 0, 0, 0, 0, 0, 
75, 1, 75, 75, 3006, 2.7887739457006004, 0.04976978429183377, -7.255206625286187, 1.4712937000235367, ABplpaaap, 0, 0, 0, 0, , 0, 0, 0, 0, 0, 
352, 1, 352, 352, 3007, -10.329850821373144, -4.0991305381265555, -0.5574289233640819, 1.546744658999103, ABaraaapa, 0, 0, 0, 0, , 0, 0, 0, 0, 0, 
210, 1, 210, 210, 3008, 2.523021631446842, -1.213865619082898, -1.522689168701366, 1.6044169437333, Caaaa, 0, 0, 0, 0, , 0, 0, 0, 0, 0, 
2637, 1, 2637, 2637, 3009, 2.9156222080822305, 3.4829565380218908, -0.9937659742277143, 1.395842741047971, MSppapa, 0, 0, 0, 0, , 0, 0, 0, 0, 0, 
2, 1, 2, 2, 3010, -2.2965792637511036, 4.800982592383681, 2.425897513640583, 1.546744658999103, ABarppppp, 0, 0, 0, 0, , 0, 0, 0, 0, 0, 
80, 1, 80, 80, 3011, -5.271550692786966, -1.2141252481471998, 0.170597612892545, 1.546744658999103, ABarpapap, 0, 0, 0, 0, , 0, 0, 0, 0, 0, 
326, 1, 326, 326, 3012, -6.100839566516646, 4.169247570991283, -4.969054818372868, 1.546744658999103, ABalpaapa, 0, 0, 0, 0, , 0, 0, 0, 0, 0, 
78, 1, 78, 78, 3013, 6.0386936617587885, 2.8547801884326542, 5.849288316328027, 1.4712937000235367, ABprpapap, 0, 0, 0, 0, , 0, 0, 0, 0, 0, 
70, 1, 70, 70, 3014, 3.7428955770937136, 4.850923545549344, -5.187160033923458, 1.546744658999103, ABalpppap, 0, 0, 0, 0, , 0, 0, 0, 0, 0, 
112, 1, 112, 112, 3015, -2.118938235455462, -0.9046651138375237, 3.0893695560511296, 1.395842741047971, MSpaaap, 0, 0, 0, 0, , 0, 0, 0, 0, 0, 
92, 1, 92, 92, 3016, 2.3794335785964433, -2.744789966175868, -6.778788520627631, 1.4712937000235367, ABplppaap, 0, 0, 0, 0, , 0, 0, 0, 0, 0, 
66, 1, 66, 66, 3017, 0.8011343870279597, -2.5535254782756245, 6.97973237059387, 1.546744658999103, ABarappap, 0, 0, 0, 0, , 0, 0, 0, 0, 0, 
497, 1, 497, 497, 3018, -5.406197353536397, 1.237555908630947, 1.7742359435960544, 1.546744658999103, ABarpappa, 0, 0, 0, 0, , 0, 0, 0, 0, 0, 
64, 1, 64, 64, 3019, -9.692174530186849, 4.525034604218873, 1.0924277188190534, 1.546744658999103, ABalpapap, 0, 0, 0, 0, , 0, 0, 0, 0, 0, 
67, 1, 67, 67, 3020, 2.6963485504446343, -6.9809582438647295, 2.034091035426288, 1.4712937000235367, ABprapaap, 0, 0, 0, 0, , 0, 0, 0, 0, 0, 
21, 1, 21, 21, 3021, 0.5605087980361588, -3.603452327448455, -1.2110555969376906, 1.4712937000235367, ABplaappp, 0, 0, 0, 0, , 0, 0, 0, 0, 0, 
86, 1, 86, 86, 3022, 2.054162632935402, -5.1625752348009035, 5.232290829942394, 1.4712937000235367, ABprpaaap, 0, 0, 0, 0, , 0, 0, 0, 0, 0, 
51, 1, 51, 51, 3023, 0.3819562234184906, 7.331178764457443, -1.2891965626751731, 1.6044169437333, MSapap, 0, 0, 0, 0, , 0, 0, 0, 0, 0, 
344, 1, 344, 344, 3024, -2.347475617893961, -2.6518651701456104, 6.813046097177009, 1.546744658999103, ABarappaa, 0, 0, 0, 0, , 0, 0, 0, 0, 0, 
647, 1, 647, 647, 3025, 3.398999358528635, -2.633860702168249, 4.901946392330342, 1.4712937000235367, ABprpaapa, 0, 0, 0, 0, , 0, 0, 0, 0, 0, 
124, 1, 124, 124, -1, 3.1393638047890464, 4.498656501555905, 1.6710040558750598, 1.6044169437333, MSpppa, 0, 0, 0, 0, , 0, 0, 0, 0, 0, 
227, 1, 227, 227, 3026, -2.820126846385253, -2.0340311792226897, -1.9767179809003101, 1.4712937000235367, ABplaappa, 0, 0, 0, 0, , 0, 0, 0, 0, 0, 
16, 1, 16, 16, 3027, -3.194419839331519, 1.9020299572807495, -0.04836579487753495, 1.546744658999103, ABarpappp, 0, 0, 0, 0, , 0, 0, 0, 0, 0, 
111, 1, 111, 111, 3028, 1.4541979694939564, 3.9445331157706622, 6.262628556642769, 1.395842741047971, MSpapap, 0, 0, 0, 0, , 0, 0, 0, 0, 0, 
20, 1, 20, 20, 3029, -3.134669945413511, 7.189984852621701, 0.5680969748529953, 1.546744658999103, ABalpappp, 0, 0, 0, 0, , 0, 0, 0, 0, 0, 
260, 1, 260, 260, 3030, -4.918615922415609, -5.24963289491268, 4.3888536999555505, 1.546744658999103, ABarapapa, 0, 0, 0, 0, , 0, 0, 0, 0, 0, 
128, 1, 128, 128, -1, -0.7068713203278735, 7.175508609905997, 1.9464805068160733, 1.6044169437333, MSappa, 0, 0, 0, 0, , 0, 0, 0, 0, 0, 
1418, 1, 1418, 1418, 3031, -5.372155540295676, 1.2102734800472748, -6.607916770759484, 1.546744658999103, ABalppaaa, 0, 0, 0, 0, , 0, 0, 0, 0, 0, 
53, 1, 53, 53, 3032, 5.54846650870997, -6.515727839741404, 1.4137966717446275, 1.6044169437333, Cpaap, 0, 0, 0, 0, , 0, 0, 0, 0, 0, 
2196, 1, 2196, 2196, 3033, -2.0647041785998184, 1.9347141822873581, 2.5900422307427418, 1.395842741047971, MSpaapa, 0, 0, 0, 0, , 0, 0, 0, 0, 0, 
48, 1, 48, 48, -1, 11.78184336297516, 0.535475959495714, -2.319990086805212, 1.84415740659, Dap, 0, 0, 0, 0, , 0, 0, 0, 0, 0, 
241, 1, 241, 241, 3034, -1.7545712919053618, -0.5706765234067398, 0.2527854243255462, 1.4712937000235367, ABpraappa, 0, 0, 0, 0, , 0, 0, 0, 0, 0, 
256, 1, 256, 256, 3035, 0.2972709112232122, -1.9914802395139837, 4.203912743969471, 1.4712937000235367, ABprapapa, 0, 0, 0, 0, , 0, 0, 0, 0, 0, 
531, 1, 531, 531, 3036, -0.7141643378093432, 3.7040732440190323, -6.4429731788944835, 1.546744658999103, ABalapppa, 0, 0, 0, 0, , 0, 0, 0, 0, 0, 
6, 1, 6, 6, 3037, 9.279615456128182, -4.661738735418837, -1.70536530701244, 1.4712937000235367, ABplppppp, 0, 0, 0, 0, , 0, 0, 0, 0, 0, 
17, 1, 17, 17, 3038, -0.9167676323118022, -0.29005848144261154, 7.417132708137594, 1.546744658999103, ABaraappp, 0, 0, 0, 0, , 0, 0, 0, 0, 0, 
498, 1, 498, 498, 3039, -6.061750355656845, 3.7685213744915633, -2.092887254837996, 1.546744658999103, ABarpppaa, 0, 0, 0, 0, , 0, 0, 0, 0, 0, 
160, 1, 160, 160, -1, 10.731565072613902, 2.153697216885553, 3.0759601060314545, 1.84415740659, Dpa, 0, 0, 0, 0, , 0, 0, 0, 0, 0, 
23, 1, 23, 23, 3040, -5.2902646998022265, 0.9957237418330872, -1.8088366519879737, 1.546744658999103, ABalaappp, 0, 0, 0, 0, , 0, 0, 0, 0, 0, 
13, 1, 13, 13, -1, 1.932887710938274, 7.275440086282246, 1.0640814845453157, 1.6044169437333, MSappp, 0, 0, 0, 0, , 0, 0, 0, 0, 0, 
57, 1, 57, 57, 3041, -1.850786527776943, -3.4916282267125296, 1.0425913110561844, 1.4712937000235367, ABpraapap, 0, 0, 0, 0, , 0, 0, 0, 0, 0, 
76, 1, 76, 76, 3042, -6.51297598102608, 0.49517936142959124, 6.321680388678556, 1.546744658999103, ABaraapap, 0, 0, 0, 0, , 0, 0, 0, 0, 0, 
63, 1, 63, 63, 3043, -3.286433800987662, 4.379891013903943, -1.5090073947726457, 1.546744658999103, ABarpppap, 0, 0, 0, 0, , 0, 0, 0, 0, 0, 
7, 1, 7, 7, 3044, 9.794867678167762, 0.8350955421879374, -4.509454443463949, 1.84415740659, Eprp, 0, 0, 0, 0, , 0, 0, 0, 0, 0, 
29, 1, 29, 29, 3045, -2.600686326745652, -3.6049661686993093, 3.9144130283988448, 1.546744658999103, ABarapapp, 0, 0, 0, 0, , 0, 0, 0, 0, 0, 
600, 1, 600, 600, 3046, -3.4195328517227876, 4.157572249457601, -5.834713240516319, 1.546744658999103, ABalppapa, 0, 0, 0, 0, , 0, 0, 0, 0, 0, 
59, 1, 59, 59, 3047, 10.45449939063778, -3.918041941860816, 0.9621563884538898, 1.6044169437333, Cppap, 0, 0, 0, 0, , 0, 0, 0, 0, 0, 
689, 1, 689, 689, 3048, -2.5423245601603983, -6.449070865749561, 3.396202194673835, 1.4712937000235367, ABpraaaaa, 0, 0, 0, 0, , 0, 0, 0, 0, 0, 
96, 1, 96, 96, 3049, -1.8391313593178116, 0.8053271704660647, -4.093958886462134, 1.546744658999103, ABalappap, 0, 0, 0, 0, , 0, 0, 0, 0, 0, 
615, 1, 615, 615, 3050, 7.523425047267288, -2.6900979450472438, -2.03625366009871, 1.4712937000235367, ABplppppa, 0, 0, 0, 0, , 0, 0, 0, 0, 0, 
41, 1, 41, 41, 3051, 6.088153273860359, -3.461237942195969, 5.492529402782034, 1.4712937000235367, ABprpaapp, 0, 0, 0, 0, , 0, 0, 0, 0, 0, 
816, 1, 816, 816, 3052, 6.331015821225398, -2.2464791943901394, 2.8232803616679867, 1.4712937000235367, ABprapppa, 0, 0, 0, 0, , 0, 0, 0, 0, 0, 
54, 1, 54, 54, 3053, 4.402929128684593, -4.594574995973622, -5.2319369904952655, 1.4712937000235367, ABplapaap, 0, 0, 0, 0, , 0, 0, 0, 0, 0, 
503, 1, 503, 503, 3054, -8.238851067871368, -5.078691622769775, -2.303200661055682, 1.4712937000235367, ABplaaaaa, 0, 0, 0, 0, , 0, 0, 0, 0, 0, 
1504, 1, 1504, 1504, 3055, 7.116330973801749, -0.7035903889301323, 0.4660931724377879, 1.6044169437333, Cappa, 0, 0, 0, 0, , 0, 0, 0, 0, 0, 
15, 1, 15, 15, 3056, 9.805898619534819, -1.1375781514917924, 1.3928906219834505, 1.6044169437333, Cappp, 0, 0, 0, 0, , 0, 0, 0, 0, 0, 
325, 1, 325, 325, 3057, 0.23043600248323848, -0.9392822003540329, -5.0725250901324115, 1.4712937000235367, ABplpapaa, 0, 0, 0, 0, , 0, 0, 0, 0, 0, 
3, 1, 3, 3, -1, 5.1934238031045545, 6.502862302077548, 1.8751506456257907, 1.6044169437333, MSpppp, 0, 0, 0, 0, , 0, 0, 0, 0, 0, 
36, 1, 36, 36, 3058, 10.262138420765623, -0.5355035829302233, 4.170738422184755, 1.4712937000235367, ABprppapp, 0, 0, 0, 0, , 0, 0, 0, 0, 0, 
43, 1, 43, 43, 3059, -7.739286735709678, -3.403165756245095, -4.616966522678253, 1.546744658999103, ABalaaapp, 0, 0, 0, 0, , 0, 0, 0, 0, 0, 
392, 1, 392, 392, 3060, -4.139564502526669, -2.067903997254104, -6.714006113215106, 1.546744658999103, ABalapapa, 0, 0, 0, 0, , 0, 0, 0, 0, 0, 
360, 1, 360, 360, 3061, 3.27397243061011, 2.93867393731822, 4.166950592409063, 1.4712937000235367, ABprpappa, 0, 0, 0, 0, , 0, 0, 0, 0, 0, 
19, 1, 19, 19, 3062, 0.9588752745336688, 0.23037853847974693, 0.8183093741219439, 1.4712937000235367, ABpraappp, 0, 0, 0, 0, , 0, 0, 0, 0, 0, 
660, 1, 660, 660, 3063, 5.174988917468076, -2.099116589238025, -6.448543023482773, 1.4712937000235367, ABplppapa, 0, 0, 0, 0, , 0, 0, 0, 0, 0, 
42, 1, 42, 42, 3064, 7.605286407299448, -0.6284481671315875, -5.854457064729274, 1.4712937000235367, ABplppapp, 0, 0, 0, 0, , 0, 0, 0, 0, 0, 
8, 1, 8, 8, 3065, 12.378075156118896, -0.5190587029021184, 0.29679031054968835, 1.6044169437333, Cpppp, 0, 0, 0, 0, , 0, 0, 0, 0, 0, 
33, 1, 33, 33, 3066, 7.405184296097014, 2.2540998737764606, -5.539658526754167, 1.4712937000235367, ABplpaapp, 0, 0, 0, 0, , 0, 0, 0, 0, 0, 
1567, 1, 1567, 1567, 3067, -6.891944248066259, 3.16119368757817, 5.3328884950342585, 1.395842741047971, MSaaapa, 0, 0, 0, 0, , 0, 0, 0, 0, 0, 
598, 1, 598, 598, 3068, 9.401003451747988, -3.2179996984155643, 3.6587175106896543, 1.4712937000235367, ABprppapa, 0, 0, 0, 0, , 0, 0, 0, 0, 0, 
93, 1, 93, 93, 3069, -12.028166766879895, -1.8640602624578289, -0.12851362378503986, 1.546744658999103, ABalaaaar, 0, 0, 0, 0, , 0, 0, 0, 0, 0, 
74, 1, 74, 74, 3070, -9.778999561141696, -0.3171110841823942, 4.5858484807424915, 1.546744658999103, ABaraaaap, 0, 0, 0, 0, , 0, 0, 0, 0, 0, 
622, 1, 622, 622, 3071, -6.768720533400762, -1.2076122734433286, -6.1263874570450545, 1.546744658999103, ABalapaaa, 0, 0, 0, 0, , 0, 0, 0, 0, 0, 
55, 1, 55, 55, 3072, -5.452285841026545, -2.6358592979918565, -2.928857576086487, 1.4712937000235367, ABplaapap, 0, 0, 0, 0, , 0, 0, 0, 0, 0, 
49, 1, 49, 49, 3073, -4.2226277114028425, 2.4710936216227175, 6.1662834940670965, 1.395842741047971, MSaaapp, 0, 0, 0, 0, , 0, 0, 0, 0, 0, 
2598, 1, 2598, 2598, 3074, 0.2351866678989484, 5.6652901477447, 4.086107068389871, 1.395842741047971, MSpappa, 0, 0, 0, 0, , 0, 0, 0, 0, 0, 
44, 1, 44, 44, 3075, -1.573947807174504, -1.035770642943572, -7.318629110493767, 1.546744658999103, ABalapapp, 0, 0, 0, 0, , 0, 0, 0, 0, 0, 
330, 1, 330, 330, 3076, -7.582385617790519, -4.374313899319764, 3.9555090784644635, 1.546744658999103, ABarapaaa, 0, 0, 0, 0, , 0, 0, 0, 0, 0, 
10, 1, 10, 10, 3077, 2.019601941840727, 3.166277001598599, -6.629444874710929, 1.546744658999103, ABalapppp, 0, 0, 0, 0, , 0, 0, 0, 0, 0, 
123, 1, 123, 123, 3078, 0.4390983724581879, 3.728067281193716, 0.5409993655283591, 1.6044169437333, MSppaa, 0, 0, 0, 0, , 0, 0, 0, 0, 0, 
73, 1, 73, 73, 3079, -1.3356171918323148, -7.332996855512891, 0.993007100511638, 1.4712937000235367, ABpraaaap, 0, 0, 0, 0, , 0, 0, 0, 0, 0, 
499, 1, 499, 499, 3080, -0.6891825167877755, -4.688610366200481, 5.766889550167546, 1.4712937000235367, ABprpaaaa, 0, 0, 0, 0, , 0, 0, 0, 0, 0, 
45, 1, 45, 45, 3081, 4.06488843733466, 6.998037547307558, -0.7182506535841457, 1.84415740659, Ealp, 0, 0, 0, 0, , 0, 0, 0, 0, 0, 
30, 1, 30, 30, 3082, 2.504559748818607, -0.4682067322392125, 3.1469387837210667, 1.4712937000235367, ABprapapp, 0, 0, 0, 0, , 0, 0, 0, 0, 0, 
50, 1, 50, 50, 3083, 5.25113189401304, 4.385296911638181, -1.3883189506884541, 1.395842741047971, MSppapp, 0, 0, 0, 0, , 0, 0, 0, 0, 0, 
88, 1, 88, 88, 3084, -2.5681365355421852, 1.5905642967343208, -6.76950649907527, 1.546744658999103, ABalppaap, 0, 0, 0, 0, , 0, 0, 0, 0, 0, 
52, 1, 52, 52, 3085, 4.313089906699264, -1.3210512327331607, 0.6956797460112186, 1.6044169437333, Caaap, 0, 0, 0, 0, , 0, 0, 0, 0, 0, 
461, 1, 461, 461, 3086, -7.776062283516449, -1.840223675666575, 2.551024751854729, 1.546744658999103, ABarpapaa, 0, 0, 0, 0, , 0, 0, 0, 0, 0, 
1501, 1, 1501, 1501, 3087, -11.587721496593954, -0.5794003844082654, -2.6283776381947437, 1.546744658999103, ABalaaaal, 0, 0, 0, 0, , 0, 0, 0, 0, 0, 
4, 1, 4, 4, 3088, 6.73918102243337, 6.229593743613545, -0.5372048632654007, 2.119721157, Z3, 0, 0, 0, 0, , 0, 0, 0, 0, 0, 
1195, 1, 1195, 1195, 3089, -1.2940660145084868, 2.457402384829298, 6.98758562236502, 1.395842741047971, MSpapaa, 0, 0, 0, 0, , 0, 0, 0, 0, 0, 
1307, 1, 1307, 1307, 3090, -9.419716106501863, 2.486425070726495, 4.16590056600854, 1.395842741047971, MSaaaaa, 0, 0, 0, 0, , 0, 0, 0, 0, 0, 
25, 1, 25, 25, 3091, 2.271998638270918, 6.339126424846914, 3.6587345589581073, 1.395842741047971, MSpappp, 0, 0, 0, 0, , 0, 0, 0, 0, 0, 
132, 1, 132, 132, 3092, -1.1143276174776393, 2.5529050003422364, -1.9159256774476257, 1.84415740659, Eara, 0, 0, 0, 0, , 0, 0, 0, 0, 0, 
287, 1, 287, 287, 3093, 1.991494580232634, -2.802994896477323, -3.7847692309739775, 1.4712937000235367, ABplpappa, 0, 0, 0, 0, , 0, 0, 0, 0, 0, 
37, 1, 37, 37, 3094, -1.5634607798369236, 4.9643424284066695, -3.8937134727693463, 1.546744658999103, ABalppapp, 0, 0, 0, 0, , 0, 0, 0, 0, 0, 
46, 1, 46, 46, 3095, 8.39395928663588, 4.164062168471943, -3.572808754307487, 1.84415740659, Eplp, 0, 0, 0, 0, , 0, 0, 0, 0, 0, 
1053, 1, 1053, 1053, 3096, -7.6090589925974905, -5.708728419468583, 1.4235954598613318, 1.546744658999103, ABarpaaaa, 0, 0, 0, 0, , 0, 0, 0, 0, 0, 
65, 1, 65, 65, 3097, -5.123890192187689, -4.280848213936695, -5.260639516575635, 1.4712937000235367, ABplaaaap, 0, 0, 0, 0, , 0, 0, 0, 0, 0, 
515, 1, 515, 515, 3098, 4.5151659952975605, 1.5360364619543723, 0.5895321041747398, 1.6044169437333, Caapa, 0, 0, 0, 0, , 0, 0, 0, 0, 0, 
1273, 1, 1273, 1273, 3099, -4.502768198108684, -0.2623442304236473, -4.288690828814554, 1.546744658999103, ABalappaa, 0, 0, 0, 0, , 0, 0, 0, 0, 0, 
62, 1, 62, 62, 3100, 7.206643639366148, -5.04626117533356, 3.3598918240907953, 1.4712937000235367, ABprappap, 0, 0, 0, 0, , 0, 0, 0, 0, 0, 
31, 1, 31, 31, 3101, -0.8540710061130768, -3.2173499595540593, -3.6994372851255073, 1.4712937000235367, ABplaaapp, 0, 0, 0, 0, , 0, 0, 0, 0, 0, 
56, 1, 56, 56, 3102, -5.077477388709509, -2.9889135464578804, 6.102248749716634, 1.546744658999103, ABarapaap, 0, 0, 0, 0, , 0, 0, 0, 0, 0, 
716, 1, 716, 716, 3103, 4.7351883989660974, -0.034171342879767835, 4.914981786952557, 1.4712937000235367, ABprppaaa, 0, 0, 0, 0, , 0, 0, 0, 0, 0, 
9, 1, 9, 9, 3104, 3.1244778999688836, -0.8647572472804127, 7.168315804170453, 1.546744658999103, ABarapppp, 0, 0, 0, 0, , 0, 0, 0, 0, 0, 
148, 1, 148, 148, 3105, 0.7414076264047813, 4.718951353823017, -2.289722256954919, 1.84415740659, Eala, 0, 0, 0, 0, , 0, 0, 0, 0, 0, 
240, 1, 240, 240, 3106, 3.3131547792525256, -4.221954336252216, -0.6217255138532061, 1.6044169437333, Cpapa, 0, 0, 0, 0, , 0, 0, 0, 0, 0, 
83, 1, 83, 83, 3107, 0.8517746717079879, -7.387895698142406, -0.8067844705237097, 1.4712937000235367, ABplappap, 0, 0, 0, 0, , 0, 0, 0, 0, 0, 
638, 1, 638, 638, 3108, 1.5621225678715431, -5.107277554099846, -5.349468605936959, 1.4712937000235367, ABplapaaa, 0, 0, 0, 0, , 0, 0, 0, 0, 0, 
1122, 1, 1122, 1122, 3109, -10.11781969762836, -2.9519595455850776, -3.1488331672018095, 1.546744658999103, ABalaaapa, 0, 0, 0, 0, , 0, 0, 0, 0, 0, 
2760, 1, 2760, 2760, 3110, 4.513111355063352, 0.7690602168272258, -2.177832109819303, 1.6044169437333, Capaa, 0, 0, 0, 0, , 0, 0, 0, 0, 0, 
320, 1, 320, 320, 3111, -4.493418740706741, -6.152228903162734, -3.217465676679966, 1.4712937000235367, ABpraaapa, 0, 0, 0, 0, , 0, 0, 0, 0, 0, 
397, 1, 397, 397, 3112, -3.8296793710415122, -0.21088854239316046, 7.087565133317386, 1.546744658999103, ABaraappa, 0, 0, 0, 0, , 0, 0, 0, 0, 0, 
47, 1, 47, 47, 3113, 0.7850374597554649, 2.13716589449694, 2.975449950576827, 1.395842741047971, MSpaapp, 0, 0, 0, 0, , 0, 0, 0, 0, 0, 
619, 1, 619, 619, 3114, -12.11993391716223, 0.8635471985242471, 1.4087079969909861, 1.546744658999103, ABarppaaa, 0, 0, 0, 0, , 0, 0, 0, 0, 0, 
12, 1, 12, 12, 3115, 3.533417209508222, -3.64158740256895, 2.2097698382811704, 1.4712937000235367, ABplapppp, 0, 0, 0, 0, , 0, 0, 0, 0, 0, 
249, 1, 249, 249, 3116, 2.356052475526312, -6.6286259325400225, -3.0947341136500204, 1.4712937000235367, ABplapapa, 0, 0, 0, 0, , 0, 0, 0, 0, 0, 
1178, 1, 1178, 1178, 3117, -11.300976932257477, -1.6592435568294006, 2.6023209969174474, 1.546744658999103, ABaraaaaa, 0, 0, 0, 0, , 0, 0, 0, 0, 0, 
500, 1, 500, 500, 3118, 4.694298123012807, 2.09638602409323, -6.573837432082736, 1.4712937000235367, ABplpaapa, 0, 0, 0, 0, , 0, 0, 0, 0, 0, 
130, 1, 130, 130, 3119, -2.28675407956835, 7.016525589406467, -2.1015213579508907, 1.6044169437333, MSapaa, 0, 0, 0, 0, , 0, 0, 0, 0, 0, 
2306, 1, 2306, 2306, 3120, 8.131428576654848, -5.586198754099759, 0.714945132826131, 1.6044169437333, Cppaa, 0, 0, 0, 0, , 0, 0, 0, 0, 0, 
693, 1, 693, 693, 3121, -2.341103015652212, -7.128048182433947, -1.6580963117914966, 1.4712937000235367, ABplappaa, 0, 0, 0, 0, , 0, 0, 0, 0, 0, 
336, 1, 336, 336, 3122, -7.641096404119031, -3.2004772150583367, -0.005644744001039055, 1.4712937000235367, ABplaapaa, 0, 0, 0, 0, , 0, 0, 0, 0, 0, 
11, 1, 11, 11, 3123, 6.351506073395938, 0.9031054755322991, 2.7317935947213012, 1.4712937000235367, ABprapppp, 0, 0, 0, 0, , 0, 0, 0, 0, 0, 
22, 1, 22, 22, -1, 11.77613479056274, 2.348191080813469, 0.3235973059285516, 1.84415740659, Dpp, 0, 0, 0, 0, , 0, 0, 0, 0, 0, 
280, 1, 280, 280, 3124, -7.669959743344445, -1.994854242447861, 5.512659962031039, 1.546744658999103, ABaraapaa, 0, 0, 0, 0, , 0, 0, 0, 0, 0, 
38, 1, 38, 38, 3125, -0.429047316005786, -6.480019751270322, -3.6718811798048003, 1.4712937000235367, ABpraaapp, 0, 0, 0, 0, , 0, 0, 0, 0, 0, 
39, 1, 39, 39, 3126, -7.469374766580678, 2.3427909389069996, -0.007497660687165375, 1.546744658999103, ABarppapp, 0, 0, 0, 0, , 0, 0, 0, 0, 0, 
69, 1, 69, 69, 3127, -7.883545604393054, 1.8169835764816542, -5.458741794162258, 1.546744658999103, ABalapaap, 0, 0, 0, 0, , 0, 0, 0, 0, 0, 
158, 1, 158, 158, 3128, 4.5302880916698545, 2.804492701662393, -3.8020387598513956, 1.84415740659, Epla, 0, 0, 0, 0, , 0, 0, 0, 0, 0, 
27, 1, 27, 27, 3129, 5.849718888575405, 3.6365963194939575, 2.00729766676458, 1.6044169437333, Caapp, 0, 0, 0, 0, , 0, 0, 0, 0, 0, 
697, 1, 697, 697, 3130, 11.334622775573616, -2.427353486499847, -1.8307823718752596, 1.6044169437333, Cpppa, 0, 0, 0, 0, , 0, 0, 0, 0, 0, 
269, 1, 269, 269, 3131, 1.0523392921949917, 0.9561184068751875, 5.641992863796737, 1.546744658999103, ABarapppa, 0, 0, 0, 0, , 0, 0, 0, 0, 0, 
439, 1, 439, 439, 3132, 8.479021495419213, 2.192665379123177, 1.153744568546947, 1.4712937000235367, ABprppppa, 0, 0, 0, 0, , 0, 0, 0, 0, 0, 
1330, 1, 1330, 1330, 3133, -0.4306465965413394, -3.5082454788369897, -6.564646372770265, 1.4712937000235367, ABplppaaa, 0, 0, 0, 0, , 0, 0, 0, 0, 0, 
18, 1, 18, 18, 3134, 5.0801959389546205, 5.16389926598713, 4.419024514148053, 1.4712937000235367, ABprpappp, 0, 0, 0, 0, , 0, 0, 0, 0, 0, 
35, 1, 35, 35, 3135, -3.8470999309459843, -4.513930873928157, -0.9172412152924896, 1.546744658999103, ABarpaapp, 0, 0, 0, 0, , 0, 0, 0, 0, 0, 
60, 1, 60, 60, 3136, 10.06184559223127, 4.203709122528513, -1.2033525678178787, 2.119721157, Z2, 0, 0, 0, 0, , 0, 0, 0, 0, 0, 
1047, 1, 1047, 1047, 3137, -6.965466433130021, 6.082977240142651, 1.0231481422174913, 1.395842741047971, MSaapaa, 0, 0, 0, 0, , 0, 0, 0, 0, 0, 
754, 1, 754, 754, 3138, -7.4451343652922, -0.9284600413841962, -1.7668950357360291, 1.546744658999103, ABalaappa, 0, 0, 0, 0, , 0, 0, 0, 0, 0, 
34, 1, 34, 34, 3139, -4.241952617084563, 5.8990004875531, -3.7784502671965035, 1.546744658999103, ABalpaapp, 0, 0, 0, 0, , 0, 0, 0, 0, 0, 
26, 1, 26, 26, 3140, -1.1754831017661918, 4.8944480586097665, 5.579448345202746, 1.395842741047971, MSaappp, 0, 0, 0, 0, , 0, 0, 0, 0, 0, 
79, 1, 79, 79, 3141, 6.94585228010651, -0.09017336327631452, -2.3310478876466543, 1.6044169437333, Capap, 0, 0, 0, 0, , 0, 0, 0, 0, 0, 
696, 1, 696, 696, 3142, 0.29271819590693965, -6.574624046038371, 3.5005973483885024, 1.4712937000235367, ABprapaaa, 0, 0, 0, 0, , 0, 0, 0, 0, 0, 
1279, 1, 1279, 1279, 3143, -10.312338947112709, 1.6758612556593662, -3.795402887092396, 1.546744658999103, ABalaapaa, 0, 0, 0, 0, , 0, 0, 0, 0, 0, 
842, 1, 842, 842, 3144, -5.054768010418739, 3.963347804979906, 0.7381154987153424, 1.546744658999103, ABarppppa, 0, 0, 0, 0, , 0, 0, 0, 0, 0, 
364, 1, 364, 364, 3145, 4.511475295351429, -5.72257124255913, 3.9223886704567015, 1.4712937000235367, ABprappaa, 0, 0, 0, 0, , 0, 0, 0, 0, 0, 
475, 1, 475, 475, 3146, -11.415120499196298, 2.903511811587494, -0.5552167398636767, 1.546744658999103, ABalpapaa, 0, 0, 0, 0, , 0, 0, 0, 0, 0, 
109, 1, 109, 109, 3147, -7.377174563617421, 3.6972286006222896, 2.5625684241819324, 1.395842741047971, MSaaaap, 0, 0, 0, 0, , 0, 0, 0, 0, 0, 
150, 1, 150, 150, -1, 9.18557530864275, 1.533013832237654, -1.6349785882557522, 1.84415740659, Daa, 0, 0, 0, 0, , 0, 0, 0, 0, 0, 
298, 1, 298, 298, 3148, 3.4982387352195423, 1.9825172272917946, 6.862114010734154, 1.4712937000235367, ABprpapaa, 0, 0, 0, 0, , 0, 0, 0, 0, 0, 
165, 1, 165, 165, 3149, 9.334249447176957, -2.3829837380514385, -4.300753933057217, 1.84415740659, Epra, 0, 0, 0, 0, , 0, 0, 0, 0, 0, 
463, 1, 463, 463, 3150, 0.992618151147492, 5.44369022960881, -5.042172990918873, 1.546744658999103, ABalpppaa, 0, 0, 0, 0, , 0, 0, 0, 0, 0, 
1415, 1, 1415, 1415, 3151, -4.822556382697518, -0.42995708322671555, 4.115871892066539, 1.395842741047971, MSpaaaa, 0, 0, 0, 0, , 0, 0, 0, 0, 0, 
5, 1, 5, 5, 3152, 5.825997091220021, 5.53104069944116, -3.5775469138108726, 1.546744658999103, ABalppppp, 0, 0, 0, 0, , 0, 0, 0, 0, 0, 
77, 1, 77, 77, 3153, 7.265421811960715, -0.8775750624648713, 5.985982480288369, 1.4712937000235367, ABprppaap, 0, 0, 0, 0, , 0, 0, 0, 0, 0, 
87, 1, 87, 87, 3154, 7.066950601843096, -4.5210853314474555, -4.143988250473482, 1.4712937000235367, ABplpppap, 0, 0, 0, 0, , 0, 0, 0, 0, 0, 
71, 1, 71, 71, 3155, -9.128327700320627, 0.6472142880720657, 1.9615054035754111, 1.546744658999103, ABarppaap, 0, 0, 0, 0, , 0, 0, 0, 0, 0, 
292, 1, 292, 292, 3156, -5.064835298289471, -2.903686807377151, 2.5592017801515063, 1.4712937000235367, ABpraapaa, 0, 0, 0, 0, , 0, 0, 0, 0, 0, 
404, 1, 404, 404, 3157, 2.783826963181801, 6.535975613979978, -3.1581679306304005, 1.546744658999103, ABalppppa, 0, 0, 0, 0, , 0, 0, 0, 0, 0, 
293, 1, 293, 293, 3158, -6.09702316046304, -6.432522863784225, -0.8895584926650353, 1.546744658999103, ABarpaapa, 0, 0, 0, 0, , 0, 0, 0, 0, 0, 
323, 1, 323, 323, 3159, 0.1696198383897632, 1.1804415262380856, -7.355959019802393, 1.4712937000235367, ABplpaaaa, 0, 0, 0, 0, , 0, 0, 0, 0, 0, 
32, 1, 32, 32, 3160, -9.77909877892572, -4.019039775397388, 2.22248821367812, 1.546744658999103, ABaraaapp, 0, 0, 0, 0, , 0, 0, 0, 0, 0, 
1, 1, 1, 1, 3161, 8.764470545999515, 5.1420960461338465, 1.191128261477267, 1.4712937000235367, ABprppppp, 0, 0, 0, 0, , 0, 0, 0, 0, 0, 
28, 1, 28, 28, 3162, 6.021046794797885, -3.629758130171404, 0.26802908984851936, 1.6044169437333, Cpapp, 0, 0, 0, 0, , 0, 0, 0, 0, 0, 
761, 1, 761, 761, 3163, -8.602480717978802, 3.9010342557746105, -3.69162670000959, 1.546744658999103, ABalpaaaa, 0, 0, 0, 0, , 0, 0, 0, 0, 0, 
58, 1, 58, 58, 3164, 1.8873929874031465, 1.3317335712867082, -4.513103036040722, 1.4712937000235367, ABplpapap, 0, 0, 0, 0, , 0, 0, 0, 0, 0, 
484, 1, 484, 484, 3165, 8.328899814129278, 1.5207939074767887, 4.738245758972717, 1.4712937000235367, ABprpppaa, 0, 0, 0, 0, , 0, 0, 0, 0, 0, 
250, 1, 250, 250, 3166, 3.682155955203677, -7.088130889007565, -0.6355391791590176, 1.6044169437333, Cpaaa, 0, 0, 0, 0, , 0, 0, 0, 0, 0, 
84, 1, 84, 84, 3167, -8.843074961357845, -0.6883273997699183, -4.261792179048532, 1.546744658999103, ABalaapap, 0, 0, 0, 0, , 0, 0, 0, 0, 0, 
40, 1, 40, 40, 3168, 5.140071645169738, -6.142709489024542, -2.8772756519949474, 1.4712937000235367, ABplapapp, 0, 0, 0, 0, , 0, 0, 0, 0, 0, 
808, 1, 808, 808, 3169, 4.757262649714913, -3.0204247707873217, -2.8288163227910665, 1.4712937000235367, ABplpppaa, 0, 0, 0, 0, , 0, 0, 0, 0, 0, 
116, 1, 116, 116, 3170, -4.727729052396989, 6.337630224505496, 2.693093457250033, 1.395842741047971, MSaapap, 0, 0, 0, 0, , 0, 0, 0, 0, 0, 
