15, 1, 15, 15, 3889, 9.64572132670975, -1.1206598617024046, 1.3308825302188068, 1.6044169437333, Cappp, 0, 0, 0, 0, , 0, 0, 0, 0, 0, 
463, 1, 463, 463, 3890, 0.6838900181168279, 5.238286988332517, -5.292433602276105, 1.546744658999103, ABalpppaa, 0, 0, 0, 0, , 0, 0, 0, 0, 0, 
57, 1, 57, 57, 3891, -1.7486462594910128, -4.0046683573827755, 1.0631162913804468, 1.4712937000235367, ABpraapap, 0, 0, 0, 0, , 0, 0, 0, 0, 0, 
29, 1, 29, 29, 3892, -2.491291195027836, -3.5330173870000587, 3.79723829814106, 1.546744658999103, ABarapapp, 0, 0, 0, 0, , 0, 0, 0, 0, 0, 
14, 1, 14, 14, 3893, 1.284340095595334, 1.0098018118858192, -1.777396841248524, 1.84415740659, Earp, 0, 0, 0, 0, , 0, 0, 0, 0, 0, 
336, 1, 336, 336, 3894, -7.314281628107107, -3.214036386395019, 0.1278783208587392, 1.4712937000235367, ABplaapaa, 0, 0, 0, 0, , 0, 0, 0, 0, 0, 
256, 1, 256, 256, 3895, 0.4314645775917434, -1.970328346245999, 4.18827244427574, 1.4712937000235367, ABprapapa, 0, 0, 0, 0, , 0, 0, 0, 0, 0, 
250, 1, 250, 250, 3896, 4.003238034053095, -7.047084650766314, -0.32423796981699804, 1.6044169437333, Cpaaa, 0, 0, 0, 0, , 0, 0, 0, 0, 0, 
36, 1, 36, 36, 3897, 10.557923334418277, -0.3134977995137767, 3.924892934972082, 1.4712937000235367, ABprppapp, 0, 0, 0, 0, , 0, 0, 0, 0, 0, 
2196, 1, 2196, 2196, 3898, -2.58550306390295, 1.8377001307182348, 3.851818533748863, 1.395842741047971, MSpaapa, 0, 0, 0, 0, , 0, 0, 0, 0, 0, 
10, 1, 10, 10, 3899, 1.585968780697798, 2.468870263576917, -6.962872409448595, 1.546744658999103, ABalapppp, 0, 0, 0, 0, , 0, 0, 0, 0, 0, 
210, 1, 210, 210, 3900, 2.661261778341757, -1.4481600161779489, -1.1690816620421973, 1.6044169437333, Caaaa, 0, 0, 0, 0, , 0, 0, 0, 0, 0, 
344, 1, 344, 344, 3901, -2.3657254971434263, -3.0583406267679845, 6.646583320289578, 1.546744658999103, ABarappaa, 0, 0, 0, 0, , 0, 0, 0, 0, 0, 
1, 1, 1, 1, 3902, 9.015410087439326, 4.870212938814333, 1.610959539706274, 1.4712937000235367, ABprppppp, 0, 0, 0, 0, , 0, 0, 0, 0, 0, 
82, 1, 82, 82, 3903, -9.099247061374193, 4.957325519722539, -1.0495781894126548, 1.546744658999103, ABalpaaap, 0, 0, 0, 0, , 0, 0, 0, 0, 0, 
77, 1, 77, 77, 3904, 6.963337741689891, -0.6636056033962096, 6.129766750805163, 1.4712937000235367, ABprppaap, 0, 0, 0, 0, , 0, 0, 0, 0, 0, 
404, 1, 404, 404, 3905, 3.3679100138306306, 5.861330596121139, -4.126562853956855, 1.546744658999103, ABalppppa, 0, 0, 0, 0, , 0, 0, 0, 0, 0, 
3023, 1, 3023, 3023, 3906, -0.3912969674709929, 7.436160282866287, -0.35017606128827733, 1.395842741047971, MSapapa, 0, 0, 0, 0, , 0, 0, 0, 0, 0, 
816, 1, 816, 816, 3907, 6.270348713823039, -2.3293793213860274, 3.0828695639006725, 1.4712937000235367, ABprapppa, 0, 0, 0, 0, , 0, 0, 0, 0, 0, 
1053, 1, 1053, 1053, 3908, -7.79295793759035, -5.536505157619107, 1.723273125502435, 1.546744658999103, ABarpaaaa, 0, 0, 0, 0, , 0, 0, 0, 0, 0, 
91, 1, 91, 91, 3909, 7.741955175745599, 4.1213899581813, 4.118962883327572, 1.4712937000235367, ABprpppap, 0, 0, 0, 0, , 0, 0, 0, 0, 0, 
484, 1, 484, 484, 3910, 8.45329456424648, 1.4135322562091794, 4.80104112930541, 1.4712937000235367, ABprpppaa, 0, 0, 0, 0, , 0, 0, 0, 0, 0, 
86, 1, 86, 86, 3911, 2.2911908995490204, -5.211789422022733, 5.133085927638469, 1.4712937000235367, ABprpaaap, 0, 0, 0, 0, , 0, 0, 0, 0, 0, 
2598, 1, 2598, 2598, 3912, 0.1737051963165201, 5.12785811487895, 4.474118353366956, 1.395842741047971, MSpappa, 0, 0, 0, 0, , 0, 0, 0, 0, 0, 
697, 1, 697, 697, 3913, 11.234088096464198, -2.5982868582078855, -1.8504738578271565, 1.6044169437333, Cpppa, 0, 0, 0, 0, , 0, 0, 0, 0, 0, 
500, 1, 500, 500, 3914, 5.125324311177152, 1.2569510504738475, -6.663940509550993, 1.4712937000235367, ABplpaapa, 0, 0, 0, 0, , 0, 0, 0, 0, 0, 
56, 1, 56, 56, 3915, -5.151119360108577, -2.886042767487383, 6.126987023014243, 1.546744658999103, ABarapaap, 0, 0, 0, 0, , 0, 0, 0, 0, 0, 
231, 1, 231, 231, 3916, -6.570892768982365, 6.282793538021234, -0.7811838928069289, 1.546744658999103, ABalpappa, 0, 0, 0, 0, , 0, 0, 0, 0, 0, 
689, 1, 689, 689, 3917, -2.3539837934780063, -6.400246556070517, 3.531997894795627, 1.4712937000235367, ABpraaaaa, 0, 0, 0, 0, , 0, 0, 0, 0, 0, 
70, 1, 70, 70, 3918, 3.932312749164021, 3.758870493617848, -5.985475725058413, 1.546744658999103, ABalpppap, 0, 0, 0, 0, , 0, 0, 0, 0, 0, 
615, 1, 615, 615, 3919, 7.462137125026036, -2.3030407897997653, -1.890781675204003, 1.4712937000235367, ABplppppa, 0, 0, 0, 0, , 0, 0, 0, 0, 0, 
988, 1, 988, 988, 3920, 1.1110901313876567, -2.481284162702636, 1.4261353581743779, 1.4712937000235367, ABplapppa, 0, 0, 0, 0, , 0, 0, 0, 0, 0, 
330, 1, 330, 330, 3921, -7.399081486049049, -4.232737116093379, 4.2277799323592715, 1.546744658999103, ABarapaaa, 0, 0, 0, 0, , 0, 0, 0, 0, 0, 
1415, 1, 1415, 1415, 3922, -4.42930559248709, -0.7037206283241416, 4.341017835278246, 1.395842741047971, MSpaaaa, 0, 0, 0, 0, , 0, 0, 0, 0, 0, 
38, 1, 38, 38, 3923, -0.07522132071477447, -6.486068879335916, -3.670580331416178, 1.4712937000235367, ABpraaapp, 0, 0, 0, 0, , 0, 0, 0, 0, 0, 
352, 1, 352, 352, 3924, -9.84285745002547, -4.541175518597432, -0.0060513216680325825, 1.546744658999103, ABaraaapa, 0, 0, 0, 0, , 0, 0, 0, 0, 0, 
16, 1, 16, 16, 3925, -3.5696603300029053, 0.9011402730084583, -0.08216243556167192, 1.546744658999103, ABarpappp, 0, 0, 0, 0, , 0, 0, 0, 0, 0, 
12, 1, 12, 12, 3926, 3.526012103092467, -3.913523683776192, 2.15057216331728, 1.4712937000235367, ABplapppp, 0, 0, 0, 0, , 0, 0, 0, 0, 0, 
3876, 1, 3876, 3876, 3927, 4.6733624661599205, 6.423121950166653, 1.8126412455235361, 1.395842741047971, MSppppa, 0, 0, 0, 0, , 0, 0, 0, 0, 0, 
1567, 1, 1567, 1567, 3928, -6.8618016907301955, 2.869020863739393, 5.517019275371591, 1.395842741047971, MSaaapa, 0, 0, 0, 0, , 0, 0, 0, 0, 0, 
74, 1, 74, 74, 3929, -9.697695662200868, 0.09647313153543056, 4.650593836413173, 1.546744658999103, ABaraaaap, 0, 0, 0, 0, , 0, 0, 0, 0, 0, 
84, 1, 84, 84, 3930, -8.971120614499103, -1.023730056608179, -3.6549396977440924, 1.546744658999103, ABalaapap, 0, 0, 0, 0, , 0, 0, 0, 0, 0, 
26, 1, 26, 26, 3931, -2.0156078551730454, 4.22663695659102, 6.019609601960613, 1.395842741047971, MSaappp, 0, 0, 0, 0, , 0, 0, 0, 0, 0, 
292, 1, 292, 292, 3932, -5.1812377425516, -2.7695315384584847, 2.4960361156477515, 1.4712937000235367, ABpraapaa, 0, 0, 0, 0, , 0, 0, 0, 0, 0, 
503, 1, 503, 503, 3933, -7.818288745981523, -5.342789857120029, -2.2333344401845987, 1.4712937000235367, ABplaaaaa, 0, 0, 0, 0, , 0, 0, 0, 0, 0, 
22, 1, 22, 22, -1, 11.646370013003839, 2.6142824097368864, 0.12094197175334664, 1.84415740659, Dpp, 0, 0, 0, 0, , 0, 0, 0, 0, 0, 
79, 1, 79, 79, 3934, 6.973661195342838, 0.252221826679476, -3.1148317774396452, 1.6044169437333, Capap, 0, 0, 0, 0, , 0, 0, 0, 0, 0, 
47, 1, 47, 47, 3935, 0.23894091110186477, 2.3793191188200438, 3.2122410052296257, 1.395842741047971, MSpaapp, 0, 0, 0, 0, , 0, 0, 0, 0, 0, 
1330, 1, 1330, 1330, 3936, -0.3544013012941177, -4.072893249071104, -6.235750240529781, 1.4712937000235367, ABplppaaa, 0, 0, 0, 0, , 0, 0, 0, 0, 0, 
64, 1, 64, 64, 3937, -10.08100785936455, 4.076584029545732, 1.5261998971202149, 1.546744658999103, ABalpapap, 0, 0, 0, 0, , 0, 0, 0, 0, 0, 
49, 1, 49, 49, 3938, -3.9859398922247258, 2.293068069820319, 6.658342724045612, 1.395842741047971, MSaaapp, 0, 0, 0, 0, , 0, 0, 0, 0, 0, 
1418, 1, 1418, 1418, 3939, -5.760598242074258, 1.1876360543090778, -6.487119888467932, 1.546744658999103, ABalppaaa, 0, 0, 0, 0, , 0, 0, 0, 0, 0, 
323, 1, 323, 323, 3940, -0.21773939208896342, 0.304695490279704, -7.440050729752478, 1.4712937000235367, ABplpaaaa, 0, 0, 0, 0, , 0, 0, 0, 0, 0, 
18, 1, 18, 18, 3941, 5.020791783725869, 4.963673029014887, 4.668544600468747, 1.4712937000235367, ABprpappp, 0, 0, 0, 0, , 0, 0, 0, 0, 0, 
7, 1, 7, 7, 3942, 9.75096189241568, 0.33951235409903735, -4.614495648433679, 1.84415740659, Eprp, 0, 0, 0, 0, , 0, 0, 0, 0, 0, 
34, 1, 34, 34, 3943, -4.67645715774507, 5.460994392620756, -4.219610351336292, 1.546744658999103, ABalpaapp, 0, 0, 0, 0, , 0, 0, 0, 0, 0, 
58, 1, 58, 58, 3944, 2.0012165956600527, 0.9355847576293144, -4.572187460496746, 1.4712937000235367, ABplpapap, 0, 0, 0, 0, , 0, 0, 0, 0, 0, 
287, 1, 287, 287, 3945, 2.037143078072041, -2.8478659853092436, -3.593037579870659, 1.4712937000235367, ABplpappa, 0, 0, 0, 0, , 0, 0, 0, 0, 0, 
116, 1, 116, 116, 3946, -4.999544582592179, 6.285566540040097, 2.636169269322414, 1.395842741047971, MSaapap, 0, 0, 0, 0, , 0, 0, 0, 0, 0, 
696, 1, 696, 696, 3947, 0.4778867796192473, -6.612213283566674, 3.4266953343001973, 1.4712937000235367, ABprapaaa, 0, 0, 0, 0, , 0, 0, 0, 0, 0, 
92, 1, 92, 92, 3948, 2.192572048693337, -2.8751823535692442, -6.748253473935727, 1.4712937000235367, ABplppaap, 0, 0, 0, 0, , 0, 0, 0, 0, 0, 
6, 1, 6, 6, 3949, 9.198221072225051, -4.576230609171154, -2.026950803310776, 1.4712937000235367, ABplppppp, 0, 0, 0, 0, , 0, 0, 0, 0, 0, 
33, 1, 33, 33, 3950, 7.621608302816452, 2.022505806825129, -5.522538087809163, 1.4712937000235367, ABplpaapp, 0, 0, 0, 0, , 0, 0, 0, 0, 0, 
55, 1, 55, 55, 3951, -5.878081521182476, -2.8033213194820967, -2.5620721957328283, 1.4712937000235367, ABplaapap, 0, 0, 0, 0, , 0, 0, 0, 0, 0, 
150, 1, 150, 150, -1, 9.284824051165955, 1.6083498542382733, -2.0905572781917083, 1.84415740659, Daa, 0, 0, 0, 0, , 0, 0, 0, 0, 0, 
48, 1, 48, 48, -1, 11.713992251984696, 0.15849768835933326, -2.4663290665786297, 1.84415740659, Dap, 0, 0, 0, 0, , 0, 0, 0, 0, 0, 
227, 1, 227, 227, 3952, -3.1679267054760345, -1.772533653112314, -2.352751826710686, 1.4712937000235367, ABplaappa, 0, 0, 0, 0, , 0, 0, 0, 0, 0, 
59, 1, 59, 59, 3953, 10.727312744073904, -3.6935502948421184, 0.7324539652531618, 1.6044169437333, Cppap, 0, 0, 0, 0, , 0, 0, 0, 0, 0, 
660, 1, 660, 660, 3954, 4.8976087373498505, -1.8398195137648494, -6.601001519537051, 1.4712937000235367, ABplppapa, 0, 0, 0, 0, , 0, 0, 0, 0, 0, 
132, 1, 132, 132, 3955, -1.3484271142477569, 2.080244140889324, -2.1671459143525755, 1.84415740659, Eara, 0, 0, 0, 0, , 0, 0, 0, 0, 0, 
130, 1, 130, 130, 3956, -1.333233831059813, 6.79274507182131, -2.9561679934359533, 1.395842741047971, MSapaap, 0, 0, 0, 0, , 0, 0, 0, 0, 0, 
293, 1, 293, 293, 3957, -6.0239471804628355, -6.504232989420056, -0.3062261622535804, 1.546744658999103, ABarpaapa, 0, 0, 0, 0, , 0, 0, 0, 0, 0, 
109, 1, 109, 109, 3958, -6.807013627102611, 2.978958207165748, 2.6509045404169, 1.395842741047971, MSaaaap, 0, 0, 0, 0, , 0, 0, 0, 0, 0, 
41, 1, 41, 41, 3959, 5.771745468475948, -3.261246884918121, 5.7326462091139065, 1.4712937000235367, ABprpaapp, 0, 0, 0, 0, , 0, 0, 0, 0, 0, 
160, 1, 160, 160, -1, 10.49449221495045, 2.5339132675445426, 3.087689225556899, 1.84415740659, Dpa, 0, 0, 0, 0, , 0, 0, 0, 0, 0, 
598, 1, 598, 598, 3960, 9.795583147388113, -3.0342019141659544, 3.42786952896614, 1.4712937000235367, ABprppapa, 0, 0, 0, 0, , 0, 0, 0, 0, 0, 
73, 1, 73, 73, 3961, -1.1447186926103292, -7.330096799786906, 1.1347779957586632, 1.4712937000235367, ABpraaaap, 0, 0, 0, 0, , 0, 0, 0, 0, 0, 
123, 1, 123, 123, 3962, -0.337798192457615, 3.9895089634172245, -0.29828646610434445, 1.395842741047971, MSppaap, 0, 0, 0, 0, , 0, 0, 0, 0, 0, 
35, 1, 35, 35, 3963, -3.854525315565821, -4.192100573638542, -0.9128244691490381, 1.546744658999103, ABarpaapp, 0, 0, 0, 0, , 0, 0, 0, 0, 0, 
397, 1, 397, 397, 3964, -3.3259916281203807, -0.4362007209501751, 7.161764498929835, 1.546744658999103, ABaraappa, 0, 0, 0, 0, , 0, 0, 0, 0, 0, 
69, 1, 69, 69, 3965, -8.379602086071444, 1.3393815384067034, -5.33465733453428, 1.546744658999103, ABalapaap, 0, 0, 0, 0, , 0, 0, 0, 0, 0, 
50, 1, 50, 50, 3966, 5.801529467051011, 3.7110678657879976, -1.2283425781871944, 1.395842741047971, MSppapp, 0, 0, 0, 0, , 0, 0, 0, 0, 0, 
1307, 1, 1307, 1307, 3967, -9.304743080660746, 2.857907293151246, 4.022532534695746, 1.395842741047971, MSaaaaa, 0, 0, 0, 0, , 0, 0, 0, 0, 0, 
1504, 1, 1504, 1504, 3968, 6.986608407324433, -0.30081792329903406, 0.13546441892631234, 1.6044169437333, Cappa, 0, 0, 0, 0, , 0, 0, 0, 0, 0, 
13, 1, 13, 13, 3969, 2.1528855641642832, 7.284500920521265, 0.8987850943889004, 1.6044169437333, MSappp, 0, 0, 0, 0, , 0, 0, 0, 0, 0, 
2760, 1, 2760, 2760, 3970, 4.502949789928395, 0.7758103809185487, -1.7372900879887025, 1.6044169437333, Capaa, 0, 0, 0, 0, , 0, 0, 0, 0, 0, 
638, 1, 638, 638, 3971, 1.9975180784787188, -5.237520596305472, -5.160439957548666, 1.4712937000235367, ABplapaaa, 0, 0, 0, 0, , 0, 0, 0, 0, 0, 
51, 1, 51, 51, 3972, 1.9161155967884016, 7.087939837621032, -1.985832748753898, 1.395842741047971, MSapapp, 0, 0, 0, 0, , 0, 0, 0, 0, 0, 
1501, 1, 1501, 1501, 3973, -11.586064659410994, -1.1364854231852328, -2.425572620921879, 1.546744658999103, ABalaaaal, 0, 0, 0, 0, , 0, 0, 0, 0, 0, 
1047, 1, 1047, 1047, 3974, -7.652300015639763, 5.593641607323505, 1.786961117190173, 1.395842741047971, MSaapaa, 0, 0, 0, 0, , 0, 0, 0, 0, 0, 
439, 1, 439, 439, 3975, 9.07230943021289, 1.6021232186717924, 0.7489947225666841, 1.4712937000235367, ABprppppa, 0, 0, 0, 0, , 0, 0, 0, 0, 0, 
1195, 1, 1195, 1195, 3976, -1.2039165227172992, 1.7767732349807497, 7.200560283581375, 1.395842741047971, MSpapaa, 0, 0, 0, 0, , 0, 0, 0, 0, 0, 
40, 1, 40, 40, 3977, 5.606858329886885, -6.12962699528446, -2.567631428339034, 1.4712937000235367, ABplapapp, 0, 0, 0, 0, , 0, 0, 0, 0, 0, 
63, 1, 63, 63, 3978, -3.5215940059517914, 3.866525273260444, -1.638874871920685, 1.546744658999103, ABarpppap, 0, 0, 0, 0, , 0, 0, 0, 0, 0, 
93, 1, 93, 93, 3979, -11.764781258781353, -2.398647549578348, 0.14372188032496744, 1.546744658999103, ABalaaaar, 0, 0, 0, 0, , 0, 0, 0, 0, 0, 
1122, 1, 1122, 1122, 3980, -10.00337669778147, -3.5185407959566093, -2.67270088263322, 1.546744658999103, ABalaaapa, 0, 0, 0, 0, , 0, 0, 0, 0, 0, 
53, 1, 53, 53, 3981, 5.960688352809776, -6.3384470642497295, 1.5999876816798289, 1.6044169437333, Cpaap, 0, 0, 0, 0, , 0, 0, 0, 0, 0, 
62, 1, 62, 62, 3982, 7.598034347908538, -4.829450625206973, 3.383653569060275, 1.4712937000235367, ABprappap, 0, 0, 0, 0, , 0, 0, 0, 0, 0, 
88, 1, 88, 88, 3983, -2.970260817905206, 0.925895079036393, -7.001534203088135, 1.546744658999103, ABalppaap, 0, 0, 0, 0, , 0, 0, 0, 0, 0, 
124, 1, 124, 124, 3984, 4.192374146636995, 3.995376747855346, 2.0747404484013283, 1.395842741047971, MSpppap, 0, 0, 0, 0, , 0, 0, 0, 0, 0, 
808, 1, 808, 808, 3985, 4.876295523240866, -3.3256599408275362, -2.6497890575661582, 1.4712937000235367, ABplpppaa, 0, 0, 0, 0, , 0, 0, 0, 0, 0, 
46, 1, 46, 46, 3986, 8.649539930972614, 3.9190814430856493, -3.644242034315492, 1.84415740659, Eplp, 0, 0, 0, 0, , 0, 0, 0, 0, 0, 
148, 1, 148, 148, 3987, 0.6167394835709862, 4.546477291821633, -2.7224403776564303, 1.84415740659, Eala, 0, 0, 0, 0, , 0, 0, 0, 0, 0, 
31, 1, 31, 31, 3988, -1.0385351156489724, -3.328860677532107, -3.52481703683307, 1.4712937000235367, ABplaaapp, 0, 0, 0, 0, , 0, 0, 0, 0, 0, 
21, 1, 21, 21, 3989, 0.2559679483899373, -3.8349393882990364, -0.9903948496094298, 1.4712937000235367, ABplaappp, 0, 0, 0, 0, , 0, 0, 0, 0, 0, 
1273, 1, 1273, 1273, 3990, -4.754844098648063, -0.4584802687063115, -4.374443275858572, 1.546744658999103, ABalappaa, 0, 0, 0, 0, , 0, 0, 0, 0, 0, 
4, 1, 4, 4, 3991, 7.236730906126918, 6.045856784355496, -0.285632682172791, 2.119721157, Z3, 0, 0, 0, 0, , 0, 0, 0, 0, 0, 
2, 1, 2, 2, 3992, -2.4622725254427618, 5.178481144976417, 3.3545440524194996, 1.546744658999103, ABarppppp, 0, 0, 0, 0, , 0, 0, 0, 0, 0, 
71, 1, 71, 71, 3993, -8.738069681296498, 0.9815926356563991, 1.9287680129165805, 1.546744658999103, ABarppaap, 0, 0, 0, 0, , 0, 0, 0, 0, 0, 
25, 1, 25, 25, 3994, 2.6273109031252906, 6.264166618396651, 3.7083716508873508, 1.395842741047971, MSpappp, 0, 0, 0, 0, , 0, 0, 0, 0, 0, 
27, 1, 27, 27, 3995, 6.823541720748533, 3.0759693990284065, 1.6383818037374056, 1.6044169437333, Caapp, 0, 0, 0, 0, , 0, 0, 0, 0, 0, 
776, 1, 776, 776, 3996, -10.1079639424232, 0.42799887107650797, -0.542301591966943, 1.546744658999103, ABarppapa, 0, 0, 0, 0, , 0, 0, 0, 0, 0, 
693, 1, 693, 693, 3997, -1.9180409618578023, -7.178691074569431, -1.606507834003387, 1.4712937000235367, ABplappaa, 0, 0, 0, 0, , 0, 0, 0, 0, 0, 
32, 1, 32, 32, 3998, -9.764731482968324, -3.7020804428400123, 2.7292681462850785, 1.546744658999103, ABaraaapp, 0, 0, 0, 0, , 0, 0, 0, 0, 0, 
8, 1, 8, 8, 3999, 12.393203781179386, -0.3681186942549292, 0.4001828549715768, 1.6044169437333, Cpppp, 0, 0, 0, 0, , 0, 0, 0, 0, 0, 
600, 1, 600, 600, 4000, -3.9067610544148788, 3.4880766463100006, -6.1486494648741505, 1.546744658999103, ABalppapa, 0, 0, 0, 0, , 0, 0, 0, 0, 0, 
52, 1, 52, 52, 4001, 4.4907823674758065, -1.460226770667244, 1.0276950421217468, 1.6044169437333, Caaap, 0, 0, 0, 0, , 0, 0, 0, 0, 0, 
499, 1, 499, 499, 4002, -0.6247563978085788, -5.00355804245095, 5.499151988425171, 1.4712937000235367, ABprpaaaa, 0, 0, 0, 0, , 0, 0, 0, 0, 0, 
17, 1, 17, 17, 4003, -0.5445445340467863, -0.9955203170783664, 7.372403329561102, 1.546744658999103, ABaraappp, 0, 0, 0, 0, , 0, 0, 0, 0, 0, 
1279, 1, 1279, 1279, 4004, -10.655836503650027, 1.2961039046618923, -3.5988327359507988, 1.546744658999103, ABalaapaa, 0, 0, 0, 0, , 0, 0, 0, 0, 0, 
260, 1, 260, 260, 4005, -4.741830980240821, -5.190667534472241, 4.517328667737229, 1.546744658999103, ABarapapa, 0, 0, 0, 0, , 0, 0, 0, 0, 0, 
9, 1, 9, 9, 4006, 3.0902183122705127, -1.083096401033682, 7.133650092383743, 1.546744658999103, ABarapppp, 0, 0, 0, 0, , 0, 0, 0, 0, 0, 
761, 1, 761, 761, 4007, -9.012014700661334, 3.649282359083822, -3.6072756813127795, 1.546744658999103, ABalpaaaa, 0, 0, 0, 0, , 0, 0, 0, 0, 0, 
364, 1, 364, 364, 4008, 4.933530352275891, -5.466947893832798, 4.112065200009056, 1.4712937000235367, ABprappaa, 0, 0, 0, 0, , 0, 0, 0, 0, 0, 
2306, 1, 2306, 2306, 4009, 8.474799104332625, -5.409381675279309, 0.6109873341905366, 1.6044169437333, Cppaa, 0, 0, 0, 0, , 0, 0, 0, 0, 0, 
28, 1, 28, 28, 4010, 5.955367349177626, -3.8074604075353924, 0.12200969572527676, 1.6044169437333, Cpapp, 0, 0, 0, 0, , 0, 0, 0, 0, 0, 
1178, 1, 1178, 1178, 4011, -11.339767348815382, -1.2981171168628456, 2.7636570155119116, 1.546744658999103, ABaraaaaa, 0, 0, 0, 0, , 0, 0, 0, 0, 0, 
498, 1, 498, 498, 4012, -6.319367890582452, 3.904288922661122, -2.345098593139028, 1.546744658999103, ABarpppaa, 0, 0, 0, 0, , 0, 0, 0, 0, 0, 
65, 1, 65, 65, 4013, -5.210757857047179, -4.724021344330651, -4.832748495009007, 1.4712937000235367, ABplaaaap, 0, 0, 0, 0, , 0, 0, 0, 0, 0, 
241, 1, 241, 241, 4014, -1.7065851548854885, -1.2906406410416864, 0.11110828070000313, 1.4712937000235367, ABpraappa, 0, 0, 0, 0, , 0, 0, 0, 0, 0, 
360, 1, 360, 360, 4015, 3.0039892510197523, 2.443541568400347, 4.196451086066737, 1.4712937000235367, ABprpappa, 0, 0, 0, 0, , 0, 0, 0, 0, 0, 
622, 1, 622, 622, 4016, -7.228395646090207, -1.19962167781206, -5.941666257730885, 1.546744658999103, ABalapaaa, 0, 0, 0, 0, , 0, 0, 0, 0, 0, 
647, 1, 647, 647, 4017, 3.2194148577080837, -2.539320793439149, 4.662633017799936, 1.4712937000235367, ABprpaapa, 0, 0, 0, 0, , 0, 0, 0, 0, 0, 
325, 1, 325, 325, 4018, 0.19615951852509547, -1.2514961121693433, -5.0886018509765245, 1.4712937000235367, ABplpapaa, 0, 0, 0, 0, , 0, 0, 0, 0, 0, 
497, 1, 497, 497, 4019, -5.564789723126431, 0.47608386723453294, 1.958753307503173, 1.546744658999103, ABarpappa, 0, 0, 0, 0, , 0, 0, 0, 0, 0, 
78, 1, 78, 78, 4020, 6.128944902276967, 2.615261062137936, 5.930070599309923, 1.4712937000235367, ABprpapap, 0, 0, 0, 0, , 0, 0, 0, 0, 0, 
76, 1, 76, 76, 4021, -6.023720461099107, 0.32852527626574296, 6.505324215228748, 1.546744658999103, ABaraapap, 0, 0, 0, 0, , 0, 0, 0, 0, 0, 
754, 1, 754, 754, 4022, -7.530890357766552, -0.6824922613645268, -1.1900182499758982, 1.546744658999103, ABalaappa, 0, 0, 0, 0, , 0, 0, 0, 0, 0, 
158, 1, 158, 158, 4023, 5.3457191899346075, 2.5252429218523713, -3.8327812378976853, 1.84415740659, Epla, 0, 0, 0, 0, , 0, 0, 0, 0, 0, 
2479, 1, 2479, 2479, 4024, -4.67067564550435, 4.652999715701919, 5.0940501337947985, 1.395842741047971, MSaappa, 0, 0, 0, 0, , 0, 0, 0, 0, 0, 
3, 1, 3, 3, 4025, 5.095453619929353, 6.668977563018952, 1.831364737907337, 1.395842741047971, MSppppp, 0, 0, 0, 0, , 0, 0, 0, 0, 0, 
112, 1, 112, 112, 4026, -1.9126403121152107, -0.8319963809540039, 2.957613191574451, 1.395842741047971, MSpaaap, 0, 0, 0, 0, , 0, 0, 0, 0, 0, 
19, 1, 19, 19, 4027, 0.38824838028860664, 0.5314012537285486, 0.9333213996012012, 1.4712937000235367, ABpraappp, 0, 0, 0, 0, , 0, 0, 0, 0, 0, 
619, 1, 619, 619, 4028, -11.941945047821019, 1.3188908072202425, 1.5665351068386222, 1.546744658999103, ABarppaaa, 0, 0, 0, 0, , 0, 0, 0, 0, 0, 
11, 1, 11, 11, 4029, 6.554142913882171, 0.5033690190312013, 2.8626050727311365, 1.4712937000235367, ABprapppp, 0, 0, 0, 0, , 0, 0, 0, 0, 0, 
61, 1, 61, 61, 4030, -4.305384901033964, -5.389488726589017, 1.6902125337410838, 1.546744658999103, ABarpaaap, 0, 0, 0, 0, , 0, 0, 0, 0, 0, 
240, 1, 240, 240, 4031, 3.0655507225931995, -4.33338263847471, -0.6603185756710733, 1.6044169437333, Cpapa, 0, 0, 0, 0, , 0, 0, 0, 0, 0, 
60, 1, 60, 60, 4032, 9.804564469944369, 4.436896306052142, -1.0877370019227728, 2.119721157, Z2, 0, 0, 0, 0, , 0, 0, 0, 0, 0, 
80, 1, 80, 80, 4033, -4.985658112262538, -1.584950445345994, -0.11043177790705866, 1.546744658999103, ABarpapap, 0, 0, 0, 0, , 0, 0, 0, 0, 0, 
87, 1, 87, 87, 4034, 7.337604194384421, -4.317497446784176, -4.176611253557107, 1.4712937000235367, ABplpppap, 0, 0, 0, 0, , 0, 0, 0, 0, 0, 
375, 1, 375, 375, 4035, -2.4597984951844953, -5.444021287582909, -4.865681365717492, 1.4712937000235367, ABplaaapa, 0, 0, 0, 0, , 0, 0, 0, 0, 0, 
42, 1, 42, 42, 4036, 7.531585674464156, -0.9872804832441876, -5.84543785396867, 1.4712937000235367, ABplppapp, 0, 0, 0, 0, , 0, 0, 0, 0, 0, 
165, 1, 165, 165, 4037, 9.506393827548848, -2.457907682100868, -4.124066909712178, 1.84415740659, Epra, 0, 0, 0, 0, , 0, 0, 0, 0, 0, 
20, 1, 20, 20, 4038, -2.976434103029142, 7.186210093145592, 0.8423630491350171, 1.546744658999103, ABalpappp, 0, 0, 0, 0, , 0, 0, 0, 0, 0, 
111, 1, 111, 111, 4039, 1.5202830191646914, 3.5905783546782537, 6.465929981185844, 1.395842741047971, MSpapap, 0, 0, 0, 0, , 0, 0, 0, 0, 0, 
67, 1, 67, 67, 4040, 3.1070879074069033, -6.807074933747532, 2.3691033280358305, 1.4712937000235367, ABprapaap, 0, 0, 0, 0, , 0, 0, 0, 0, 0, 
43, 1, 43, 43, 4041, -7.826135761436548, -3.616677876000663, -4.519958094358341, 1.546744658999103, ABalaaapp, 0, 0, 0, 0, , 0, 0, 0, 0, 0, 
3119, 1, 3119, 3119, 4042, -3.9595033379989064, 6.827269982194825, -1.8166892065304094, 1.395842741047971, MSapaaa, 0, 0, 0, 0, , 0, 0, 0, 0, 0, 
298, 1, 298, 298, 4043, 3.6146571966598233, 1.7164730088221754, 6.917664730847876, 1.4712937000235367, ABprpapaa, 0, 0, 0, 0, , 0, 0, 0, 0, 0, 
3078, 1, 3078, 3078, 4044, -2.5651442430005655, 3.2121570550269554, 1.2974604589068597, 1.395842741047971, MSppaaa, 0, 0, 0, 0, , 0, 0, 0, 0, 0, 
44, 1, 44, 44, 4045, -1.9802725445581695, -1.904060849031873, -7.102868227424994, 1.546744658999103, ABalapapp, 0, 0, 0, 0, , 0, 0, 0, 0, 0, 
24, 1, 24, 24, 4046, 4.159635825302713, -0.8942301765187615, -4.0076767342938036, 1.4712937000235367, ABplpappp, 0, 0, 0, 0, , 0, 0, 0, 0, 0, 
2637, 1, 2637, 2637, 4047, 2.9525793984243913, 3.3431609166538205, -1.5332211141708698, 1.395842741047971, MSppapa, 0, 0, 0, 0, , 0, 0, 0, 0, 0, 
75, 1, 75, 75, 4048, 2.708449915271384, -0.12147540779598603, -7.26368299684374, 1.4712937000235367, ABplpaaap, 0, 0, 0, 0, , 0, 0, 0, 0, 0, 
515, 1, 515, 515, 4049, 4.19245175679079, 1.3781643469404077, 1.021009588815419, 1.6044169437333, Caapa, 0, 0, 0, 0, , 0, 0, 0, 0, 0, 
128, 1, 128, 128, -1, -0.4875905507013282, 7.032497250629592, 2.455510769821258, 1.6044169437333, MSappa, 0, 0, 0, 0, , 0, 0, 0, 0, 0, 
842, 1, 842, 842, 4050, -5.167351825069181, 4.215509437854772, 0.6759771463214153, 1.546744658999103, ABarppppa, 0, 0, 0, 0, , 0, 0, 0, 0, 0, 
269, 1, 269, 269, 4051, 1.1085192610458725, 0.6538221265642067, 5.5710081484133545, 1.546744658999103, ABarapppa, 0, 0, 0, 0, , 0, 0, 0, 0, 0, 
320, 1, 320, 320, 4052, -4.434613409065817, -6.424293676758153, -2.6805441930626452, 1.4712937000235367, ABpraaapa, 0, 0, 0, 0, , 0, 0, 0, 0, 0, 
30, 1, 30, 30, 4053, 2.418209946297989, -0.3194077990294391, 2.823993790786952, 1.4712937000235367, ABprapapp, 0, 0, 0, 0, , 0, 0, 0, 0, 0, 
280, 1, 280, 280, 4054, -7.720758579963605, -1.7493212173377302, 5.56616163605502, 1.546744658999103, ABaraapaa, 0, 0, 0, 0, , 0, 0, 0, 0, 0, 
54, 1, 54, 54, 4055, 4.716539471975226, -4.374367252226007, -5.31925366911833, 1.4712937000235367, ABplapaap, 0, 0, 0, 0, , 0, 0, 0, 0, 0, 
39, 1, 39, 39, 4056, -7.25863654731923, 2.3100273405887886, -0.13285726061420566, 1.546744658999103, ABarppapp, 0, 0, 0, 0, , 0, 0, 0, 0, 0, 
392, 1, 392, 392, 4057, -4.695997069111519, -2.426726098055837, -6.4539463015415794, 1.546744658999103, ABalapapa, 0, 0, 0, 0, , 0, 0, 0, 0, 0, 
45, 1, 45, 45, 4058, 4.605684233120576, 6.844928064281094, -1.0202732286708802, 1.84415740659, Ealp, 0, 0, 0, 0, , 0, 0, 0, 0, 0, 
326, 1, 326, 326, 4059, -6.613703531349194, 3.5913023920735814, -5.18527305729004, 1.546744658999103, ABalpaapa, 0, 0, 0, 0, , 0, 0, 0, 0, 0, 
531, 1, 531, 531, 4060, -1.0796655698888231, 3.4131281512390297, -6.594474529975096, 1.546744658999103, ABalapppa, 0, 0, 0, 0, , 0, 0, 0, 0, 0, 
23, 1, 23, 23, 4061, -5.543781088768627, 1.1583020834586, -2.1390314543102633, 1.546744658999103, ABalaappp, 0, 0, 0, 0, , 0, 0, 0, 0, 0, 
249, 1, 249, 249, 4062, 2.748947810324926, -6.679601018595323, -2.843901222262414, 1.4712937000235367, ABplapapa, 0, 0, 0, 0, , 0, 0, 0, 0, 0, 
716, 1, 716, 716, 4063, 4.500691925431033, 0.007668380555823913, 4.800030134436172, 1.4712937000235367, ABprppaaa, 0, 0, 0, 0, , 0, 0, 0, 0, 0, 
5, 1, 5, 5, 4064, 6.132365673452218, 5.270805698019873, -3.771975834221298, 1.546744658999103, ABalppppp, 0, 0, 0, 0, , 0, 0, 0, 0, 0, 
461, 1, 461, 461, 4065, -7.79143941028264, -1.6194340799541957, 2.7067576134608835, 1.546744658999103, ABarpapaa, 0, 0, 0, 0, , 0, 0, 0, 0, 0, 
37, 1, 37, 37, 4066, -1.9423424721570053, 4.198720136691314, -3.986364640723592, 1.546744658999103, ABalppapp, 0, 0, 0, 0, , 0, 0, 0, 0, 0, 
96, 1, 96, 96, 4067, -2.021587759270926, 0.3917241108892554, -4.352880252030159, 1.546744658999103, ABalappap, 0, 0, 0, 0, , 0, 0, 0, 0, 0, 
3451, 1, 3451, 3451, 4068, 1.8156922502195985, 3.669717873610936, 1.1089273158341173, 1.395842741047971, MSpppaa, 0, 0, 0, 0, , 0, 0, 0, 0, 0, 
83, 1, 83, 83, 4069, 1.0665280375610096, -7.390910831588922, -0.6635278249609488, 1.4712937000235367, ABplappap, 0, 0, 0, 0, , 0, 0, 0, 0, 0, 
475, 1, 475, 475, 4070, -11.24591164595429, 3.038453442963941, -0.8964240168550359, 1.546744658999103, ABalpapaa, 0, 0, 0, 0, , 0, 0, 0, 0, 0, 
66, 1, 66, 66, 4071, 1.1737041464271953, -3.1451719126132347, 6.7214602781284665, 1.546744658999103, ABarappap, 0, 0, 0, 0, , 0, 0, 0, 0, 0, 
