498, 1, 498, 498, 4072, -6.339743152698801, 3.9343431753599867, -2.330261010260508, 1.546744658999103, ABarpppaa, 0, 0, 0, 0, , 0, 0, 0, 0, 0, 
3023, 1, 3023, 3023, 4073, -0.8250812025531327, 7.412995603766268, -0.5530431303268755, 1.395842741047971, MSapapa, 0, 0, 0, 0, , 0, 0, 0, 0, 0, 
6, 1, 6, 6, 4074, 9.2378434959996, -4.569101149854742, -1.9957855549097616, 1.4712937000235367, ABplppppp, 0, 0, 0, 0, , 0, 0, 0, 0, 0, 
1122, 1, 1122, 1122, 4075, -10.047050084292314, -3.454292849966266, -2.7041064044637215, 1.546744658999103, ABalaaapa, 0, 0, 0, 0, , 0, 0, 0, 0, 0, 
23, 1, 23, 23, 4076, -5.62677958406582, 1.1762826710224263, -2.1394163044343446, 1.546744658999103, ABalaappp, 0, 0, 0, 0, , 0, 0, 0, 0, 0, 
51, 1, 51, 51, 4077, 1.8104447195389275, 7.078442480502321, -2.0571961003207253, 1.395842741047971, MSapapp, 0, 0, 0, 0, , 0, 0, 0, 0, 0, 
73, 1, 73, 73, 4078, -1.2324672882839331, -7.3357439808408, 1.0845694685578608, 1.4712937000235367, ABpraaaap, 0, 0, 0, 0, , 0, 0, 0, 0, 0, 
77, 1, 77, 77, 4079, 7.008043991196345, -0.6665439553679305, 6.119653283065034, 1.4712937000235367, ABprppaap, 0, 0, 0, 0, , 0, 0, 0, 0, 0, 
48, 1, 48, 48, -1, 11.712187963682721, 0.19688662921071917, -2.4834844244209995, 1.84415740659, Dap, 0, 0, 0, 0, , 0, 0, 0, 0, 0, 
323, 1, 323, 323, 4080, -0.25779967005361015, 0.2533983103193731, -7.44349385295049, 1.4712937000235367, ABplpaaaa, 0, 0, 0, 0, , 0, 0, 0, 0, 0, 
132, 1, 132, 132, 4081, -1.3800745881240233, 1.853174137060402, -2.169267699509918, 1.84415740659, Eara, 0, 0, 0, 0, , 0, 0, 0, 0, 0, 
33, 1, 33, 33, 4082, 7.650483205229498, 1.930419262565724, -5.546580460187612, 1.4712937000235367, ABplpaapp, 0, 0, 0, 0, , 0, 0, 0, 0, 0, 
57, 1, 57, 57, 4083, -1.7465764493245421, -4.070976705938184, 1.0248029377572634, 1.4712937000235367, ABpraapap, 0, 0, 0, 0, , 0, 0, 0, 0, 0, 
397, 1, 397, 397, 4084, -3.3033376865150967, -0.5765449012184887, 7.157285806846463, 1.546744658999103, ABaraappa, 0, 0, 0, 0, , 0, 0, 0, 0, 0, 
326, 1, 326, 326, 4085, -6.694948549605041, 3.583449320721387, -5.152430565292743, 1.546744658999103, ABalpaapa, 0, 0, 0, 0, , 0, 0, 0, 0, 0, 
15, 1, 15, 15, 4086, 9.653549052557546, -1.2213791573721717, 1.3464416551501428, 1.6044169437333, Cappp, 0, 0, 0, 0, , 0, 0, 0, 0, 0, 
3969, 1, 3969, 3969, 4087, 1.574350864720319, 7.40818389998482, 0.769447477645248, 1.395842741047971, MSapppa, 0, 0, 0, 0, , 0, 0, 0, 0, 0, 
2196, 1, 2196, 2196, 4088, -2.7137384264845372, 1.907601123497667, 4.113577636895407, 1.395842741047971, MSpaapa, 0, 0, 0, 0, , 0, 0, 0, 0, 0, 
2637, 1, 2637, 2637, 4089, 3.1486003830498928, 3.4593995345405144, -1.429274320229331, 1.395842741047971, MSppapa, 0, 0, 0, 0, , 0, 0, 0, 0, 0, 
34, 1, 34, 34, 4090, -4.690700608962763, 5.45934266189245, -4.215850567399731, 1.546744658999103, ABalpaapp, 0, 0, 0, 0, , 0, 0, 0, 0, 0, 
776, 1, 776, 776, 4091, -10.192113026095628, 0.4485344526068396, -0.46971748619101356, 1.546744658999103, ABarppapa, 0, 0, 0, 0, , 0, 0, 0, 0, 0, 
78, 1, 78, 78, 4092, 6.09783943599495, 2.572835519481111, 5.96445769508058, 1.4712937000235367, ABprpapap, 0, 0, 0, 0, , 0, 0, 0, 0, 0, 
808, 1, 808, 808, 4093, 4.966409648245833, -3.347750489368105, -2.642718934397632, 1.4712937000235367, ABplpppaa, 0, 0, 0, 0, , 0, 0, 0, 0, 0, 
41, 1, 41, 41, 4094, 5.599377256867108, -3.233929613122143, 5.8050278653302545, 1.4712937000235367, ABprpaapp, 0, 0, 0, 0, , 0, 0, 0, 0, 0, 
96, 1, 96, 96, 4095, -1.995357923089471, 0.2986377654966249, -4.519240614807134, 1.546744658999103, ABalappap, 0, 0, 0, 0, , 0, 0, 0, 0, 0, 
1501, 1, 1501, 1501, 4096, -11.603807932299938, -1.0840919733257137, -2.4198183103098767, 1.546744658999103, ABalaaaal, 0, 0, 0, 0, , 0, 0, 0, 0, 0, 
598, 1, 598, 598, 4097, 9.711061412327325, -3.017780083326019, 3.5251250514304235, 1.4712937000235367, ABprppapa, 0, 0, 0, 0, , 0, 0, 0, 0, 0, 
93, 1, 93, 93, 4098, -11.786706486162343, -2.359078827028054, 0.1238302730018152, 1.546744658999103, ABalaaaar, 0, 0, 0, 0, , 0, 0, 0, 0, 0, 
49, 1, 49, 49, 4099, -4.193491372738154, 2.0623432397932153, 6.706132996698906, 1.395842741047971, MSaaapp, 0, 0, 0, 0, , 0, 0, 0, 0, 0, 
61, 1, 61, 61, 4100, -4.307681066696134, -5.251902629101528, 1.654441891032747, 1.546744658999103, ABarpaaap, 0, 0, 0, 0, , 0, 0, 0, 0, 0, 
475, 1, 475, 475, 4101, -11.180926714410473, 3.0888886685479826, -1.0101228207418314, 1.546744658999103, ABalpapaa, 0, 0, 0, 0, , 0, 0, 0, 0, 0, 
31, 1, 31, 31, 4102, -1.0050592945701864, -3.3679220005858888, -3.4883186452617694, 1.4712937000235367, ABplaaapp, 0, 0, 0, 0, , 0, 0, 0, 0, 0, 
50, 1, 50, 50, 4103, 6.033277523236589, 3.543358716058705, -1.2544283463058228, 1.395842741047971, MSppapp, 0, 0, 0, 0, , 0, 0, 0, 0, 0, 
74, 1, 74, 74, 4104, -9.728180357104717, 0.09867030081724391, 4.630373421852572, 1.546744658999103, ABaraaaap, 0, 0, 0, 0, , 0, 0, 0, 0, 0, 
240, 1, 240, 240, 4105, 3.140827354866428, -4.302909054395108, -0.6257785814687777, 1.6044169437333, Cpapa, 0, 0, 0, 0, , 0, 0, 0, 0, 0, 
320, 1, 320, 320, 4106, -4.391410792066793, -6.383079271865566, -2.77993574818679, 1.4712937000235367, ABpraaapa, 0, 0, 0, 0, , 0, 0, 0, 0, 0, 
3, 1, 3, 3, 4107, 5.256384191037037, 6.678786294717901, 1.8020990635677272, 1.395842741047971, MSppppp, 0, 0, 0, 0, , 0, 0, 0, 0, 0, 
499, 1, 499, 499, 4108, -0.5787638922572754, -5.066771721920819, 5.450015832907084, 1.4712937000235367, ABprpaaaa, 0, 0, 0, 0, , 0, 0, 0, 0, 0, 
52, 1, 52, 52, 4109, 4.555800324508467, -1.8374642890936757, 0.9816462027632693, 1.6044169437333, Caaap, 0, 0, 0, 0, , 0, 0, 0, 0, 0, 
696, 1, 696, 696, 4110, 0.39335938448324703, -6.662859328703964, 3.3167909100303787, 1.4712937000235367, ABprapaaa, 0, 0, 0, 0, , 0, 0, 0, 0, 0, 
84, 1, 84, 84, 4111, -9.027423051684503, -0.9317773926658256, -3.6188832953170507, 1.546744658999103, ABalaapap, 0, 0, 0, 0, , 0, 0, 0, 0, 0, 
20, 1, 20, 20, 4112, -3.191404063839047, 7.141241831708226, 0.9421875168878073, 1.546744658999103, ABalpappp, 0, 0, 0, 0, , 0, 0, 0, 0, 0, 
515, 1, 515, 515, 4113, 4.18897546841095, 0.9413741632485657, 0.8275980162897053, 1.6044169437333, Caapa, 0, 0, 0, 0, , 0, 0, 0, 0, 0, 
7, 1, 7, 7, 4114, 9.757379400201888, 0.2753349034783443, -4.600391449754859, 1.84415740659, Eprp, 0, 0, 0, 0, , 0, 0, 0, 0, 0, 
344, 1, 344, 344, 4115, -2.357481499239946, -3.1866396402529786, 6.5827582487032785, 1.546744658999103, ABarappaa, 0, 0, 0, 0, , 0, 0, 0, 0, 0, 
754, 1, 754, 754, 4116, -7.620009697718048, -0.613547089812252, -1.147337485093019, 1.546744658999103, ABalaappa, 0, 0, 0, 0, , 0, 0, 0, 0, 0, 
55, 1, 55, 55, 4117, -5.787547139653129, -2.8586220422362976, -2.642502874047767, 1.4712937000235367, ABplaapap, 0, 0, 0, 0, , 0, 0, 0, 0, 0, 
158, 1, 158, 158, 4118, 5.407775255743792, 2.6573261577410725, -3.971128460092541, 1.84415740659, Epla, 0, 0, 0, 0, , 0, 0, 0, 0, 0, 
298, 1, 298, 298, 4119, 3.5750092175335624, 1.6415680392524639, 6.943762742073549, 1.4712937000235367, ABprpapaa, 0, 0, 0, 0, , 0, 0, 0, 0, 0, 
1195, 1, 1195, 1195, 4120, -1.1204158510193596, 1.670500743439252, 7.2325733596384225, 1.395842741047971, MSpapaa, 0, 0, 0, 0, , 0, 0, 0, 0, 0, 
231, 1, 231, 231, 4121, -6.487595594999817, 6.306636585245509, -0.7733928112340407, 1.546744658999103, ABalpappa, 0, 0, 0, 0, , 0, 0, 0, 0, 0, 
287, 1, 287, 287, 4122, 1.9766878051047945, -2.9393939217904412, -3.413420093046375, 1.4712937000235367, ABplpappa, 0, 0, 0, 0, , 0, 0, 0, 0, 0, 
531, 1, 531, 531, 4123, -1.2078593622051421, 3.349639924675568, -6.6079533839068265, 1.546744658999103, ABalapppa, 0, 0, 0, 0, , 0, 0, 0, 0, 0, 
2760, 1, 2760, 2760, 4124, 4.578899478115476, 0.8469094121861864, -1.9602384750144413, 1.6044169437333, Capaa, 0, 0, 0, 0, , 0, 0, 0, 0, 0, 
45, 1, 45, 45, 4125, 4.49473319676413, 6.87547218352463, -1.0070643918541156, 1.84415740659, Ealp, 0, 0, 0, 0, , 0, 0, 0, 0, 0, 
54, 1, 54, 54, 4126, 4.742311706908272, -4.382732710571831, -5.310206496654623, 1.4712937000235367, ABplapaap, 0, 0, 0, 0, , 0, 0, 0, 0, 0, 
14, 1, 14, 14, 4127, 1.3961318887840422, 1.1742409642543894, -1.7758836459677227, 1.84415740659, Earp, 0, 0, 0, 0, , 0, 0, 0, 0, 0, 
76, 1, 76, 76, 4128, -6.209834033472952, 0.1072136660336966, 6.451318673400023, 1.546744658999103, ABaraapap, 0, 0, 0, 0, , 0, 0, 0, 0, 0, 
500, 1, 500, 500, 4129, 5.080038393054752, 1.3114941109508451, -6.666778237068589, 1.4712937000235367, ABplpaapa, 0, 0, 0, 0, , 0, 0, 0, 0, 0, 
1273, 1, 1273, 1273, 4130, -4.752006538879237, -0.43054783234995525, -4.344035986892465, 1.546744658999103, ABalappaa, 0, 0, 0, 0, , 0, 0, 0, 0, 0, 
43, 1, 43, 43, 4131, -7.846447769543114, -3.5928670158877165, -4.5270699136826975, 1.546744658999103, ABalaaapp, 0, 0, 0, 0, , 0, 0, 0, 0, 0, 
761, 1, 761, 761, 4132, -9.029757147506144, 3.725086206993014, -3.504352257992435, 1.546744658999103, ABalpaaaa, 0, 0, 0, 0, , 0, 0, 0, 0, 0, 
66, 1, 66, 66, 4133, 1.2370359725719244, -3.2051795849038647, 6.677362784402061, 1.546744658999103, ABarappap, 0, 0, 0, 0, , 0, 0, 0, 0, 0, 
3876, 1, 3876, 3876, 4134, 3.934184309978802, 6.001149316466143, 1.78357234253497, 1.395842741047971, MSppppa, 0, 0, 0, 0, , 0, 0, 0, 0, 0, 
330, 1, 330, 330, 4135, -7.41571409018028, -4.36696252405038, 4.078404774517073, 1.546744658999103, ABarapaaa, 0, 0, 0, 0, , 0, 0, 0, 0, 0, 
842, 1, 842, 842, 4136, -5.269458734612214, 4.174792740931273, 0.6694211658674886, 1.546744658999103, ABarppppa, 0, 0, 0, 0, , 0, 0, 0, 0, 0, 
42, 1, 42, 42, 4137, 7.460120354316984, -1.0453243577741922, -5.866445259859644, 1.4712937000235367, ABplppapp, 0, 0, 0, 0, , 0, 0, 0, 0, 0, 
1, 1, 1, 1, 4138, 8.96397344462337, 4.915264520321781, 1.5584079755444236, 1.4712937000235367, ABprppppp, 0, 0, 0, 0, , 0, 0, 0, 0, 0, 
241, 1, 241, 241, 4139, -1.5319934131184298, -1.3172619606366909, -0.01495270231618755, 1.4712937000235367, ABpraappa, 0, 0, 0, 0, , 0, 0, 0, 0, 0, 
80, 1, 80, 80, 4140, -4.920201200748047, -1.7268083282323123, -0.1266662442243361, 1.546744658999103, ABarpapap, 0, 0, 0, 0, , 0, 0, 0, 0, 0, 
32, 1, 32, 32, 4141, -9.829861793958758, -3.696993570228941, 2.6837892618781156, 1.546744658999103, ABaraaapp, 0, 0, 0, 0, , 0, 0, 0, 0, 0, 
17, 1, 17, 17, 4142, -0.534352346416585, -1.0891936653800074, 7.358705229427142, 1.546744658999103, ABaraappp, 0, 0, 0, 0, , 0, 0, 0, 0, 0, 
25, 1, 25, 25, 4143, 2.2773783652374497, 6.15405435397793, 3.98072925278429, 1.395842741047971, MSpappp, 0, 0, 0, 0, , 0, 0, 0, 0, 0, 
86, 1, 86, 86, 4144, 2.205850968523589, -5.308975089266618, 5.060218656573465, 1.4712937000235367, ABprpaaap, 0, 0, 0, 0, , 0, 0, 0, 0, 0, 
26, 1, 26, 26, 4145, -2.277482858876453, 4.016466752418467, 6.121999136081966, 1.395842741047971, MSaappp, 0, 0, 0, 0, , 0, 0, 0, 0, 0, 
160, 1, 160, 160, -1, 10.508396596143225, 2.6212981270330813, 2.982709534822598, 1.84415740659, Dpa, 0, 0, 0, 0, , 0, 0, 0, 0, 0, 
697, 1, 697, 697, 4146, 11.266086154747411, -2.5458960359696863, -1.8259280428098994, 1.6044169437333, Cpppa, 0, 0, 0, 0, , 0, 0, 0, 0, 0, 
46, 1, 46, 46, 4147, 8.51794643950038, 3.9519487225922005, -3.711545070521887, 1.84415740659, Eplp, 0, 0, 0, 0, , 0, 0, 0, 0, 0, 
600, 1, 600, 600, 4148, -4.027322405760864, 3.450021786276351, -6.1381389799882164, 1.546744658999103, ABalppapa, 0, 0, 0, 0, , 0, 0, 0, 0, 0, 
18, 1, 18, 18, 4149, 4.888705389340974, 4.964722143403475, 4.720951490632146, 1.4712937000235367, ABprpappp, 0, 0, 0, 0, , 0, 0, 0, 0, 0, 
622, 1, 622, 622, 4150, -7.320661426461798, -1.1420446991821211, -5.905470635317686, 1.546744658999103, ABalapaaa, 0, 0, 0, 0, , 0, 0, 0, 0, 0, 
83, 1, 83, 83, 4151, 1.084985535475746, -7.3944058522404434, -0.6094174535726554, 1.4712937000235367, ABplappap, 0, 0, 0, 0, , 0, 0, 0, 0, 0, 
392, 1, 392, 392, 4152, -4.7826033021238015, -2.337909461788364, -6.459482936810796, 1.546744658999103, ABalapapa, 0, 0, 0, 0, , 0, 0, 0, 0, 0, 
260, 1, 260, 260, 4153, -4.71918375007075, -5.106955455503219, 4.619597284255426, 1.546744658999103, ABarapapa, 0, 0, 0, 0, , 0, 0, 0, 0, 0, 
1415, 1, 1415, 1415, 4154, -4.294909412903595, -0.5566007877102296, 4.409759556027103, 1.395842741047971, MSpaaaa, 0, 0, 0, 0, , 0, 0, 0, 0, 0, 
65, 1, 65, 65, 4155, -5.215121821496309, -4.673866686084371, -4.888274831103447, 1.4712937000235367, ABplaaaap, 0, 0, 0, 0, , 0, 0, 0, 0, 0, 
484, 1, 484, 484, 4156, 8.506571231849486, 1.5020567906189097, 4.825452474296514, 1.4712937000235367, ABprpppaa, 0, 0, 0, 0, , 0, 0, 0, 0, 0, 
693, 1, 693, 693, 4157, -1.8961561454697164, -7.163285663316515, -1.6730469126372094, 1.4712937000235367, ABplappaa, 0, 0, 0, 0, , 0, 0, 0, 0, 0, 
12, 1, 12, 12, 4158, 3.357027323168646, -4.0454229976992595, 2.246081367832909, 1.4712937000235367, ABplapppp, 0, 0, 0, 0, , 0, 0, 0, 0, 0, 
56, 1, 56, 56, 4159, -5.208481363312487, -2.7152601484930194, 6.1927597966861985, 1.546744658999103, ABarapaap, 0, 0, 0, 0, , 0, 0, 0, 0, 0, 
30, 1, 30, 30, 4160, 2.367993949987774, -0.18641603642900667, 2.79459946353706, 1.4712937000235367, ABprapapp, 0, 0, 0, 0, , 0, 0, 0, 0, 0, 
280, 1, 280, 280, 4161, -7.887815724110696, -1.9173834254564583, 5.426823580990567, 1.546744658999103, ABaraapaa, 0, 0, 0, 0, , 0, 0, 0, 0, 0, 
716, 1, 716, 716, 4162, 4.450970980194019, -0.024775084536097124, 4.807718944513999, 1.4712937000235367, ABprppaaa, 0, 0, 0, 0, , 0, 0, 0, 0, 0, 
227, 1, 227, 227, 4163, -3.1180646512995045, -1.7528995435812809, -2.3791140314349466, 1.4712937000235367, ABplaappa, 0, 0, 0, 0, , 0, 0, 0, 0, 0, 
109, 1, 109, 109, 4164, -6.778402221956057, 2.8599873565601603, 2.7139321646488224, 1.395842741047971, MSaaaap, 0, 0, 0, 0, , 0, 0, 0, 0, 0, 
39, 1, 39, 39, 4165, -7.362374711305784, 2.3554445043827776, -0.14402005416363253, 1.546744658999103, ABarppapp, 0, 0, 0, 0, , 0, 0, 0, 0, 0, 
111, 1, 111, 111, 4166, 1.4071567961024416, 3.5703565644127897, 6.487742178668486, 1.395842741047971, MSpapap, 0, 0, 0, 0, , 0, 0, 0, 0, 0, 
64, 1, 64, 64, 4167, -10.21153787926858, 3.9507248732689577, 1.5411883389357135, 1.546744658999103, ABalpapap, 0, 0, 0, 0, , 0, 0, 0, 0, 0, 
87, 1, 87, 87, 4168, 7.3452930493395705, -4.362354016579834, -4.129591098539796, 1.4712937000235367, ABplpppap, 0, 0, 0, 0, , 0, 0, 0, 0, 0, 
130, 1, 130, 130, 4169, -1.3923720210040604, 6.666265878049621, -3.22802469182042, 1.395842741047971, MSapaap, 0, 0, 0, 0, , 0, 0, 0, 0, 0, 
63, 1, 63, 63, 4170, -3.5535465567149327, 3.7999214357345092, -1.563048527147194, 1.546744658999103, ABarpppap, 0, 0, 0, 0, , 0, 0, 0, 0, 0, 
1330, 1, 1330, 1330, 4171, -0.42590138785967624, -4.088467065512544, -6.220490676703868, 1.4712937000235367, ABplppaaa, 0, 0, 0, 0, , 0, 0, 0, 0, 0, 
461, 1, 461, 461, 4172, -7.788196204542025, -1.6829206968862613, 2.5685362671664618, 1.546744658999103, ABarpapaa, 0, 0, 0, 0, , 0, 0, 0, 0, 0, 
36, 1, 36, 36, 4173, 10.554882141541649, -0.30369343515171865, 3.9247310727724356, 1.4712937000235367, ABprppapp, 0, 0, 0, 0, , 0, 0, 0, 0, 0, 
2306, 1, 2306, 2306, 4174, 8.344262090249268, -5.484877672944079, 0.5654249054685764, 1.6044169437333, Cppaa, 0, 0, 0, 0, , 0, 0, 0, 0, 0, 
375, 1, 375, 375, 4175, -2.47977677540451, -5.482712100057341, -4.8127866163928, 1.4712937000235367, ABplaaapa, 0, 0, 0, 0, , 0, 0, 0, 0, 0, 
22, 1, 22, 22, -1, 11.603134249914122, 2.6591031183559726, 0.054624656595517775, 1.84415740659, Dpp, 0, 0, 0, 0, , 0, 0, 0, 0, 0, 
92, 1, 92, 92, 4176, 2.1226139730865556, -2.823363962568876, -6.772567411789821, 1.4712937000235367, ABplppaap, 0, 0, 0, 0, , 0, 0, 0, 0, 0, 
497, 1, 497, 497, 4177, -5.568079850499166, 0.31094213944705235, 1.8901038563495787, 1.546744658999103, ABarpappa, 0, 0, 0, 0, , 0, 0, 0, 0, 0, 
59, 1, 59, 59, 4178, 10.62995794328064, -3.8049517259930146, 0.6701666298908653, 1.6044169437333, Cppap, 0, 0, 0, 0, , 0, 0, 0, 0, 0, 
404, 1, 404, 404, 4179, 3.2973402612824216, 5.862846140391212, -4.148009822966553, 1.546744658999103, ABalppppa, 0, 0, 0, 0, , 0, 0, 0, 0, 0, 
62, 1, 62, 62, 4180, 7.565477055119062, -4.86310468378412, 3.357117662975585, 1.4712937000235367, ABprappap, 0, 0, 0, 0, , 0, 0, 0, 0, 0, 
269, 1, 269, 269, 4181, 0.9743095736957119, 0.5333696978644252, 5.622291638193392, 1.546744658999103, ABarapppa, 0, 0, 0, 0, , 0, 0, 0, 0, 0, 
67, 1, 67, 67, 4182, 3.030713927643436, -6.837138671985744, 2.3374720694660773, 1.4712937000235367, ABprapaap, 0, 0, 0, 0, , 0, 0, 0, 0, 0, 
10, 1, 10, 10, 4183, 1.4562005239638802, 2.4661812253306437, -6.969392174038535, 1.546744658999103, ABalapppp, 0, 0, 0, 0, , 0, 0, 0, 0, 0, 
249, 1, 249, 249, 4184, 2.6825817736947517, -6.670304191238899, -2.8859960631851176, 1.4712937000235367, ABplapapa, 0, 0, 0, 0, , 0, 0, 0, 0, 0, 
40, 1, 40, 40, 4185, 5.54506307365621, -6.161164765853075, -2.553843475532695, 1.4712937000235367, ABplapapp, 0, 0, 0, 0, , 0, 0, 0, 0, 0, 
250, 1, 250, 250, 4186, 3.9267143779689886, -7.056682156837365, -0.36113819338194136, 1.6044169437333, Cpaaa, 0, 0, 0, 0, , 0, 0, 0, 0, 0, 
53, 1, 53, 53, 4187, 5.863760626608409, -6.365575162282313, 1.6265225436950184, 1.6044169437333, Cpaap, 0, 0, 0, 0, , 0, 0, 0, 0, 0, 
816, 1, 816, 816, 4188, 6.275859018737738, -2.327443759371179, 3.1920056401848584, 1.4712937000235367, ABprapppa, 0, 0, 0, 0, , 0, 0, 0, 0, 0, 
35, 1, 35, 35, 4189, -3.8029369394114614, -4.228688628044131, -0.9802889870961462, 1.546744658999103, ABarpaapp, 0, 0, 0, 0, , 0, 0, 0, 0, 0, 
638, 1, 638, 638, 4190, 2.00378583443429, -5.186291681210332, -5.204089685164206, 1.4712937000235367, ABplapaaa, 0, 0, 0, 0, , 0, 0, 0, 0, 0, 
4, 1, 4, 4, 4191, 7.205537552796446, 6.058326543215432, -0.42491044557250623, 2.119721157, Z3, 0, 0, 0, 0, , 0, 0, 0, 0, 0, 
463, 1, 463, 463, 4192, 0.6577489842052976, 5.119401483413072, -5.403150192212484, 1.546744658999103, ABalpppaa, 0, 0, 0, 0, , 0, 0, 0, 0, 0, 
58, 1, 58, 58, 4193, 1.975488090149587, 0.9186844817585677, -4.595032383604746, 1.4712937000235367, ABplpapap, 0, 0, 0, 0, , 0, 0, 0, 0, 0, 
5, 1, 5, 5, 4194, 6.053921192748867, 5.3959812336548225, -3.651571541086599, 1.546744658999103, ABalppppp, 0, 0, 0, 0, , 0, 0, 0, 0, 0, 
29, 1, 29, 29, 4195, -2.530648283313316, -3.4654236832635186, 3.735592776236197, 1.546744658999103, ABarapapp, 0, 0, 0, 0, , 0, 0, 0, 0, 0, 
60, 1, 60, 60, 4196, 9.753548151041402, 4.468423109811693, -1.1655261261306882, 2.119721157, Z2, 0, 0, 0, 0, , 0, 0, 0, 0, 0, 
37, 1, 37, 37, 4197, -2.028824747625748, 4.007383640639897, -3.964403974786833, 1.546744658999103, ABalppapp, 0, 0, 0, 0, , 0, 0, 0, 0, 0, 
2, 1, 2, 2, 4198, -2.661524580732159, 5.153476420881511, 3.218208931587214, 1.546744658999103, ABarppppp, 0, 0, 0, 0, , 0, 0, 0, 0, 0, 
11, 1, 11, 11, 4199, 6.561506639094371, 0.4809978130272149, 2.972492510671578, 1.4712937000235367, ABprapppp, 0, 0, 0, 0, , 0, 0, 0, 0, 0, 
91, 1, 91, 91, 4200, 7.663051259830991, 4.15947881596204, 4.138790400502565, 1.4712937000235367, ABprpppap, 0, 0, 0, 0, , 0, 0, 0, 0, 0, 
325, 1, 325, 325, 4201, 0.28353982033008135, -1.3587210390593205, -5.126594108441207, 1.4712937000235367, ABplpapaa, 0, 0, 0, 0, , 0, 0, 0, 0, 0, 
336, 1, 336, 336, 4202, -7.374102177002628, -3.1880954245007027, 0.06819566369294945, 1.4712937000235367, ABplaapaa, 0, 0, 0, 0, , 0, 0, 0, 0, 0, 
9, 1, 9, 9, 4203, 3.1668733352635567, -1.1652541629694093, 7.1127738788526775, 1.546744658999103, ABarapppp, 0, 0, 0, 0, , 0, 0, 0, 0, 0, 
44, 1, 44, 44, 4204, -2.0467675225619817, -1.9234861119442443, -7.0899946799581235, 1.546744658999103, ABalapapp, 0, 0, 0, 0, , 0, 0, 0, 0, 0, 
75, 1, 75, 75, 4205, 2.6735316205675965, -0.08419614197608889, -7.275845403688106, 1.4712937000235367, ABplpaaap, 0, 0, 0, 0, , 0, 0, 0, 0, 0, 
210, 1, 210, 210, 4206, 2.604511756627937, -1.3476041045250833, -1.081805337280349, 1.6044169437333, Caaaa, 0, 0, 0, 0, , 0, 0, 0, 0, 0, 
1418, 1, 1418, 1418, 4207, -5.792382125759544, 1.203625380209938, -6.479993974492628, 1.546744658999103, ABalppaaa, 0, 0, 0, 0, , 0, 0, 0, 0, 0, 
2479, 1, 2479, 2479, 4208, -4.832432473883219, 4.669486426835026, 5.0346252195433925, 1.395842741047971, MSaappa, 0, 0, 0, 0, , 0, 0, 0, 0, 0, 
3078, 1, 3078, 3078, 4209, -2.7730197997545183, 2.9901880425126275, 1.3753467648947657, 1.395842741047971, MSppaaa, 0, 0, 0, 0, , 0, 0, 0, 0, 0, 
3119, 1, 3119, 3119, 4210, -3.8818595701991008, 6.831602265953216, -1.823849971328067, 1.395842741047971, MSapaaa, 0, 0, 0, 0, , 0, 0, 0, 0, 0, 
988, 1, 988, 988, 4211, 1.0636045264425835, -2.4228343415545295, 1.4756831593774729, 1.4712937000235367, ABplapppa, 0, 0, 0, 0, , 0, 0, 0, 0, 0, 
1567, 1, 1567, 1567, 4212, -6.8690430283141595, 2.742018247744602, 5.564702114032426, 1.395842741047971, MSaaapa, 0, 0, 0, 0, , 0, 0, 0, 0, 0, 
503, 1, 503, 503, 4213, -7.826984483540302, -5.357408128686273, -2.1722960683561143, 1.4712937000235367, ABplaaaaa, 0, 0, 0, 0, , 0, 0, 0, 0, 0, 
88, 1, 88, 88, 4214, -3.0083709895489585, 0.9434126171415692, -7.122926947891293, 1.546744658999103, ABalppaap, 0, 0, 0, 0, , 0, 0, 0, 0, 0, 
148, 1, 148, 148, 4215, 0.744407984213281, 4.5272094288757, -2.654599324791229, 1.84415740659, Eala, 0, 0, 0, 0, , 0, 0, 0, 0, 0, 
2598, 1, 2598, 2598, 4216, -0.1720887635593723, 4.959604779161455, 4.5294380353969705, 1.395842741047971, MSpappa, 0, 0, 0, 0, , 0, 0, 0, 0, 0, 
352, 1, 352, 352, 4217, -9.906612298235611, -4.508920148280513, -0.06447755019488689, 1.546744658999103, ABaraaapa, 0, 0, 0, 0, , 0, 0, 0, 0, 0, 
19, 1, 19, 19, 4218, 0.3528351217365506, 0.6997655409128787, 0.8853388436168128, 1.4712937000235367, ABpraappp, 0, 0, 0, 0, , 0, 0, 0, 0, 0, 
16, 1, 16, 16, 4219, -3.550072585133812, 0.7560301140794806, -0.2237398145039786, 1.546744658999103, ABarpappp, 0, 0, 0, 0, , 0, 0, 0, 0, 0, 
79, 1, 79, 79, 4220, 7.048227434118981, 0.21667652086229047, -3.2979797994838425, 1.6044169437333, Capap, 0, 0, 0, 0, , 0, 0, 0, 0, 0, 
28, 1, 28, 28, 4221, 6.045090991465066, -4.008613622149597, -0.05952947306973707, 1.6044169437333, Cpapp, 0, 0, 0, 0, , 0, 0, 0, 0, 0, 
1053, 1, 1053, 1053, 4222, -7.776039298682991, -5.596968130851727, 1.5361218055464638, 1.546744658999103, ABarpaaaa, 0, 0, 0, 0, , 0, 0, 0, 0, 0, 
1279, 1, 1279, 1279, 4223, -10.737965574263105, 1.4308152746959835, -3.4694450679017637, 1.546744658999103, ABalaapaa, 0, 0, 0, 0, , 0, 0, 0, 0, 0, 
1504, 1, 1504, 1504, 4224, 6.84472602053844, -0.2782759916853704, 0.15265978602899033, 1.6044169437333, Cappa, 0, 0, 0, 0, , 0, 0, 0, 0, 0, 
1178, 1, 1178, 1178, 4225, -11.366504155548604, -1.2638581707764034, 2.727210970745032, 1.546744658999103, ABaraaaaa, 0, 0, 0, 0, , 0, 0, 0, 0, 0, 
150, 1, 150, 150, -1, 9.27165285262074, 1.6696898835942084, -2.1660586412401517, 1.84415740659, Daa, 0, 0, 0, 0, , 0, 0, 0, 0, 0, 
71, 1, 71, 71, 4226, -8.763753151577692, 0.9492110432599044, 1.9679972633934735, 1.546744658999103, ABarppaap, 0, 0, 0, 0, , 0, 0, 0, 0, 0, 
82, 1, 82, 82, 4227, -9.050643609344078, 5.012724128091112, -0.9456856989132449, 1.546744658999103, ABalpaaap, 0, 0, 0, 0, , 0, 0, 0, 0, 0, 
69, 1, 69, 69, 4228, -8.50177333307501, 1.3764975961027506, -5.259134862301979, 1.546744658999103, ABalapaap, 0, 0, 0, 0, , 0, 0, 0, 0, 0, 
615, 1, 615, 615, 4229, 7.524824579723785, -2.25089039167846, -1.8710441859153055, 1.4712937000235367, ABplppppa, 0, 0, 0, 0, , 0, 0, 0, 0, 0, 
112, 1, 112, 112, 4230, -1.8961788827607202, -0.7233504435537077, 2.7946141720582487, 1.395842741047971, MSpaaap, 0, 0, 0, 0, , 0, 0, 0, 0, 0, 
689, 1, 689, 689, 4231, -2.4417389950044894, -6.403367932937011, 3.510665580729566, 1.4712937000235367, ABpraaaaa, 0, 0, 0, 0, , 0, 0, 0, 0, 0, 
38, 1, 38, 38, 4232, -0.029562162589189436, -6.462255731274657, -3.7067148485845856, 1.4712937000235367, ABpraaapp, 0, 0, 0, 0, , 0, 0, 0, 0, 0, 
3451, 1, 3451, 3451, 4233, 1.596903407485956, 3.6330512700706517, 1.052405216350178, 1.395842741047971, MSpppaa, 0, 0, 0, 0, , 0, 0, 0, 0, 0, 
292, 1, 292, 292, 4234, -5.086830950348615, -2.6532623680339134, 2.5974719860816835, 1.4712937000235367, ABpraapaa, 0, 0, 0, 0, , 0, 0, 0, 0, 0, 
619, 1, 619, 619, 4235, -11.86170872303738, 1.4389722012959247, 1.7018546416526257, 1.546744658999103, ABarppaaa, 0, 0, 0, 0, , 0, 0, 0, 0, 0, 
439, 1, 439, 439, 4236, 9.115782436503714, 1.4749221525454117, 0.6687956437845726, 1.4712937000235367, ABprppppa, 0, 0, 0, 0, , 0, 0, 0, 0, 0, 
1047, 1, 1047, 1047, 4237, -7.820574808414159, 5.534181003986623, 1.698297429169319, 1.395842741047971, MSaapaa, 0, 0, 0, 0, , 0, 0, 0, 0, 0, 
13, 1, 13, 13, 4238, 1.9544478440685424, 7.279048752937355, 0.7649971418064121, 1.395842741047971, MSapppp, 0, 0, 0, 0, , 0, 0, 0, 0, 0, 
116, 1, 116, 116, 4239, -5.228198951084204, 6.214173476626857, 2.663939128922556, 1.395842741047971, MSaapap, 0, 0, 0, 0, , 0, 0, 0, 0, 0, 
165, 1, 165, 165, 4240, 9.518496774519617, -2.5193388570852466, -4.075817914644959, 1.84415740659, Epra, 0, 0, 0, 0, , 0, 0, 0, 0, 0, 
70, 1, 70, 70, 4241, 3.7835319411633295, 3.7873105191569585, -6.010014912057884, 1.546744658999103, ABalpppap, 0, 0, 0, 0, , 0, 0, 0, 0, 0, 
293, 1, 293, 293, 4242, -5.870845153857862, -6.554905113614567, -0.36178324861052474, 1.546744658999103, ABarpaapa, 0, 0, 0, 0, , 0, 0, 0, 0, 0, 
364, 1, 364, 364, 4243, 4.878171222520337, -5.455653791022882, 4.145712126331923, 1.4712937000235367, ABprappaa, 0, 0, 0, 0, , 0, 0, 0, 0, 0, 
128, 1, 128, 128, 4244, -0.6005377646329614, 6.993759738747044, 2.5253721388152544, 1.6044169437333, MSappa, 0, 0, 0, 0, , 0, 0, 0, 0, 0, 
256, 1, 256, 256, 4245, 0.2824788947805697, -1.9949075591075502, 4.232499442327857, 1.4712937000235367, ABprapapa, 0, 0, 0, 0, , 0, 0, 0, 0, 0, 
27, 1, 27, 27, 4246, 6.914760940438923, 2.968927997061305, 1.629620234086137, 1.6044169437333, Caapp, 0, 0, 0, 0, , 0, 0, 0, 0, 0, 
124, 1, 124, 124, 4247, 4.166705540618396, 3.402842993992972, 2.1496617510064997, 1.395842741047971, MSpppap, 0, 0, 0, 0, , 0, 0, 0, 0, 0, 
47, 1, 47, 47, 4248, 0.07226389920980965, 2.352192828879507, 3.267745597708459, 1.395842741047971, MSpaapp, 0, 0, 0, 0, , 0, 0, 0, 0, 0, 
21, 1, 21, 21, 4249, 0.323899359103039, -3.822799856452058, -0.9746878969651591, 1.4712937000235367, ABplaappp, 0, 0, 0, 0, , 0, 0, 0, 0, 0, 
123, 1, 123, 123, 4250, -0.7749486930680087, 4.0107947283243055, -0.37070263755597893, 1.395842741047971, MSppaap, 0, 0, 0, 0, , 0, 0, 0, 0, 0, 
360, 1, 360, 360, 4251, 2.772756844013301, 2.295725363452927, 4.328930015454739, 1.4712937000235367, ABprpappa, 0, 0, 0, 0, , 0, 0, 0, 0, 0, 
24, 1, 24, 24, 4252, 4.038086707621377, -1.0149145957128418, -4.014600540412232, 1.4712937000235367, ABplpappp, 0, 0, 0, 0, , 0, 0, 0, 0, 0, 
660, 1, 660, 660, 4253, 4.792886505694754, -1.8502569787388954, -6.617197710987222, 1.4712937000235367, ABplppapa, 0, 0, 0, 0, , 0, 0, 0, 0, 0, 
8, 1, 8, 8, 4254, 12.386667706412323, -0.31310372847578954, 0.4237383247597521, 1.6044169437333, Cpppp, 0, 0, 0, 0, , 0, 0, 0, 0, 0, 
647, 1, 647, 647, 4255, 3.108719343552754, -2.5265281059849882, 4.625859304973975, 1.4712937000235367, ABprpaapa, 0, 0, 0, 0, , 0, 0, 0, 0, 0, 
1307, 1, 1307, 1307, 4256, -9.304490382133373, 2.852440357009946, 4.040347118418398, 1.395842741047971, MSaaaaa, 0, 0, 0, 0, , 0, 0, 0, 0, 0, 
