2637, 1, 2637, 2637, 4823, 2.906268157343604, 3.6543157421555947, -1.5876829091251494, 1.395842741047971, MSppapa, 0, 0, 0, 0, , 0, 0, 0, 0, 0, 
622, 1, 622, 622, 4824, -7.542113054577515, -1.5578431000076043, -5.7085117326786445, 1.546744658999103, ABalapaaa, 0, 0, 0, 0, , 0, 0, 0, 0, 0, 
36, 1, 36, 36, 4825, 10.55761972132685, -0.15945209307010227, 3.921707845456781, 1.4712937000235367, ABprppapp, 0, 0, 0, 0, , 0, 0, 0, 0, 0, 
1, 1, 1, 1, 4826, 8.661812026796317, 5.053203492726319, 1.7413572386900211, 1.4712937000235367, ABprppppp, 0, 0, 0, 0, , 0, 0, 0, 0, 0, 
31, 1, 31, 31, 4827, -1.1449564840908744, -3.457523515079006, -3.3373844364299443, 1.4712937000235367, ABplaaapp, 0, 0, 0, 0, , 0, 0, 0, 0, 0, 
73, 1, 73, 73, 4828, -1.392433126149526, -7.35268263613993, 0.8227947315744428, 1.4712937000235367, ABpraaaap, 0, 0, 0, 0, , 0, 0, 0, 0, 0, 
15, 1, 15, 15, 4829, 9.749037515814443, -1.6642149467077911, 1.6368214487766242, 1.6044169437333, Cappp, 0, 0, 0, 0, , 0, 0, 0, 0, 0, 
80, 1, 80, 80, 4830, -4.891091906291514, -1.9746679049708316, -0.1401380611284083, 1.546744658999103, ABarpapap, 0, 0, 0, 0, , 0, 0, 0, 0, 0, 
615, 1, 615, 615, 4831, 7.571584575700086, -2.338559254128663, -1.528307684872489, 1.4712937000235367, ABplppppa, 0, 0, 0, 0, , 0, 0, 0, 0, 0, 
598, 1, 598, 598, 4832, 9.182793434972366, -2.92980093117763, 4.072872505487993, 1.4712937000235367, ABprppapa, 0, 0, 0, 0, , 0, 0, 0, 0, 0, 
44, 1, 44, 44, 4833, -1.9808033650600918, -2.2618313531381125, -6.996386611194841, 1.546744658999103, ABalapapp, 0, 0, 0, 0, , 0, 0, 0, 0, 0, 
360, 1, 360, 360, 4834, 2.4186615575716166, 2.230744629856192, 4.433958110710865, 1.4712937000235367, ABprpappa, 0, 0, 0, 0, , 0, 0, 0, 0, 0, 
64, 1, 64, 64, 4835, -10.267082681576353, 3.9286687424886417, 1.4907117189591936, 1.546744658999103, ABalpapap, 0, 0, 0, 0, , 0, 0, 0, 0, 0, 
2760, 1, 2760, 2760, 4836, 4.435576942892467, 0.6163155084432766, -2.275185866377566, 1.6044169437333, Capaa, 0, 0, 0, 0, , 0, 0, 0, 0, 0, 
25, 1, 25, 25, 4837, 2.297588754072569, 5.556522725985007, 4.756726802782281, 1.395842741047971, MSpappp, 0, 0, 0, 0, , 0, 0, 0, 0, 0, 
3, 1, 3, 3, 4838, 5.325266006054739, 6.496388492592211, 1.7998420840634988, 1.395842741047971, MSppppp, 0, 0, 0, 0, , 0, 0, 0, 0, 0, 
1195, 1, 1195, 1195, 4839, -1.0730002595787282, 1.4063854620669864, 7.285274791006579, 1.395842741047971, MSpapaa, 0, 0, 0, 0, , 0, 0, 0, 0, 0, 
60, 1, 60, 60, 4840, 9.35598656628148, 4.803681193202705, -0.9783502181922086, 2.119721157, Z2, 0, 0, 0, 0, , 0, 0, 0, 0, 0, 
638, 1, 638, 638, 4841, 1.9486442708739982, -5.201005511375535, -5.197594477863627, 1.4712937000235367, ABplapaaa, 0, 0, 0, 0, , 0, 0, 0, 0, 0, 
53, 1, 53, 53, 4842, 5.569831470808531, -6.425809627547467, 1.7341971571649364, 1.6044169437333, Cpaap, 0, 0, 0, 0, , 0, 0, 0, 0, 0, 
22, 1, 22, 22, 4843, 11.674755892995883, 3.076443464975484, -0.015141942667914103, 1.6044169437333, Dppp, 0, 0, 0, 0, , 0, 0, 0, 0, 0, 
392, 1, 392, 392, 4844, -4.812054697226988, -1.9582439910418723, -6.578016051538657, 1.546744658999103, ABalapapa, 0, 0, 0, 0, , 0, 0, 0, 0, 0, 
1504, 1, 1504, 1504, 4845, 6.270838708415142, -0.5823099230614056, 0.2612490332795902, 1.6044169437333, Cappa, 0, 0, 0, 0, , 0, 0, 0, 0, 0, 
24, 1, 24, 24, 4846, 3.2555821869070827, -1.0318237404893533, -4.24429549490194, 1.4712937000235367, ABplpappp, 0, 0, 0, 0, , 0, 0, 0, 0, 0, 
375, 1, 375, 375, 4847, -2.8107581496162894, -5.671535357021246, -4.52974213495702, 1.4712937000235367, ABplaaapa, 0, 0, 0, 0, , 0, 0, 0, 0, 0, 
269, 1, 269, 269, 4848, 0.7802922028828682, 0.2024586122881357, 5.472838344932607, 1.546744658999103, ABarapppa, 0, 0, 0, 0, , 0, 0, 0, 0, 0, 
91, 1, 91, 91, 4849, 7.690522643339593, 4.07530461568527, 4.191110592490812, 1.4712937000235367, ABprpppap, 0, 0, 0, 0, , 0, 0, 0, 0, 0, 
4410, 1, 4410, 4410, 4850, 9.810728006919494, 1.0517238569950025, -3.013067538008164, 1.6044169437333, Dapa, 0, 0, 0, 0, , 0, 0, 0, 0, 0, 
38, 1, 38, 38, 4851, -0.1958746131334841, -6.452654044790186, -3.724570217650925, 1.4712937000235367, ABpraaapp, 0, 0, 0, 0, , 0, 0, 0, 0, 0, 
65, 1, 65, 65, 4852, -5.256754039275795, -4.395061757676422, -5.126637010581957, 1.4712937000235367, ABplaaaap, 0, 0, 0, 0, , 0, 0, 0, 0, 0, 
27, 1, 27, 27, 4853, 7.046164512836522, 2.7588511238028928, 1.602879613334601, 1.6044169437333, Caapp, 0, 0, 0, 0, , 0, 0, 0, 0, 0, 
78, 1, 78, 78, 4854, 6.050644655937958, 2.4423300711798195, 6.0275619818982324, 1.4712937000235367, ABprpapap, 0, 0, 0, 0, , 0, 0, 0, 0, 0, 
808, 1, 808, 808, 4855, 4.733462733729584, -2.986804728223621, -2.834141059726011, 1.4712937000235367, ABplpppaa, 0, 0, 0, 0, , 0, 0, 0, 0, 0, 
14, 1, 14, 14, 4856, 1.5240129691741384, 1.1768231728600982, -1.6202647580460747, 1.84415740659, Earp, 0, 0, 0, 0, , 0, 0, 0, 0, 0, 
231, 1, 231, 231, 4857, -6.702793028365933, 6.232937474929738, -0.6795736225798368, 1.546744658999103, ABalpappa, 0, 0, 0, 0, , 0, 0, 0, 0, 0, 
716, 1, 716, 716, 4858, 4.459034170240145, 0.1272428912278426, 4.7353126750207375, 1.4712937000235367, ABprppaaa, 0, 0, 0, 0, , 0, 0, 0, 0, 0, 
93, 1, 93, 93, 4859, -11.826735574032657, -2.2730303508784133, 0.3016031146432077, 1.546744658999103, ABalaaaar, 0, 0, 0, 0, , 0, 0, 0, 0, 0, 
12, 1, 12, 12, 4860, 2.7773398368016924, -4.221585398766916, 2.5012180703807827, 1.4712937000235367, ABplapppp, 0, 0, 0, 0, , 0, 0, 0, 0, 0, 
74, 1, 74, 74, 4861, -9.622218784331952, 0.16789311307089697, 4.704704845469007, 1.546744658999103, ABaraaaap, 0, 0, 0, 0, , 0, 0, 0, 0, 0, 
1415, 1, 1415, 1415, 4862, -4.3923899411246055, -0.27535926578306075, 4.528000197575303, 1.395842741047971, MSpaaaa, 0, 0, 0, 0, , 0, 0, 0, 0, 0, 
336, 1, 336, 336, 4863, -7.438877926986658, -3.2115052072773373, -0.14435950835888364, 1.4712937000235367, ABplaapaa, 0, 0, 0, 0, , 0, 0, 0, 0, 0, 
28, 1, 28, 28, 4864, 5.7888148401117405, -4.313610548657834, -0.5593528270082104, 1.6044169437333, Cpapp, 0, 0, 0, 0, , 0, 0, 0, 0, 0, 
397, 1, 397, 397, 4865, -3.397506758446799, -0.7906896138071976, 7.126496266032524, 1.546744658999103, ABaraappa, 0, 0, 0, 0, , 0, 0, 0, 0, 0, 
1047, 1, 1047, 1047, 4866, -7.849979044709103, 5.462658213784766, 1.856588056271172, 1.395842741047971, MSaapaa, 0, 0, 0, 0, , 0, 0, 0, 0, 0, 
287, 1, 287, 287, 4867, 1.6773000331966488, -3.1618399221013496, -3.2554433849846522, 1.4712937000235367, ABplpappa, 0, 0, 0, 0, , 0, 0, 0, 0, 0, 
439, 1, 439, 439, 4868, 8.701793701417802, 0.7158443250530192, 0.5918687982245485, 1.4712937000235367, ABprppppa, 0, 0, 0, 0, , 0, 0, 0, 0, 0, 
34, 1, 34, 34, 4869, -4.875116655967394, 4.926492295441006, -4.75684705131125, 1.546744658999103, ABalpaapp, 0, 0, 0, 0, , 0, 0, 0, 0, 0, 
260, 1, 260, 260, 4870, -4.5804110530938535, -5.083679210760127, 4.704385899295247, 1.546744658999103, ABarapapa, 0, 0, 0, 0, , 0, 0, 0, 0, 0, 
58, 1, 58, 58, 4871, 1.539011996580624, 1.2303757331080578, -4.460386233319675, 1.4712937000235367, ABplpapap, 0, 0, 0, 0, , 0, 0, 0, 0, 0, 
660, 1, 660, 660, 4872, 4.080592395486269, -2.1517805589797376, -6.6973074255073906, 1.4712937000235367, ABplppapa, 0, 0, 0, 0, , 0, 0, 0, 0, 0, 
26, 1, 26, 26, 4873, -2.5393581804598004, 3.6383237099499888, 6.319593639715245, 1.395842741047971, MSaappp, 0, 0, 0, 0, , 0, 0, 0, 0, 0, 
30, 1, 30, 30, 4874, 2.237885052275332, -0.1575155766573939, 2.8554287978205437, 1.4712937000235367, ABprapapp, 0, 0, 0, 0, , 0, 0, 0, 0, 0, 
46, 1, 46, 46, 4875, 7.575380565357975, 4.275359995275055, -4.071863742691593, 1.84415740659, Eplp, 0, 0, 0, 0, , 0, 0, 0, 0, 0, 
40, 1, 40, 40, 4876, 5.352603965964193, -6.0907031953688575, -2.8382840142232775, 1.4712937000235367, ABplapapp, 0, 0, 0, 0, , 0, 0, 0, 0, 0, 
3876, 1, 3876, 3876, 4877, 3.1790107641931282, 4.714392281635575, 2.216837286322692, 1.395842741047971, MSppppa, 0, 0, 0, 0, , 0, 0, 0, 0, 0, 
320, 1, 320, 320, 4878, -4.887189715122499, -6.283048412984657, -2.7187656740352875, 1.4712937000235367, ABpraaapa, 0, 0, 0, 0, , 0, 0, 0, 0, 0, 
35, 1, 35, 35, 4879, -3.4230061927007123, -4.322052046466751, -1.1093391787173434, 1.546744658999103, ABarpaapp, 0, 0, 0, 0, , 0, 0, 0, 0, 0, 
109, 1, 109, 109, 4880, -6.563294460698974, 2.681336806715356, 2.807438158621207, 1.395842741047971, MSaaaap, 0, 0, 0, 0, , 0, 0, 0, 0, 0, 
761, 1, 761, 761, 4881, -9.150990941394946, 3.6577368801515915, -3.463094929373827, 1.546744658999103, ABalpaaaa, 0, 0, 0, 0, , 0, 0, 0, 0, 0, 
8, 1, 8, 8, 4882, 12.30117960907152, -0.15837389063387505, 1.0298066992127783, 1.6044169437333, Cpppp, 0, 0, 0, 0, , 0, 0, 0, 0, 0, 
9, 1, 9, 9, 4883, 2.8624757278353097, -1.1405796492248095, 7.162935935345084, 1.546744658999103, ABarapppp, 0, 0, 0, 0, , 0, 0, 0, 0, 0, 
344, 1, 344, 344, 4884, -2.49550234329492, -3.3795737173645413, 6.467242970102786, 1.546744658999103, ABarappaa, 0, 0, 0, 0, , 0, 0, 0, 0, 0, 
988, 1, 988, 988, 4885, 0.837359464448201, -2.4021230084033194, 1.55125683585993, 1.4712937000235367, ABplapppa, 0, 0, 0, 0, , 0, 0, 0, 0, 0, 
1178, 1, 1178, 1178, 4886, -11.226317586942779, -1.3043395499127857, 2.903129312577695, 1.546744658999103, ABaraaaaa, 0, 0, 0, 0, , 0, 0, 0, 0, 0, 
150, 1, 150, 150, -1, 8.12342450633438, 2.7294935996966383, -1.9460198161128857, 1.84415740659, Daa, 0, 0, 0, 0, , 0, 0, 0, 0, 0, 
66, 1, 66, 66, 4887, 1.2357581839642096, -3.3879015895406575, 6.596395696905734, 1.546744658999103, ABarappap, 0, 0, 0, 0, , 0, 0, 0, 0, 0, 
693, 1, 693, 693, 4888, -2.269605529978251, -7.0817673496397315, -1.874972455938316, 1.4712937000235367, ABplappaa, 0, 0, 0, 0, , 0, 0, 0, 0, 0, 
2196, 1, 2196, 2196, 4889, -2.39531251952107, 1.7008025270221803, 4.250919734699596, 1.395842741047971, MSpaapa, 0, 0, 0, 0, , 0, 0, 0, 0, 0, 
330, 1, 330, 330, 4890, -7.251832258062532, -4.6273118790453225, 3.892268041903357, 1.546744658999103, ABarapaaa, 0, 0, 0, 0, , 0, 0, 0, 0, 0, 
37, 1, 37, 37, 4891, -2.100619087306714, 3.3998821585555152, -3.9261634463619814, 1.546744658999103, ABalppapp, 0, 0, 0, 0, , 0, 0, 0, 0, 0, 
61, 1, 61, 61, 4892, -4.335584446785312, -4.835248314632181, 1.8184158043004637, 1.546744658999103, ABarpaaap, 0, 0, 0, 0, , 0, 0, 0, 0, 0, 
55, 1, 55, 55, 4893, -5.682563522492675, -2.8024749140346454, -2.769146621068936, 1.4712937000235367, ABplaapap, 0, 0, 0, 0, , 0, 0, 0, 0, 0, 
11, 1, 11, 11, 4894, 6.847435205796312, 0.41121116838953253, 3.22039510244423, 1.4712937000235367, ABprapppp, 0, 0, 0, 0, , 0, 0, 0, 0, 0, 
123, 1, 123, 123, 4895, -1.065527470328848, 4.629457573347827, -0.4117617666144276, 1.395842741047971, MSppaap, 0, 0, 0, 0, , 0, 0, 0, 0, 0, 
87, 1, 87, 87, 4896, 7.2458107932467986, -4.42347742707771, -4.127849832283601, 1.4712937000235367, ABplpppap, 0, 0, 0, 0, , 0, 0, 0, 0, 0, 
75, 1, 75, 75, 4897, 2.482569452019227, 0.051940508480603005, -7.294666740834954, 1.4712937000235367, ABplpaaap, 0, 0, 0, 0, , 0, 0, 0, 0, 0, 
241, 1, 241, 241, 4898, -1.5812148143514289, -1.7236254249396756, 0.0759035263492087, 1.4712937000235367, ABpraappa, 0, 0, 0, 0, , 0, 0, 0, 0, 0, 
56, 1, 56, 56, 4899, -5.236685331002227, -2.7474678735237195, 6.1752771152044375, 1.546744658999103, ABarapaap, 0, 0, 0, 0, , 0, 0, 0, 0, 0, 
600, 1, 600, 600, 4900, -4.156581576920007, 2.7846764950799225, -6.437478169093866, 1.546744658999103, ABalppapa, 0, 0, 0, 0, , 0, 0, 0, 0, 0, 
816, 1, 816, 816, 4901, 6.3528298320263925, -2.3842329820044323, 3.384673969608382, 1.4712937000235367, ABprapppa, 0, 0, 0, 0, , 0, 0, 0, 0, 0, 
6, 1, 6, 6, 4902, 9.02621239992553, -4.7263673648758635, -1.9794777248367579, 1.4712937000235367, ABplppppp, 0, 0, 0, 0, , 0, 0, 0, 0, 0, 
76, 1, 76, 76, 4903, -6.591049900285867, -0.27563724624788416, 6.303758941970782, 1.546744658999103, ABaraapap, 0, 0, 0, 0, , 0, 0, 0, 0, 0, 
67, 1, 67, 67, 4904, 2.8158736798234387, -6.976243391587752, 2.0090644177864143, 1.4712937000235367, ABprapaap, 0, 0, 0, 0, , 0, 0, 0, 0, 0, 
57, 1, 57, 57, 4905, -1.613708849995649, -4.325216943383043, 1.1894140401787676, 1.4712937000235367, ABpraapap, 0, 0, 0, 0, , 0, 0, 0, 0, 0, 
499, 1, 499, 499, 4906, -0.7076048033069553, -5.21826571530971, 5.294231083269919, 1.4712937000235367, ABprpaaaa, 0, 0, 0, 0, , 0, 0, 0, 0, 0, 
4621, 1, 4621, 4621, 4907, 10.293825893505332, 2.146474802253688, -0.33143658093102, 1.6044169437333, Dppa, 0, 0, 0, 0, , 0, 0, 0, 0, 0, 
240, 1, 240, 240, 4908, 2.9559570772958637, -4.399871861309503, -0.5421421962684028, 1.6044169437333, Cpapa, 0, 0, 0, 0, , 0, 0, 0, 0, 0, 
619, 1, 619, 619, 4909, -11.785017768948448, 1.4191296453581077, 1.873041348617375, 1.546744658999103, ABarppaaa, 0, 0, 0, 0, , 0, 0, 0, 0, 0, 
79, 1, 79, 79, 4910, 7.094318118197934, 0.0032459769614664236, -3.031986761005983, 1.6044169437333, Capap, 0, 0, 0, 0, , 0, 0, 0, 0, 0, 
69, 1, 69, 69, 4911, -8.798323387501137, 0.9403888485613909, -5.178769065209497, 1.546744658999103, ABalapaap, 0, 0, 0, 0, , 0, 0, 0, 0, 0, 
41, 1, 41, 41, 4912, 5.384019933789473, -3.0788075461669004, 5.961095204453472, 1.4712937000235367, ABprpaapp, 0, 0, 0, 0, , 0, 0, 0, 0, 0, 
10, 1, 10, 10, 4913, 1.3840336814441412, 2.6016648602441053, -6.9239350111096964, 1.546744658999103, ABalapppp, 0, 0, 0, 0, , 0, 0, 0, 0, 0, 
71, 1, 71, 71, 4914, -8.728304934658986, 1.0291067432412215, 1.9283445387982536, 1.546744658999103, ABarppaap, 0, 0, 0, 0, , 0, 0, 0, 0, 0, 
3969, 1, 3969, 3969, 4915, -0.046826891664228196, 7.435332726361702, 0.502891395547347, 1.395842741047971, MSapppa, 0, 0, 0, 0, , 0, 0, 0, 0, 0, 
86, 1, 86, 86, 4916, 2.0841201868173784, -5.486236344482681, 4.891483801208001, 1.4712937000235367, ABprpaaap, 0, 0, 0, 0, , 0, 0, 0, 0, 0, 
116, 1, 116, 116, 4917, -5.228770025966734, 6.13315892370174, 2.8409598337572355, 1.395842741047971, MSaapap, 0, 0, 0, 0, , 0, 0, 0, 0, 0, 
2306, 1, 2306, 2306, 4918, 8.005907024438656, -5.668110277517614, 0.547037283222694, 1.6044169437333, Cppaa, 0, 0, 0, 0, , 0, 0, 0, 0, 0, 
1501, 1, 1501, 1501, 4919, -11.674052709064654, -1.104328401825762, -2.2851759541318986, 1.546744658999103, ABalaaaal, 0, 0, 0, 0, , 0, 0, 0, 0, 0, 
498, 1, 498, 498, 4920, -6.492160681369355, 4.106189655136864, -2.5568059949931157, 1.546744658999103, ABarpppaa, 0, 0, 0, 0, , 0, 0, 0, 0, 0, 
1279, 1, 1279, 1279, 4921, -10.877444027824243, 1.4170798157183666, -3.30632403774644, 1.546744658999103, ABalaapaa, 0, 0, 0, 0, , 0, 0, 0, 0, 0, 
249, 1, 249, 249, 4922, 2.495498776990688, -6.702290914203338, -2.88235511819092, 1.4712937000235367, ABplapapa, 0, 0, 0, 0, , 0, 0, 0, 0, 0, 
39, 1, 39, 39, 4923, -7.565474345764598, 2.599629317078904, -0.2251212853762841, 1.546744658999103, ABarppapp, 0, 0, 0, 0, , 0, 0, 0, 0, 0, 
3078, 1, 3078, 3078, 4924, -2.4368768640640126, 2.511354846102834, 0.9069668097224021, 1.395842741047971, MSppaaa, 0, 0, 0, 0, , 0, 0, 0, 0, 0, 
503, 1, 503, 503, 4925, -7.593327476759432, -5.5989820722336106, -1.8302604623574172, 1.4712937000235367, ABplaaaaa, 0, 0, 0, 0, , 0, 0, 0, 0, 0, 
4, 1, 4, 4, 4926, 6.9764897145739635, 6.144805389309274, -0.4630302892746272, 2.119721157, Z3, 0, 0, 0, 0, , 0, 0, 0, 0, 0, 
497, 1, 497, 497, 4927, -5.471403275813371, 0.3567193915198348, 1.5575826900852496, 1.546744658999103, ABarpappa, 0, 0, 0, 0, , 0, 0, 0, 0, 0, 
42, 1, 42, 42, 4928, 6.721725827994683, -1.5399926098819716, -6.069144097367275, 1.4712937000235367, ABplppapp, 0, 0, 0, 0, , 0, 0, 0, 0, 0, 
500, 1, 500, 500, 4929, 4.72188541662939, 1.590263494203778, -6.701585512909579, 1.4712937000235367, ABplpaapa, 0, 0, 0, 0, , 0, 0, 0, 0, 0, 
256, 1, 256, 256, 4930, 0.002014307552533733, -2.2637285463078043, 4.279412318011961, 1.4712937000235367, ABprapapa, 0, 0, 0, 0, , 0, 0, 0, 0, 0, 
515, 1, 515, 515, 4931, 3.63132136336357, 0.38670525416645546, 0.42610253513388274, 1.6044169437333, Caapa, 0, 0, 0, 0, , 0, 0, 0, 0, 0, 
1567, 1, 1567, 1567, 4932, -7.105281364267021, 2.4226109672122544, 5.605528957125669, 1.395842741047971, MSaaapa, 0, 0, 0, 0, , 0, 0, 0, 0, 0, 
292, 1, 292, 292, 4933, -5.1291639957361586, -2.2652317072236543, 2.6575872558036986, 1.4712937000235367, ABpraapaa, 0, 0, 0, 0, , 0, 0, 0, 0, 0, 
59, 1, 59, 59, 4934, 10.344587296571573, -4.099463305482236, 0.41153682334281233, 1.6044169437333, Cppap, 0, 0, 0, 0, , 0, 0, 0, 0, 0, 
92, 1, 92, 92, 4935, 1.394911240215033, -2.85324572910988, -6.833481070794129, 1.4712937000235367, ABplppaap, 0, 0, 0, 0, , 0, 0, 0, 0, 0, 
227, 1, 227, 227, 4936, -3.0949030757582427, -1.6666181216903313, -2.3147655783678704, 1.4712937000235367, ABplaappa, 0, 0, 0, 0, , 0, 0, 0, 0, 0, 
326, 1, 326, 326, 4937, -7.022931020799752, 3.148042319147762, -5.2803849892165555, 1.546744658999103, ABalpaapa, 0, 0, 0, 0, , 0, 0, 0, 0, 0, 
293, 1, 293, 293, 4938, -5.463343177350708, -6.697723322656562, 0.007767838848813743, 1.546744658999103, ABarpaapa, 0, 0, 0, 0, , 0, 0, 0, 0, 0, 
158, 1, 158, 158, 4939, 5.190950227112133, 2.788826464899254, -3.9161042201625893, 1.84415740659, Epla, 0, 0, 0, 0, , 0, 0, 0, 0, 0, 
45, 1, 45, 45, 4940, 4.383768419131718, 6.865458366818485, -1.2097261276474567, 1.84415740659, Ealp, 0, 0, 0, 0, , 0, 0, 0, 0, 0, 
62, 1, 62, 62, 4941, 7.4713479621333585, -4.989987640684005, 3.2366449327716187, 1.4712937000235367, ABprappap, 0, 0, 0, 0, , 0, 0, 0, 0, 0, 
13, 1, 13, 13, 4942, 2.692403443317178, 7.200404139673125, 1.0035199880922654, 1.395842741047971, MSapppp, 0, 0, 0, 0, , 0, 0, 0, 0, 0, 
50, 1, 50, 50, 4943, 5.656732681425709, 3.603878925193169, -0.9169309905780639, 1.395842741047971, MSppapp, 0, 0, 0, 0, , 0, 0, 0, 0, 0, 
96, 1, 96, 96, 4944, -1.94259715934293, 0.6331445894999156, -4.5684544796893, 1.546744658999103, ABalappap, 0, 0, 0, 0, , 0, 0, 0, 0, 0, 
54, 1, 54, 54, 4945, 4.665005498142698, -4.4866763617838785, -5.243424954169723, 1.4712937000235367, ABplapaap, 0, 0, 0, 0, , 0, 0, 0, 0, 0, 
84, 1, 84, 84, 4946, -8.83372534015169, -0.9822102445629188, -3.062137813324683, 1.546744658999103, ABalaapap, 0, 0, 0, 0, , 0, 0, 0, 0, 0, 
4244, 1, 4244, 4244, 4947, -2.4750852079837338, 6.840528237597664, 2.5387425523246425, 1.395842741047971, MSappaa, 0, 0, 0, 0, , 0, 0, 0, 0, 0, 
1330, 1, 1330, 1330, 4948, -0.6684529408071561, -4.4954058304931195, -5.924808999708869, 1.4712937000235367, ABplppaaa, 0, 0, 0, 0, , 0, 0, 0, 0, 0, 
280, 1, 280, 280, 4949, -8.222353667926598, -2.2701420765587366, 5.102081418975557, 1.546744658999103, ABaraapaa, 0, 0, 0, 0, , 0, 0, 0, 0, 0, 
463, 1, 463, 463, 4950, 0.4354931211056959, 4.875889888666059, -5.618171849036001, 1.546744658999103, ABalpppaa, 0, 0, 0, 0, , 0, 0, 0, 0, 0, 
298, 1, 298, 298, 4951, 3.475939839587894, 1.6031316793995947, 6.977261188195561, 1.4712937000235367, ABprpapaa, 0, 0, 0, 0, , 0, 0, 0, 0, 0, 
70, 1, 70, 70, 4952, 3.5839581530327442, 4.023274119847047, -5.88539201371679, 1.546744658999103, ABalpppap, 0, 0, 0, 0, , 0, 0, 0, 0, 0, 
689, 1, 689, 689, 4953, -2.5792767294316654, -6.5067052999891075, 3.286528414300503, 1.4712937000235367, ABpraaaaa, 0, 0, 0, 0, , 0, 0, 0, 0, 0, 
16, 1, 16, 16, 4954, -3.7542401898177773, 0.5858274821732715, -0.7284607068680025, 1.546744658999103, ABarpappp, 0, 0, 0, 0, , 0, 0, 0, 0, 0, 
52, 1, 52, 52, 4955, 4.520958441781412, -2.5043992773199095, 1.197572752034051, 1.6044169437333, Caaap, 0, 0, 0, 0, , 0, 0, 0, 0, 0, 
1307, 1, 1307, 1307, 4956, -9.352117957708971, 2.8883555990765677, 3.9594780888458776, 1.395842741047971, MSaaaaa, 0, 0, 0, 0, , 0, 0, 0, 0, 0, 
32, 1, 32, 32, 4957, -9.71129436882303, -3.7127911975474066, 2.8192248448449333, 1.546744658999103, ABaraaapp, 0, 0, 0, 0, , 0, 0, 0, 0, 0, 
2479, 1, 2479, 2479, 4958, -5.073018746661706, 4.359838661222109, 5.22154588079224, 1.395842741047971, MSaappa, 0, 0, 0, 0, , 0, 0, 0, 0, 0, 
776, 1, 776, 776, 4959, -10.194739906923168, 0.4130984081506408, -0.4030495752142456, 1.546744658999103, ABarppapa, 0, 0, 0, 0, , 0, 0, 0, 0, 0, 
43, 1, 43, 43, 4960, -7.885684840515032, -3.919819793065059, -4.2133421232252655, 1.546744658999103, ABalaaapp, 0, 0, 0, 0, , 0, 0, 0, 0, 0, 
210, 1, 210, 210, 4961, 2.209828710229668, -1.649588675241732, -0.933686814938344, 1.6044169437333, Caaaa, 0, 0, 0, 0, , 0, 0, 0, 0, 0, 
21, 1, 21, 21, 4962, 0.230143691980357, -3.7367226907098567, -0.8717994709882896, 1.4712937000235367, ABplaappp, 0, 0, 0, 0, , 0, 0, 0, 0, 0, 
3023, 1, 3023, 3023, 4963, -1.9752396178716771, 7.194516514654495, -1.499258550937551, 1.395842741047971, MSapapa, 0, 0, 0, 0, , 0, 0, 0, 0, 0, 
77, 1, 77, 77, 4964, 7.00253876920418, -0.663980672479033, 6.122229301947549, 1.4712937000235367, ABprppaap, 0, 0, 0, 0, , 0, 0, 0, 0, 0, 
23, 1, 23, 23, 4965, -5.98228003560783, 1.3120927337600246, -2.33018327301338, 1.546744658999103, ABalaappp, 0, 0, 0, 0, , 0, 0, 0, 0, 0, 
461, 1, 461, 461, 4966, -7.864673799948536, -1.6442519007063519, 2.2448338669965318, 1.546744658999103, ABarpapaa, 0, 0, 0, 0, , 0, 0, 0, 0, 0, 
647, 1, 647, 647, 4967, 3.015487623795828, -2.322692610539282, 4.582969041597373, 1.4712937000235367, ABprpaapa, 0, 0, 0, 0, , 0, 0, 0, 0, 0, 
124, 1, 124, 124, 4968, 4.413226449142673, 2.191197494976196, 2.445139097717129, 1.395842741047971, MSpppap, 0, 0, 0, 0, , 0, 0, 0, 0, 0, 
352, 1, 352, 352, 4969, -9.989799962356045, -4.427920040596505, 0.08134763899627262, 1.546744658999103, ABaraaapa, 0, 0, 0, 0, , 0, 0, 0, 0, 0, 
1273, 1, 1273, 1273, 4970, -4.6269435607342455, -0.28644718244618733, -4.254288487489671, 1.546744658999103, ABalappaa, 0, 0, 0, 0, , 0, 0, 0, 0, 0, 
132, 1, 132, 132, 4971, -1.3008954919890054, 1.6199407865430633, -1.832802132342933, 1.84415740659, Eara, 0, 0, 0, 0, , 0, 0, 0, 0, 0, 
3451, 1, 3451, 3451, 4972, 1.2458394556468082, 3.3421860092309905, 0.6617104847543787, 1.395842741047971, MSpppaa, 0, 0, 0, 0, , 0, 0, 0, 0, 0, 
3119, 1, 3119, 3119, 4973, -4.509896708451315, 6.495358330291296, -2.457156622688941, 1.395842741047971, MSapaaa, 0, 0, 0, 0, , 0, 0, 0, 0, 0, 
364, 1, 364, 364, 4974, 4.866339962853803, -5.343521015126468, 4.2980240373526835, 1.4712937000235367, ABprappaa, 0, 0, 0, 0, , 0, 0, 0, 0, 0, 
17, 1, 17, 17, 4975, -0.6589335451779545, -1.4107737889849032, 7.302859175930762, 1.546744658999103, ABaraappp, 0, 0, 0, 0, , 0, 0, 0, 0, 0, 
250, 1, 250, 250, 4976, 4.0087984587518575, -7.024573140989914, -0.5375800980134104, 1.6044169437333, Cpaaa, 0, 0, 0, 0, , 0, 0, 0, 0, 0, 
29, 1, 29, 29, 4977, -2.606423033014535, -3.2364424380599037, 3.628014674347941, 1.546744658999103, ABarapapp, 0, 0, 0, 0, , 0, 0, 0, 0, 0, 
148, 1, 148, 148, 4978, 0.47875683857962953, 4.447447906196793, -2.7998722232711684, 1.84415740659, Eala, 0, 0, 0, 0, , 0, 0, 0, 0, 0, 
5, 1, 5, 5, 4979, 5.253901474058317, 5.712991695909496, -3.593620586732244, 1.546744658999103, ABalppppp, 0, 0, 0, 0, , 0, 0, 0, 0, 0, 
49, 1, 49, 49, 4980, -4.586391277626294, 1.7318020111300683, 6.69678495085775, 1.395842741047971, MSaaapp, 0, 0, 0, 0, , 0, 0, 0, 0, 0, 
404, 1, 404, 404, 4981, 2.532855796821622, 5.996787669159167, -4.156721845251976, 1.546744658999103, ABalppppa, 0, 0, 0, 0, , 0, 0, 0, 0, 0, 
531, 1, 531, 531, 4982, -1.3939249427996245, 3.080638787049965, -6.726121451223214, 1.546744658999103, ABalapppa, 0, 0, 0, 0, , 0, 0, 0, 0, 0, 
1053, 1, 1053, 1053, 4983, -7.763335027499962, -5.668090621162156, 1.3111121206859344, 1.546744658999103, ABarpaaaa, 0, 0, 0, 0, , 0, 0, 0, 0, 0, 
18, 1, 18, 18, 4984, 5.032703125355947, 4.841548207655694, 4.793394615108065, 1.4712937000235367, ABprpappp, 0, 0, 0, 0, , 0, 0, 0, 0, 0, 
83, 1, 83, 83, 4985, 1.173722480701454, -7.402332990879723, -0.42595124888516644, 1.4712937000235367, ABplappap, 0, 0, 0, 0, , 0, 0, 0, 0, 0, 
160, 1, 160, 160, -1, 10.479876044559074, 2.7845762005321624, 2.8637044346091804, 1.84415740659, Dpa, 0, 0, 0, 0, , 0, 0, 0, 0, 0, 
82, 1, 82, 82, 4986, -9.204934547299503, 4.915556578588554, -0.9288795280392727, 1.546744658999103, ABalpaaap, 0, 0, 0, 0, , 0, 0, 0, 0, 0, 
33, 1, 33, 33, 4987, 7.28212592282593, 2.0308471816594436, -5.684076098121169, 1.4712937000235367, ABplpaapp, 0, 0, 0, 0, , 0, 0, 0, 0, 0, 
20, 1, 20, 20, 4988, -4.1567861883764525, 7.0088694432205605, 0.2767183848684201, 1.546744658999103, ABalpappp, 0, 0, 0, 0, , 0, 0, 0, 0, 0, 
19, 1, 19, 19, 4989, 0.31983962654801884, 0.26438977849243694, 0.7712678523572432, 1.4712937000235367, ABpraappp, 0, 0, 0, 0, , 0, 0, 0, 0, 0, 
2, 1, 2, 2, 4990, -3.180158810758133, 4.1690009111997615, 3.1051954077669244, 1.546744658999103, ABarppppp, 0, 0, 0, 0, , 0, 0, 0, 0, 0, 
475, 1, 475, 475, 4991, -11.274569617164756, 2.965967866272303, -0.9660933134924446, 1.546744658999103, ABalpapaa, 0, 0, 0, 0, , 0, 0, 0, 0, 0, 
2598, 1, 2598, 2598, 4992, -0.48516620275760713, 4.3527763656926455, 4.521283283585649, 1.395842741047971, MSpappa, 0, 0, 0, 0, , 0, 0, 0, 0, 0, 
63, 1, 63, 63, 4993, -3.5766651685168513, 3.7184762466897205, -1.488675758499884, 1.546744658999103, ABarpppap, 0, 0, 0, 0, , 0, 0, 0, 0, 0, 
111, 1, 111, 111, 4994, 1.068636153426079, 3.315241140791329, 6.638430877479266, 1.395842741047971, MSpapap, 0, 0, 0, 0, , 0, 0, 0, 0, 0, 
484, 1, 484, 484, 4995, 8.627265480995403, 1.5534508633220276, 5.130057974494507, 1.4712937000235367, ABprpppaa, 0, 0, 0, 0, , 0, 0, 0, 0, 0, 
697, 1, 697, 697, 4996, 11.208183093362276, -2.6492372955238435, -1.8328012704732357, 1.6044169437333, Cpppa, 0, 0, 0, 0, , 0, 0, 0, 0, 0, 
51, 1, 51, 51, 4997, 1.3446625476381422, 7.154865244133188, -1.908802553834652, 1.395842741047971, MSapapp, 0, 0, 0, 0, , 0, 0, 0, 0, 0, 
130, 1, 130, 130, 4998, -1.4770716616328547, 6.183343030140968, -4.06161187036987, 1.395842741047971, MSapaap, 0, 0, 0, 0, , 0, 0, 0, 0, 0, 
47, 1, 47, 47, 4999, 0.05407575590817186, 2.101064495069595, 2.9077837283786794, 1.395842741047971, MSpaapp, 0, 0, 0, 0, , 0, 0, 0, 0, 0, 
696, 1, 696, 696, 5000, 0.23434278839780795, -6.762817835040767, 3.108478516425369, 1.4712937000235367, ABprapaaa, 0, 0, 0, 0, , 0, 0, 0, 0, 0, 
323, 1, 323, 323, 5001, -0.3085712365666916, 0.1197469014103535, -7.448360609808241, 1.4712937000235367, ABplpaaaa, 0, 0, 0, 0, , 0, 0, 0, 0, 0, 
1418, 1, 1418, 1418, 5002, -6.079864575415521, 0.745013236688572, -6.449846021938868, 1.546744658999103, ABalppaaa, 0, 0, 0, 0, , 0, 0, 0, 0, 0, 
325, 1, 325, 325, 5003, 0.18163023220189636, -1.2834203324017113, -4.785181283160979, 1.4712937000235367, ABplpapaa, 0, 0, 0, 0, , 0, 0, 0, 0, 0, 
88, 1, 88, 88, 5004, -3.0825242315080876, 0.31754439907627446, -7.210600503348656, 1.546744658999103, ABalppaap, 0, 0, 0, 0, , 0, 0, 0, 0, 0, 
165, 1, 165, 165, 5005, 9.45151109190721, -2.6743842897836365, -4.034949252410084, 1.84415740659, Epra, 0, 0, 0, 0, , 0, 0, 0, 0, 0, 
48, 1, 48, 48, 5006, 11.987992522588865, 0.04217683705572579, -1.9760417214803818, 1.6044169437333, Dapp, 0, 0, 0, 0, , 0, 0, 0, 0, 0, 
842, 1, 842, 842, 5007, -5.293447901193587, 4.1869421819799415, 0.7504094977400104, 1.546744658999103, ABarppppa, 0, 0, 0, 0, , 0, 0, 0, 0, 0, 
1122, 1, 1122, 1122, 5008, -10.133075805380617, -3.460262135108014, -2.562273020347105, 1.546744658999103, ABalaaapa, 0, 0, 0, 0, , 0, 0, 0, 0, 0, 
754, 1, 754, 754, 5009, -7.473095145612581, -0.41113387613157887, -0.6094282156722003, 1.546744658999103, ABalaappa, 0, 0, 0, 0, , 0, 0, 0, 0, 0, 
128, 1, 128, 128, 5010, 0.25491372830006714, 6.724564256666267, 3.2128418345528855, 1.395842741047971, MSappap, 0, 0, 0, 0, , 0, 0, 0, 0, 0, 
112, 1, 112, 112, 5011, -1.788446627979525, -0.6483610159585287, 2.729136253055565, 1.395842741047971, MSpaaap, 0, 0, 0, 0, , 0, 0, 0, 0, 0, 
7, 1, 7, 7, 5012, 8.94317031998522, -0.14352510685819883, -5.17179619874169, 1.84415740659, Eprp, 0, 0, 0, 0, , 0, 0, 0, 0, 0, 
