30, 1, 30, 30, 7333, 2.202093419778052, -0.2783227242139993, 2.460762643600183, 1.4712937000235367, ABprapapp, 0, 0, 0, 0, , 0, 0, 0, 0, 0, 
716, 1, 716, 716, 7334, 3.8449269454017077, 0.11995325051854831, 4.7725798987267245, 1.4712937000235367, ABprppaaa, 0, 0, 0, 0, , 0, 0, 0, 0, 0, 
256, 1, 256, 256, 7335, -0.2500070679079021, -2.473370057277814, 4.301473181874696, 1.4712937000235367, ABprapapa, 0, 0, 0, 0, , 0, 0, 0, 0, 0, 
74, 1, 74, 74, 7336, -9.37959525165716, 0.47362032178648533, 4.863012973680502, 1.546744658999103, ABaraaaap, 0, 0, 0, 0, , 0, 0, 0, 0, 0, 
42, 1, 42, 42, 7337, 6.268143903309906, -1.5848887156847034, -6.23277272958248, 1.4712937000235367, ABplppapp, 0, 0, 0, 0, , 0, 0, 0, 0, 0, 
4621, 1, 4621, 4621, 7338, 10.434230630902942, -0.07255979340145861, -0.24862611431369652, 1.6044169437333, Dppa, 0, 0, 0, 0, , 0, 0, 0, 0, 0, 
69, 1, 69, 69, 7339, -8.762390873695757, 1.1650519138825024, -5.1442091868355595, 1.546744658999103, ABalapaap, 0, 0, 0, 0, , 0, 0, 0, 0, 0, 
76, 1, 76, 76, 7340, -6.318190308384011, -0.08836590363858905, 6.4097598144668595, 1.546744658999103, ABaraapap, 0, 0, 0, 0, , 0, 0, 0, 0, 0, 
4244, 1, 4244, 4244, 7341, -2.7020694493040356, 6.451245259805736, 3.3612362391636004, 1.395842741047971, MSappaa, 0, 0, 0, 0, , 0, 0, 0, 0, 0, 
160, 1, 160, 160, 7342, 9.971650131263042, 3.0876366607886894, 3.1974492897591036, 1.6044169437333, Dpap, 0, 0, 0, 0, , 0, 0, 0, 0, 0, 
64, 1, 64, 64, 7343, -10.524450574942387, 3.6677945379797485, 1.48998768991779, 1.546744658999103, ABalpapap, 0, 0, 0, 0, , 0, 0, 0, 0, 0, 
364, 1, 364, 364, 7344, 5.368270491571415, -5.042457948481874, 4.432908132669652, 1.4712937000235367, ABprappaa, 0, 0, 0, 0, , 0, 0, 0, 0, 0, 
49, 1, 49, 49, 7345, -4.269874667360592, 1.9146271573988134, 6.730116957085536, 1.395842741047971, MSaaapp, 0, 0, 0, 0, , 0, 0, 0, 0, 0, 
461, 1, 461, 461, 7346, -8.289571209096842, -1.3755886850360088, 1.7638406900344874, 1.546744658999103, ABarpapaa, 0, 0, 0, 0, , 0, 0, 0, 0, 0, 
1567, 1, 1567, 1567, 7347, -6.828568813617177, 2.637476378015136, 5.635406991255936, 1.395842741047971, MSaaapa, 0, 0, 0, 0, , 0, 0, 0, 0, 0, 
988, 1, 988, 988, 7348, 0.4903554976370595, -2.399160645898137, 1.5221596970279092, 1.4712937000235367, ABplapppa, 0, 0, 0, 0, , 0, 0, 0, 0, 0, 
45, 1, 45, 45, 7349, 3.7028252861491726, 7.064805597128046, -0.8104214042820118, 1.84415740659, Ealp, 0, 0, 0, 0, , 0, 0, 0, 0, 0, 
116, 1, 116, 116, 7350, -5.491214099278945, 6.080635543027355, 2.7579566358731, 1.395842741047971, MSaapap, 0, 0, 0, 0, , 0, 0, 0, 0, 0, 
240, 1, 240, 240, 7351, 3.4554459753779048, -4.2368050895028855, -0.5349898868229449, 1.6044169437333, Cpapa, 0, 0, 0, 0, , 0, 0, 0, 0, 0, 
32, 1, 32, 32, 7352, -9.51154308163648, -3.525351781534295, 3.2439616092886023, 1.546744658999103, ABaraaapp, 0, 0, 0, 0, , 0, 0, 0, 0, 0, 
1195, 1, 1195, 1195, 7353, -1.527069667919061, 1.2036571565681158, 7.289549555596339, 1.395842741047971, MSpapaa, 0, 0, 0, 0, , 0, 0, 0, 0, 0, 
54, 1, 54, 54, 7354, 4.713174607826593, -4.762158119598339, -4.982814014491888, 1.4712937000235367, ABplapaap, 0, 0, 0, 0, , 0, 0, 0, 0, 0, 
2598, 1, 2598, 2598, 7355, -0.4132333166520337, 3.715661548475276, 3.9961028957279865, 1.395842741047971, MSpappa, 0, 0, 0, 0, , 0, 0, 0, 0, 0, 
1501, 1, 1501, 1501, 7356, -11.705804452779569, -1.3848436339334982, -2.0751884462772865, 1.546744658999103, ABalaaaal, 0, 0, 0, 0, , 0, 0, 0, 0, 0, 
2, 1, 2, 2, 7357, -3.101276622416412, 3.6203953599465346, 2.9834552571825164, 1.546744658999103, ABarppppp, 0, 0, 0, 0, , 0, 0, 0, 0, 0, 
5253, 1, 5253, 5253, 7358, 6.312999883711475, 2.8968569043196104, -2.276902445430621, 1.6044169437333, Daaa, 0, 0, 0, 0, , 0, 0, 0, 0, 0, 
57, 1, 57, 57, 7359, -1.3990576074577006, -4.566917513993973, 1.4083955577354037, 1.4712937000235367, ABpraapap, 0, 0, 0, 0, , 0, 0, 0, 0, 0, 
60, 1, 60, 60, 7360, 8.83429958393881, 5.092198824307003, -1.2499490116233343, 2.119721157, Z2, 0, 0, 0, 0, , 0, 0, 0, 0, 0, 
647, 1, 647, 647, 7361, 2.6963038132716006, -2.4664660763680897, 4.270468615743004, 1.4712937000235367, ABprpaapa, 0, 0, 0, 0, , 0, 0, 0, 0, 0, 
78, 1, 78, 78, 7362, 5.632230468936599, 2.600980455608208, 6.107211927718071, 1.4712937000235367, ABprpapap, 0, 0, 0, 0, , 0, 0, 0, 0, 0, 
3876, 1, 3876, 3876, 7363, 2.749845757596609, 4.540914061437173, 2.516527339346401, 1.395842741047971, MSppppa, 0, 0, 0, 0, , 0, 0, 0, 0, 0, 
23, 1, 23, 23, 7364, -6.975419641857043, 1.617491380922987, -2.9377724292654284, 1.546744658999103, ABalaappp, 0, 0, 0, 0, , 0, 0, 0, 0, 0, 
80, 1, 80, 80, 7365, -5.008669456114992, -1.566160044709464, -0.4088364368874124, 1.546744658999103, ABarpapap, 0, 0, 0, 0, , 0, 0, 0, 0, 0, 
325, 1, 325, 325, 7366, -0.09147996499655721, -1.8237401801567619, -4.321167414773929, 1.4712937000235367, ABplpapaa, 0, 0, 0, 0, , 0, 0, 0, 0, 0, 
73, 1, 73, 73, 7367, -0.9900835659984198, -7.369289157137214, 0.8690502849153305, 1.4712937000235367, ABpraaaap, 0, 0, 0, 0, , 0, 0, 0, 0, 0, 
1047, 1, 1047, 1047, 7368, -8.15639008670934, 5.190810478104394, 2.1369172999324557, 1.395842741047971, MSaapaa, 0, 0, 0, 0, , 0, 0, 0, 0, 0, 
40, 1, 40, 40, 7369, 6.361122843357699, -5.733777054334191, -2.8283918762811133, 1.4712937000235367, ABplapapp, 0, 0, 0, 0, , 0, 0, 0, 0, 0, 
87, 1, 87, 87, 7370, 7.4088856295681325, -3.74712778243715, -4.672977074916164, 1.4712937000235367, ABplpppap, 0, 0, 0, 0, , 0, 0, 0, 0, 0, 
67, 1, 67, 67, 7371, 2.734571941420866, -7.145896641105907, 1.301379047219655, 1.4712937000235367, ABprapaap, 0, 0, 0, 0, , 0, 0, 0, 0, 0, 
842, 1, 842, 842, 7372, -4.802770624593298, 4.120253646420591, 0.7192541248402561, 1.546744658999103, ABarppppa, 0, 0, 0, 0, , 0, 0, 0, 0, 0, 
600, 1, 600, 600, 7373, -4.238459634698049, 2.866261415455141, -6.383932523817048, 1.546744658999103, ABalppapa, 0, 0, 0, 0, , 0, 0, 0, 0, 0, 
13, 1, 13, 13, 7374, 2.005378513154859, 7.195175674211927, 1.5042225339115283, 1.395842741047971, MSapppp, 0, 0, 0, 0, , 0, 0, 0, 0, 0, 
660, 1, 660, 660, 7375, 3.6397096070457637, -2.662604541796923, -6.6102827261327235, 1.4712937000235367, ABplppapa, 0, 0, 0, 0, , 0, 0, 0, 0, 0, 
2196, 1, 2196, 2196, 7376, -2.0265812805673336, 1.395035765703522, 4.464713143573499, 1.395842741047971, MSpaapa, 0, 0, 0, 0, , 0, 0, 0, 0, 0, 
498, 1, 498, 498, 7377, -6.703019624086266, 4.540883589889971, -2.669267943670931, 1.546744658999103, ABarpppaa, 0, 0, 0, 0, , 0, 0, 0, 0, 0, 
241, 1, 241, 241, 7378, -2.2362339396400874, -2.17232841996301, 0.0494723141680859, 1.4712937000235367, ABpraappa, 0, 0, 0, 0, , 0, 0, 0, 0, 0, 
463, 1, 463, 463, 7379, -0.006650392499634163, 4.667879566358444, -5.799566221682474, 1.546744658999103, ABalpppaa, 0, 0, 0, 0, , 0, 0, 0, 0, 0, 
44, 1, 44, 44, 7380, -2.409727603292573, -2.4612526546201727, -6.878204960753611, 1.546744658999103, ABalapapp, 0, 0, 0, 0, , 0, 0, 0, 0, 0, 
2479, 1, 2479, 2479, 7381, -4.777453560024815, 4.598581884141288, 5.110831185208497, 1.395842741047971, MSaappa, 0, 0, 0, 0, , 0, 0, 0, 0, 0, 
29, 1, 29, 29, 7382, -3.048491226369661, -2.664170575856775, 3.655949782751592, 1.546744658999103, ABarapapp, 0, 0, 0, 0, , 0, 0, 0, 0, 0, 
689, 1, 689, 689, 7383, -2.2979157190690347, -6.539702820283499, 3.279832313152969, 1.4712937000235367, ABpraaaaa, 0, 0, 0, 0, , 0, 0, 0, 0, 0, 
1178, 1, 1178, 1178, 7384, -11.086369129649563, -1.111561048425668, 3.173643762470003, 1.546744658999103, ABaraaaaa, 0, 0, 0, 0, , 0, 0, 0, 0, 0, 
375, 1, 375, 375, 7385, -3.0229056805430425, -5.8843604540460355, -4.182208200171406, 1.4712937000235367, ABplaaapa, 0, 0, 0, 0, , 0, 0, 0, 0, 0, 
37, 1, 37, 37, 7386, -2.263660955841703, 3.1491756025662996, -4.285247470414612, 1.546744658999103, ABalppapp, 0, 0, 0, 0, , 0, 0, 0, 0, 0, 
619, 1, 619, 619, 7387, -11.94294986534607, 1.181136558343839, 1.6651481120596676, 1.546744658999103, ABarppaaa, 0, 0, 0, 0, , 0, 0, 0, 0, 0, 
2306, 1, 2306, 2306, 7388, 7.755163884344126, -5.815077808988139, 0.2723179722878467, 1.6044169437333, Cppaa, 0, 0, 0, 0, , 0, 0, 0, 0, 0, 
808, 1, 808, 808, 7389, 5.216310158366977, -2.478482703221391, -3.264254742154916, 1.4712937000235367, ABplpppaa, 0, 0, 0, 0, , 0, 0, 0, 0, 0, 
2760, 1, 2760, 2760, 7390, 4.677982811711709, 0.21577990080772044, -2.3982611277194454, 1.6044169437333, Capaa, 0, 0, 0, 0, , 0, 0, 0, 0, 0, 
1330, 1, 1330, 1330, 7391, -0.9577502251186678, -4.6743703266307985, -5.7720582526772946, 1.4712937000235367, ABplppaaa, 0, 0, 0, 0, , 0, 0, 0, 0, 0, 
500, 1, 500, 500, 7392, 4.249695011632278, 1.7413614144118983, -6.776764641884433, 1.4712937000235367, ABplpaapa, 0, 0, 0, 0, , 0, 0, 0, 0, 0, 
46, 1, 46, 46, 7393, 6.118671787616911, 4.438432446287356, -4.722411496948189, 1.84415740659, Eplp, 0, 0, 0, 0, , 0, 0, 0, 0, 0, 
3119, 1, 3119, 3119, 7394, -4.712014562290847, 6.548268148091285, -2.152801999964806, 1.395842741047971, MSapaaa, 0, 0, 0, 0, , 0, 0, 0, 0, 0, 
59, 1, 59, 59, 7395, 10.172672545531208, -4.164286877561233, 0.9783243958306086, 1.6044169437333, Cppap, 0, 0, 0, 0, , 0, 0, 0, 0, 0, 
17, 1, 17, 17, 7396, -0.735566449767068, -1.550983696781591, 7.2747164560611965, 1.546744658999103, ABaraappp, 0, 0, 0, 0, , 0, 0, 0, 0, 0, 
39, 1, 39, 39, 7397, -7.167122537668899, 2.8896823398406437, -0.3573245109062928, 1.546744658999103, ABarppapp, 0, 0, 0, 0, , 0, 0, 0, 0, 0, 
323, 1, 323, 323, 7398, -0.6342770327904038, -0.25197135988697344, -7.428900646848884, 1.4712937000235367, ABplpaaaa, 0, 0, 0, 0, , 0, 0, 0, 0, 0, 
50, 1, 50, 50, 7399, 4.489022452834049, 4.238242074741117, -0.45644356003133985, 1.395842741047971, MSppapp, 0, 0, 0, 0, , 0, 0, 0, 0, 0, 
4, 1, 4, 4, 7400, 6.436156881460608, 6.364069857124302, -0.2816222493116903, 2.119721157, Z3, 0, 0, 0, 0, , 0, 0, 0, 0, 0, 
55, 1, 55, 55, 7401, -5.848102075335973, -2.432799543750324, -3.026161352410893, 1.4712937000235367, ABplaapap, 0, 0, 0, 0, , 0, 0, 0, 0, 0, 
210, 1, 210, 210, 7402, 2.241187986105759, -1.611008951113719, -0.7483607015585677, 1.6044169437333, Caaaa, 0, 0, 0, 0, , 0, 0, 0, 0, 0, 
12, 1, 12, 12, 7403, 2.441683492173474, -4.4204696951774505, 2.1635785817083004, 1.4712937000235367, ABplapppp, 0, 0, 0, 0, , 0, 0, 0, 0, 0, 
404, 1, 404, 404, 7404, 1.2398217221762498, 6.354605316579381, -3.8114895128531887, 1.546744658999103, ABalppppa, 0, 0, 0, 0, , 0, 0, 0, 0, 0, 
84, 1, 84, 84, 7405, -8.913884253938187, -1.0613478355762613, -2.826405239517386, 1.546744658999103, ABalaapap, 0, 0, 0, 0, , 0, 0, 0, 0, 0, 
86, 1, 86, 86, 7406, 2.5495261458368383, -5.439735189903829, 4.847662982872425, 1.4712937000235367, ABprpaaap, 0, 0, 0, 0, , 0, 0, 0, 0, 0, 
124, 1, 124, 124, 7407, 4.380719036190918, 2.0831649006955635, 2.579083260731727, 1.395842741047971, MSpppap, 0, 0, 0, 0, , 0, 0, 0, 0, 0, 
43, 1, 43, 43, 7408, -8.04109552264832, -3.9935545550904976, -4.028942926253494, 1.546744658999103, ABalaaapp, 0, 0, 0, 0, , 0, 0, 0, 0, 0, 
15, 1, 15, 15, 7409, 11.663053861633543, -1.7246482905005862, 1.92530720131374, 1.6044169437333, Cappp, 0, 0, 0, 0, , 0, 0, 0, 0, 0, 
18, 1, 18, 18, 7410, 4.846113467234853, 5.118455958857016, 4.567460046032191, 1.4712937000235367, ABprpappp, 0, 0, 0, 0, , 0, 0, 0, 0, 0, 
499, 1, 499, 499, 7411, -0.6613671437193144, -5.239853035868693, 5.282781274153516, 1.4712937000235367, ABprpaaaa, 0, 0, 0, 0, , 0, 0, 0, 0, 0, 
96, 1, 96, 96, 7412, -1.9982876910107419, 0.30808948447148776, -4.6708793010578304, 1.546744658999103, ABalappap, 0, 0, 0, 0, , 0, 0, 0, 0, 0, 
66, 1, 66, 66, 7413, 1.2572022247379624, -3.49588647873413, 6.53384482367943, 1.546744658999103, ABarappap, 0, 0, 0, 0, , 0, 0, 0, 0, 0, 
503, 1, 503, 503, 7414, -7.890772948946525, -5.531998975234465, -1.5857107570066646, 1.4712937000235367, ABplaaaaa, 0, 0, 0, 0, , 0, 0, 0, 0, 0, 
776, 1, 776, 776, 7415, -10.2199620080936, 0.5365102287729643, -0.5342088562718386, 1.546744658999103, ABarppapa, 0, 0, 0, 0, , 0, 0, 0, 0, 0, 
250, 1, 250, 250, 7416, 4.550202610145166, -6.876277673048026, -0.9113214551488344, 1.6044169437333, Cpaaa, 0, 0, 0, 0, , 0, 0, 0, 0, 0, 
52, 1, 52, 52, 7417, 4.980313714100174, -2.8914470360261144, 1.7852330377783103, 1.6044169437333, Caaap, 0, 0, 0, 0, , 0, 0, 0, 0, 0, 
21, 1, 21, 21, 7418, 0.5808084387921026, -4.401514976765997, -0.6719416849869065, 1.4712937000235367, ABplaappp, 0, 0, 0, 0, , 0, 0, 0, 0, 0, 
497, 1, 497, 497, 7419, -5.020605959249864, 0.6310346894265514, 1.4662358999927372, 1.546744658999103, ABarpappa, 0, 0, 0, 0, , 0, 0, 0, 0, 0, 
280, 1, 280, 280, 7420, -8.083378340742131, -2.059249605609569, 5.27476737330047, 1.546744658999103, ABaraapaa, 0, 0, 0, 0, , 0, 0, 0, 0, 0, 
293, 1, 293, 293, 7421, -4.317941405448981, -6.976470760562462, 0.27105469041700153, 1.546744658999103, ABarpaapa, 0, 0, 0, 0, , 0, 0, 0, 0, 0, 
360, 1, 360, 360, 7422, 2.111399419381432, 2.3672137904018764, 4.332973864104645, 1.4712937000235367, ABprpappa, 0, 0, 0, 0, , 0, 0, 0, 0, 0, 
754, 1, 754, 754, 7423, -7.398188813106148, 0.021787006776603127, -0.5757238987170371, 1.546744658999103, ABalaappa, 0, 0, 0, 0, , 0, 0, 0, 0, 0, 
2637, 1, 2637, 2637, 7424, 2.3054477343327213, 4.121330722817528, -2.337215853544831, 1.395842741047971, MSppapa, 0, 0, 0, 0, , 0, 0, 0, 0, 0, 
1415, 1, 1415, 1415, 7425, -4.410551303098275, -0.19289927955934036, 4.254886797037824, 1.395842741047971, MSpaaaa, 0, 0, 0, 0, , 0, 0, 0, 0, 0, 
24, 1, 24, 24, 7426, 2.9502722638997247, -1.0392636234327075, -4.325056113992997, 1.4712937000235367, ABplpappp, 0, 0, 0, 0, , 0, 0, 0, 0, 0, 
47, 1, 47, 47, 7427, 0.15588927325622226, 1.7103183998139477, 2.019101346376508, 1.395842741047971, MSpaapp, 0, 0, 0, 0, , 0, 0, 0, 0, 0, 
111, 1, 111, 111, 7428, 0.5215242686500584, 3.1638610170252397, 6.732238915768212, 1.395842741047971, MSpapap, 0, 0, 0, 0, , 0, 0, 0, 0, 0, 
70, 1, 70, 70, 7429, 2.8571925012457164, 4.602501034699423, -5.6051283465261, 1.546744658999103, ABalpppap, 0, 0, 0, 0, , 0, 0, 0, 0, 0, 
10, 1, 10, 10, 7430, 1.4416944307769854, 2.477004657204302, -6.974864348751112, 1.546744658999103, ABalapppp, 0, 0, 0, 0, , 0, 0, 0, 0, 0, 
515, 1, 515, 515, 7431, 3.4577097957228915, 0.862856590236689, 0.13307945023494783, 1.6044169437333, Caapa, 0, 0, 0, 0, , 0, 0, 0, 0, 0, 
249, 1, 249, 249, 7432, 2.8596007479717804, -6.491241419479187, -3.226273522975405, 1.4712937000235367, ABplapapa, 0, 0, 0, 0, , 0, 0, 0, 0, 0, 
128, 1, 128, 128, 7433, 0.1723229911848268, 6.51363713136199, 3.620045257579326, 1.395842741047971, MSappap, 0, 0, 0, 0, , 0, 0, 0, 0, 0, 
27, 1, 27, 27, 7434, 6.64102085157927, 2.985787702353462, 1.018700949458013, 1.6044169437333, Caapp, 0, 0, 0, 0, , 0, 0, 0, 0, 0, 
697, 1, 697, 697, 7435, 11.418315522969186, -2.6473050585375257, -1.299247214910976, 1.6044169437333, Cpppa, 0, 0, 0, 0, , 0, 0, 0, 0, 0, 
292, 1, 292, 292, 7436, -5.564122366436346, -2.0547667765033815, 2.386439598813577, 1.4712937000235367, ABpraapaa, 0, 0, 0, 0, , 0, 0, 0, 0, 0, 
3023, 1, 3023, 3023, 7437, -1.9805974215605258, 7.184961521742056, -1.57845813881087, 1.395842741047971, MSapapa, 0, 0, 0, 0, , 0, 0, 0, 0, 0, 
82, 1, 82, 82, 7438, -8.902368551235682, 5.116318819899119, -0.8973962994184217, 1.546744658999103, ABalpaaap, 0, 0, 0, 0, , 0, 0, 0, 0, 0, 
693, 1, 693, 693, 7439, -2.241842655745909, -7.119381124513835, -1.7123611083168575, 1.4712937000235367, ABplappaa, 0, 0, 0, 0, , 0, 0, 0, 0, 0, 
531, 1, 531, 531, 7440, -1.4413839834647255, 2.469286860817984, -6.969492707063504, 1.546744658999103, ABalapppa, 0, 0, 0, 0, , 0, 0, 0, 0, 0, 
109, 1, 109, 109, 7441, -6.348633340137345, 2.8276984842289443, 2.7893822983232313, 1.395842741047971, MSaaaap, 0, 0, 0, 0, , 0, 0, 0, 0, 0, 
8, 1, 8, 8, 7442, 11.841554231882268, 1.3745092016004257, 1.8004077692989875, 1.6044169437333, Cpppp, 0, 0, 0, 0, , 0, 0, 0, 0, 0, 
92, 1, 92, 92, 7443, 0.7802870264843099, -2.7039621583748943, -6.9229094080412805, 1.4712937000235367, ABplppaap, 0, 0, 0, 0, , 0, 0, 0, 0, 0, 
352, 1, 352, 352, 7444, -9.55960952833028, -4.721091078347936, 0.6178229506892726, 1.546744658999103, ABaraaapa, 0, 0, 0, 0, , 0, 0, 0, 0, 0, 
4410, 1, 4410, 4410, 7445, 9.476307422748334, 2.467605152646257, -4.1331468866133285, 1.6044169437333, Dapa, 0, 0, 0, 0, , 0, 0, 0, 0, 0, 
761, 1, 761, 761, 7446, -9.240022213150421, 3.5048185350944183, -3.5336910497974183, 1.546744658999103, ABalpaaaa, 0, 0, 0, 0, , 0, 0, 0, 0, 0, 
598, 1, 598, 598, 7447, 9.632804783663431, -2.5502892720902985, 3.9538431259379037, 1.4712937000235367, ABprppapa, 0, 0, 0, 0, , 0, 0, 0, 0, 0, 
79, 1, 79, 79, 7448, 7.5357975044711925, 0.27856303136136207, -2.7477123341638987, 1.6044169437333, Capap, 0, 0, 0, 0, , 0, 0, 0, 0, 0, 
123, 1, 123, 123, 7449, -1.7006669883903884, 4.598722564344783, 0.573526236621, 1.395842741047971, MSppaap, 0, 0, 0, 0, , 0, 0, 0, 0, 0, 
158, 1, 158, 158, 7450, 4.022888748327851, 2.504606374958952, -4.013860800879766, 1.84415740659, Epla, 0, 0, 0, 0, , 0, 0, 0, 0, 0, 
1, 1, 1, 1, 7451, 8.026246799846135, 5.362282795909148, 1.8981534207379367, 1.4712937000235367, ABprppppp, 0, 0, 0, 0, , 0, 0, 0, 0, 0, 
696, 1, 696, 696, 7452, 0.6011856140130276, -6.731778359158243, 3.1755472364691437, 1.4712937000235367, ABprapaaa, 0, 0, 0, 0, , 0, 0, 0, 0, 0, 
622, 1, 622, 622, 7453, -7.909027412619764, -1.5409481219901546, -5.535773309058553, 1.546744658999103, ABalapaaa, 0, 0, 0, 0, , 0, 0, 0, 0, 0, 
344, 1, 344, 344, 7454, -2.6578267912638536, -3.493357877767014, 6.37618750322358, 1.546744658999103, ABarappaa, 0, 0, 0, 0, , 0, 0, 0, 0, 0, 
260, 1, 260, 260, 7455, -4.35624422384186, -5.134810384494303, 4.725023588704653, 1.546744658999103, ABarapapa, 0, 0, 0, 0, , 0, 0, 0, 0, 0, 
336, 1, 336, 336, 7456, -7.568365067898565, -2.8534366544886436, -0.5925866612747339, 1.4712937000235367, ABplaapaa, 0, 0, 0, 0, , 0, 0, 0, 0, 0, 
165, 1, 165, 165, 7457, 9.84976548595214, -2.4864899336402484, -3.7953328139108917, 1.84415740659, Epra, 0, 0, 0, 0, , 0, 0, 0, 0, 0, 
3, 1, 3, 3, 7458, 4.773789655532797, 6.559950118299082, 2.065464072616307, 1.395842741047971, MSppppp, 0, 0, 0, 0, , 0, 0, 0, 0, 0, 
1279, 1, 1279, 1279, 7459, -10.98037937190922, 1.117292445980799, -3.3030746329206737, 1.546744658999103, ABalaapaa, 0, 0, 0, 0, , 0, 0, 0, 0, 0, 
1418, 1, 1418, 1418, 7460, -6.2146092826518196, 0.72999619367588, -6.41259511657982, 1.546744658999103, ABalppaaa, 0, 0, 0, 0, , 0, 0, 0, 0, 0, 
1273, 1, 1273, 1273, 7461, -4.791496714689072, 0.07139003778926853, -3.9889593424327066, 1.546744658999103, ABalappaa, 0, 0, 0, 0, , 0, 0, 0, 0, 0, 
1504, 1, 1504, 1504, 7462, 5.941361631612133, -0.6522664779072156, 0.07704782278028802, 1.6044169437333, Cappa, 0, 0, 0, 0, , 0, 0, 0, 0, 0, 
63, 1, 63, 63, 7463, -3.3284320930875992, 4.030317804687507, -1.7461102405119047, 1.546744658999103, ABarpppap, 0, 0, 0, 0, , 0, 0, 0, 0, 0, 
93, 1, 93, 93, 7464, -11.611611760026522, -2.566978148562749, 0.6475768612282231, 1.546744658999103, ABalaaaar, 0, 0, 0, 0, , 0, 0, 0, 0, 0, 
53, 1, 53, 53, 7465, 5.4670054861362605, -6.416837069599542, 1.9033157711704507, 1.6044169437333, Cpaap, 0, 0, 0, 0, , 0, 0, 0, 0, 0, 
65, 1, 65, 65, 7466, -5.387218311537366, -4.457081345286094, -5.011584652951648, 1.4712937000235367, ABplaaaap, 0, 0, 0, 0, , 0, 0, 0, 0, 0, 
3451, 1, 3451, 3451, 7467, 1.0713964465561918, 3.8077928508722705, 0.27037836962066686, 1.395842741047971, MSpppaa, 0, 0, 0, 0, , 0, 0, 0, 0, 0, 
71, 1, 71, 71, 7468, -8.643316168342672, 1.481450406425081, 1.6876599337394211, 1.546744658999103, ABarppaap, 0, 0, 0, 0, , 0, 0, 0, 0, 0, 
41, 1, 41, 41, 7469, 4.73636803938359, -2.888466027719259, 6.248467151895474, 1.4712937000235367, ABprpaapp, 0, 0, 0, 0, , 0, 0, 0, 0, 0, 
326, 1, 326, 326, 7470, -6.850790832133414, 3.302371160843334, -5.260897390302986, 1.546744658999103, ABalpaapa, 0, 0, 0, 0, , 0, 0, 0, 0, 0, 
231, 1, 231, 231, 7471, -6.503777749397149, 6.341337989580029, 0.08658669631718728, 1.546744658999103, ABalpappa, 0, 0, 0, 0, , 0, 0, 0, 0, 0, 
439, 1, 439, 439, 7472, 8.099928354161374, -1.8525296626332428, 1.5808949830532624, 1.4712937000235367, ABprppppa, 0, 0, 0, 0, , 0, 0, 0, 0, 0, 
91, 1, 91, 91, 7473, 7.506464883962524, 3.9902896777707677, 4.393932257678899, 1.4712937000235367, ABprpppap, 0, 0, 0, 0, , 0, 0, 0, 0, 0, 
392, 1, 392, 392, 7474, -5.221875179669794, -1.9753575403030554, -6.464544037958082, 1.546744658999103, ABalapapa, 0, 0, 0, 0, , 0, 0, 0, 0, 0, 
298, 1, 298, 298, 7475, 3.0267206742596273, 1.7749748224065978, 7.005120108735734, 1.4712937000235367, ABprpapaa, 0, 0, 0, 0, , 0, 0, 0, 0, 0, 
5, 1, 5, 5, 7476, 4.104381708257624, 6.103268760607731, -3.493498386744837, 1.546744658999103, ABalppppp, 0, 0, 0, 0, , 0, 0, 0, 0, 0, 
35, 1, 35, 35, 7477, -3.416611794619844, -4.564508989590363, -1.0134660047726989, 1.546744658999103, ABarpaapp, 0, 0, 0, 0, , 0, 0, 0, 0, 0, 
22, 1, 22, 22, 7478, 10.720579538697317, 3.7492067112489136, 0.4946473797778078, 1.6044169437333, Dppp, 0, 0, 0, 0, , 0, 0, 0, 0, 0, 
62, 1, 62, 62, 7479, 7.876764448633492, -4.9082559691303835, 3.0049504750814076, 1.4712937000235367, ABprappap, 0, 0, 0, 0, , 0, 0, 0, 0, 0, 
48, 1, 48, 48, 7480, 11.371056431513232, 0.3382343028154699, -2.9845579475860387, 1.6044169437333, Dapp, 0, 0, 0, 0, , 0, 0, 0, 0, 0, 
31, 1, 31, 31, 7481, -1.2641440633984988, -4.021593994606638, -2.860379697790136, 1.4712937000235367, ABplaaapp, 0, 0, 0, 0, , 0, 0, 0, 0, 0, 
112, 1, 112, 112, 7482, -1.6480119702094511, -0.5125707690290175, 2.338592005583546, 1.395842741047971, MSpaaap, 0, 0, 0, 0, , 0, 0, 0, 0, 0, 
638, 1, 638, 638, 7483, 1.886762039546141, -4.943959934711485, -5.451542411776613, 1.4712937000235367, ABplapaaa, 0, 0, 0, 0, , 0, 0, 0, 0, 0, 
1053, 1, 1053, 1053, 7484, -6.942515089590929, -6.083636963150204, 1.080824184961024, 1.546744658999103, ABarpaaaa, 0, 0, 0, 0, , 0, 0, 0, 0, 0, 
25, 1, 25, 25, 7485, 2.0560126960005145, 5.107793839953923, 5.28470583927408, 1.395842741047971, MSpappp, 0, 0, 0, 0, , 0, 0, 0, 0, 0, 
7, 1, 7, 7, 7486, 8.703966000493851, -0.32765951457559195, -5.316589534126195, 1.84415740659, Eprp, 0, 0, 0, 0, , 0, 0, 0, 0, 0, 
36, 1, 36, 36, 7487, 10.417828740621689, 0.23029473600263023, 4.056055532448898, 1.4712937000235367, ABprppapp, 0, 0, 0, 0, , 0, 0, 0, 0, 0, 
132, 1, 132, 132, 7488, -1.635936905204877, 1.5870035991651716, -1.9414597035963344, 1.84415740659, Eara, 0, 0, 0, 0, , 0, 0, 0, 0, 0, 
75, 1, 75, 75, 7489, 2.2372933105744, -0.2512617142632893, -7.3274521214798956, 1.4712937000235367, ABplpaaap, 0, 0, 0, 0, , 0, 0, 0, 0, 0, 
330, 1, 330, 330, 7490, -7.030799424304493, -4.901044472791182, 3.69591860327783, 1.546744658999103, ABarapaaa, 0, 0, 0, 0, , 0, 0, 0, 0, 0, 
5583, 1, 5583, 5583, 7491, 8.62147120024939, 0.999345331362225, 1.7209602779218889, 1.6044169437333, Dpaa, 0, 0, 0, 0, , 0, 0, 0, 0, 0, 
3969, 1, 3969, 3969, 7492, -0.9437925039736166, 7.342222660651642, 1.105904299730711, 1.395842741047971, MSapppa, 0, 0, 0, 0, , 0, 0, 0, 0, 0, 
615, 1, 615, 615, 7493, 8.542936105485504, -1.9807085297233673, -1.279930600487549, 1.4712937000235367, ABplppppa, 0, 0, 0, 0, , 0, 0, 0, 0, 0, 
287, 1, 287, 287, 7494, 1.9494034371720235, -3.398042387451351, -3.002706337071237, 1.4712937000235367, ABplpappa, 0, 0, 0, 0, , 0, 0, 0, 0, 0, 
14, 1, 14, 14, 7495, 1.4876251369480364, 1.3908682540547965, -1.904554998013884, 1.84415740659, Earp, 0, 0, 0, 0, , 0, 0, 0, 0, 0, 
20, 1, 20, 20, 7496, -3.7799615526452457, 7.064885366196334, 0.658710971608687, 1.546744658999103, ABalpappp, 0, 0, 0, 0, , 0, 0, 0, 0, 0, 
16, 1, 16, 16, 7497, -4.513558796436825, 1.3587340044175429, -1.3510045458852173, 1.546744658999103, ABarpappp, 0, 0, 0, 0, , 0, 0, 0, 0, 0, 
26, 1, 26, 26, 7498, -2.218224885469435, 3.878063637680077, 6.222810199276479, 1.395842741047971, MSaappp, 0, 0, 0, 0, , 0, 0, 0, 0, 0, 
51, 1, 51, 51, 7499, 0.8549908568609959, 7.342686366323274, -1.1357471269280124, 1.395842741047971, MSapapp, 0, 0, 0, 0, , 0, 0, 0, 0, 0, 
148, 1, 148, 148, 7500, -0.5290666045570027, 4.663125111759924, -2.127460637609487, 1.84415740659, Eala, 0, 0, 0, 0, , 0, 0, 0, 0, 0, 
130, 1, 130, 130, 7501, -1.9916314285074488, 6.024842453862896, -4.212818551949783, 1.395842741047971, MSapaap, 0, 0, 0, 0, , 0, 0, 0, 0, 0, 
1307, 1, 1307, 1307, 7502, -9.101353936154352, 3.1804582654988294, 3.952761761377386, 1.395842741047971, MSaaaaa, 0, 0, 0, 0, , 0, 0, 0, 0, 0, 
58, 1, 58, 58, 7503, 0.8223580535292636, 0.8814087995366753, -4.652326488188407, 1.4712937000235367, ABplpapap, 0, 0, 0, 0, , 0, 0, 0, 0, 0, 
33, 1, 33, 33, 7504, 6.975321733453057, 1.927274997090736, -5.852484016028218, 1.4712937000235367, ABplpaapp, 0, 0, 0, 0, , 0, 0, 0, 0, 0, 
6, 1, 6, 6, 7505, 8.96208537078491, -4.711747214596016, -2.1341084105271237, 1.4712937000235367, ABplppppp, 0, 0, 0, 0, , 0, 0, 0, 0, 0, 
397, 1, 397, 397, 7506, -3.548816108365138, -0.8462559203999419, 7.084757755155019, 1.546744658999103, ABaraappa, 0, 0, 0, 0, , 0, 0, 0, 0, 0, 
227, 1, 227, 227, 7507, -2.844853655188464, -1.6280294980109329, -2.7099641319445356, 1.4712937000235367, ABplaappa, 0, 0, 0, 0, , 0, 0, 0, 0, 0, 
28, 1, 28, 28, 7508, 6.245364792646403, -3.635651484898106, -0.8247363874423593, 1.6044169437333, Cpapp, 0, 0, 0, 0, , 0, 0, 0, 0, 0, 
320, 1, 320, 320, 7509, -5.238809490483433, -6.31372795894224, -2.384864485137655, 1.4712937000235367, ABpraaapa, 0, 0, 0, 0, , 0, 0, 0, 0, 0, 
816, 1, 816, 816, 7510, 6.752497952934797, -2.540009879675308, 4.164867283279042, 1.4712937000235367, ABprapppa, 0, 0, 0, 0, , 0, 0, 0, 0, 0, 
34, 1, 34, 34, 7511, -4.681818384048386, 5.104106788191481, -4.6364963456160915, 1.546744658999103, ABalpaapp, 0, 0, 0, 0, , 0, 0, 0, 0, 0, 
3078, 1, 3078, 3078, 7512, -2.46205366550992, 1.8138699181926414, 0.8135815899795501, 1.395842741047971, MSppaaa, 0, 0, 0, 0, , 0, 0, 0, 0, 0, 
77, 1, 77, 77, 7513, 6.111384644789736, -0.3738202460706217, 6.476255318982794, 1.4712937000235367, ABprppaap, 0, 0, 0, 0, , 0, 0, 0, 0, 0, 
61, 1, 61, 61, 7514, -4.246852188825931, -4.551857035739748, 1.8389827998621566, 1.546744658999103, ABarpaaap, 0, 0, 0, 0, , 0, 0, 0, 0, 0, 
269, 1, 269, 269, 7515, 0.7067134104865275, 0.03751308810079315, 5.34167706494658, 1.546744658999103, ABarapppa, 0, 0, 0, 0, , 0, 0, 0, 0, 0, 
475, 1, 475, 475, 7516, -11.01671864379337, 3.200752290477323, -1.3008406156366636, 1.546744658999103, ABalpapaa, 0, 0, 0, 0, , 0, 0, 0, 0, 0, 
1122, 1, 1122, 1122, 7517, -10.131253704295254, -3.7943618878785546, -2.0524971806807986, 1.546744658999103, ABalaaapa, 0, 0, 0, 0, , 0, 0, 0, 0, 0, 
83, 1, 83, 83, 7518, 1.1354381146284587, -7.340585550160646, -1.0884586129171678, 1.4712937000235367, ABplappap, 0, 0, 0, 0, , 0, 0, 0, 0, 0, 
9, 1, 9, 9, 7519, 2.694079662796211, -1.0822442601735864, 7.188715576425582, 1.546744658999103, ABarapppp, 0, 0, 0, 0, , 0, 0, 0, 0, 0, 
150, 1, 150, 150, 7520, 8.894181672915607, 2.215767185905428, -1.1100861286236725, 1.6044169437333, Daap, 0, 0, 0, 0, , 0, 0, 0, 0, 0, 
38, 1, 38, 38, 7521, -0.023436335033625768, -6.520956510422234, -3.604894956474378, 1.4712937000235367, ABpraaapp, 0, 0, 0, 0, , 0, 0, 0, 0, 0, 
88, 1, 88, 88, 7522, -3.468676686493796, 0.19655014881711041, -7.149024672616064, 1.546744658999103, ABalppaap, 0, 0, 0, 0, , 0, 0, 0, 0, 0, 
484, 1, 484, 484, 7523, 8.165018826656011, 1.3797307683506232, 5.4458776269231315, 1.4712937000235367, ABprpppaa, 0, 0, 0, 0, , 0, 0, 0, 0, 0, 
19, 1, 19, 19, 7524, -0.19208106985736778, -0.1550433795308018, -0.15132871331342693, 1.4712937000235367, ABpraappp, 0, 0, 0, 0, , 0, 0, 0, 0, 0, 
56, 1, 56, 56, 7525, -5.442504331345145, -2.8238695249600947, 6.072411831922318, 1.546744658999103, ABarapaap, 0, 0, 0, 0, , 0, 0, 0, 0, 0, 
11, 1, 11, 11, 7526, 6.416995251084774, 0.23750945859560818, 3.4451951945563017, 1.4712937000235367, ABprapppp, 0, 0, 0, 0, , 0, 0, 0, 0, 0, 
