44, 1, 44, 44, 7915, -2.3427264712542732, -2.4540542492491464, -6.895153472566432, 1.546744658999103, ABalapapp, 0, 0, 0, 0, , 0, 0, 0, 0, 0, 
88, 1, 88, 88, 7916, -3.3835551582110273, 0.21574126481273967, -7.163988589389995, 1.546744658999103, ABalppaap, 0, 0, 0, 0, , 0, 0, 0, 0, 0, 
38, 1, 38, 38, 7917, 0.09197511047512304, -6.466770238692613, -3.7195538305892075, 1.4712937000235367, ABpraaapp, 0, 0, 0, 0, , 0, 0, 0, 0, 0, 
375, 1, 375, 375, 7918, -3.025022009126576, -5.898124321868604, -4.168192814379923, 1.4712937000235367, ABplaaapa, 0, 0, 0, 0, , 0, 0, 0, 0, 0, 
484, 1, 484, 484, 7919, 8.241593015915326, 1.355895080617512, 5.410900969159419, 1.4712937000235367, ABprpppaa, 0, 0, 0, 0, , 0, 0, 0, 0, 0, 
39, 1, 39, 39, 7920, -7.151897349765758, 2.897994120736583, -0.334375169538475, 1.546744658999103, ABarppapp, 0, 0, 0, 0, , 0, 0, 0, 0, 0, 
2598, 1, 2598, 2598, 7921, -0.3182801425916372, 3.6677863877618355, 3.9555596575424765, 1.395842741047971, MSpappa, 0, 0, 0, 0, , 0, 0, 0, 0, 0, 
4621, 1, 4621, 4621, 7922, 10.754716215004589, -0.032946457047724725, -0.5640088864584558, 1.6044169437333, Dppa, 0, 0, 0, 0, , 0, 0, 0, 0, 0, 
35, 1, 35, 35, 7923, -3.2842451317972636, -4.592359595784449, -0.9533020483532513, 1.546744658999103, ABarpaapp, 0, 0, 0, 0, , 0, 0, 0, 0, 0, 
2306, 1, 2306, 2306, 7924, 7.7795057405073225, -5.805834910373563, 0.2454764408358827, 1.6044169437333, Cppaa, 0, 0, 0, 0, , 0, 0, 0, 0, 0, 
3119, 1, 3119, 3119, 7925, -4.58434430232292, 6.571420378741674, -2.1624078184934516, 1.395842741047971, MSapaaa, 0, 0, 0, 0, , 0, 0, 0, 0, 0, 
14, 1, 14, 14, 7926, 1.7759818147248931, 1.395724986209453, -1.8351784773446755, 1.84415740659, Earp, 0, 0, 0, 0, , 0, 0, 0, 0, 0, 
404, 1, 404, 404, 7927, 1.330492266481259, 6.3413016957705945, -3.827103204886549, 1.546744658999103, ABalppppa, 0, 0, 0, 0, , 0, 0, 0, 0, 0, 
21, 1, 21, 21, 7928, 0.6097319220877208, -4.511775678315806, -0.7276239581097221, 1.4712937000235367, ABplaappp, 0, 0, 0, 0, , 0, 0, 0, 0, 0, 
31, 1, 31, 31, 7929, -1.216222212726646, -4.024812912562133, -2.905389790107714, 1.4712937000235367, ABplaaapp, 0, 0, 0, 0, , 0, 0, 0, 0, 0, 
45, 1, 45, 45, 7930, 3.8692872602145876, 7.036126231186783, -0.7243176040695067, 1.84415740659, Ealp, 0, 0, 0, 0, , 0, 0, 0, 0, 0, 
515, 1, 515, 515, 7931, 3.70434343363719, 1.08739012218296, 0.27531012466952204, 1.6044169437333, Caapa, 0, 0, 0, 0, , 0, 0, 0, 0, 0, 
111, 1, 111, 111, 7932, 0.5722616277830536, 3.1541521209868226, 6.743122513258564, 1.395842741047971, MSpapap, 0, 0, 0, 0, , 0, 0, 0, 0, 0, 
1, 1, 1, 1, 7933, 8.263753038818058, 5.252759653504803, 1.819305174533647, 1.4712937000235367, ABprppppp, 0, 0, 0, 0, , 0, 0, 0, 0, 0, 
1122, 1, 1122, 1122, 7934, -10.101041246059768, -3.8244887075035185, -2.039008385965193, 1.546744658999103, ABalaaapa, 0, 0, 0, 0, , 0, 0, 0, 0, 0, 
988, 1, 988, 988, 7935, 0.5523274838550153, -2.3414584273979506, 1.4034408955053226, 1.4712937000235367, ABplapppa, 0, 0, 0, 0, , 0, 0, 0, 0, 0, 
298, 1, 298, 298, 7936, 3.1176646737162543, 1.7910612276327484, 6.982168871681138, 1.4712937000235367, ABprpapaa, 0, 0, 0, 0, , 0, 0, 0, 0, 0, 
9, 1, 9, 9, 7937, 2.7211014727203255, -1.069094622695924, 7.193943095052522, 1.546744658999103, ABarapppp, 0, 0, 0, 0, , 0, 0, 0, 0, 0, 
112, 1, 112, 112, 7938, -1.4871743586319683, -0.541728458353251, 2.3753183435191385, 1.395842741047971, MSpaaap, 0, 0, 0, 0, , 0, 0, 0, 0, 0, 
497, 1, 497, 497, 7939, -5.235782828885442, 0.652505980664927, 1.4980946733305573, 1.546744658999103, ABarpappa, 0, 0, 0, 0, , 0, 0, 0, 0, 0, 
2637, 1, 2637, 2637, 7940, 2.4074329774238405, 4.181920304857946, -2.2296671678403412, 1.395842741047971, MSppapa, 0, 0, 0, 0, , 0, 0, 0, 0, 0, 
47, 1, 47, 47, 7941, 0.22677204880183563, 1.7342425541493016, 1.8634333677785286, 1.395842741047971, MSpaapp, 0, 0, 0, 0, , 0, 0, 0, 0, 0, 
60, 1, 60, 60, 7942, 8.884337881423132, 4.956085506558617, -1.6303153581386371, 2.119721157, Z2, 0, 0, 0, 0, , 0, 0, 0, 0, 0, 
598, 1, 598, 598, 7943, 9.616199117962497, -2.631651939312113, 3.9251450865020536, 1.4712937000235367, ABprppapa, 0, 0, 0, 0, , 0, 0, 0, 0, 0, 
67, 1, 67, 67, 7944, 2.7474109516235883, -7.163495376827189, 1.2271404850122307, 1.4712937000235367, ABprapaap, 0, 0, 0, 0, , 0, 0, 0, 0, 0, 
48, 1, 48, 48, 7945, 10.958006116455046, 0.4916116003148664, -3.4873677935619694, 1.6044169437333, Dapp, 0, 0, 0, 0, , 0, 0, 0, 0, 0, 
86, 1, 86, 86, 7946, 2.6799085477515225, -5.432840544008964, 4.838692541264496, 1.4712937000235367, ABprpaaap, 0, 0, 0, 0, , 0, 0, 0, 0, 0, 
109, 1, 109, 109, 7947, -6.386562759555782, 2.970016522883171, 2.810693824215429, 1.395842741047971, MSaaaap, 0, 0, 0, 0, , 0, 0, 0, 0, 0, 
1053, 1, 1053, 1053, 7948, -6.805392077375212, -6.14892583786558, 1.0110920200723639, 1.546744658999103, ABarpaaaa, 0, 0, 0, 0, , 0, 0, 0, 0, 0, 
269, 1, 269, 269, 7949, 0.7396601374230546, 0.07035979213388077, 5.289352885454681, 1.546744658999103, ABarapppa, 0, 0, 0, 0, , 0, 0, 0, 0, 0, 
91, 1, 91, 91, 7950, 7.5952348559477265, 3.993797221721605, 4.336090963554614, 1.4712937000235367, ABprpppap, 0, 0, 0, 0, , 0, 0, 0, 0, 0, 
1501, 1, 1501, 1501, 7951, -11.679603525026844, -1.4020153254632168, -2.106537112682776, 1.546744658999103, ABalaaaal, 0, 0, 0, 0, , 0, 0, 0, 0, 0, 
49, 1, 49, 49, 7952, -4.194114156695452, 1.9765789845038242, 6.731911788947753, 1.395842741047971, MSaaapp, 0, 0, 0, 0, , 0, 0, 0, 0, 0, 
18, 1, 18, 18, 7953, 4.949376660329433, 5.17285969503078, 4.461477156712319, 1.4712937000235367, ABprpappp, 0, 0, 0, 0, , 0, 0, 0, 0, 0, 
716, 1, 716, 716, 7954, 3.9542838382898893, 0.0873806078134921, 4.740218348788763, 1.4712937000235367, ABprppaaa, 0, 0, 0, 0, , 0, 0, 0, 0, 0, 
53, 1, 53, 53, 7955, 5.470680773254094, -6.418887339731536, 1.8642749053221481, 1.6044169437333, Cpaap, 0, 0, 0, 0, , 0, 0, 0, 0, 0, 
250, 1, 250, 250, 7956, 4.693087853372558, -6.837110987580156, -0.8880862282271481, 1.6044169437333, Cpaaa, 0, 0, 0, 0, , 0, 0, 0, 0, 0, 
74, 1, 74, 74, 7957, -9.417720350156825, 0.497234555236081, 4.839058627138723, 1.546744658999103, ABaraaaap, 0, 0, 0, 0, , 0, 0, 0, 0, 0, 
57, 1, 57, 57, 7958, -1.3456470586576776, -4.52389485389629, 1.4021673989920513, 1.4712937000235367, ABpraapap, 0, 0, 0, 0, , 0, 0, 0, 0, 0, 
3969, 1, 3969, 3969, 7959, -0.8056394198248207, 7.34513476401128, 1.1436855803616917, 1.395842741047971, MSapppa, 0, 0, 0, 0, , 0, 0, 0, 0, 0, 
503, 1, 503, 503, 7960, -7.8058733655056605, -5.554598922676671, -1.6396442379910154, 1.4712937000235367, ABplaaaaa, 0, 0, 0, 0, , 0, 0, 0, 0, 0, 
46, 1, 46, 46, 7961, 6.271677809475212, 4.498120357160646, -4.600636268671022, 1.84415740659, Eplp, 0, 0, 0, 0, , 0, 0, 0, 0, 0, 
77, 1, 77, 77, 7962, 6.225394070260375, -0.47932628133581234, 6.430998383617655, 1.4712937000235367, ABprppaap, 0, 0, 0, 0, , 0, 0, 0, 0, 0, 
816, 1, 816, 816, 7963, 6.753338028433874, -2.404125670688133, 4.2369583173095, 1.4712937000235367, ABprapppa, 0, 0, 0, 0, , 0, 0, 0, 0, 0, 
16, 1, 16, 16, 7964, -4.627910954302823, 1.3392332679853336, -1.2471274004736972, 1.546744658999103, ABarpappp, 0, 0, 0, 0, , 0, 0, 0, 0, 0, 
696, 1, 696, 696, 7965, 0.6838565527200368, -6.716273554586512, 3.1902694250084656, 1.4712937000235367, ABprapaaa, 0, 0, 0, 0, , 0, 0, 0, 0, 0, 
622, 1, 622, 622, 7966, -7.856603218306994, -1.547127752991038, -5.560709504924971, 1.546744658999103, ABalapaaa, 0, 0, 0, 0, , 0, 0, 0, 0, 0, 
210, 1, 210, 210, 7967, 2.499361541483451, -1.4140397333977794, -0.8231912759342669, 1.6044169437333, Caaaa, 0, 0, 0, 0, , 0, 0, 0, 0, 0, 
116, 1, 116, 116, 7968, -5.422585480004271, 6.102947680181867, 2.772094101493046, 1.395842741047971, MSaapap, 0, 0, 0, 0, , 0, 0, 0, 0, 0, 
12, 1, 12, 12, 7969, 2.459207396106343, -4.416849320540842, 2.06941673869337, 1.4712937000235367, ABplapppp, 0, 0, 0, 0, , 0, 0, 0, 0, 0, 
84, 1, 84, 84, 7970, -8.865469405896421, -1.125811470915151, -2.839890635677583, 1.546744658999103, ABalaapap, 0, 0, 0, 0, , 0, 0, 0, 0, 0, 
660, 1, 660, 660, 7971, 3.6905052937057206, -2.739016562776117, -6.567328043682405, 1.4712937000235367, ABplppapa, 0, 0, 0, 0, , 0, 0, 0, 0, 0, 
7, 1, 7, 7, 7972, 8.732524273071336, -0.2955996521528184, -5.291343102366781, 1.84415740659, Eprp, 0, 0, 0, 0, , 0, 0, 0, 0, 0, 
4244, 1, 4244, 4244, 7973, -2.6129511664524063, 6.460035347807775, 3.351856610838553, 1.395842741047971, MSappaa, 0, 0, 0, 0, , 0, 0, 0, 0, 0, 
240, 1, 240, 240, 7974, 3.4932468291630117, -4.2110280828297295, -0.6300041332694427, 1.6044169437333, Cpapa, 0, 0, 0, 0, , 0, 0, 0, 0, 0, 
36, 1, 36, 36, 7975, 10.449694206742437, 0.144953812895538, 4.019231017774105, 1.4712937000235367, ABprppapp, 0, 0, 0, 0, , 0, 0, 0, 0, 0, 
615, 1, 615, 615, 7976, 8.593198394119288, -1.8509885167813067, -1.256037521295823, 1.4712937000235367, ABplppppa, 0, 0, 0, 0, , 0, 0, 0, 0, 0, 
124, 1, 124, 124, 7977, 4.666780264147522, 2.32322311973488, 2.7117432919182156, 1.395842741047971, MSpppap, 0, 0, 0, 0, , 0, 0, 0, 0, 0, 
54, 1, 54, 54, 7978, 4.75952366118908, -4.833575384926113, -4.902883974359465, 1.4712937000235367, ABplapaap, 0, 0, 0, 0, , 0, 0, 0, 0, 0, 
92, 1, 92, 92, 7979, 0.829456714363765, -2.7268833724656654, -6.915643729819607, 1.4712937000235367, ABplppaap, 0, 0, 0, 0, , 0, 0, 0, 0, 0, 
292, 1, 292, 292, 7980, -5.639612867566919, -2.0765963165906314, 2.4005682253625427, 1.4712937000235367, ABpraapaa, 0, 0, 0, 0, , 0, 0, 0, 0, 0, 
34, 1, 34, 34, 7981, -4.596033638274528, 5.126161104329839, -4.65455162436147, 1.546744658999103, ABalpaapp, 0, 0, 0, 0, , 0, 0, 0, 0, 0, 
689, 1, 689, 689, 7982, -2.2052811573343774, -6.552629889545924, 3.294442255052838, 1.4712937000235367, ABpraaaaa, 0, 0, 0, 0, , 0, 0, 0, 0, 0, 
325, 1, 325, 325, 7983, 0.0014480886499212446, -1.7805323645889535, -4.297153572407123, 1.4712937000235367, ABplpapaa, 0, 0, 0, 0, , 0, 0, 0, 0, 0, 
463, 1, 463, 463, 7984, 0.05472683990283936, 4.662914027139473, -5.802455240186896, 1.546744658999103, ABalpppaa, 0, 0, 0, 0, , 0, 0, 0, 0, 0, 
5, 1, 5, 5, 7985, 4.185123797280912, 6.1140027286666125, -3.457269565297966, 1.546744658999103, ABalppppp, 0, 0, 0, 0, , 0, 0, 0, 0, 0, 
123, 1, 123, 123, 7986, -1.7430355290097177, 4.6613063964563475, 0.6407815504687745, 1.395842741047971, MSppaap, 0, 0, 0, 0, , 0, 0, 0, 0, 0, 
1195, 1, 1195, 1195, 7987, -1.4699252433443495, 1.1995850447244736, 7.304447223013659, 1.395842741047971, MSpapaa, 0, 0, 0, 0, , 0, 0, 0, 0, 0, 
19, 1, 19, 19, 7988, -0.15433093017175337, -0.1318281213409499, -0.31054697264399056, 1.4712937000235367, ABpraappp, 0, 0, 0, 0, , 0, 0, 0, 0, 0, 
63, 1, 63, 63, 7989, -3.2514861686588232, 4.047392210310055, -1.7528096105180762, 1.546744658999103, ABarpppap, 0, 0, 0, 0, , 0, 0, 0, 0, 0, 
293, 1, 293, 293, 7990, -4.112112869595231, -7.017561299995575, 0.3937565669577526, 1.546744658999103, ABarpaapa, 0, 0, 0, 0, , 0, 0, 0, 0, 0, 
320, 1, 320, 320, 7991, -5.126805736821487, -6.405661097307558, -2.2468654618148163, 1.4712937000235367, ABpraaapa, 0, 0, 0, 0, , 0, 0, 0, 0, 0, 
64, 1, 64, 64, 7992, -10.491593424354505, 3.719142676659178, 1.4711940113389916, 1.546744658999103, ABalpapap, 0, 0, 0, 0, , 0, 0, 0, 0, 0, 
647, 1, 647, 647, 7993, 2.7265254005750563, -2.461340118194608, 4.198050298698224, 1.4712937000235367, ABprpaapa, 0, 0, 0, 0, , 0, 0, 0, 0, 0, 
3451, 1, 3451, 3451, 7994, 1.0526387604875909, 4.032181414239111, 0.30980776192519427, 1.395842741047971, MSpppaa, 0, 0, 0, 0, , 0, 0, 0, 0, 0, 
323, 1, 323, 323, 7995, -0.5521417655528397, -0.25277056693968175, -7.43869750504425, 1.4712937000235367, ABplpaaaa, 0, 0, 0, 0, , 0, 0, 0, 0, 0, 
697, 1, 697, 697, 7996, 11.323305433235834, -2.799026613979226, -1.2334304301317358, 1.6044169437333, Cpppa, 0, 0, 0, 0, , 0, 0, 0, 0, 0, 
6, 1, 6, 6, 7997, 9.120179868593842, -4.636264140493046, -2.038212207106283, 1.4712937000235367, ABplppppp, 0, 0, 0, 0, , 0, 0, 0, 0, 0, 
71, 1, 71, 71, 7998, -8.657844417462943, 1.4823598599179895, 1.6944323591680301, 1.546744658999103, ABarppaap, 0, 0, 0, 0, , 0, 0, 0, 0, 0, 
8, 1, 8, 8, 7999, 11.887047970785213, 1.2516910414663087, 1.7630388860284998, 1.6044169437333, Cpppp, 0, 0, 0, 0, , 0, 0, 0, 0, 0, 
148, 1, 148, 148, 8000, -0.4461441414145079, 4.709937128420431, -2.076204540854342, 1.84415740659, Eala, 0, 0, 0, 0, , 0, 0, 0, 0, 0, 
1504, 1, 1504, 1504, 8001, 5.9418509532311665, -0.7246465330185635, 0.02617812584919751, 1.6044169437333, Cappa, 0, 0, 0, 0, , 0, 0, 0, 0, 0, 
66, 1, 66, 66, 8002, 1.3510701435112447, -3.509262281683486, 6.52611919016259, 1.546744658999103, ABarappap, 0, 0, 0, 0, , 0, 0, 0, 0, 0, 
280, 1, 280, 280, 8003, -8.074300389838346, -2.0464281056426596, 5.2784295405508, 1.546744658999103, ABaraapaa, 0, 0, 0, 0, , 0, 0, 0, 0, 0, 
4, 1, 4, 4, 8004, 6.6494112570736315, 6.2853317172615135, -0.3529800014556835, 2.119721157, Z3, 0, 0, 0, 0, , 0, 0, 0, 0, 0, 
1307, 1, 1307, 1307, 8005, -9.038614079915304, 3.231387960963428, 3.964373942990884, 1.395842741047971, MSaaaaa, 0, 0, 0, 0, , 0, 0, 0, 0, 0, 
600, 1, 600, 600, 8006, -4.1945385751786715, 2.8640499726422637, -6.402401986005028, 1.546744658999103, ABalppapa, 0, 0, 0, 0, , 0, 0, 0, 0, 0, 
76, 1, 76, 76, 8007, -6.255909652822093, -0.12610668608106906, 6.43906703182748, 1.546744658999103, ABaraapap, 0, 0, 0, 0, , 0, 0, 0, 0, 0, 
132, 1, 132, 132, 8008, -1.8342938299106915, 1.5347083908661898, -1.9705139845606297, 1.84415740659, Eara, 0, 0, 0, 0, , 0, 0, 0, 0, 0, 
30, 1, 30, 30, 8009, 2.271434628113683, -0.23622604535407704, 2.4120996813352087, 1.4712937000235367, ABprapapp, 0, 0, 0, 0, , 0, 0, 0, 0, 0, 
808, 1, 808, 808, 8010, 5.213257537993831, -2.466821711137664, -3.2739562699641835, 1.4712937000235367, ABplpppaa, 0, 0, 0, 0, , 0, 0, 0, 0, 0, 
241, 1, 241, 241, 8011, -2.2164538769703674, -2.1066983190871653, 0.07092162646487025, 1.4712937000235367, ABpraappa, 0, 0, 0, 0, , 0, 0, 0, 0, 0, 
531, 1, 531, 531, 8012, -1.3937632337768078, 2.4543213943596953, -6.976820430273918, 1.546744658999103, ABalapppa, 0, 0, 0, 0, , 0, 0, 0, 0, 0, 
5583, 1, 5583, 5583, 8013, 8.981546999299244, 0.826066435985752, 1.5698891533881876, 1.6044169437333, Dpaa, 0, 0, 0, 0, , 0, 0, 0, 0, 0, 
50, 1, 50, 50, 8014, 4.395825576380802, 4.246423430748761, -0.11726212840500744, 1.395842741047971, MSppapp, 0, 0, 0, 0, , 0, 0, 0, 0, 0, 
5253, 1, 5253, 5253, 8015, 6.315242373976544, 3.1204277455382226, -2.0182833087207, 1.6044169437333, Daaa, 0, 0, 0, 0, , 0, 0, 0, 0, 0, 
10, 1, 10, 10, 8016, 1.4926118161355502, 2.456122568751931, -6.988430967515648, 1.546744658999103, ABalapppp, 0, 0, 0, 0, , 0, 0, 0, 0, 0, 
17, 1, 17, 17, 8017, -0.6271873845752554, -1.5589200608342175, 7.27537194442149, 1.546744658999103, ABaraappp, 0, 0, 0, 0, , 0, 0, 0, 0, 0, 
754, 1, 754, 754, 8018, -7.396254217757744, 0.0164684824160066, -0.5842699221626194, 1.546744658999103, ABalaappa, 0, 0, 0, 0, , 0, 0, 0, 0, 0, 
79, 1, 79, 79, 8019, 7.435355645409343, 0.32127526483348057, -2.778971851105694, 1.6044169437333, Capap, 0, 0, 0, 0, , 0, 0, 0, 0, 0, 
40, 1, 40, 40, 8020, 6.535871679058353, -5.691443612210797, -2.7906816712923748, 1.4712937000235367, ABplapapp, 0, 0, 0, 0, , 0, 0, 0, 0, 0, 
260, 1, 260, 260, 8021, -4.253910504596518, -5.144218894280381, 4.736753125939012, 1.546744658999103, ABarapapa, 0, 0, 0, 0, , 0, 0, 0, 0, 0, 
227, 1, 227, 227, 8022, -2.848317996396823, -1.640350226914486, -2.7133753689238977, 1.4712937000235367, ABplaappa, 0, 0, 0, 0, , 0, 0, 0, 0, 0, 
1567, 1, 1567, 1567, 8023, -6.789560949876034, 2.607848211246584, 5.6681863592569, 1.395842741047971, MSaaapa, 0, 0, 0, 0, , 0, 0, 0, 0, 0, 
3, 1, 3, 3, 8024, 4.8933376740806755, 6.572494991734931, 1.9342274836513755, 1.395842741047971, MSppppp, 0, 0, 0, 0, , 0, 0, 0, 0, 0, 
75, 1, 75, 75, 8025, 2.3415537426796393, -0.295175581757798, -7.303569970222086, 1.4712937000235367, ABplpaaap, 0, 0, 0, 0, , 0, 0, 0, 0, 0, 
96, 1, 96, 96, 8026, -1.9266264529430157, 0.3395535224793011, -4.670159067795497, 1.546744658999103, ABalappap, 0, 0, 0, 0, , 0, 0, 0, 0, 0, 
80, 1, 80, 80, 8027, -5.039895158890321, -1.6347661344930215, -0.39996829643053444, 1.546744658999103, ABarpapap, 0, 0, 0, 0, , 0, 0, 0, 0, 0, 
287, 1, 287, 287, 8028, 2.0203697564861525, -3.401939235539806, -2.998541930569166, 1.4712937000235367, ABplpappa, 0, 0, 0, 0, , 0, 0, 0, 0, 0, 
336, 1, 336, 336, 8029, -7.650117793977651, -2.8484120978236733, -0.643459243564669, 1.4712937000235367, ABplaapaa, 0, 0, 0, 0, , 0, 0, 0, 0, 0, 
475, 1, 475, 475, 8030, -10.97669910521034, 3.2279295426981123, -1.3332219483813126, 1.546744658999103, ABalpapaa, 0, 0, 0, 0, , 0, 0, 0, 0, 0, 
693, 1, 693, 693, 8031, -2.150566918983644, -7.128200802092299, -1.7179706513570807, 1.4712937000235367, ABplappaa, 0, 0, 0, 0, , 0, 0, 0, 0, 0, 
65, 1, 65, 65, 8032, -5.356027045587363, -4.448707059910376, -5.035816298961536, 1.4712937000235367, ABplaaaap, 0, 0, 0, 0, , 0, 0, 0, 0, 0, 
761, 1, 761, 761, 8033, -9.15551157225293, 3.5635358002444826, -3.563170910269405, 1.546744658999103, ABalpaaaa, 0, 0, 0, 0, , 0, 0, 0, 0, 0, 
25, 1, 25, 25, 8034, 2.1926501244075003, 5.067722799807119, 5.298180359405825, 1.395842741047971, MSpappp, 0, 0, 0, 0, , 0, 0, 0, 0, 0, 
4410, 1, 4410, 4410, 8035, 9.24699057174576, 3.0024973373169908, -3.9681084839062777, 1.6044169437333, Dapa, 0, 0, 0, 0, , 0, 0, 0, 0, 0, 
364, 1, 364, 364, 8036, 5.508423697095059, -5.018441141204689, 4.400102390361797, 1.4712937000235367, ABprappaa, 0, 0, 0, 0, , 0, 0, 0, 0, 0, 
26, 1, 26, 26, 8037, -2.13972635143168, 3.94904249830678, 6.1798197250351645, 1.395842741047971, MSaappp, 0, 0, 0, 0, , 0, 0, 0, 0, 0, 
62, 1, 62, 62, 8038, 8.023182194558073, -4.8533432331041375, 2.972946597165972, 1.4712937000235367, ABprappap, 0, 0, 0, 0, , 0, 0, 0, 0, 0, 
392, 1, 392, 392, 8039, -5.161773781120777, -1.9672080116599953, -6.488826277810775, 1.546744658999103, ABalapapa, 0, 0, 0, 0, , 0, 0, 0, 0, 0, 
256, 1, 256, 256, 8040, -0.19108434578443972, -2.4973370019511236, 4.270260163983651, 1.4712937000235367, ABprapapa, 0, 0, 0, 0, , 0, 0, 0, 0, 0, 
2479, 1, 2479, 2479, 8041, -4.750607537902348, 4.586151370490478, 5.134096166967505, 1.395842741047971, MSaappa, 0, 0, 0, 0, , 0, 0, 0, 0, 0, 
150, 1, 150, 150, 8042, 8.864248955605001, 2.1195298379097363, -1.0215445426166925, 1.6044169437333, Daap, 0, 0, 0, 0, , 0, 0, 0, 0, 0, 
56, 1, 56, 56, 8043, -5.419756723648865, -2.8506316403304623, 6.067316728541676, 1.546744658999103, ABarapaap, 0, 0, 0, 0, , 0, 0, 0, 0, 0, 
1418, 1, 1418, 1418, 8044, -6.150862519505761, 0.7387221686798052, -6.425278137797183, 1.546744658999103, ABalppaaa, 0, 0, 0, 0, , 0, 0, 0, 0, 0, 
498, 1, 498, 498, 8045, -6.597181531881624, 4.550919187108193, -2.633664298644652, 1.546744658999103, ABarpppaa, 0, 0, 0, 0, , 0, 0, 0, 0, 0, 
330, 1, 330, 330, 8046, -6.933416593029901, -4.987813693894461, 3.64592819957988, 1.546744658999103, ABarapaaa, 0, 0, 0, 0, , 0, 0, 0, 0, 0, 
82, 1, 82, 82, 8047, -8.826018114967077, 5.168280897072981, -0.8962389358739646, 1.546744658999103, ABalpaaap, 0, 0, 0, 0, , 0, 0, 0, 0, 0, 
3876, 1, 3876, 3876, 8048, 2.849050061509491, 4.560975042774289, 2.521064931706406, 1.395842741047971, MSppppa, 0, 0, 0, 0, , 0, 0, 0, 0, 0, 
69, 1, 69, 69, 8049, -8.716884948196832, 1.1850135700621531, -5.167521962139504, 1.546744658999103, ABalapaap, 0, 0, 0, 0, , 0, 0, 0, 0, 0, 
41, 1, 41, 41, 8050, 4.70691719264893, -2.9303164327675715, 6.242814883480131, 1.4712937000235367, ABprpaapp, 0, 0, 0, 0, , 0, 0, 0, 0, 0, 
23, 1, 23, 23, 8051, -6.953069940707368, 1.6419181504524882, -2.933518715290818, 1.546744658999103, ABalaappp, 0, 0, 0, 0, , 0, 0, 0, 0, 0, 
500, 1, 500, 500, 8052, 4.301714973350594, 1.7833078346330737, -6.7553117288770625, 1.4712937000235367, ABplpaapa, 0, 0, 0, 0, , 0, 0, 0, 0, 0, 
776, 1, 776, 776, 8053, -10.241452808808704, 0.5499591504206964, -0.524156450694725, 1.546744658999103, ABarppapa, 0, 0, 0, 0, , 0, 0, 0, 0, 0, 
93, 1, 93, 93, 8054, -11.563452258688997, -2.665643352733965, 0.6010636552119889, 1.546744658999103, ABalaaaar, 0, 0, 0, 0, , 0, 0, 0, 0, 0, 
231, 1, 231, 231, 8055, -6.40272718245597, 6.383888110425247, 0.06729394555440416, 1.546744658999103, ABalpappa, 0, 0, 0, 0, , 0, 0, 0, 0, 0, 
42, 1, 42, 42, 8056, 6.270742342680459, -1.4844509820132317, -6.2608993028627005, 1.4712937000235367, ABplppapp, 0, 0, 0, 0, , 0, 0, 0, 0, 0, 
58, 1, 58, 58, 8057, 0.8889061449489963, 0.9970458007765541, -4.5636050575163045, 1.4712937000235367, ABplpapap, 0, 0, 0, 0, , 0, 0, 0, 0, 0, 
360, 1, 360, 360, 8058, 2.2375657010069583, 2.3527921079472134, 4.287377750326332, 1.4712937000235367, ABprpappa, 0, 0, 0, 0, , 0, 0, 0, 0, 0, 
11, 1, 11, 11, 8059, 6.652791981777926, 0.2907107571688383, 3.223540490399951, 1.4712937000235367, ABprapppp, 0, 0, 0, 0, , 0, 0, 0, 0, 0, 
352, 1, 352, 352, 8060, -9.457454894755887, -4.7898231051141815, 0.612542235741428, 1.546744658999103, ABaraaapa, 0, 0, 0, 0, , 0, 0, 0, 0, 0, 
619, 1, 619, 619, 8061, -11.908842453003487, 1.2015665932823967, 1.7612579429641964, 1.546744658999103, ABarppaaa, 0, 0, 0, 0, , 0, 0, 0, 0, 0, 
28, 1, 28, 28, 8062, 6.3006580940506804, -3.5532562974491775, -0.8186424585649189, 1.6044169437333, Cpapp, 0, 0, 0, 0, , 0, 0, 0, 0, 0, 
70, 1, 70, 70, 8063, 2.936116958950959, 4.596053487499102, -5.583775994786488, 1.546744658999103, ABalpppap, 0, 0, 0, 0, , 0, 0, 0, 0, 0, 
326, 1, 326, 326, 8064, -6.808547578031435, 3.3545389022352596, -5.2560926485732615, 1.546744658999103, ABalpaapa, 0, 0, 0, 0, , 0, 0, 0, 0, 0, 
51, 1, 51, 51, 8065, 1.023917752040316, 7.339810518137724, -1.1472536801917441, 1.395842741047971, MSapapp, 0, 0, 0, 0, , 0, 0, 0, 0, 0, 
37, 1, 37, 37, 8066, -2.2208874422485447, 3.1832982570411943, -4.3114863444750515, 1.546744658999103, ABalppapp, 0, 0, 0, 0, , 0, 0, 0, 0, 0, 
499, 1, 499, 499, 8067, -0.6130634983646205, -5.220255827432787, 5.294271588439905, 1.4712937000235367, ABprpaaaa, 0, 0, 0, 0, , 0, 0, 0, 0, 0, 
638, 1, 638, 638, 8068, 1.9231996935429296, -4.9626903597577625, -5.433634609317155, 1.4712937000235367, ABplapaaa, 0, 0, 0, 0, , 0, 0, 0, 0, 0, 
87, 1, 87, 87, 8069, 7.432496397354991, -3.670507818572425, -4.713706721486771, 1.4712937000235367, ABplpppap, 0, 0, 0, 0, , 0, 0, 0, 0, 0, 
22, 1, 22, 22, 8070, 10.538538290234996, 3.921480859766388, 0.5253885008469416, 1.6044169437333, Dppp, 0, 0, 0, 0, , 0, 0, 0, 0, 0, 
1330, 1, 1330, 1330, 8071, -0.9285136931693019, -4.698940738478448, -5.749861190664599, 1.4712937000235367, ABplppaaa, 0, 0, 0, 0, , 0, 0, 0, 0, 0, 
1178, 1, 1178, 1178, 8072, -11.068751161927592, -1.2092663350062096, 3.15597514698029, 1.546744658999103, ABaraaaaa, 0, 0, 0, 0, , 0, 0, 0, 0, 0, 
3023, 1, 3023, 3023, 8073, -1.836645307582818, 7.204085766036644, -1.5611384509613728, 1.395842741047971, MSapapa, 0, 0, 0, 0, , 0, 0, 0, 0, 0, 
128, 1, 128, 128, 8074, 0.26293526604113193, 6.479388407717511, 3.662021248502645, 1.395842741047971, MSappap, 0, 0, 0, 0, , 0, 0, 0, 0, 0, 
24, 1, 24, 24, 8075, 2.933921980473893, -1.0335962741577218, -4.3672874059718065, 1.4712937000235367, ABplpappp, 0, 0, 0, 0, , 0, 0, 0, 0, 0, 
15, 1, 15, 15, 8076, 11.653276292572277, -1.7248166562220766, 1.9254244814372585, 1.6044169437333, Cappp, 0, 0, 0, 0, , 0, 0, 0, 0, 0, 
1047, 1, 1047, 1047, 8077, -8.101547450801538, 5.2340672907477765, 2.105854178158396, 1.395842741047971, MSaapaa, 0, 0, 0, 0, , 0, 0, 0, 0, 0, 
27, 1, 27, 27, 8078, 6.815830033363271, 2.9344005978405816, 0.8514916911815367, 1.6044169437333, Caapp, 0, 0, 0, 0, , 0, 0, 0, 0, 0, 
1415, 1, 1415, 1415, 8079, -4.452105694482005, -0.14041715980643601, 4.1700339284464105, 1.395842741047971, MSpaaaa, 0, 0, 0, 0, , 0, 0, 0, 0, 0, 
32, 1, 32, 32, 8080, -9.421015687221635, -3.6088296045674384, 3.2457194816342962, 1.546744658999103, ABaraaapp, 0, 0, 0, 0, , 0, 0, 0, 0, 0, 
461, 1, 461, 461, 8081, -8.359858875392538, -1.3867563454973664, 1.7330867005573714, 1.546744658999103, ABarpapaa, 0, 0, 0, 0, , 0, 0, 0, 0, 0, 
1273, 1, 1273, 1273, 8082, -4.728358429577578, 0.14329776338496625, -3.9825257690953446, 1.546744658999103, ABalappaa, 0, 0, 0, 0, , 0, 0, 0, 0, 0, 
2196, 1, 2196, 2196, 8083, -2.0004511519731407, 1.3792694106008074, 4.472511610860263, 1.395842741047971, MSpaapa, 0, 0, 0, 0, , 0, 0, 0, 0, 0, 
842, 1, 842, 842, 8084, -4.747302180566405, 4.102236527863642, 0.7079019277162524, 1.546744658999103, ABarppppa, 0, 0, 0, 0, , 0, 0, 0, 0, 0, 
130, 1, 130, 130, 8085, -1.8974639154568245, 6.044219643018449, -4.2000590420693085, 1.395842741047971, MSapaap, 0, 0, 0, 0, , 0, 0, 0, 0, 0, 
13, 1, 13, 13, 8086, 2.0943425821466253, 7.179670929462817, 1.540884624365432, 1.395842741047971, MSapppp, 0, 0, 0, 0, , 0, 0, 0, 0, 0, 
83, 1, 83, 83, 8087, 1.168265306429213, -7.324972948172216, -1.1781294198149448, 1.4712937000235367, ABplappap, 0, 0, 0, 0, , 0, 0, 0, 0, 0, 
73, 1, 73, 73, 8088, -0.8815588909254192, -7.3855702185079775, 0.8580583621843474, 1.4712937000235367, ABpraaaap, 0, 0, 0, 0, , 0, 0, 0, 0, 0, 
61, 1, 61, 61, 8089, -4.22271980116484, -4.550460638039955, 1.9043883414668554, 1.546744658999103, ABarpaaap, 0, 0, 0, 0, , 0, 0, 0, 0, 0, 
439, 1, 439, 439, 8090, 8.054559104813702, -1.9523461359977137, 1.5778598287064003, 1.4712937000235367, ABprppppa, 0, 0, 0, 0, , 0, 0, 0, 0, 0, 
2, 1, 2, 2, 8091, -3.0475660323614364, 3.62730992369233, 3.003414910151258, 1.546744658999103, ABarppppp, 0, 0, 0, 0, , 0, 0, 0, 0, 0, 
165, 1, 165, 165, 8092, 9.908178995018709, -2.456786500474976, -3.7709744469665734, 1.84415740659, Epra, 0, 0, 0, 0, , 0, 0, 0, 0, 0, 
160, 1, 160, 160, 8093, 10.051570914658155, 2.961005471184397, 3.215322031629644, 1.6044169437333, Dpap, 0, 0, 0, 0, , 0, 0, 0, 0, 0, 
158, 1, 158, 158, 8094, 4.1951417222462934, 2.579683742927721, -3.963971805884511, 1.84415740659, Epla, 0, 0, 0, 0, , 0, 0, 0, 0, 0, 
52, 1, 52, 52, 8095, 5.054294792345018, -2.944869141985061, 1.8249580366616802, 1.6044169437333, Caaap, 0, 0, 0, 0, , 0, 0, 0, 0, 0, 
43, 1, 43, 43, 8096, -8.034711093171765, -3.992713348216708, -4.04568650867704, 1.546744658999103, ABalaaapp, 0, 0, 0, 0, , 0, 0, 0, 0, 0, 
33, 1, 33, 33, 8097, 7.017045325517768, 1.9864405650059243, -5.819900522264914, 1.4712937000235367, ABplpaapp, 0, 0, 0, 0, , 0, 0, 0, 0, 0, 
20, 1, 20, 20, 8098, -3.650038495073233, 7.0903835056957165, 0.691322473144716, 1.546744658999103, ABalpappp, 0, 0, 0, 0, , 0, 0, 0, 0, 0, 
29, 1, 29, 29, 8099, -3.030193686182436, -2.6061970579620777, 3.673904277715925, 1.546744658999103, ABarapapp, 0, 0, 0, 0, , 0, 0, 0, 0, 0, 
78, 1, 78, 78, 8100, 5.7180403869654, 2.636517491565913, 6.068567356131646, 1.4712937000235367, ABprpapap, 0, 0, 0, 0, , 0, 0, 0, 0, 0, 
249, 1, 249, 249, 8101, 3.0262510856771914, -6.467919843785343, -3.221729791861719, 1.4712937000235367, ABplapapa, 0, 0, 0, 0, , 0, 0, 0, 0, 0, 
1279, 1, 1279, 1279, 8102, -10.956573800128727, 1.1251999634990337, -3.33249479416014, 1.546744658999103, ABalaapaa, 0, 0, 0, 0, , 0, 0, 0, 0, 0, 
2760, 1, 2760, 2760, 8103, 4.572435386732191, 0.20889573209563467, -2.3485861472128233, 1.6044169437333, Capaa, 0, 0, 0, 0, , 0, 0, 0, 0, 0, 
397, 1, 397, 397, 8104, -3.5384502065154066, -0.81609100791316, 7.096002323235515, 1.546744658999103, ABaraappa, 0, 0, 0, 0, , 0, 0, 0, 0, 0, 
59, 1, 59, 59, 8105, 10.150484954582678, -4.152791921173928, 1.0811740920011779, 1.6044169437333, Cppap, 0, 0, 0, 0, , 0, 0, 0, 0, 0, 
55, 1, 55, 55, 8106, -5.840525976329417, -2.375257284146963, -3.081824559745061, 1.4712937000235367, ABplaapap, 0, 0, 0, 0, , 0, 0, 0, 0, 0, 
344, 1, 344, 344, 8107, -2.6076341251971673, -3.4675168321651157, 6.41064566432035, 1.546744658999103, ABarappaa, 0, 0, 0, 0, , 0, 0, 0, 0, 0, 
3078, 1, 3078, 3078, 8108, -2.578442400313449, 1.703011661021686, 0.8459831645940018, 1.395842741047971, MSppaaa, 0, 0, 0, 0, , 0, 0, 0, 0, 0, 
